\relax 
\ifx\hyper@anchor\@undefined
\global \let \oldcontentsline\contentsline
\gdef \contentsline#1#2#3#4{\oldcontentsline{#1}{#2}{#3}}
\global \let \oldnewlabel\newlabel
\gdef \newlabel#1#2{\newlabelxx{#1}#2}
\gdef \newlabelxx#1#2#3#4#5#6{\oldnewlabel{#1}{{#2}{#3}}}
\AtEndDocument{\let \contentsline\oldcontentsline
\let \newlabel\oldnewlabel}
\else
\global \let \hyper@last\relax 
\fi

\@writefile{toc}{\contentsline {section}{\numberline {1}Main Page}{1}{section.1}}
\newlabel{index}{{1}{1}{Main Page\relax }{section.1}{}}
\@writefile{toc}{\contentsline {subsection}{\numberline {1.1}Inputs}{1}{subsection.1.1}}
\newlabel{index_Inputs}{{1.1}{1}{Inputs\relax }{subsection.1.1}{}}
\@writefile{toc}{\contentsline {subsubsection}{\numberline {1.1.1}Pace2}{1}{subsubsection.1.1.1}}
\newlabel{index_Pace2}{{1.1.1}{1}{Pace2\relax }{subsubsection.1.1.1}{}}
\@writefile{lof}{\contentsline {figure}{\numberline {1}{\ignorespaces Cross sections obtained with {\ttfamily  Pace} from 120 MeV to 175 MeV of the beam energy}}{2}{figure.1}}
\@writefile{toc}{\contentsline {subsubsection}{\numberline {1.1.2}Gammapace}{2}{subsubsection.1.1.2}}
\newlabel{index_Gammapace}{{1.1.2}{2}{Gammapace\relax }{subsubsection.1.1.2}{}}
\@writefile{toc}{\contentsline {subsubsection}{\numberline {1.1.3}Gamble and enerord}{3}{subsubsection.1.1.3}}
\newlabel{index_Gamble}{{1.1.3}{3}{Gamble and enerord\relax }{subsubsection.1.1.3}{}}
\@writefile{toc}{\contentsline {subsubsection}{\numberline {1.1.4}Gasp}{5}{subsubsection.1.1.4}}
\newlabel{index_Gasp}{{1.1.4}{5}{Gasp\relax }{subsubsection.1.1.4}{}}
\@writefile{toc}{\contentsline {subsection}{\numberline {1.2}Analysis}{6}{subsection.1.2}}
\newlabel{index_Analysis}{{1.2}{6}{Analysis\relax }{subsection.1.2}{}}
\@writefile{toc}{\contentsline {subsubsection}{\numberline {1.2.1}The EMHK file}{6}{subsubsection.1.2.1}}
\newlabel{index_EMHk}{{1.2.1}{6}{The EMHK file\relax }{subsubsection.1.2.1}{}}
\@writefile{toc}{\contentsline {subsubsection}{\numberline {1.2.2}Matrix and projections}{6}{subsubsection.1.2.2}}
\newlabel{index_matrix}{{1.2.2}{6}{Matrix and projections\relax }{subsubsection.1.2.2}{}}
\@writefile{toc}{\contentsline {subsubsection}{\numberline {1.2.3}(I,E) selection}{7}{subsubsection.1.2.3}}
\newlabel{index_selection}{{1.2.3}{7}{(I,E) selection\relax }{subsubsection.1.2.3}{}}
\@writefile{toc}{\contentsline {section}{\numberline {2}Class Documentation}{7}{section.2}}
\@writefile{toc}{\contentsline {subsection}{\numberline {2.1}ILUnfoldingProcedure Class Reference}{7}{subsection.2.1}}
\newlabel{classILUnfoldingProcedure}{{2.1}{7}{ILUnfoldingProcedure Class Reference\relax }{subsection.2.1}{}}
\newlabel{classILUnfoldingProcedure_a6d73e340fe1c5b166f349a17312bd4b1}{{2.1}{7}{Public Member Functions\relax }{section*.2}{}}
\newlabel{classILUnfoldingProcedure_a31cb5cb6530f58c534a293167faba05d}{{2.1}{7}{Public Member Functions\relax }{section*.2}{}}
\@writefile{toc}{\contentsline {subsection}{\numberline {2.2}MatrixPrint Class Reference}{7}{subsection.2.2}}
\newlabel{classMatrixPrint}{{2.2}{7}{MatrixPrint Class Reference\relax }{subsection.2.2}{}}
\newlabel{classMatrixPrint_a45409caf23cf36028cf6affc799305fc}{{2.2}{7}{Public Member Functions\relax }{section*.3}{}}
\newlabel{classMatrixPrint_ae4be751c186d12954e6f0c9522a85b10}{{2.2}{7}{Public Member Functions\relax }{section*.3}{}}
\@writefile{toc}{\contentsline {subsubsection}{\numberline {2.2.1}Detailed Description}{7}{subsubsection.2.2.1}}
\@writefile{toc}{\contentsline {subsubsection}{\numberline {2.2.2}Member Function Documentation}{8}{subsubsection.2.2.2}}
\@writefile{toc}{\contentsline {paragraph}{\numberline {2.2.2.1}print2D}{8}{paragraph.2.2.2.1}}
\newlabel{classMatrixPrint_a2efee1d4f0d2e2b72ef504e94df2bbcb}{{2.2.2.1}{8}{print2D\relax }{paragraph.2.2.2.1}{}}
\@writefile{toc}{\contentsline {subsection}{\numberline {2.3}MomentsDist Class Reference}{8}{subsection.2.3}}
\newlabel{classMomentsDist}{{2.3}{8}{MomentsDist Class Reference\relax }{subsection.2.3}{}}
\newlabel{classMomentsDist_a7be0f2691564cfe3d25e9954854f022d}{{2.3}{8}{Public Member Functions\relax }{section*.4}{}}
\newlabel{classMomentsDist_a38703a7861046f8cf50f553aef35b7e2}{{2.3}{8}{Public Member Functions\relax }{section*.4}{}}
\@writefile{toc}{\contentsline {subsection}{\numberline {2.4}MomentsDistNormal Class Reference}{8}{subsection.2.4}}
\newlabel{classMomentsDistNormal}{{2.4}{8}{MomentsDistNormal Class Reference\relax }{subsection.2.4}{}}
\newlabel{classMomentsDistNormal_ae6f704543386f8597da337282f529420}{{2.4}{8}{Public Member Functions\relax }{section*.5}{}}
\newlabel{classMomentsDistNormal_aafeabf7d6e46b9cf77776fdb991b84dc}{{2.4}{8}{Public Member Functions\relax }{section*.5}{}}
\newlabel{classMomentsDistNormal_ab64bff1ea8400382208c573d73b3b033}{{2.4}{8}{Public Member Functions\relax }{section*.5}{}}
\newlabel{classMomentsDistNormal_ada66ba8192ea6910d7fd14ebb79fc8e1}{{2.4}{8}{Public Member Functions\relax }{section*.5}{}}
\@writefile{toc}{\contentsline {subsection}{\numberline {2.5}MtxNorm Class Reference}{9}{subsection.2.5}}
\newlabel{classMtxNorm}{{2.5}{9}{MtxNorm Class Reference\relax }{subsection.2.5}{}}
\newlabel{classMtxNorm_aee9486a3db8b4b31d54df43112de70b7}{{2.5}{9}{Public Member Functions\relax }{section*.6}{}}
\newlabel{classMtxNorm_ab4b6885fb4583385bcbf3b82f2010c1b}{{2.5}{9}{Public Member Functions\relax }{section*.6}{}}
\newlabel{classMtxNorm_a0ab9f6473e8e5ad89b411c79f697cca9}{{2.5}{9}{Public Member Functions\relax }{section*.6}{}}
\newlabel{classMtxNorm_ad871e96dba94e47476f546a987702429}{{2.5}{9}{Public Member Functions\relax }{section*.6}{}}
\@writefile{toc}{\contentsline {subsection}{\numberline {2.6}ReadEventFile Class Reference}{9}{subsection.2.6}}
\newlabel{classReadEventFile}{{2.6}{9}{ReadEventFile Class Reference\relax }{subsection.2.6}{}}
\newlabel{classReadEventFile_acb33d6a1d57ea8c49e6d59cb4044f98e}{{2.6}{9}{Public Member Functions\relax }{section*.7}{}}
\newlabel{classReadEventFile_a88652bcbc6ad0913bbe6db6669a1be96}{{2.6}{9}{Public Member Functions\relax }{section*.7}{}}
\@writefile{toc}{\contentsline {subsubsection}{\numberline {2.6.1}Detailed Description}{9}{subsubsection.2.6.1}}
\@writefile{toc}{\contentsline {subsubsection}{\numberline {2.6.2}Member Function Documentation}{9}{subsubsection.2.6.2}}
\@writefile{toc}{\contentsline {paragraph}{\numberline {2.6.2.1}EventAnalysis}{9}{paragraph.2.6.2.1}}
\newlabel{classReadEventFile_acc902f43185b6bba17729d4e3eb79713}{{2.6.2.1}{9}{EventAnalysis\relax }{paragraph.2.6.2.1}{}}
\@writefile{lof}{\contentsline {figure}{\numberline {2}{\ignorespaces The format of the output file}}{10}{figure.2}}
\@writefile{toc}{\contentsline {paragraph}{\numberline {2.6.2.2}NeutronEventAnalysis}{11}{paragraph.2.6.2.2}}
\newlabel{classReadEventFile_ad2df71e5008f434158f3b15a7f451581}{{2.6.2.2}{11}{NeutronEventAnalysis\relax }{paragraph.2.6.2.2}{}}
\@writefile{toc}{\contentsline {paragraph}{\numberline {2.6.2.3}search\_\discretionary {-}{}{}}{11}{paragraph.2.6.2.3}}
\newlabel{classReadEventFile_ada584e7860f11e4e11729f9a655dddf2}{{2.6.2.3}{11}{search\_\-\relax }{paragraph.2.6.2.3}{}}
\@writefile{toc}{\contentsline {subsection}{\numberline {2.7}RegionHK Class Reference}{11}{subsection.2.7}}
\newlabel{classRegionHK}{{2.7}{11}{RegionHK Class Reference\relax }{subsection.2.7}{}}
\newlabel{classRegionHK_a1b4072441f234f86c915d343bde3b1a4}{{2.7}{11}{Public Member Functions\relax }{section*.8}{}}
\newlabel{classRegionHK_a68a7d2e7b3d877379b501af5fd2b7ec3}{{2.7}{11}{Public Member Functions\relax }{section*.8}{}}
\@writefile{toc}{\contentsline {subsection}{\numberline {2.8}RegionHk Class Reference}{11}{subsection.2.8}}
\newlabel{classRegionHk}{{2.8}{11}{RegionHk Class Reference\relax }{subsection.2.8}{}}
\@writefile{toc}{\contentsline {subsubsection}{\numberline {2.8.1}Detailed Description}{12}{subsubsection.2.8.1}}
\@writefile{toc}{\contentsline {section}{\numberline {3}File Documentation}{12}{section.3}}
\@writefile{toc}{\contentsline {subsection}{\numberline {3.1}Analysis/trunk/main.cpp File Reference}{12}{subsection.3.1}}
\newlabel{Analysis_2trunk_2main_8cpp}{{3.1}{12}{Analysis/trunk/main.cpp File Reference\relax }{subsection.3.1}{}}
\@writefile{toc}{\contentsline {subsubsection}{\numberline {3.1.1}Detailed Description}{12}{subsubsection.3.1.1}}
\@writefile{toc}{\contentsline {subsubsection}{\numberline {3.1.2}Function Documentation}{12}{subsubsection.3.1.2}}
\@writefile{toc}{\contentsline {paragraph}{\numberline {3.1.2.1}main}{12}{paragraph.3.1.2.1}}
\newlabel{Analysis_2trunk_2main_8cpp_ae0665038b72011f5c680c660fcb59459}{{3.1.2.1}{12}{main\relax }{paragraph.3.1.2.1}{}}
\@writefile{toc}{\contentsline {subsection}{\numberline {3.2}Analysis/trunk/MatrixPrint.cpp File Reference}{13}{subsection.3.2}}
\newlabel{Analysis_2trunk_2MatrixPrint_8cpp}{{3.2}{13}{Analysis/trunk/MatrixPrint.cpp File Reference\relax }{subsection.3.2}{}}
\@writefile{toc}{\contentsline {subsubsection}{\numberline {3.2.1}Detailed Description}{13}{subsubsection.3.2.1}}
\@writefile{toc}{\contentsline {subsection}{\numberline {3.3}Analysis/trunk/MatrixPrint.h File Reference}{13}{subsection.3.3}}
\newlabel{Analysis_2trunk_2MatrixPrint_8h}{{3.3}{13}{Analysis/trunk/MatrixPrint.h File Reference\relax }{subsection.3.3}{}}
\@writefile{toc}{\contentsline {subsubsection}{\numberline {3.3.1}Detailed Description}{13}{subsubsection.3.3.1}}
\@writefile{toc}{\contentsline {subsection}{\numberline {3.4}Analysis/trunk/ReadEventFile.cpp File Reference}{13}{subsection.3.4}}
\newlabel{ReadEventFile_8cpp}{{3.4}{13}{Analysis/trunk/ReadEventFile.cpp File Reference\relax }{subsection.3.4}{}}
\@writefile{toc}{\contentsline {subsubsection}{\numberline {3.4.1}Detailed Description}{14}{subsubsection.3.4.1}}
\@writefile{toc}{\contentsline {subsection}{\numberline {3.5}Analysis/trunk/ReadEventFile.h File Reference}{14}{subsection.3.5}}
\newlabel{ReadEventFile_8h}{{3.5}{14}{Analysis/trunk/ReadEventFile.h File Reference\relax }{subsection.3.5}{}}
\@writefile{toc}{\contentsline {subsubsection}{\numberline {3.5.1}Detailed Description}{14}{subsubsection.3.5.1}}
\@writefile{toc}{\contentsline {subsection}{\numberline {3.6}Analysis/trunk/Region.cpp File Reference}{14}{subsection.3.6}}
\newlabel{Region_8cpp}{{3.6}{14}{Analysis/trunk/Region.cpp File Reference\relax }{subsection.3.6}{}}
\@writefile{toc}{\contentsline {subsubsection}{\numberline {3.6.1}Detailed Description}{14}{subsubsection.3.6.1}}
\@writefile{toc}{\contentsline {subsection}{\numberline {3.7}Analysis/trunk/Region.h File Reference}{15}{subsection.3.7}}
\newlabel{Region_8h}{{3.7}{15}{Analysis/trunk/Region.h File Reference\relax }{subsection.3.7}{}}
\@writefile{toc}{\contentsline {subsubsection}{\numberline {3.7.1}Detailed Description}{15}{subsubsection.3.7.1}}
\@writefile{toc}{\contentsline {subsection}{\numberline {3.8}IO\_\discretionary {-}{}{}files/154Dy\_\discretionary {-}{}{}148MeV\_\discretionary {-}{}{}gammapace.out File Reference}{15}{subsection.3.8}}
\newlabel{154Dy__148MeV__gammapace_8out}{{3.8}{15}{IO\_\-files/154Dy\_\-148MeV\_\-gammapace.out File Reference\relax }{subsection.3.8}{}}
\@writefile{toc}{\contentsline {subsubsection}{\numberline {3.8.1}Detailed Description}{15}{subsubsection.3.8.1}}
\@writefile{toc}{\contentsline {subsection}{\numberline {3.9}IO\_\discretionary {-}{}{}files/154Dy\_\discretionary {-}{}{}148MeV\_\discretionary {-}{}{}pace.out File Reference}{17}{subsection.3.9}}
\newlabel{154Dy__148MeV__pace_8out}{{3.9}{17}{IO\_\-files/154Dy\_\-148MeV\_\-pace.out File Reference\relax }{subsection.3.9}{}}
\@writefile{toc}{\contentsline {subsubsection}{\numberline {3.9.1}Detailed Description}{18}{subsubsection.3.9.1}}
