%!PS-Adobe-2.0 EPSF-2.0
%%Title: 207Bi_1_50.ps
%%Creator: gnuplot 4.2 patchlevel 0
%%CreationDate: Thu Oct  2 09:29:54 2008
%%DocumentFonts: (atend)
%%BoundingBox: 50 50 410 302
%%EndComments
%%BeginProlog
/gnudict 256 dict def
gnudict begin
%
% The following 6 true/false flags may be edited by hand if required
% The unit line width may also be changed
%
/Color true def
/Blacktext false def
/Solid true def
/Dashlength 1 def
/Landscape false def
/Level1 false def
/Rounded false def
/TransparentPatterns false def
/gnulinewidth 5.000 def
/userlinewidth gnulinewidth def
%
/vshift -70 def
/dl1 {
  10.0 Dashlength mul mul
  Rounded { currentlinewidth 0.75 mul sub dup 0 le { pop 0.01 } if } if
} def
/dl2 {
  10.0 Dashlength mul mul
  Rounded { currentlinewidth 0.75 mul add } if
} def
/hpt_ 31.5 def
/vpt_ 31.5 def
/hpt hpt_ def
/vpt vpt_ def
Level1 {} {
/SDict 10 dict def
systemdict /pdfmark known not {
  userdict /pdfmark systemdict /cleartomark get put
} if
SDict begin [
  /Title (207Bi_1_50.ps)
  /Subject (gnuplot plot)
  /Creator (gnuplot 4.2 patchlevel 0)
  /Author (,,,)
%  /Producer (gnuplot)
%  /Keywords ()
  /CreationDate (Thu Oct  2 09:29:54 2008)
  /DOCINFO pdfmark
end
} ifelse
%
% Gnuplot Prolog Version 4.2 (August 2006)
%
/M {moveto} bind def
/L {lineto} bind def
/R {rmoveto} bind def
/V {rlineto} bind def
/N {newpath moveto} bind def
/Z {closepath} bind def
/C {setrgbcolor} bind def
/f {rlineto fill} bind def
/vpt2 vpt 2 mul def
/hpt2 hpt 2 mul def
/Lshow {currentpoint stroke M 0 vshift R 
	Blacktext {gsave 0 setgray show grestore} {show} ifelse} def
/Rshow {currentpoint stroke M dup stringwidth pop neg vshift R
	Blacktext {gsave 0 setgray show grestore} {show} ifelse} def
/Cshow {currentpoint stroke M dup stringwidth pop -2 div vshift R 
	Blacktext {gsave 0 setgray show grestore} {show} ifelse} def
/UP {dup vpt_ mul /vpt exch def hpt_ mul /hpt exch def
  /hpt2 hpt 2 mul def /vpt2 vpt 2 mul def} def
/DL {Color {setrgbcolor Solid {pop []} if 0 setdash}
 {pop pop pop 0 setgray Solid {pop []} if 0 setdash} ifelse} def
/BL {stroke userlinewidth 2 mul setlinewidth
	Rounded {1 setlinejoin 1 setlinecap} if} def
/AL {stroke userlinewidth 2 div setlinewidth
	Rounded {1 setlinejoin 1 setlinecap} if} def
/UL {dup gnulinewidth mul /userlinewidth exch def
	dup 1 lt {pop 1} if 10 mul /udl exch def} def
/PL {stroke userlinewidth setlinewidth
	Rounded {1 setlinejoin 1 setlinecap} if} def
% Default Line colors
/LCw {1 1 1} def
/LCb {0 0 0} def
/LCa {0 0 0} def
/LC0 {1 0 0} def
/LC1 {0 1 0} def
/LC2 {0 0 1} def
/LC3 {1 0 1} def
/LC4 {0 1 1} def
/LC5 {1 1 0} def
/LC6 {0 0 0} def
/LC7 {1 0.3 0} def
/LC8 {0.5 0.5 0.5} def
% Default Line Types
/LTw {PL [] 1 setgray} def
/LTb {BL [] LCb DL} def
/LTa {AL [1 udl mul 2 udl mul] 0 setdash LCa setrgbcolor} def
/LT0 {PL [] LC0 DL} def
/LT1 {PL [4 dl1 2 dl2] LC1 DL} def
/LT2 {PL [2 dl1 3 dl2] LC2 DL} def
/LT3 {PL [1 dl1 1.5 dl2] LC3 DL} def
/LT4 {PL [6 dl1 2 dl2 1 dl1 2 dl2] LC4 DL} def
/LT5 {PL [3 dl1 3 dl2 1 dl1 3 dl2] LC5 DL} def
/LT6 {PL [2 dl1 2 dl2 2 dl1 6 dl2] LC6 DL} def
/LT7 {PL [1 dl1 2 dl2 6 dl1 2 dl2 1 dl1 2 dl2] LC7 DL} def
/LT8 {PL [2 dl1 2 dl2 2 dl1 2 dl2 2 dl1 2 dl2 2 dl1 4 dl2] LC8 DL} def
/Pnt {stroke [] 0 setdash gsave 1 setlinecap M 0 0 V stroke grestore} def
/Dia {stroke [] 0 setdash 2 copy vpt add M
  hpt neg vpt neg V hpt vpt neg V
  hpt vpt V hpt neg vpt V closepath stroke
  Pnt} def
/Pls {stroke [] 0 setdash vpt sub M 0 vpt2 V
  currentpoint stroke M
  hpt neg vpt neg R hpt2 0 V stroke
 } def
/Box {stroke [] 0 setdash 2 copy exch hpt sub exch vpt add M
  0 vpt2 neg V hpt2 0 V 0 vpt2 V
  hpt2 neg 0 V closepath stroke
  Pnt} def
/Crs {stroke [] 0 setdash exch hpt sub exch vpt add M
  hpt2 vpt2 neg V currentpoint stroke M
  hpt2 neg 0 R hpt2 vpt2 V stroke} def
/TriU {stroke [] 0 setdash 2 copy vpt 1.12 mul add M
  hpt neg vpt -1.62 mul V
  hpt 2 mul 0 V
  hpt neg vpt 1.62 mul V closepath stroke
  Pnt} def
/Star {2 copy Pls Crs} def
/BoxF {stroke [] 0 setdash exch hpt sub exch vpt add M
  0 vpt2 neg V hpt2 0 V 0 vpt2 V
  hpt2 neg 0 V closepath fill} def
/TriUF {stroke [] 0 setdash vpt 1.12 mul add M
  hpt neg vpt -1.62 mul V
  hpt 2 mul 0 V
  hpt neg vpt 1.62 mul V closepath fill} def
/TriD {stroke [] 0 setdash 2 copy vpt 1.12 mul sub M
  hpt neg vpt 1.62 mul V
  hpt 2 mul 0 V
  hpt neg vpt -1.62 mul V closepath stroke
  Pnt} def
/TriDF {stroke [] 0 setdash vpt 1.12 mul sub M
  hpt neg vpt 1.62 mul V
  hpt 2 mul 0 V
  hpt neg vpt -1.62 mul V closepath fill} def
/DiaF {stroke [] 0 setdash vpt add M
  hpt neg vpt neg V hpt vpt neg V
  hpt vpt V hpt neg vpt V closepath fill} def
/Pent {stroke [] 0 setdash 2 copy gsave
  translate 0 hpt M 4 {72 rotate 0 hpt L} repeat
  closepath stroke grestore Pnt} def
/PentF {stroke [] 0 setdash gsave
  translate 0 hpt M 4 {72 rotate 0 hpt L} repeat
  closepath fill grestore} def
/Circle {stroke [] 0 setdash 2 copy
  hpt 0 360 arc stroke Pnt} def
/CircleF {stroke [] 0 setdash hpt 0 360 arc fill} def
/C0 {BL [] 0 setdash 2 copy moveto vpt 90 450 arc} bind def
/C1 {BL [] 0 setdash 2 copy moveto
	2 copy vpt 0 90 arc closepath fill
	vpt 0 360 arc closepath} bind def
/C2 {BL [] 0 setdash 2 copy moveto
	2 copy vpt 90 180 arc closepath fill
	vpt 0 360 arc closepath} bind def
/C3 {BL [] 0 setdash 2 copy moveto
	2 copy vpt 0 180 arc closepath fill
	vpt 0 360 arc closepath} bind def
/C4 {BL [] 0 setdash 2 copy moveto
	2 copy vpt 180 270 arc closepath fill
	vpt 0 360 arc closepath} bind def
/C5 {BL [] 0 setdash 2 copy moveto
	2 copy vpt 0 90 arc
	2 copy moveto
	2 copy vpt 180 270 arc closepath fill
	vpt 0 360 arc} bind def
/C6 {BL [] 0 setdash 2 copy moveto
	2 copy vpt 90 270 arc closepath fill
	vpt 0 360 arc closepath} bind def
/C7 {BL [] 0 setdash 2 copy moveto
	2 copy vpt 0 270 arc closepath fill
	vpt 0 360 arc closepath} bind def
/C8 {BL [] 0 setdash 2 copy moveto
	2 copy vpt 270 360 arc closepath fill
	vpt 0 360 arc closepath} bind def
/C9 {BL [] 0 setdash 2 copy moveto
	2 copy vpt 270 450 arc closepath fill
	vpt 0 360 arc closepath} bind def
/C10 {BL [] 0 setdash 2 copy 2 copy moveto vpt 270 360 arc closepath fill
	2 copy moveto
	2 copy vpt 90 180 arc closepath fill
	vpt 0 360 arc closepath} bind def
/C11 {BL [] 0 setdash 2 copy moveto
	2 copy vpt 0 180 arc closepath fill
	2 copy moveto
	2 copy vpt 270 360 arc closepath fill
	vpt 0 360 arc closepath} bind def
/C12 {BL [] 0 setdash 2 copy moveto
	2 copy vpt 180 360 arc closepath fill
	vpt 0 360 arc closepath} bind def
/C13 {BL [] 0 setdash 2 copy moveto
	2 copy vpt 0 90 arc closepath fill
	2 copy moveto
	2 copy vpt 180 360 arc closepath fill
	vpt 0 360 arc closepath} bind def
/C14 {BL [] 0 setdash 2 copy moveto
	2 copy vpt 90 360 arc closepath fill
	vpt 0 360 arc} bind def
/C15 {BL [] 0 setdash 2 copy vpt 0 360 arc closepath fill
	vpt 0 360 arc closepath} bind def
/Rec {newpath 4 2 roll moveto 1 index 0 rlineto 0 exch rlineto
	neg 0 rlineto closepath} bind def
/Square {dup Rec} bind def
/Bsquare {vpt sub exch vpt sub exch vpt2 Square} bind def
/S0 {BL [] 0 setdash 2 copy moveto 0 vpt rlineto BL Bsquare} bind def
/S1 {BL [] 0 setdash 2 copy vpt Square fill Bsquare} bind def
/S2 {BL [] 0 setdash 2 copy exch vpt sub exch vpt Square fill Bsquare} bind def
/S3 {BL [] 0 setdash 2 copy exch vpt sub exch vpt2 vpt Rec fill Bsquare} bind def
/S4 {BL [] 0 setdash 2 copy exch vpt sub exch vpt sub vpt Square fill Bsquare} bind def
/S5 {BL [] 0 setdash 2 copy 2 copy vpt Square fill
	exch vpt sub exch vpt sub vpt Square fill Bsquare} bind def
/S6 {BL [] 0 setdash 2 copy exch vpt sub exch vpt sub vpt vpt2 Rec fill Bsquare} bind def
/S7 {BL [] 0 setdash 2 copy exch vpt sub exch vpt sub vpt vpt2 Rec fill
	2 copy vpt Square fill Bsquare} bind def
/S8 {BL [] 0 setdash 2 copy vpt sub vpt Square fill Bsquare} bind def
/S9 {BL [] 0 setdash 2 copy vpt sub vpt vpt2 Rec fill Bsquare} bind def
/S10 {BL [] 0 setdash 2 copy vpt sub vpt Square fill 2 copy exch vpt sub exch vpt Square fill
	Bsquare} bind def
/S11 {BL [] 0 setdash 2 copy vpt sub vpt Square fill 2 copy exch vpt sub exch vpt2 vpt Rec fill
	Bsquare} bind def
/S12 {BL [] 0 setdash 2 copy exch vpt sub exch vpt sub vpt2 vpt Rec fill Bsquare} bind def
/S13 {BL [] 0 setdash 2 copy exch vpt sub exch vpt sub vpt2 vpt Rec fill
	2 copy vpt Square fill Bsquare} bind def
/S14 {BL [] 0 setdash 2 copy exch vpt sub exch vpt sub vpt2 vpt Rec fill
	2 copy exch vpt sub exch vpt Square fill Bsquare} bind def
/S15 {BL [] 0 setdash 2 copy Bsquare fill Bsquare} bind def
/D0 {gsave translate 45 rotate 0 0 S0 stroke grestore} bind def
/D1 {gsave translate 45 rotate 0 0 S1 stroke grestore} bind def
/D2 {gsave translate 45 rotate 0 0 S2 stroke grestore} bind def
/D3 {gsave translate 45 rotate 0 0 S3 stroke grestore} bind def
/D4 {gsave translate 45 rotate 0 0 S4 stroke grestore} bind def
/D5 {gsave translate 45 rotate 0 0 S5 stroke grestore} bind def
/D6 {gsave translate 45 rotate 0 0 S6 stroke grestore} bind def
/D7 {gsave translate 45 rotate 0 0 S7 stroke grestore} bind def
/D8 {gsave translate 45 rotate 0 0 S8 stroke grestore} bind def
/D9 {gsave translate 45 rotate 0 0 S9 stroke grestore} bind def
/D10 {gsave translate 45 rotate 0 0 S10 stroke grestore} bind def
/D11 {gsave translate 45 rotate 0 0 S11 stroke grestore} bind def
/D12 {gsave translate 45 rotate 0 0 S12 stroke grestore} bind def
/D13 {gsave translate 45 rotate 0 0 S13 stroke grestore} bind def
/D14 {gsave translate 45 rotate 0 0 S14 stroke grestore} bind def
/D15 {gsave translate 45 rotate 0 0 S15 stroke grestore} bind def
/DiaE {stroke [] 0 setdash vpt add M
  hpt neg vpt neg V hpt vpt neg V
  hpt vpt V hpt neg vpt V closepath stroke} def
/BoxE {stroke [] 0 setdash exch hpt sub exch vpt add M
  0 vpt2 neg V hpt2 0 V 0 vpt2 V
  hpt2 neg 0 V closepath stroke} def
/TriUE {stroke [] 0 setdash vpt 1.12 mul add M
  hpt neg vpt -1.62 mul V
  hpt 2 mul 0 V
  hpt neg vpt 1.62 mul V closepath stroke} def
/TriDE {stroke [] 0 setdash vpt 1.12 mul sub M
  hpt neg vpt 1.62 mul V
  hpt 2 mul 0 V
  hpt neg vpt -1.62 mul V closepath stroke} def
/PentE {stroke [] 0 setdash gsave
  translate 0 hpt M 4 {72 rotate 0 hpt L} repeat
  closepath stroke grestore} def
/CircE {stroke [] 0 setdash 
  hpt 0 360 arc stroke} def
/Opaque {gsave closepath 1 setgray fill grestore 0 setgray closepath} def
/DiaW {stroke [] 0 setdash vpt add M
  hpt neg vpt neg V hpt vpt neg V
  hpt vpt V hpt neg vpt V Opaque stroke} def
/BoxW {stroke [] 0 setdash exch hpt sub exch vpt add M
  0 vpt2 neg V hpt2 0 V 0 vpt2 V
  hpt2 neg 0 V Opaque stroke} def
/TriUW {stroke [] 0 setdash vpt 1.12 mul add M
  hpt neg vpt -1.62 mul V
  hpt 2 mul 0 V
  hpt neg vpt 1.62 mul V Opaque stroke} def
/TriDW {stroke [] 0 setdash vpt 1.12 mul sub M
  hpt neg vpt 1.62 mul V
  hpt 2 mul 0 V
  hpt neg vpt -1.62 mul V Opaque stroke} def
/PentW {stroke [] 0 setdash gsave
  translate 0 hpt M 4 {72 rotate 0 hpt L} repeat
  Opaque stroke grestore} def
/CircW {stroke [] 0 setdash 
  hpt 0 360 arc Opaque stroke} def
/BoxFill {gsave Rec 1 setgray fill grestore} def
/Density {
  /Fillden exch def
  currentrgbcolor
  /ColB exch def /ColG exch def /ColR exch def
  /ColR ColR Fillden mul Fillden sub 1 add def
  /ColG ColG Fillden mul Fillden sub 1 add def
  /ColB ColB Fillden mul Fillden sub 1 add def
  ColR ColG ColB setrgbcolor} def
/BoxColFill {gsave Rec PolyFill} def
/PolyFill {gsave Density fill grestore grestore} def
/h {rlineto rlineto rlineto gsave fill grestore} bind def
%
% PostScript Level 1 Pattern Fill routine for rectangles
% Usage: x y w h s a XX PatternFill
%	x,y = lower left corner of box to be filled
%	w,h = width and height of box
%	  a = angle in degrees between lines and x-axis
%	 XX = 0/1 for no/yes cross-hatch
%
/PatternFill {gsave /PFa [ 9 2 roll ] def
  PFa 0 get PFa 2 get 2 div add PFa 1 get PFa 3 get 2 div add translate
  PFa 2 get -2 div PFa 3 get -2 div PFa 2 get PFa 3 get Rec
  gsave 1 setgray fill grestore clip
  currentlinewidth 0.5 mul setlinewidth
  /PFs PFa 2 get dup mul PFa 3 get dup mul add sqrt def
  0 0 M PFa 5 get rotate PFs -2 div dup translate
  0 1 PFs PFa 4 get div 1 add floor cvi
	{PFa 4 get mul 0 M 0 PFs V} for
  0 PFa 6 get ne {
	0 1 PFs PFa 4 get div 1 add floor cvi
	{PFa 4 get mul 0 2 1 roll M PFs 0 V} for
 } if
  stroke grestore} def
%
/languagelevel where
 {pop languagelevel} {1} ifelse
 2 lt
	{/InterpretLevel1 true def}
	{/InterpretLevel1 Level1 def}
 ifelse
%
% PostScript level 2 pattern fill definitions
%
/Level2PatternFill {
/Tile8x8 {/PaintType 2 /PatternType 1 /TilingType 1 /BBox [0 0 8 8] /XStep 8 /YStep 8}
	bind def
/KeepColor {currentrgbcolor [/Pattern /DeviceRGB] setcolorspace} bind def
<< Tile8x8
 /PaintProc {0.5 setlinewidth pop 0 0 M 8 8 L 0 8 M 8 0 L stroke} 
>> matrix makepattern
/Pat1 exch def
<< Tile8x8
 /PaintProc {0.5 setlinewidth pop 0 0 M 8 8 L 0 8 M 8 0 L stroke
	0 4 M 4 8 L 8 4 L 4 0 L 0 4 L stroke}
>> matrix makepattern
/Pat2 exch def
<< Tile8x8
 /PaintProc {0.5 setlinewidth pop 0 0 M 0 8 L
	8 8 L 8 0 L 0 0 L fill}
>> matrix makepattern
/Pat3 exch def
<< Tile8x8
 /PaintProc {0.5 setlinewidth pop -4 8 M 8 -4 L
	0 12 M 12 0 L stroke}
>> matrix makepattern
/Pat4 exch def
<< Tile8x8
 /PaintProc {0.5 setlinewidth pop -4 0 M 8 12 L
	0 -4 M 12 8 L stroke}
>> matrix makepattern
/Pat5 exch def
<< Tile8x8
 /PaintProc {0.5 setlinewidth pop -2 8 M 4 -4 L
	0 12 M 8 -4 L 4 12 M 10 0 L stroke}
>> matrix makepattern
/Pat6 exch def
<< Tile8x8
 /PaintProc {0.5 setlinewidth pop -2 0 M 4 12 L
	0 -4 M 8 12 L 4 -4 M 10 8 L stroke}
>> matrix makepattern
/Pat7 exch def
<< Tile8x8
 /PaintProc {0.5 setlinewidth pop 8 -2 M -4 4 L
	12 0 M -4 8 L 12 4 M 0 10 L stroke}
>> matrix makepattern
/Pat8 exch def
<< Tile8x8
 /PaintProc {0.5 setlinewidth pop 0 -2 M 12 4 L
	-4 0 M 12 8 L -4 4 M 8 10 L stroke}
>> matrix makepattern
/Pat9 exch def
/Pattern1 {PatternBgnd KeepColor Pat1 setpattern} bind def
/Pattern2 {PatternBgnd KeepColor Pat2 setpattern} bind def
/Pattern3 {PatternBgnd KeepColor Pat3 setpattern} bind def
/Pattern4 {PatternBgnd KeepColor Landscape {Pat5} {Pat4} ifelse setpattern} bind def
/Pattern5 {PatternBgnd KeepColor Landscape {Pat4} {Pat5} ifelse setpattern} bind def
/Pattern6 {PatternBgnd KeepColor Landscape {Pat9} {Pat6} ifelse setpattern} bind def
/Pattern7 {PatternBgnd KeepColor Landscape {Pat8} {Pat7} ifelse setpattern} bind def
} def
%
%
%End of PostScript Level 2 code
%
/PatternBgnd {
  TransparentPatterns {} {gsave 1 setgray fill grestore} ifelse
} def
%
% Substitute for Level 2 pattern fill codes with
% grayscale if Level 2 support is not selected.
%
/Level1PatternFill {
/Pattern1 {0.250 Density} bind def
/Pattern2 {0.500 Density} bind def
/Pattern3 {0.750 Density} bind def
/Pattern4 {0.125 Density} bind def
/Pattern5 {0.375 Density} bind def
/Pattern6 {0.625 Density} bind def
/Pattern7 {0.875 Density} bind def
} def
%
% Now test for support of Level 2 code
%
Level1 {Level1PatternFill} {Level2PatternFill} ifelse
%
/Symbol-Oblique /Symbol findfont [1 0 .167 1 0 0] makefont
dup length dict begin {1 index /FID eq {pop pop} {def} ifelse} forall
currentdict end definefont pop
/MFshow {
   { dup 5 get 3 ge
     { 5 get 3 eq {gsave} {grestore} ifelse }
     {dup dup 0 get findfont exch 1 get scalefont setfont
     [ currentpoint ] exch dup 2 get 0 exch R dup 5 get 2 ne {dup dup 6
     get exch 4 get {show} {stringwidth pop 0 R} ifelse }if dup 5 get 0 eq
     {dup 3 get {2 get neg 0 exch R pop} {pop aload pop M} ifelse} {dup 5
     get 1 eq {dup 2 get exch dup 3 get exch 6 get stringwidth pop -2 div
     dup 0 R} {dup 6 get stringwidth pop -2 div 0 R 6 get
     show 2 index {aload pop M neg 3 -1 roll neg R pop pop} {pop pop pop
     pop aload pop M} ifelse }ifelse }ifelse }
     ifelse }
   forall} bind def
/MFwidth {0 exch { dup 5 get 3 ge { 5 get 3 eq { 0 } { pop } ifelse }
 {dup 3 get{dup dup 0 get findfont exch 1 get scalefont setfont
     6 get stringwidth pop add} {pop} ifelse} ifelse} forall} bind def
/MLshow { currentpoint stroke M
  0 exch R
  Blacktext {gsave 0 setgray MFshow grestore} {MFshow} ifelse } bind def
/MRshow { currentpoint stroke M
  exch dup MFwidth neg 3 -1 roll R
  Blacktext {gsave 0 setgray MFshow grestore} {MFshow} ifelse } bind def
/MCshow { currentpoint stroke M
  exch dup MFwidth -2 div 3 -1 roll R
  Blacktext {gsave 0 setgray MFshow grestore} {MFshow} ifelse } bind def
/XYsave    { [( ) 1 2 true false 3 ()] } bind def
/XYrestore { [( ) 1 2 true false 4 ()] } bind def
end
%%EndProlog
gnudict begin
gsave
50 50 translate
0.050 0.050 scale
0 setgray
newpath
(Helvetica) findfont 210 scalefont setfont
1.000 UL
LTb
945 630 M
63 0 V
5835 0 R
-63 0 V
stroke
819 630 M
[ [(Helvetica) 210.0 0.0 true true 0 ( 36)]
] -70.0 MRshow
1.000 UL
LTb
945 1224 M
63 0 V
5835 0 R
-63 0 V
stroke
819 1224 M
[ [(Helvetica) 210.0 0.0 true true 0 ( 38)]
] -70.0 MRshow
1.000 UL
LTb
945 1818 M
63 0 V
5835 0 R
-63 0 V
stroke
819 1818 M
[ [(Helvetica) 210.0 0.0 true true 0 ( 40)]
] -70.0 MRshow
1.000 UL
LTb
945 2412 M
63 0 V
5835 0 R
-63 0 V
stroke
819 2412 M
[ [(Helvetica) 210.0 0.0 true true 0 ( 42)]
] -70.0 MRshow
1.000 UL
LTb
945 3006 M
63 0 V
5835 0 R
-63 0 V
stroke
819 3006 M
[ [(Helvetica) 210.0 0.0 true true 0 ( 44)]
] -70.0 MRshow
1.000 UL
LTb
945 3600 M
63 0 V
5835 0 R
-63 0 V
stroke
819 3600 M
[ [(Helvetica) 210.0 0.0 true true 0 ( 46)]
] -70.0 MRshow
1.000 UL
LTb
945 4194 M
63 0 V
5835 0 R
-63 0 V
stroke
819 4194 M
[ [(Helvetica) 210.0 0.0 true true 0 ( 48)]
] -70.0 MRshow
1.000 UL
LTb
945 4788 M
63 0 V
5835 0 R
-63 0 V
stroke
819 4788 M
[ [(Helvetica) 210.0 0.0 true true 0 ( 50)]
] -70.0 MRshow
1.000 UL
LTb
945 630 M
0 63 V
0 4095 R
0 -63 V
stroke
945 420 M
[ [(Helvetica) 210.0 0.0 true true 0 ( 32)]
] -70.0 MCshow
1.000 UL
LTb
1600 630 M
0 63 V
0 4095 R
0 -63 V
stroke
1600 420 M
[ [(Helvetica) 210.0 0.0 true true 0 ( 34)]
] -70.0 MCshow
1.000 UL
LTb
2256 630 M
0 63 V
0 4095 R
0 -63 V
stroke
2256 420 M
[ [(Helvetica) 210.0 0.0 true true 0 ( 36)]
] -70.0 MCshow
1.000 UL
LTb
2911 630 M
0 63 V
0 4095 R
0 -63 V
stroke
2911 420 M
[ [(Helvetica) 210.0 0.0 true true 0 ( 38)]
] -70.0 MCshow
1.000 UL
LTb
3566 630 M
0 63 V
0 4095 R
0 -63 V
stroke
3566 420 M
[ [(Helvetica) 210.0 0.0 true true 0 ( 40)]
] -70.0 MCshow
1.000 UL
LTb
4222 630 M
0 63 V
0 4095 R
0 -63 V
stroke
4222 420 M
[ [(Helvetica) 210.0 0.0 true true 0 ( 42)]
] -70.0 MCshow
1.000 UL
LTb
4877 630 M
0 63 V
0 4095 R
0 -63 V
stroke
4877 420 M
[ [(Helvetica) 210.0 0.0 true true 0 ( 44)]
] -70.0 MCshow
1.000 UL
LTb
5532 630 M
0 63 V
0 4095 R
0 -63 V
stroke
5532 420 M
[ [(Helvetica) 210.0 0.0 true true 0 ( 46)]
] -70.0 MCshow
1.000 UL
LTb
6188 630 M
0 63 V
0 4095 R
0 -63 V
stroke
6188 420 M
[ [(Helvetica) 210.0 0.0 true true 0 ( 48)]
] -70.0 MCshow
1.000 UL
LTb
6843 630 M
0 63 V
0 4095 R
0 -63 V
stroke
6843 420 M
[ [(Helvetica) 210.0 0.0 true true 0 ( 50)]
] -70.0 MCshow
1.000 UL
LTb
1.000 UL
LTb
945 4788 N
945 630 L
5898 0 V
0 4158 V
-5898 0 V
Z stroke
LCb setrgbcolor
210 2709 M
currentpoint gsave translate 90 rotate 0 0 moveto
[ [(Helvetica) 210.0 0.0 true true 0 (H\(MeV\))]
] -70.0 MCshow
grestore
LTb
LCb setrgbcolor
3894 105 M
[ [(Helvetica) 210.0 0.0 true true 0 (k)]
] -70.0 MCshow
LTb
1.000 UP
1.000 UL
LTb
2.000 UP
1.000 UL
LT2
/Helvetica findfont 210 scalefont setfont
5205 630 M
-3277 0 R
4222 927 M
1310 594 R
-4259 0 R
945 1818 M
1311 594 R
1928 2115 L
328 -99 V
82 99 V
-82 297 V
-983 0 R
5570 594 R
-5243 0 R
6188 4293 M
-110 -99 V
110 -99 V
109 99 V
-109 99 V
3894 4194 M
82 -297 V
-82 -50 V
-328 -9 V
3304 3600 L
-65 -297 V
-328 297 V
328 297 V
-328 0 V
-328 -74 V
2338 3600 L
-82 -99 V
2092 3303 L
164 -148 V
327 -90 V
164 -59 V
2630 2709 L
-47 -59 V
-163 59 V
-164 99 V
-110 -99 V
110 -297 V
1928 2115 L
0 -297 V
1710 1521 L
218 -198 V
328 198 V
327 -148 V
328 0 V
109 -149 V
219 -198 V
327 -99 V
328 198 V
164 99 V
164 297 V
327 0 V
328 74 V
246 223 V
-49 297 V
131 297 V
327 0 V
328 198 V
164 99 V
-164 149 V
-82 148 V
82 149 V
328 148 V
327 297 V
6188 3303 L
-164 297 V
-164 149 V
-164 148 V
-164 99 V
-327 50 V
-328 -50 V
-328 99 V
-109 99 V
-218 198 V
3894 4194 L
2256 2709 M
2621 743 R
4549 3303 L
164 -297 V
164 -74 V
109 74 V
-27 297 V
-82 149 V
2583 3749 M
2420 3600 L
2256 3402 L
-82 -99 V
82 -74 V
327 -104 V
246 178 V
-27 297 V
-219 149 V
3605 445 R
-1966 99 R
-164 -99 V
0 -297 V
-164 -99 V
-328 -20 V
3370 3600 L
196 -297 V
3239 3155 L
2911 3006 L
2677 2709 L
-94 -119 V
2338 2412 L
82 -297 V
2256 1917 L
-164 -99 V
1928 1670 L
1819 1521 L
109 -99 V
164 99 V
164 149 V
164 -149 V
163 -74 V
328 74 V
218 -297 V
110 -99 V
327 -99 V
328 198 V
246 297 V
82 297 V
327 -238 V
328 90 V
164 148 V
-33 297 V
-131 198 V
-328 99 V
328 74 V
328 223 V
327 0 V
328 0 V
-164 297 V
164 297 V
0 297 V
-328 297 V
-327 0 V
-328 0 V
-328 99 V
-218 198 V
-109 99 V
2583 3600 M
2420 3303 L
163 -59 V
82 59 V
-82 297 V
1639 297 R
3894 3699 L
-328 -40 V
-65 -59 V
65 -99 V
94 -198 V
-94 -119 V
3321 3006 L
-82 -59 V
-328 -60 V
2771 2709 L
2583 2471 L
-82 -59 V
82 -297 V
164 297 V
164 74 V
328 -74 V
2966 2115 L
-55 -59 V
2693 1818 L
218 -198 V
164 -99 V
164 -198 V
327 -99 V
328 198 V
82 99 V
-82 149 V
-164 148 V
164 37 V
328 260 V
164 -297 V
163 -119 V
328 119 V
0 297 V
-328 149 V
-109 148 V
109 99 V
328 124 V
109 74 V
219 297 V
327 0 V
110 297 V
0 297 V
-110 99 V
-327 -99 V
-82 -297 V
82 -297 V
4877 2783 L
-328 164 V
-65 59 V
-17 297 V
82 297 V
-327 297 V
3894 1521 M
655 668 R
-163 -74 V
81 -297 V
82 -59 V
164 59 V
0 297 V
-164 74 V
-983 -41 R
-65 -33 V
65 -297 V
47 297 V
-47 33 V
2583 3303 M
2949 297 R
5205 3303 L
327 0 V
0 297 V
-1966 0 R
141 -297 V
3566 3125 L
3403 3006 L
3239 2887 L
-328 -59 V
-94 -119 V
2583 2412 L
328 149 V
328 -75 V
36 -74 V
-36 -59 V
3020 2115 L
2911 1996 L
2747 1818 L
164 -148 V
246 -149 V
82 -99 V
164 99 V
163 297 V
328 74 V
281 223 V
47 74 V
164 223 V
163 149 V
328 148 V
-328 178 V
-131 119 V
8 297 V
-204 297 V
-328 50 V
-328 -50 V
4549 2115 M
0 -297 V
0 297 V
3894 3600 M
3754 3303 L
3566 3065 L
-82 -59 V
3239 2828 L
-328 -60 V
-47 -59 V
47 -74 V
328 -74 V
72 -149 V
-72 -119 V
3075 2115 L
2911 1937 L
2802 1818 L
109 -99 V
328 -198 V
164 297 V
32 297 V
131 66 V
94 -66 V
234 -186 V
234 186 V
94 149 V
109 148 V
218 198 V
219 99 V
-219 119 V
-196 178 V
33 297 V
-164 238 V
-328 59 V
0 -198 R
-47 -99 V
3730 3006 L
3566 2709 L
-327 0 V
145 -297 V
3239 2174 L
-55 -59 V
2911 1818 L
328 149 V
65 148 V
262 132 V
188 -132 V
140 -111 V
140 111 V
188 297 V
327 297 V
4222 2412 L
-328 297 V
328 297 V
82 297 V
-82 119 V
-328 -20 V
3566 2650 M
3421 2412 L
3239 2115 L
327 165 V
234 -165 V
94 -74 V
94 74 V
-94 297 V
-328 238 V
328 653 R
0 -297 V
328 149 V
41 148 V
-41 59 V
-328 -59 V
0 -1188 R
-328 416 R
-72 -119 V
72 -66 V
164 66 V
-164 119 V
0 -60 R
-36 -59 V
36 -33 V
82 33 V
-82 59 V
5205 630 Star
1928 630 Star
4222 927 Star
5532 1521 Star
1273 1521 Star
945 1818 Star
2256 2412 Star
1928 2115 Star
2256 2016 Star
2338 2115 Star
2256 2412 Star
1273 2412 Star
6843 3006 Star
1600 3006 Star
6188 4293 Star
6078 4194 Star
6188 4095 Star
6297 4194 Star
6188 4293 Star
3894 4194 Star
3976 3897 Star
3894 3847 Star
3566 3838 Star
3304 3600 Star
3239 3303 Star
2911 3600 Star
3239 3897 Star
2911 3897 Star
2583 3823 Star
2338 3600 Star
2256 3501 Star
2092 3303 Star
2256 3155 Star
2583 3065 Star
2747 3006 Star
2630 2709 Star
2583 2650 Star
2420 2709 Star
2256 2808 Star
2146 2709 Star
2256 2412 Star
1928 2115 Star
1928 1818 Star
1710 1521 Star
1928 1323 Star
2256 1521 Star
2583 1373 Star
2911 1373 Star
3020 1224 Star
3239 1026 Star
3566 927 Star
3894 1125 Star
4058 1224 Star
4222 1521 Star
4549 1521 Star
4877 1595 Star
5123 1818 Star
5074 2115 Star
5205 2412 Star
5532 2412 Star
5860 2610 Star
6024 2709 Star
5860 2858 Star
5778 3006 Star
5860 3155 Star
6188 3303 Star
6515 3600 Star
6188 3303 Star
6024 3600 Star
5860 3749 Star
5696 3897 Star
5532 3996 Star
5205 4046 Star
4877 3996 Star
4549 4095 Star
4440 4194 Star
4222 4392 Star
3894 4194 Star
2256 2709 Star
4877 3452 Star
4549 3303 Star
4713 3006 Star
4877 2932 Star
4986 3006 Star
4959 3303 Star
4877 3452 Star
2583 3749 Star
2420 3600 Star
2256 3402 Star
2174 3303 Star
2256 3229 Star
2583 3125 Star
2829 3303 Star
2802 3600 Star
2583 3749 Star
6188 4194 Star
4222 4293 Star
4058 4194 Star
4058 3897 Star
3894 3798 Star
3566 3778 Star
3370 3600 Star
3566 3303 Star
3239 3155 Star
2911 3006 Star
2677 2709 Star
2583 2590 Star
2338 2412 Star
2420 2115 Star
2256 1917 Star
2092 1818 Star
1928 1670 Star
1819 1521 Star
1928 1422 Star
2092 1521 Star
2256 1670 Star
2420 1521 Star
2583 1447 Star
2911 1521 Star
3129 1224 Star
3239 1125 Star
3566 1026 Star
3894 1224 Star
4140 1521 Star
4222 1818 Star
4549 1580 Star
4877 1670 Star
5041 1818 Star
5008 2115 Star
4877 2313 Star
4549 2412 Star
4877 2486 Star
5205 2709 Star
5532 2709 Star
5860 2709 Star
5696 3006 Star
5860 3303 Star
5860 3600 Star
5532 3897 Star
5205 3897 Star
4877 3897 Star
4549 3996 Star
4331 4194 Star
4222 4293 Star
2583 3600 Star
2420 3303 Star
2583 3244 Star
2665 3303 Star
2583 3600 Star
4222 3897 Star
3894 3699 Star
3566 3659 Star
3501 3600 Star
3566 3501 Star
3660 3303 Star
3566 3184 Star
3321 3006 Star
3239 2947 Star
2911 2887 Star
2771 2709 Star
2583 2471 Star
2501 2412 Star
2583 2115 Star
2747 2412 Star
2911 2486 Star
3239 2412 Star
2966 2115 Star
2911 2056 Star
2693 1818 Star
2911 1620 Star
3075 1521 Star
3239 1323 Star
3566 1224 Star
3894 1422 Star
3976 1521 Star
3894 1670 Star
3730 1818 Star
3894 1855 Star
4222 2115 Star
4386 1818 Star
4549 1699 Star
4877 1818 Star
4877 2115 Star
4549 2264 Star
4440 2412 Star
4549 2511 Star
4877 2635 Star
4986 2709 Star
5205 3006 Star
5532 3006 Star
5642 3303 Star
5642 3600 Star
5532 3699 Star
5205 3600 Star
5123 3303 Star
5205 3006 Star
4877 2783 Star
4549 2947 Star
4484 3006 Star
4467 3303 Star
4549 3600 Star
4222 3897 Star
3894 1521 Star
4549 2189 Star
4386 2115 Star
4467 1818 Star
4549 1759 Star
4713 1818 Star
4713 2115 Star
4549 2189 Star
3566 2148 Star
3501 2115 Star
3566 1818 Star
3613 2115 Star
3566 2148 Star
2583 3303 Star
5532 3600 Star
5205 3303 Star
5532 3303 Star
5532 3600 Star
3566 3600 Star
3707 3303 Star
3566 3125 Star
3403 3006 Star
3239 2887 Star
2911 2828 Star
2817 2709 Star
2583 2412 Star
2911 2561 Star
3239 2486 Star
3275 2412 Star
3239 2353 Star
3020 2115 Star
2911 1996 Star
2747 1818 Star
2911 1670 Star
3157 1521 Star
3239 1422 Star
3403 1521 Star
3566 1818 Star
3894 1892 Star
4175 2115 Star
4222 2189 Star
4386 2412 Star
4549 2561 Star
4877 2709 Star
4549 2887 Star
4418 3006 Star
4426 3303 Star
4222 3600 Star
3894 3650 Star
3566 3600 Star
4549 2115 Star
4549 1818 Star
4549 2115 Star
3894 3600 Star
3754 3303 Star
3566 3065 Star
3484 3006 Star
3239 2828 Star
2911 2768 Star
2864 2709 Star
2911 2635 Star
3239 2561 Star
3311 2412 Star
3239 2293 Star
3075 2115 Star
2911 1937 Star
2802 1818 Star
2911 1719 Star
3239 1521 Star
3403 1818 Star
3435 2115 Star
3566 2181 Star
3660 2115 Star
3894 1929 Star
4128 2115 Star
4222 2264 Star
4331 2412 Star
4549 2610 Star
4768 2709 Star
4549 2828 Star
4353 3006 Star
4386 3303 Star
4222 3541 Star
3894 3600 Star
3894 3402 Star
3847 3303 Star
3730 3006 Star
3566 2709 Star
3239 2709 Star
3384 2412 Star
3239 2174 Star
3184 2115 Star
2911 1818 Star
3239 1967 Star
3304 2115 Star
3566 2247 Star
3754 2115 Star
3894 2004 Star
4034 2115 Star
4222 2412 Star
4549 2709 Star
4222 2412 Star
3894 2709 Star
4222 3006 Star
4304 3303 Star
4222 3422 Star
3894 3402 Star
3566 2650 Star
3421 2412 Star
3239 2115 Star
3566 2280 Star
3800 2115 Star
3894 2041 Star
3988 2115 Star
3894 2412 Star
3566 2650 Star
3894 3303 Star
3894 3006 Star
4222 3155 Star
4263 3303 Star
4222 3362 Star
3894 3303 Star
3894 2115 Star
3566 2531 Star
3494 2412 Star
3566 2346 Star
3730 2412 Star
3566 2531 Star
3566 2471 Star
3530 2412 Star
3566 2379 Star
3648 2412 Star
3566 2471 Star
4.000 UL
LT0
/Helvetica findfont 210 scalefont setfont
4789 1575 M
133 85 V
129 88 V
125 91 V
120 95 V
115 98 V
110 100 V
103 102 V
97 104 V
90 105 V
82 105 V
75 106 V
67 106 V
59 106 V
50 104 V
42 104 V
33 101 V
24 99 V
15 97 V
6 94 V
-3 90 V
-12 86 V
-21 83 V
-30 78 V
-39 74 V
-48 68 V
-56 63 V
-65 58 V
-72 52 V
-81 46 V
-87 40 V
-95 33 V
-101 27 V
-108 21 V
-113 14 V
-119 7 V
-123 0 V
-128 -6 V
-132 -13 V
-135 -20 V
-138 -26 V
-140 -33 V
-142 -39 V
-143 -45 V
-143 -51 V
-144 -57 V
-143 -63 V
-141 -68 V
-140 -72 V
-137 -78 V
-135 -82 V
-131 -86 V
-127 -90 V
-123 -93 V
-118 -97 V
-112 -99 V
2433 3086 L
2332 2983 L
-93 -104 V
-86 -106 V
-79 -106 V
-71 -106 V
-63 -105 V
-55 -105 V
-46 -104 V
-37 -103 V
-29 -100 V
-19 -98 V
-11 -95 V
-1 -92 V
7 -89 V
17 -84 V
26 -81 V
35 -76 V
43 -71 V
52 -66 V
60 -60 V
69 -55 V
76 -49 V
84 -43 V
91 -37 V
98 -30 V
105 -24 V
110 -17 V
116 -10 V
122 -4 V
125 3 V
130 10 V
134 16 V
137 23 V
139 29 V
141 36 V
142 42 V
143 49 V
144 54 V
143 60 V
142 65 V
141 70 V
139 76 V
136 79 V
/Helvetica findfont 210 scalefont setfont
3767 3798 M
-132 -2 V
-132 -6 V
-132 -10 V
-129 -14 V
-128 -19 V
-124 -22 V
-122 -25 V
-118 -30 V
-114 -33 V
-109 -36 V
-105 -40 V
-99 -43 V
-93 -46 V
-87 -48 V
-80 -51 V
-74 -54 V
-66 -55 V
-59 -58 V
-51 -59 V
-44 -61 V
-35 -62 V
-27 -63 V
-19 -63 V
-11 -64 V
-2 -65 V
6 -64 V
15 -64 V
23 -63 V
31 -62 V
40 -62 V
47 -60 V
55 -58 V
63 -57 V
70 -55 V
77 -52 V
84 -50 V
90 -47 V
96 -44 V
102 -42 V
107 -38 V
112 -34 V
116 -32 V
119 -27 V
124 -24 V
126 -20 V
128 -16 V
131 -13 V
132 -8 V
132 -4 V
133 0 V
132 4 V
132 8 V
130 13 V
129 16 V
126 20 V
123 24 V
120 27 V
116 32 V
112 34 V
107 38 V
102 42 V
5259 2075 L
90 47 V
84 50 V
77 52 V
70 55 V
62 57 V
56 58 V
47 60 V
39 62 V
32 62 V
23 63 V
14 64 V
7 64 V
-2 65 V
-11 64 V
-19 63 V
-27 63 V
-35 62 V
-44 61 V
-51 59 V
-59 58 V
-66 55 V
-74 54 V
-80 51 V
-87 48 V
-94 46 V
-98 43 V
-105 40 V
-109 36 V
-114 33 V
-118 30 V
-122 25 V
-125 22 V
-127 19 V
-130 14 V
-131 10 V
-132 6 V
-133 2 V
/Helvetica findfont 210 scalefont setfont
3687 1678 M
80 -11 V
81 -5 V
80 -2 V
81 2 V
80 6 V
79 11 V
77 15 V
77 18 V
74 23 V
73 26 V
70 30 V
67 34 V
65 37 V
61 41 V
57 43 V
55 47 V
50 49 V
46 53 V
41 54 V
38 57 V
32 58 V
28 60 V
23 62 V
18 63 V
14 64 V
8 64 V
2 65 V
-2 66 V
-7 65 V
-13 65 V
-17 64 V
-22 63 V
-28 62 V
-32 61 V
-36 59 V
-41 58 V
-46 55 V
-50 53 V
-53 50 V
-57 48 V
-61 45 V
-64 42 V
-67 38 V
-70 35 V
-72 32 V
-74 27 V
-76 24 V
-78 21 V
-79 16 V
-80 12 V
-80 8 V
-81 4 V
-80 -1 V
-81 -4 V
-79 -9 V
-79 -12 V
-77 -17 V
-75 -20 V
-74 -25 V
-71 -28 V
-69 -32 V
-66 -35 V
-62 -39 V
-60 -42 V
-56 -46 V
-52 -48 V
2829 3307 L
-44 -54 V
-40 -55 V
-35 -58 V
-30 -59 V
-25 -61 V
-21 -63 V
-16 -63 V
-10 -64 V
-6 -65 V
0 -65 V
5 -65 V
10 -65 V
15 -65 V
20 -64 V
25 -63 V
29 -61 V
35 -60 V
38 -58 V
44 -57 V
47 -54 V
52 -52 V
55 -49 V
59 -46 V
63 -43 V
65 -41 V
69 -36 V
71 -34 V
73 -29 V
75 -26 V
77 -22 V
78 -18 V
80 -14 V
/Helvetica findfont 210 scalefont setfont
4732 3849 M
-47 22 V
-49 18 V
-51 14 V
-53 9 V
-56 4 V
-57 0 V
-59 -5 V
-60 -9 V
-61 -14 V
-62 -18 V
-63 -22 V
-63 -27 V
-63 -31 V
-63 -35 V
-62 -38 V
-62 -43 V
-61 -46 V
-59 -49 V
-58 -53 V
-57 -55 V
-55 -58 V
-52 -61 V
-50 -63 V
-48 -65 V
-45 -67 V
-42 -68 V
-39 -70 V
-36 -70 V
-33 -71 V
-29 -71 V
-25 -72 V
-22 -71 V
-18 -71 V
-14 -70 V
-10 -68 V
-6 -68 V
-2 -66 V
2 -64 V
6 -61 V
10 -60 V
13 -56 V
18 -54 V
22 -51 V
25 -48 V
28 -44 V
33 -40 V
35 -37 V
39 -32 V
42 -29 V
45 -24 V
48 -20 V
50 -16 V
52 -11 V
55 -6 V
56 -3 V
58 3 V
60 7 V
60 11 V
62 16 V
62 20 V
63 25 V
63 29 V
63 32 V
63 37 V
62 41 V
61 44 V
60 48 V
59 51 V
58 54 V
55 57 V
54 59 V
4633 2261 L
49 64 V
47 66 V
43 68 V
41 69 V
37 70 V
35 70 V
30 72 V
28 71 V
23 71 V
20 71 V
16 71 V
12 69 V
8 68 V
4 67 V
0 65 V
-4 63 V
-8 60 V
-11 58 V
-16 56 V
-20 52 V
-23 49 V
-27 46 V
-30 42 V
-34 39 V
-38 34 V
-40 31 V
-43 26 V
/Helvetica findfont 210 scalefont setfont
4166 3518 M
-41 10 V
-43 5 V
-43 2 V
-44 -2 V
-45 -7 V
-45 -10 V
-45 -14 V
-46 -17 V
-45 -22 V
-46 -25 V
-44 -28 V
-44 -32 V
-44 -35 V
-42 -39 V
-41 -41 V
-40 -44 V
-38 -47 V
-36 -50 V
-35 -51 V
-33 -54 V
-31 -55 V
-28 -57 V
-27 -59 V
-24 -59 V
-21 -61 V
-19 -61 V
-16 -61 V
-13 -62 V
-11 -62 V
-8 -61 V
-4 -61 V
-2 -60 V
0 -58 V
4 -58 V
7 -56 V
9 -54 V
13 -53 V
15 -50 V
17 -47 V
21 -46 V
23 -42 V
25 -39 V
28 -37 V
30 -33 V
32 -30 V
34 -26 V
36 -23 V
37 -18 V
39 -16 V
41 -11 V
42 -8 V
42 -3 V
44 0 V
45 4 V
45 8 V
45 12 V
45 16 V
46 20 V
45 23 V
45 27 V
45 30 V
43 34 V
43 37 V
42 39 V
40 43 V
39 46 V
37 48 V
36 50 V
34 53 V
32 54 V
30 57 V
27 58 V
25 59 V
23 60 V
20 60 V
17 62 V
4525 2551 L
12 62 V
9 62 V
7 61 V
3 60 V
1 60 V
-3 58 V
-5 57 V
-8 55 V
-11 53 V
-14 51 V
-16 49 V
-19 47 V
-22 43 V
-24 41 V
-26 38 V
-29 35 V
-31 31 V
-33 28 V
-35 25 V
-37 21 V
-38 17 V
-40 13 V
/Helvetica findfont 210 scalefont setfont
3248 1712 M
21 -8 V
23 -4 V
25 -1 V
26 3 V
28 6 V
30 10 V
31 13 V
33 17 V
34 20 V
34 24 V
36 26 V
36 30 V
38 33 V
37 35 V
38 38 V
38 41 V
38 43 V
38 45 V
37 47 V
37 49 V
37 51 V
36 52 V
35 53 V
33 55 V
33 55 V
32 55 V
30 56 V
28 56 V
27 56 V
25 56 V
23 55 V
21 54 V
19 53 V
17 52 V
15 51 V
13 49 V
10 47 V
8 45 V
6 43 V
3 40 V
1 38 V
-2 35 V
-4 33 V
-7 29 V
-8 26 V
-12 23 V
-13 20 V
-16 17 V
-17 13 V
-20 10 V
-22 6 V
-24 2 V
-26 -1 V
-27 -4 V
-29 -9 V
-31 -11 V
-32 -15 V
-33 -19 V
-34 -21 V
-35 -25 V
-36 -29 V
-37 -31 V
-37 -34 V
-38 -37 V
-38 -39 V
-38 -42 V
-38 -44 V
-38 -46 V
-37 -48 V
-37 -50 V
-36 -52 V
-36 -52 V
-34 -54 V
-33 -55 V
-32 -55 V
-31 -56 V
-29 -56 V
-28 -56 V
-26 -56 V
-24 -55 V
-22 -55 V
3241 2304 L
-18 -52 V
-16 -51 V
-14 -50 V
-11 -48 V
-10 -46 V
-6 -44 V
-5 -42 V
-2 -39 V
1 -37 V
3 -34 V
5 -31 V
7 -27 V
10 -25 V
13 -22 V
14 -18 V
17 -15 V
19 -11 V
/Helvetica findfont 210 scalefont setfont
573 1536 R
-16 -1 V
-16 -4 V
-16 -5 V
-16 -8 V
-15 -11 V
-15 -12 V
-15 -14 V
-15 -17 V
-13 -18 V
-14 -21 V
-13 -22 V
-12 -24 V
-11 -25 V
-11 -27 V
-9 -29 V
-9 -30 V
-8 -31 V
-8 -32 V
-6 -33 V
-5 -34 V
-4 -35 V
-4 -35 V
-2 -36 V
-1 -36 V
-1 -36 V
1 -36 V
2 -35 V
3 -36 V
4 -35 V
4 -34 V
6 -33 V
7 -33 V
8 -32 V
8 -30 V
9 -30 V
11 -28 V
11 -26 V
11 -25 V
13 -23 V
13 -21 V
13 -20 V
15 -17 V
14 -15 V
15 -14 V
16 -11 V
15 -9 V
16 -7 V
16 -4 V
16 -3 V
17 0 V
16 3 V
16 4 V
16 7 V
15 9 V
16 11 V
15 14 V
14 15 V
15 17 V
13 20 V
13 21 V
13 23 V
11 25 V
11 26 V
11 28 V
9 30 V
8 30 V
8 32 V
7 33 V
6 33 V
4 34 V
4 35 V
3 36 V
2 35 V
1 36 V
-1 36 V
-1 36 V
-2 36 V
-4 35 V
-4 35 V
-5 34 V
-6 33 V
-8 32 V
-8 31 V
-9 30 V
-9 29 V
-11 27 V
3998 3091 L
-13 24 V
-12 22 V
-14 21 V
-13 18 V
-15 17 V
-15 14 V
-15 12 V
-15 11 V
-16 8 V
-16 5 V
-16 4 V
-17 1 V
/Helvetica findfont 210 scalefont setfont
3703 2431 M
-12 5 V
-12 4 V
-12 4 V
-12 4 V
-12 4 V
-12 3 V
-12 3 V
-11 2 V
-11 2 V
-11 2 V
-11 1 V
-10 1 V
-10 0 V
-9 0 V
-9 0 V
-8 -1 V
-8 -1 V
-7 -1 V
-7 -2 V
-6 -3 V
-5 -2 V
-4 -4 V
-4 -3 V
-3 -4 V
-2 -4 V
-2 -4 V
-1 -5 V
0 -5 V
1 -5 V
2 -6 V
2 -5 V
3 -6 V
4 -6 V
4 -6 V
5 -6 V
6 -7 V
7 -6 V
7 -6 V
7 -7 V
9 -6 V
8 -7 V
10 -6 V
10 -6 V
10 -6 V
10 -6 V
11 -6 V
11 -6 V
12 -5 V
12 -5 V
11 -5 V
12 -5 V
12 -4 V
12 -4 V
12 -4 V
12 -3 V
12 -3 V
12 -2 V
11 -3 V
11 -2 V
11 -1 V
10 -1 V
10 -1 V
10 0 V
9 0 V
8 1 V
8 1 V
8 1 V
7 2 V
6 2 V
5 3 V
5 2 V
4 4 V
4 3 V
2 4 V
2 5 V
1 4 V
1 5 V
-1 5 V
-1 5 V
-2 6 V
-2 6 V
-4 6 V
-4 6 V
-5 6 V
-5 6 V
-6 6 V
-7 7 V
-7 6 V
-8 7 V
-9 6 V
-9 6 V
3779 2392 L
-10 6 V
-10 6 V
-11 6 V
-11 5 V
-11 6 V
-12 5 V
-11 5 V
/Helvetica findfont 210 scalefont setfont
-128 48 R
-1 0 V
-2 0 V
-2 -1 V
-1 0 V
-2 -1 V
-2 -1 V
-1 -2 V
-2 -1 V
-1 -2 V
-2 -1 V
-1 -2 V
-1 -3 V
-2 -2 V
-1 -2 V
-1 -3 V
-1 -2 V
-1 -3 V
0 -3 V
-1 -3 V
-1 -3 V
0 -3 V
0 -3 V
-1 -3 V
0 -3 V
0 -4 V
0 -3 V
0 -3 V
1 -3 V
0 -3 V
1 -3 V
0 -3 V
1 -3 V
1 -3 V
1 -3 V
1 -2 V
1 -3 V
1 -2 V
1 -2 V
2 -2 V
1 -2 V
1 -2 V
2 -1 V
1 -2 V
2 -1 V
2 -1 V
1 -1 V
2 0 V
2 -1 V
2 0 V
1 0 V
2 0 V
2 1 V
1 0 V
2 1 V
2 1 V
1 1 V
2 2 V
1 1 V
2 2 V
1 2 V
2 2 V
1 2 V
1 2 V
1 3 V
1 2 V
1 3 V
1 3 V
1 3 V
0 3 V
1 3 V
0 3 V
0 3 V
1 3 V
0 3 V
0 4 V
0 3 V
-1 3 V
0 3 V
0 3 V
-1 3 V
-1 3 V
0 3 V
-1 3 V
-1 2 V
-1 3 V
-2 2 V
-1 2 V
-1 3 V
-1 2 V
-2 1 V
-1 2 V
-2 1 V
-1 2 V
-2 1 V
-2 1 V
-1 0 V
3579 2479 L
-2 0 V
-2 0 V
stroke
1.000 UL
LTb
945 4788 N
945 630 L
5898 0 V
0 4158 V
-5898 0 V
Z stroke
1.000 UP
1.000 UL
LTb
stroke
grestore
end
showpage
%%Trailer
%%DocumentFonts: Helvetica
