%!PS-Adobe-2.0 EPSF-2.0
%%Title: 207Bi_1_20.ps
%%Creator: gnuplot 4.2 patchlevel 0
%%CreationDate: Thu Oct  2 09:28:39 2008
%%DocumentFonts: (atend)
%%BoundingBox: 50 50 410 302
%%EndComments
%%BeginProlog
/gnudict 256 dict def
gnudict begin
%
% The following 6 true/false flags may be edited by hand if required
% The unit line width may also be changed
%
/Color true def
/Blacktext false def
/Solid true def
/Dashlength 1 def
/Landscape false def
/Level1 false def
/Rounded false def
/TransparentPatterns false def
/gnulinewidth 5.000 def
/userlinewidth gnulinewidth def
%
/vshift -70 def
/dl1 {
  10.0 Dashlength mul mul
  Rounded { currentlinewidth 0.75 mul sub dup 0 le { pop 0.01 } if } if
} def
/dl2 {
  10.0 Dashlength mul mul
  Rounded { currentlinewidth 0.75 mul add } if
} def
/hpt_ 31.5 def
/vpt_ 31.5 def
/hpt hpt_ def
/vpt vpt_ def
Level1 {} {
/SDict 10 dict def
systemdict /pdfmark known not {
  userdict /pdfmark systemdict /cleartomark get put
} if
SDict begin [
  /Title (207Bi_1_20.ps)
  /Subject (gnuplot plot)
  /Creator (gnuplot 4.2 patchlevel 0)
  /Author (,,,)
%  /Producer (gnuplot)
%  /Keywords ()
  /CreationDate (Thu Oct  2 09:28:39 2008)
  /DOCINFO pdfmark
end
} ifelse
%
% Gnuplot Prolog Version 4.2 (August 2006)
%
/M {moveto} bind def
/L {lineto} bind def
/R {rmoveto} bind def
/V {rlineto} bind def
/N {newpath moveto} bind def
/Z {closepath} bind def
/C {setrgbcolor} bind def
/f {rlineto fill} bind def
/vpt2 vpt 2 mul def
/hpt2 hpt 2 mul def
/Lshow {currentpoint stroke M 0 vshift R 
	Blacktext {gsave 0 setgray show grestore} {show} ifelse} def
/Rshow {currentpoint stroke M dup stringwidth pop neg vshift R
	Blacktext {gsave 0 setgray show grestore} {show} ifelse} def
/Cshow {currentpoint stroke M dup stringwidth pop -2 div vshift R 
	Blacktext {gsave 0 setgray show grestore} {show} ifelse} def
/UP {dup vpt_ mul /vpt exch def hpt_ mul /hpt exch def
  /hpt2 hpt 2 mul def /vpt2 vpt 2 mul def} def
/DL {Color {setrgbcolor Solid {pop []} if 0 setdash}
 {pop pop pop 0 setgray Solid {pop []} if 0 setdash} ifelse} def
/BL {stroke userlinewidth 2 mul setlinewidth
	Rounded {1 setlinejoin 1 setlinecap} if} def
/AL {stroke userlinewidth 2 div setlinewidth
	Rounded {1 setlinejoin 1 setlinecap} if} def
/UL {dup gnulinewidth mul /userlinewidth exch def
	dup 1 lt {pop 1} if 10 mul /udl exch def} def
/PL {stroke userlinewidth setlinewidth
	Rounded {1 setlinejoin 1 setlinecap} if} def
% Default Line colors
/LCw {1 1 1} def
/LCb {0 0 0} def
/LCa {0 0 0} def
/LC0 {1 0 0} def
/LC1 {0 1 0} def
/LC2 {0 0 1} def
/LC3 {1 0 1} def
/LC4 {0 1 1} def
/LC5 {1 1 0} def
/LC6 {0 0 0} def
/LC7 {1 0.3 0} def
/LC8 {0.5 0.5 0.5} def
% Default Line Types
/LTw {PL [] 1 setgray} def
/LTb {BL [] LCb DL} def
/LTa {AL [1 udl mul 2 udl mul] 0 setdash LCa setrgbcolor} def
/LT0 {PL [] LC0 DL} def
/LT1 {PL [4 dl1 2 dl2] LC1 DL} def
/LT2 {PL [2 dl1 3 dl2] LC2 DL} def
/LT3 {PL [1 dl1 1.5 dl2] LC3 DL} def
/LT4 {PL [6 dl1 2 dl2 1 dl1 2 dl2] LC4 DL} def
/LT5 {PL [3 dl1 3 dl2 1 dl1 3 dl2] LC5 DL} def
/LT6 {PL [2 dl1 2 dl2 2 dl1 6 dl2] LC6 DL} def
/LT7 {PL [1 dl1 2 dl2 6 dl1 2 dl2 1 dl1 2 dl2] LC7 DL} def
/LT8 {PL [2 dl1 2 dl2 2 dl1 2 dl2 2 dl1 2 dl2 2 dl1 4 dl2] LC8 DL} def
/Pnt {stroke [] 0 setdash gsave 1 setlinecap M 0 0 V stroke grestore} def
/Dia {stroke [] 0 setdash 2 copy vpt add M
  hpt neg vpt neg V hpt vpt neg V
  hpt vpt V hpt neg vpt V closepath stroke
  Pnt} def
/Pls {stroke [] 0 setdash vpt sub M 0 vpt2 V
  currentpoint stroke M
  hpt neg vpt neg R hpt2 0 V stroke
 } def
/Box {stroke [] 0 setdash 2 copy exch hpt sub exch vpt add M
  0 vpt2 neg V hpt2 0 V 0 vpt2 V
  hpt2 neg 0 V closepath stroke
  Pnt} def
/Crs {stroke [] 0 setdash exch hpt sub exch vpt add M
  hpt2 vpt2 neg V currentpoint stroke M
  hpt2 neg 0 R hpt2 vpt2 V stroke} def
/TriU {stroke [] 0 setdash 2 copy vpt 1.12 mul add M
  hpt neg vpt -1.62 mul V
  hpt 2 mul 0 V
  hpt neg vpt 1.62 mul V closepath stroke
  Pnt} def
/Star {2 copy Pls Crs} def
/BoxF {stroke [] 0 setdash exch hpt sub exch vpt add M
  0 vpt2 neg V hpt2 0 V 0 vpt2 V
  hpt2 neg 0 V closepath fill} def
/TriUF {stroke [] 0 setdash vpt 1.12 mul add M
  hpt neg vpt -1.62 mul V
  hpt 2 mul 0 V
  hpt neg vpt 1.62 mul V closepath fill} def
/TriD {stroke [] 0 setdash 2 copy vpt 1.12 mul sub M
  hpt neg vpt 1.62 mul V
  hpt 2 mul 0 V
  hpt neg vpt -1.62 mul V closepath stroke
  Pnt} def
/TriDF {stroke [] 0 setdash vpt 1.12 mul sub M
  hpt neg vpt 1.62 mul V
  hpt 2 mul 0 V
  hpt neg vpt -1.62 mul V closepath fill} def
/DiaF {stroke [] 0 setdash vpt add M
  hpt neg vpt neg V hpt vpt neg V
  hpt vpt V hpt neg vpt V closepath fill} def
/Pent {stroke [] 0 setdash 2 copy gsave
  translate 0 hpt M 4 {72 rotate 0 hpt L} repeat
  closepath stroke grestore Pnt} def
/PentF {stroke [] 0 setdash gsave
  translate 0 hpt M 4 {72 rotate 0 hpt L} repeat
  closepath fill grestore} def
/Circle {stroke [] 0 setdash 2 copy
  hpt 0 360 arc stroke Pnt} def
/CircleF {stroke [] 0 setdash hpt 0 360 arc fill} def
/C0 {BL [] 0 setdash 2 copy moveto vpt 90 450 arc} bind def
/C1 {BL [] 0 setdash 2 copy moveto
	2 copy vpt 0 90 arc closepath fill
	vpt 0 360 arc closepath} bind def
/C2 {BL [] 0 setdash 2 copy moveto
	2 copy vpt 90 180 arc closepath fill
	vpt 0 360 arc closepath} bind def
/C3 {BL [] 0 setdash 2 copy moveto
	2 copy vpt 0 180 arc closepath fill
	vpt 0 360 arc closepath} bind def
/C4 {BL [] 0 setdash 2 copy moveto
	2 copy vpt 180 270 arc closepath fill
	vpt 0 360 arc closepath} bind def
/C5 {BL [] 0 setdash 2 copy moveto
	2 copy vpt 0 90 arc
	2 copy moveto
	2 copy vpt 180 270 arc closepath fill
	vpt 0 360 arc} bind def
/C6 {BL [] 0 setdash 2 copy moveto
	2 copy vpt 90 270 arc closepath fill
	vpt 0 360 arc closepath} bind def
/C7 {BL [] 0 setdash 2 copy moveto
	2 copy vpt 0 270 arc closepath fill
	vpt 0 360 arc closepath} bind def
/C8 {BL [] 0 setdash 2 copy moveto
	2 copy vpt 270 360 arc closepath fill
	vpt 0 360 arc closepath} bind def
/C9 {BL [] 0 setdash 2 copy moveto
	2 copy vpt 270 450 arc closepath fill
	vpt 0 360 arc closepath} bind def
/C10 {BL [] 0 setdash 2 copy 2 copy moveto vpt 270 360 arc closepath fill
	2 copy moveto
	2 copy vpt 90 180 arc closepath fill
	vpt 0 360 arc closepath} bind def
/C11 {BL [] 0 setdash 2 copy moveto
	2 copy vpt 0 180 arc closepath fill
	2 copy moveto
	2 copy vpt 270 360 arc closepath fill
	vpt 0 360 arc closepath} bind def
/C12 {BL [] 0 setdash 2 copy moveto
	2 copy vpt 180 360 arc closepath fill
	vpt 0 360 arc closepath} bind def
/C13 {BL [] 0 setdash 2 copy moveto
	2 copy vpt 0 90 arc closepath fill
	2 copy moveto
	2 copy vpt 180 360 arc closepath fill
	vpt 0 360 arc closepath} bind def
/C14 {BL [] 0 setdash 2 copy moveto
	2 copy vpt 90 360 arc closepath fill
	vpt 0 360 arc} bind def
/C15 {BL [] 0 setdash 2 copy vpt 0 360 arc closepath fill
	vpt 0 360 arc closepath} bind def
/Rec {newpath 4 2 roll moveto 1 index 0 rlineto 0 exch rlineto
	neg 0 rlineto closepath} bind def
/Square {dup Rec} bind def
/Bsquare {vpt sub exch vpt sub exch vpt2 Square} bind def
/S0 {BL [] 0 setdash 2 copy moveto 0 vpt rlineto BL Bsquare} bind def
/S1 {BL [] 0 setdash 2 copy vpt Square fill Bsquare} bind def
/S2 {BL [] 0 setdash 2 copy exch vpt sub exch vpt Square fill Bsquare} bind def
/S3 {BL [] 0 setdash 2 copy exch vpt sub exch vpt2 vpt Rec fill Bsquare} bind def
/S4 {BL [] 0 setdash 2 copy exch vpt sub exch vpt sub vpt Square fill Bsquare} bind def
/S5 {BL [] 0 setdash 2 copy 2 copy vpt Square fill
	exch vpt sub exch vpt sub vpt Square fill Bsquare} bind def
/S6 {BL [] 0 setdash 2 copy exch vpt sub exch vpt sub vpt vpt2 Rec fill Bsquare} bind def
/S7 {BL [] 0 setdash 2 copy exch vpt sub exch vpt sub vpt vpt2 Rec fill
	2 copy vpt Square fill Bsquare} bind def
/S8 {BL [] 0 setdash 2 copy vpt sub vpt Square fill Bsquare} bind def
/S9 {BL [] 0 setdash 2 copy vpt sub vpt vpt2 Rec fill Bsquare} bind def
/S10 {BL [] 0 setdash 2 copy vpt sub vpt Square fill 2 copy exch vpt sub exch vpt Square fill
	Bsquare} bind def
/S11 {BL [] 0 setdash 2 copy vpt sub vpt Square fill 2 copy exch vpt sub exch vpt2 vpt Rec fill
	Bsquare} bind def
/S12 {BL [] 0 setdash 2 copy exch vpt sub exch vpt sub vpt2 vpt Rec fill Bsquare} bind def
/S13 {BL [] 0 setdash 2 copy exch vpt sub exch vpt sub vpt2 vpt Rec fill
	2 copy vpt Square fill Bsquare} bind def
/S14 {BL [] 0 setdash 2 copy exch vpt sub exch vpt sub vpt2 vpt Rec fill
	2 copy exch vpt sub exch vpt Square fill Bsquare} bind def
/S15 {BL [] 0 setdash 2 copy Bsquare fill Bsquare} bind def
/D0 {gsave translate 45 rotate 0 0 S0 stroke grestore} bind def
/D1 {gsave translate 45 rotate 0 0 S1 stroke grestore} bind def
/D2 {gsave translate 45 rotate 0 0 S2 stroke grestore} bind def
/D3 {gsave translate 45 rotate 0 0 S3 stroke grestore} bind def
/D4 {gsave translate 45 rotate 0 0 S4 stroke grestore} bind def
/D5 {gsave translate 45 rotate 0 0 S5 stroke grestore} bind def
/D6 {gsave translate 45 rotate 0 0 S6 stroke grestore} bind def
/D7 {gsave translate 45 rotate 0 0 S7 stroke grestore} bind def
/D8 {gsave translate 45 rotate 0 0 S8 stroke grestore} bind def
/D9 {gsave translate 45 rotate 0 0 S9 stroke grestore} bind def
/D10 {gsave translate 45 rotate 0 0 S10 stroke grestore} bind def
/D11 {gsave translate 45 rotate 0 0 S11 stroke grestore} bind def
/D12 {gsave translate 45 rotate 0 0 S12 stroke grestore} bind def
/D13 {gsave translate 45 rotate 0 0 S13 stroke grestore} bind def
/D14 {gsave translate 45 rotate 0 0 S14 stroke grestore} bind def
/D15 {gsave translate 45 rotate 0 0 S15 stroke grestore} bind def
/DiaE {stroke [] 0 setdash vpt add M
  hpt neg vpt neg V hpt vpt neg V
  hpt vpt V hpt neg vpt V closepath stroke} def
/BoxE {stroke [] 0 setdash exch hpt sub exch vpt add M
  0 vpt2 neg V hpt2 0 V 0 vpt2 V
  hpt2 neg 0 V closepath stroke} def
/TriUE {stroke [] 0 setdash vpt 1.12 mul add M
  hpt neg vpt -1.62 mul V
  hpt 2 mul 0 V
  hpt neg vpt 1.62 mul V closepath stroke} def
/TriDE {stroke [] 0 setdash vpt 1.12 mul sub M
  hpt neg vpt 1.62 mul V
  hpt 2 mul 0 V
  hpt neg vpt -1.62 mul V closepath stroke} def
/PentE {stroke [] 0 setdash gsave
  translate 0 hpt M 4 {72 rotate 0 hpt L} repeat
  closepath stroke grestore} def
/CircE {stroke [] 0 setdash 
  hpt 0 360 arc stroke} def
/Opaque {gsave closepath 1 setgray fill grestore 0 setgray closepath} def
/DiaW {stroke [] 0 setdash vpt add M
  hpt neg vpt neg V hpt vpt neg V
  hpt vpt V hpt neg vpt V Opaque stroke} def
/BoxW {stroke [] 0 setdash exch hpt sub exch vpt add M
  0 vpt2 neg V hpt2 0 V 0 vpt2 V
  hpt2 neg 0 V Opaque stroke} def
/TriUW {stroke [] 0 setdash vpt 1.12 mul add M
  hpt neg vpt -1.62 mul V
  hpt 2 mul 0 V
  hpt neg vpt 1.62 mul V Opaque stroke} def
/TriDW {stroke [] 0 setdash vpt 1.12 mul sub M
  hpt neg vpt 1.62 mul V
  hpt 2 mul 0 V
  hpt neg vpt -1.62 mul V Opaque stroke} def
/PentW {stroke [] 0 setdash gsave
  translate 0 hpt M 4 {72 rotate 0 hpt L} repeat
  Opaque stroke grestore} def
/CircW {stroke [] 0 setdash 
  hpt 0 360 arc Opaque stroke} def
/BoxFill {gsave Rec 1 setgray fill grestore} def
/Density {
  /Fillden exch def
  currentrgbcolor
  /ColB exch def /ColG exch def /ColR exch def
  /ColR ColR Fillden mul Fillden sub 1 add def
  /ColG ColG Fillden mul Fillden sub 1 add def
  /ColB ColB Fillden mul Fillden sub 1 add def
  ColR ColG ColB setrgbcolor} def
/BoxColFill {gsave Rec PolyFill} def
/PolyFill {gsave Density fill grestore grestore} def
/h {rlineto rlineto rlineto gsave fill grestore} bind def
%
% PostScript Level 1 Pattern Fill routine for rectangles
% Usage: x y w h s a XX PatternFill
%	x,y = lower left corner of box to be filled
%	w,h = width and height of box
%	  a = angle in degrees between lines and x-axis
%	 XX = 0/1 for no/yes cross-hatch
%
/PatternFill {gsave /PFa [ 9 2 roll ] def
  PFa 0 get PFa 2 get 2 div add PFa 1 get PFa 3 get 2 div add translate
  PFa 2 get -2 div PFa 3 get -2 div PFa 2 get PFa 3 get Rec
  gsave 1 setgray fill grestore clip
  currentlinewidth 0.5 mul setlinewidth
  /PFs PFa 2 get dup mul PFa 3 get dup mul add sqrt def
  0 0 M PFa 5 get rotate PFs -2 div dup translate
  0 1 PFs PFa 4 get div 1 add floor cvi
	{PFa 4 get mul 0 M 0 PFs V} for
  0 PFa 6 get ne {
	0 1 PFs PFa 4 get div 1 add floor cvi
	{PFa 4 get mul 0 2 1 roll M PFs 0 V} for
 } if
  stroke grestore} def
%
/languagelevel where
 {pop languagelevel} {1} ifelse
 2 lt
	{/InterpretLevel1 true def}
	{/InterpretLevel1 Level1 def}
 ifelse
%
% PostScript level 2 pattern fill definitions
%
/Level2PatternFill {
/Tile8x8 {/PaintType 2 /PatternType 1 /TilingType 1 /BBox [0 0 8 8] /XStep 8 /YStep 8}
	bind def
/KeepColor {currentrgbcolor [/Pattern /DeviceRGB] setcolorspace} bind def
<< Tile8x8
 /PaintProc {0.5 setlinewidth pop 0 0 M 8 8 L 0 8 M 8 0 L stroke} 
>> matrix makepattern
/Pat1 exch def
<< Tile8x8
 /PaintProc {0.5 setlinewidth pop 0 0 M 8 8 L 0 8 M 8 0 L stroke
	0 4 M 4 8 L 8 4 L 4 0 L 0 4 L stroke}
>> matrix makepattern
/Pat2 exch def
<< Tile8x8
 /PaintProc {0.5 setlinewidth pop 0 0 M 0 8 L
	8 8 L 8 0 L 0 0 L fill}
>> matrix makepattern
/Pat3 exch def
<< Tile8x8
 /PaintProc {0.5 setlinewidth pop -4 8 M 8 -4 L
	0 12 M 12 0 L stroke}
>> matrix makepattern
/Pat4 exch def
<< Tile8x8
 /PaintProc {0.5 setlinewidth pop -4 0 M 8 12 L
	0 -4 M 12 8 L stroke}
>> matrix makepattern
/Pat5 exch def
<< Tile8x8
 /PaintProc {0.5 setlinewidth pop -2 8 M 4 -4 L
	0 12 M 8 -4 L 4 12 M 10 0 L stroke}
>> matrix makepattern
/Pat6 exch def
<< Tile8x8
 /PaintProc {0.5 setlinewidth pop -2 0 M 4 12 L
	0 -4 M 8 12 L 4 -4 M 10 8 L stroke}
>> matrix makepattern
/Pat7 exch def
<< Tile8x8
 /PaintProc {0.5 setlinewidth pop 8 -2 M -4 4 L
	12 0 M -4 8 L 12 4 M 0 10 L stroke}
>> matrix makepattern
/Pat8 exch def
<< Tile8x8
 /PaintProc {0.5 setlinewidth pop 0 -2 M 12 4 L
	-4 0 M 12 8 L -4 4 M 8 10 L stroke}
>> matrix makepattern
/Pat9 exch def
/Pattern1 {PatternBgnd KeepColor Pat1 setpattern} bind def
/Pattern2 {PatternBgnd KeepColor Pat2 setpattern} bind def
/Pattern3 {PatternBgnd KeepColor Pat3 setpattern} bind def
/Pattern4 {PatternBgnd KeepColor Landscape {Pat5} {Pat4} ifelse setpattern} bind def
/Pattern5 {PatternBgnd KeepColor Landscape {Pat4} {Pat5} ifelse setpattern} bind def
/Pattern6 {PatternBgnd KeepColor Landscape {Pat9} {Pat6} ifelse setpattern} bind def
/Pattern7 {PatternBgnd KeepColor Landscape {Pat8} {Pat7} ifelse setpattern} bind def
} def
%
%
%End of PostScript Level 2 code
%
/PatternBgnd {
  TransparentPatterns {} {gsave 1 setgray fill grestore} ifelse
} def
%
% Substitute for Level 2 pattern fill codes with
% grayscale if Level 2 support is not selected.
%
/Level1PatternFill {
/Pattern1 {0.250 Density} bind def
/Pattern2 {0.500 Density} bind def
/Pattern3 {0.750 Density} bind def
/Pattern4 {0.125 Density} bind def
/Pattern5 {0.375 Density} bind def
/Pattern6 {0.625 Density} bind def
/Pattern7 {0.875 Density} bind def
} def
%
% Now test for support of Level 2 code
%
Level1 {Level1PatternFill} {Level2PatternFill} ifelse
%
/Symbol-Oblique /Symbol findfont [1 0 .167 1 0 0] makefont
dup length dict begin {1 index /FID eq {pop pop} {def} ifelse} forall
currentdict end definefont pop
/MFshow {
   { dup 5 get 3 ge
     { 5 get 3 eq {gsave} {grestore} ifelse }
     {dup dup 0 get findfont exch 1 get scalefont setfont
     [ currentpoint ] exch dup 2 get 0 exch R dup 5 get 2 ne {dup dup 6
     get exch 4 get {show} {stringwidth pop 0 R} ifelse }if dup 5 get 0 eq
     {dup 3 get {2 get neg 0 exch R pop} {pop aload pop M} ifelse} {dup 5
     get 1 eq {dup 2 get exch dup 3 get exch 6 get stringwidth pop -2 div
     dup 0 R} {dup 6 get stringwidth pop -2 div 0 R 6 get
     show 2 index {aload pop M neg 3 -1 roll neg R pop pop} {pop pop pop
     pop aload pop M} ifelse }ifelse }ifelse }
     ifelse }
   forall} bind def
/MFwidth {0 exch { dup 5 get 3 ge { 5 get 3 eq { 0 } { pop } ifelse }
 {dup 3 get{dup dup 0 get findfont exch 1 get scalefont setfont
     6 get stringwidth pop add} {pop} ifelse} ifelse} forall} bind def
/MLshow { currentpoint stroke M
  0 exch R
  Blacktext {gsave 0 setgray MFshow grestore} {MFshow} ifelse } bind def
/MRshow { currentpoint stroke M
  exch dup MFwidth neg 3 -1 roll R
  Blacktext {gsave 0 setgray MFshow grestore} {MFshow} ifelse } bind def
/MCshow { currentpoint stroke M
  exch dup MFwidth -2 div 3 -1 roll R
  Blacktext {gsave 0 setgray MFshow grestore} {MFshow} ifelse } bind def
/XYsave    { [( ) 1 2 true false 3 ()] } bind def
/XYrestore { [( ) 1 2 true false 4 ()] } bind def
end
%%EndProlog
gnudict begin
gsave
50 50 translate
0.050 0.050 scale
0 setgray
newpath
(Helvetica) findfont 210 scalefont setfont
1.000 UL
LTb
945 630 M
63 0 V
5835 0 R
-63 0 V
stroke
819 630 M
[ [(Helvetica) 210.0 0.0 true true 0 ( 13)]
] -70.0 MRshow
1.000 UL
LTb
945 1092 M
63 0 V
5835 0 R
-63 0 V
stroke
819 1092 M
[ [(Helvetica) 210.0 0.0 true true 0 ( 14)]
] -70.0 MRshow
1.000 UL
LTb
945 1554 M
63 0 V
5835 0 R
-63 0 V
stroke
819 1554 M
[ [(Helvetica) 210.0 0.0 true true 0 ( 15)]
] -70.0 MRshow
1.000 UL
LTb
945 2016 M
63 0 V
5835 0 R
-63 0 V
stroke
819 2016 M
[ [(Helvetica) 210.0 0.0 true true 0 ( 16)]
] -70.0 MRshow
1.000 UL
LTb
945 2478 M
63 0 V
5835 0 R
-63 0 V
stroke
819 2478 M
[ [(Helvetica) 210.0 0.0 true true 0 ( 17)]
] -70.0 MRshow
1.000 UL
LTb
945 2940 M
63 0 V
5835 0 R
-63 0 V
stroke
819 2940 M
[ [(Helvetica) 210.0 0.0 true true 0 ( 18)]
] -70.0 MRshow
1.000 UL
LTb
945 3402 M
63 0 V
5835 0 R
-63 0 V
stroke
819 3402 M
[ [(Helvetica) 210.0 0.0 true true 0 ( 19)]
] -70.0 MRshow
1.000 UL
LTb
945 3864 M
63 0 V
5835 0 R
-63 0 V
stroke
819 3864 M
[ [(Helvetica) 210.0 0.0 true true 0 ( 20)]
] -70.0 MRshow
1.000 UL
LTb
945 4326 M
63 0 V
5835 0 R
-63 0 V
stroke
819 4326 M
[ [(Helvetica) 210.0 0.0 true true 0 ( 21)]
] -70.0 MRshow
1.000 UL
LTb
945 4788 M
63 0 V
5835 0 R
-63 0 V
stroke
819 4788 M
[ [(Helvetica) 210.0 0.0 true true 0 ( 22)]
] -70.0 MRshow
1.000 UL
LTb
945 630 M
0 63 V
0 4095 R
0 -63 V
stroke
945 420 M
[ [(Helvetica) 210.0 0.0 true true 0 ( 14)]
] -70.0 MCshow
1.000 UL
LTb
1928 630 M
0 63 V
0 4095 R
0 -63 V
stroke
1928 420 M
[ [(Helvetica) 210.0 0.0 true true 0 ( 16)]
] -70.0 MCshow
1.000 UL
LTb
2911 630 M
0 63 V
0 4095 R
0 -63 V
stroke
2911 420 M
[ [(Helvetica) 210.0 0.0 true true 0 ( 18)]
] -70.0 MCshow
1.000 UL
LTb
3894 630 M
0 63 V
0 4095 R
0 -63 V
stroke
3894 420 M
[ [(Helvetica) 210.0 0.0 true true 0 ( 20)]
] -70.0 MCshow
1.000 UL
LTb
4877 630 M
0 63 V
0 4095 R
0 -63 V
stroke
4877 420 M
[ [(Helvetica) 210.0 0.0 true true 0 ( 22)]
] -70.0 MCshow
1.000 UL
LTb
5860 630 M
0 63 V
0 4095 R
0 -63 V
stroke
5860 420 M
[ [(Helvetica) 210.0 0.0 true true 0 ( 24)]
] -70.0 MCshow
1.000 UL
LTb
6843 630 M
0 63 V
0 4095 R
0 -63 V
stroke
6843 420 M
[ [(Helvetica) 210.0 0.0 true true 0 ( 26)]
] -70.0 MCshow
1.000 UL
LTb
1.000 UL
LTb
945 4788 N
945 630 L
5898 0 V
0 4158 V
-5898 0 V
Z stroke
LCb setrgbcolor
210 2709 M
currentpoint gsave translate 90 rotate 0 0 moveto
[ [(Helvetica) 210.0 0.0 true true 0 (H\(MeV\))]
] -70.0 MCshow
grestore
LTb
LCb setrgbcolor
3894 105 M
[ [(Helvetica) 210.0 0.0 true true 0 (k)]
] -70.0 MCshow
LTb
1.000 UP
1.000 UL
LTb
2.000 UP
1.000 UL
LT2
/Helvetica findfont 210 scalefont setfont
3894 4511 M
3648 4326 L
3403 4194 L
-492 -10 V
2571 3864 L
2420 3732 L
1928 3494 L
-70 -92 V
1655 2940 L
1437 2570 L
-71 -92 V
1163 2016 L
28 -462 V
246 -277 V
491 -62 V
492 -123 V
2911 861 L
369 231 V
123 51 V
491 147 V
328 264 V
164 84 V
491 180 V
295 198 V
159 462 V
38 66 V
491 165 V
140 231 V
87 462 V
101 462 V
-328 132 V
-491 253 V
-492 14 V
-184 63 V
-307 257 V
-492 -72 V
2911 3971 M
2798 3864 L
2420 3534 L
2201 3402 L
1961 2940 L
-33 -154 V
1788 2478 L
1518 2016 L
103 -462 V
307 -154 V
492 -77 V
491 -231 V
492 205 V
409 257 V
82 51 V
492 285 V
245 126 V
246 66 V
340 396 V
152 264 V
294 198 V
197 462 V
-491 396 V
-36 66 V
-456 273 V
-491 147 V
-492 -90 V
3403 3996 L
-492 -25 V
1475 61 R
3992 3864 L
-98 -31 V
-491 1 V
2911 3710 L
2542 3402 L
-122 -92 V
2157 2940 L
-32 -462 V
1989 2016 L
431 -462 V
491 31 V
98 -31 V
394 -103 V
163 103 V
328 205 V
378 257 V
114 58 V
491 140 V
227 264 V
265 462 V
0 462 V
-246 462 V
-246 147 V
-491 21 V
491 -147 R
-164 -21 V
-327 -66 V
3894 3648 L
-491 97 V
2911 3402 L
2420 3032 L
-66 -92 V
66 -462 V
-62 -462 V
62 -66 V
491 -180 V
492 -31 V
491 174 V
151 103 V
341 173 V
491 157 V
113 132 V
10 462 V
123 462 V
-211 462 V
-35 21 V
3403 3655 M
3039 3402 L
2911 3056 L
2747 2940 L
2575 2478 L
196 -462 V
140 -62 V
197 62 V
295 42 V
491 50 V
492 197 V
491 173 V
-103 462 V
103 462 V
-491 198 V
3894 3464 L
-491 191 V
0 -89 R
3167 3402 L
-77 -462 V
2911 2772 L
2730 2478 L
181 -294 V
492 -42 V
491 244 V
492 34 V
163 58 V
69 462 V
-232 462 V
-492 -71 V
-131 71 V
-360 164 V
0 -89 R
-107 -75 V
62 -462 V
2911 2520 L
-26 -42 V
26 -42 V
492 -210 V
402 252 V
89 92 V
492 139 V
77 231 V
-77 154 V
-492 130 V
-328 178 V
-163 75 V
491 -359 R
3566 2940 L
3403 2804 L
3056 2478 L
347 -168 V
268 168 V
223 231 V
378 231 V
-378 178 V
0 -107 R
-131 -71 V
3403 2641 L
3229 2478 L
174 -84 V
134 84 V
357 370 V
151 92 V
-151 71 V
3894 4511 Star
3648 4326 Star
3403 4194 Star
2911 4184 Star
2571 3864 Star
2420 3732 Star
1928 3494 Star
1858 3402 Star
1655 2940 Star
1437 2570 Star
1366 2478 Star
1163 2016 Star
1191 1554 Star
1437 1277 Star
1928 1215 Star
2420 1092 Star
2911 861 Star
3280 1092 Star
3403 1143 Star
3894 1290 Star
4222 1554 Star
4386 1638 Star
4877 1818 Star
5172 2016 Star
5331 2478 Star
5369 2544 Star
5860 2709 Star
6000 2940 Star
6087 3402 Star
6188 3864 Star
5860 3996 Star
5369 4249 Star
4877 4263 Star
4693 4326 Star
4386 4583 Star
3894 4511 Star
2911 3971 Star
2798 3864 Star
2420 3534 Star
2201 3402 Star
1961 2940 Star
1928 2786 Star
1788 2478 Star
1518 2016 Star
1621 1554 Star
1928 1400 Star
2420 1323 Star
2911 1092 Star
3403 1297 Star
3812 1554 Star
3894 1605 Star
4386 1890 Star
4631 2016 Star
4877 2082 Star
5217 2478 Star
5369 2742 Star
5663 2940 Star
5860 3402 Star
5369 3798 Star
5333 3864 Star
4877 4137 Star
4386 4284 Star
3894 4194 Star
3403 3996 Star
2911 3971 Star
4386 4032 Star
3992 3864 Star
3894 3833 Star
3403 3834 Star
2911 3710 Star
2542 3402 Star
2420 3310 Star
2157 2940 Star
2125 2478 Star
1989 2016 Star
2420 1554 Star
2911 1585 Star
3009 1554 Star
3403 1451 Star
3566 1554 Star
3894 1759 Star
4272 2016 Star
4386 2074 Star
4877 2214 Star
5104 2478 Star
5369 2940 Star
5369 3402 Star
5123 3864 Star
4877 4011 Star
4386 4032 Star
4877 3885 Star
4713 3864 Star
4386 3798 Star
3894 3648 Star
3403 3745 Star
2911 3402 Star
2420 3032 Star
2354 2940 Star
2420 2478 Star
2358 2016 Star
2420 1950 Star
2911 1770 Star
3403 1739 Star
3894 1913 Star
4045 2016 Star
4386 2189 Star
4877 2346 Star
4990 2478 Star
5000 2940 Star
5123 3402 Star
4912 3864 Star
4877 3885 Star
3403 3655 Star
3039 3402 Star
2911 3056 Star
2747 2940 Star
2575 2478 Star
2771 2016 Star
2911 1954 Star
3108 2016 Star
3403 2058 Star
3894 2108 Star
4386 2305 Star
4877 2478 Star
4774 2940 Star
4877 3402 Star
4386 3600 Star
3894 3464 Star
3403 3655 Star
3403 3566 Star
3167 3402 Star
3090 2940 Star
2911 2772 Star
2730 2478 Star
2911 2184 Star
3403 2142 Star
3894 2386 Star
4386 2420 Star
4549 2478 Star
4618 2940 Star
4386 3402 Star
3894 3331 Star
3763 3402 Star
3403 3566 Star
3403 3477 Star
3296 3402 Star
3358 2940 Star
2911 2520 Star
2885 2478 Star
2911 2436 Star
3403 2226 Star
3805 2478 Star
3894 2570 Star
4386 2709 Star
4463 2940 Star
4386 3094 Star
3894 3224 Star
3566 3402 Star
3403 3477 Star
3894 3118 Star
3566 2940 Star
3403 2804 Star
3056 2478 Star
3403 2310 Star
3671 2478 Star
3894 2709 Star
4272 2940 Star
3894 3118 Star
3894 3011 Star
3763 2940 Star
3403 2641 Star
3229 2478 Star
3403 2394 Star
3537 2478 Star
3894 2848 Star
4045 2940 Star
3894 3011 Star
4.000 UL
LT0
/Helvetica findfont 210 scalefont setfont
2873 4011 M
-146 -78 V
-143 -83 V
-139 -87 V
-134 -91 V
-129 -95 V
-123 -98 V
1942 3378 L
1831 3274 L
1728 3168 L
-96 -107 V
-88 -108 V
-79 -110 V
-71 -109 V
-62 -110 V
-53 -109 V
-44 -108 V
-34 -106 V
-25 -105 V
-15 -102 V
-5 -100 V
5 -96 V
15 -94 V
24 -89 V
34 -85 V
44 -80 V
53 -76 V
62 -71 V
71 -65 V
79 -59 V
88 -53 V
95 -47 V
104 -41 V
110 -34 V
117 -28 V
123 -20 V
129 -14 V
134 -7 V
139 0 V
143 7 V
146 13 V
149 21 V
152 28 V
153 34 V
154 41 V
155 47 V
155 53 V
154 59 V
152 65 V
151 71 V
148 75 V
145 81 V
141 85 V
136 89 V
132 93 V
126 97 V
120 99 V
114 103 V
107 104 V
100 107 V
91 108 V
84 109 V
76 109 V
66 110 V
58 109 V
48 109 V
39 107 V
30 106 V
19 103 V
10 101 V
0 98 V
-9 95 V
-20 92 V
-29 87 V
-39 83 V
-48 78 V
-58 73 V
-66 68 V
-75 62 V
-84 56 V
-92 50 V
-99 44 V
-107 38 V
-114 31 V
-120 24 V
-126 17 V
-132 11 V
-136 3 V
-141 -3 V
-145 -11 V
-148 -17 V
-150 -24 V
-152 -31 V
-154 -37 V
-155 -44 V
-155 -51 V
-154 -56 V
-154 -62 V
-151 -68 V
-150 -73 V
/Helvetica findfont 210 scalefont setfont
5499 3820 M
-47 66 V
-54 61 V
-62 57 V
-68 51 V
-76 46 V
-82 41 V
-88 35 V
-94 29 V
-99 24 V
-104 17 V
-109 12 V
-114 5 V
-116 -1 V
4265 4257 L
-123 -13 V
-125 -19 V
-127 -25 V
-128 -31 V
-129 -36 V
-129 -42 V
-129 -47 V
-128 -53 V
-127 -57 V
-125 -62 V
-122 -67 V
-120 -71 V
-116 -75 V
-113 -79 V
-108 -82 V
-104 -85 V
-98 -87 V
-94 -90 V
-87 -92 V
-81 -94 V
-74 -94 V
-68 -96 V
-60 -96 V
-53 -96 V
-46 -96 V
-38 -95 V
-30 -93 V
-21 -93 V
-14 -90 V
-6 -89 V
3 -85 V
11 -83 V
19 -80 V
27 -76 V
35 -72 V
43 -68 V
50 -63 V
58 -59 V
65 -54 V
72 -49 V
79 -43 V
85 -38 V
91 -32 V
97 -27 V
102 -20 V
106 -15 V
112 -8 V
115 -2 V
118 3 V
122 10 V
124 16 V
126 22 V
128 28 V
128 33 V
130 39 V
129 45 V
128 50 V
128 55 V
125 60 V
124 64 V
121 69 V
119 73 V
114 77 V
111 80 V
106 84 V
101 86 V
96 89 V
90 91 V
84 93 V
78 94 V
71 95 V
64 96 V
57 96 V
49 96 V
42 95 V
34 95 V
26 93 V
17 91 V
10 90 V
1 87 V
-6 84 V
-15 81 V
-23 78 V
-31 74 V
-39 70 V
/Helvetica findfont 210 scalefont setfont
3151 3710 M
-104 -54 V
-102 -58 V
-99 -61 V
-95 -64 V
-92 -67 V
-87 -69 V
-83 -72 V
-79 -73 V
-73 -76 V
-68 -76 V
-62 -78 V
-56 -78 V
-50 -79 V
-44 -79 V
-38 -79 V
-30 -78 V
-24 -77 V
-17 -76 V
1938 2341 L
-3 -73 V
4 -71 V
11 -69 V
18 -66 V
25 -63 V
31 -60 V
38 -56 V
45 -53 V
51 -49 V
57 -45 V
63 -41 V
69 -37 V
74 -32 V
79 -27 V
84 -23 V
88 -18 V
92 -13 V
96 -8 V
99 -2 V
102 2 V
105 7 V
106 12 V
108 17 V
110 22 V
110 26 V
110 31 V
110 36 V
110 40 V
109 45 V
107 48 V
105 53 V
103 56 V
100 59 V
98 63 V
93 65 V
90 68 V
85 71 V
81 72 V
76 75 V
70 76 V
66 77 V
59 78 V
53 79 V
47 79 V
41 79 V
34 78 V
27 78 V
20 77 V
14 75 V
6 74 V
0 72 V
-8 70 V
-14 67 V
-21 65 V
-29 61 V
-35 59 V
-41 54 V
-48 51 V
-54 48 V
-60 43 V
-66 38 V
-71 35 V
-77 29 V
-81 25 V
-86 21 V
-91 15 V
-94 10 V
-97 6 V
-101 0 V
-103 -4 V
-106 -10 V
-107 -14 V
-109 -20 V
-110 -24 V
-110 -29 V
-110 -34 V
-110 -38 V
-110 -42 V
-108 -46 V
-106 -51 V
/Helvetica findfont 210 scalefont setfont
132 -93 R
-89 -48 V
-87 -51 V
-84 -53 V
-81 -56 V
-78 -59 V
-75 -60 V
-70 -62 V
-67 -65 V
-62 -65 V
-57 -66 V
-53 -68 V
-48 -68 V
-42 -68 V
-37 -68 V
-31 -68 V
-25 -68 V
-20 -66 V
-14 -66 V
-8 -64 V
-1 -63 V
4 -61 V
10 -58 V
16 -57 V
2306 2136 L
28 -52 V
33 -48 V
39 -44 V
45 -42 V
49 -38 V
55 -34 V
59 -31 V
64 -27 V
68 -22 V
73 -19 V
76 -14 V
79 -10 V
82 -6 V
86 -1 V
87 3 V
90 7 V
92 12 V
92 16 V
94 20 V
94 24 V
95 28 V
94 32 V
94 36 V
93 39 V
92 43 V
90 46 V
87 49 V
86 53 V
83 54 V
79 58 V
77 59 V
72 62 V
69 63 V
64 65 V
60 66 V
55 67 V
50 67 V
45 68 V
40 69 V
34 68 V
28 68 V
23 67 V
17 66 V
10 65 V
5 63 V
-1 62 V
-7 60 V
-13 57 V
-19 55 V
-25 53 V
-31 50 V
-36 46 V
-42 43 V
-47 40 V
-52 36 V
-57 33 V
-62 28 V
-66 25 V
-70 21 V
-74 16 V
-78 12 V
-81 8 V
-84 3 V
-86 0 V
-89 -6 V
-91 -9 V
-92 -14 V
-93 -18 V
-94 -22 V
-95 -26 V
-94 -30 V
-94 -34 V
-94 -37 V
-92 -42 V
-91 -44 V
/Helvetica findfont 210 scalefont setfont
2829 2816 M
0 -67 V
3 -66 V
7 -66 V
10 -65 V
14 -65 V
18 -63 V
21 -61 V
24 -60 V
27 -58 V
30 -56 V
34 -53 V
36 -51 V
39 -48 V
41 -45 V
44 -41 V
46 -38 V
48 -35 V
49 -31 V
52 -27 V
53 -23 V
53 -19 V
55 -15 V
56 -11 V
56 -7 V
57 -3 V
56 2 V
57 6 V
56 10 V
3926 1774 L
55 18 V
53 23 V
52 26 V
51 30 V
49 34 V
47 37 V
46 41 V
42 44 V
41 47 V
38 50 V
35 53 V
32 55 V
29 58 V
27 59 V
22 62 V
20 62 V
16 65 V
13 65 V
9 66 V
6 66 V
2 67 V
-2 66 V
-5 66 V
-9 66 V
-12 65 V
-16 64 V
-19 62 V
-22 61 V
-26 59 V
-29 57 V
-32 54 V
-35 52 V
-37 49 V
-40 47 V
-43 43 V
-45 40 V
-47 36 V
-49 33 V
-50 29 V
-52 25 V
-54 21 V
-54 18 V
-55 13 V
-56 9 V
-57 4 V
-56 1 V
-57 -4 V
-56 -8 V
-56 -12 V
-55 -16 V
-54 -21 V
-53 -24 V
-51 -28 V
-50 -32 V
-48 -36 V
-46 -39 V
-44 -43 V
-42 -45 V
-39 -49 V
-37 -51 V
-34 -54 V
-30 -57 V
-28 -58 V
-25 -61 V
-21 -62 V
-18 -63 V
-14 -65 V
-11 -65 V
-7 -66 V
-4 -67 V
/Helvetica findfont 210 scalefont setfont
3972 2221 M
57 24 V
55 26 V
53 28 V
52 30 V
50 33 V
48 34 V
45 36 V
43 37 V
40 39 V
37 40 V
35 41 V
31 42 V
28 42 V
24 43 V
21 44 V
18 44 V
13 44 V
11 43 V
6 44 V
3 42 V
-1 43 V
-5 41 V
-9 40 V
-12 40 V
-16 37 V
-20 37 V
-23 35 V
-27 32 V
-29 32 V
-34 29 V
-36 27 V
-39 24 V
-41 23 V
4305 3436 L
-47 18 V
-49 15 V
-51 12 V
-53 9 V
-54 7 V
-56 4 V
-57 1 V
-58 -1 V
-59 -5 V
-59 -7 V
-59 -10 V
-59 -12 V
-60 -16 V
-58 -17 V
-58 -21 V
-57 -22 V
-56 -25 V
-54 -27 V
-53 -30 V
-51 -31 V
-48 -33 V
-47 -35 V
-44 -37 V
-42 -38 V
-38 -39 V
-36 -41 V
-33 -41 V
-30 -43 V
-26 -43 V
-23 -43 V
-19 -44 V
-15 -44 V
-12 -43 V
-9 -44 V
-4 -43 V
-1 -43 V
3 -41 V
7 -41 V
10 -40 V
14 -39 V
18 -37 V
22 -35 V
24 -34 V
29 -32 V
31 -30 V
35 -28 V
37 -26 V
41 -24 V
43 -21 V
45 -18 V
48 -16 V
50 -14 V
52 -11 V
54 -8 V
55 -5 V
57 -3 V
57 0 V
59 3 V
59 6 V
59 9 V
59 11 V
60 14 V
58 16 V
59 19 V
57 22 V
/Helvetica findfont 210 scalefont setfont
417 983 R
-16 27 V
-19 26 V
-21 25 V
-25 23 V
-27 21 V
-30 19 V
-32 17 V
-35 15 V
-37 13 V
-39 11 V
-41 9 V
-42 7 V
-44 5 V
-46 2 V
-47 0 V
-48 -2 V
-49 -5 V
-49 -7 V
-50 -9 V
-50 -11 V
-50 -13 V
-50 -15 V
-49 -17 V
-49 -19 V
-49 -22 V
-47 -22 V
-46 -25 V
-45 -26 V
-43 -27 V
-42 -29 V
-39 -30 V
-38 -32 V
-36 -32 V
-33 -33 V
-31 -34 V
-28 -34 V
-26 -35 V
-23 -35 V
2898 2874 L
-16 -35 V
-14 -36 V
-11 -35 V
-8 -34 V
-5 -34 V
-1 -34 V
2 -33 V
5 -31 V
8 -31 V
11 -30 V
14 -28 V
17 -27 V
21 -25 V
23 -23 V
26 -22 V
28 -20 V
31 -19 V
34 -16 V
36 -14 V
38 -12 V
40 -10 V
41 -8 V
44 -6 V
45 -3 V
46 -1 V
47 1 V
49 3 V
49 6 V
49 8 V
50 10 V
50 12 V
50 14 V
50 17 V
50 18 V
48 20 V
48 22 V
47 23 V
45 26 V
44 26 V
43 29 V
40 29 V
39 31 V
37 32 V
34 32 V
32 34 V
30 34 V
27 35 V
24 35 V
22 35 V
18 36 V
15 35 V
13 35 V
9 35 V
6 34 V
3 34 V
0 33 V
-3 33 V
-7 31 V
-9 30 V
-13 29 V
/Helvetica findfont 210 scalefont setfont
3369 2565 M
14 -21 V
15 -19 V
17 -19 V
18 -18 V
18 -17 V
19 -16 V
20 -15 V
21 -14 V
21 -12 V
22 -11 V
22 -10 V
22 -9 V
23 -7 V
23 -5 V
22 -4 V
23 -3 V
23 -1 V
22 0 V
22 2 V
22 3 V
21 5 V
21 6 V
20 8 V
19 9 V
18 10 V
18 11 V
16 13 V
16 14 V
14 16 V
14 16 V
12 18 V
10 18 V
10 19 V
8 20 V
7 21 V
5 21 V
4 22 V
2 23 V
2 23 V
-1 23 V
-2 23 V
-3 23 V
-5 24 V
3998 2778 L
-7 23 V
-9 23 V
-10 23 V
-12 22 V
-12 21 V
-14 21 V
-15 20 V
-16 19 V
-17 19 V
-18 17 V
-19 17 V
-20 15 V
-20 15 V
-21 13 V
-21 11 V
-22 11 V
-23 9 V
-22 8 V
-23 6 V
-23 5 V
-23 3 V
-22 2 V
-23 1 V
-22 -1 V
-22 -3 V
-21 -4 V
-21 -5 V
-21 -7 V
-19 -8 V
-19 -10 V
-18 -11 V
-17 -12 V
-16 -14 V
-15 -14 V
-14 -16 V
-12 -17 V
-12 -18 V
-10 -19 V
-9 -20 V
-7 -20 V
-6 -21 V
-5 -22 V
-3 -22 V
-2 -23 V
0 -23 V
1 -23 V
3 -23 V
4 -24 V
5 -23 V
7 -23 V
8 -23 V
9 -23 V
11 -22 V
12 -22 V
14 -21 V
/Helvetica findfont 210 scalefont setfont
326 375 R
-12 0 V
-13 -1 V
-12 -2 V
-12 -2 V
-12 -3 V
-12 -4 V
-12 -4 V
-11 -5 V
-11 -5 V
-10 -6 V
-10 -7 V
-10 -7 V
-8 -7 V
-9 -8 V
-7 -8 V
-7 -9 V
-7 -9 V
-5 -9 V
-5 -10 V
-4 -10 V
-3 -10 V
-3 -10 V
-2 -11 V
-1 -10 V
0 -10 V
1 -11 V
1 -10 V
2 -11 V
3 -10 V
4 -10 V
4 -10 V
6 -9 V
6 -9 V
6 -9 V
8 -9 V
7 -8 V
9 -7 V
9 -8 V
10 -6 V
10 -7 V
11 -5 V
11 -5 V
11 -5 V
12 -4 V
12 -3 V
12 -3 V
12 -2 V
13 -1 V
3689 2610 L
13 0 V
12 1 V
13 1 V
12 2 V
12 3 V
12 3 V
12 4 V
11 5 V
11 5 V
11 5 V
10 7 V
10 6 V
9 8 V
9 7 V
7 8 V
8 9 V
6 9 V
6 9 V
6 9 V
4 10 V
4 10 V
3 10 V
2 11 V
1 10 V
1 11 V
0 10 V
-1 10 V
-2 11 V
-3 10 V
-3 10 V
-4 10 V
-5 10 V
-6 9 V
-6 9 V
-7 9 V
-7 8 V
-9 8 V
-9 7 V
-9 7 V
-10 7 V
-10 6 V
-11 5 V
-11 5 V
-12 4 V
-12 4 V
-12 3 V
-12 2 V
-12 2 V
-13 1 V
-13 0 V
stroke
1.000 UL
LTb
945 4788 N
945 630 L
5898 0 V
0 4158 V
-5898 0 V
Z stroke
1.000 UP
1.000 UL
LTb
stroke
grestore
end
showpage
%%Trailer
%%DocumentFonts: Helvetica
