36000	 36	 0 	 0 	 0 	 0
36000	 36	 0 	 0 	 0 	 0
36000	 36	 0 	 0 	 0 	 0
36000	 36	 0 	 0 	 0 	 0
36000	 37	 0 	 0 	 0 	 0
36000	 37	 0 	 0 	 0 	 0
36000	 37	 0 	 0 	 0 	 0
36000	 37	 0 	 0 	 0 	 0
36000	 38	 0 	 0 	 0 	 0
36000	 38	 0 	 0 	 0 	 0
36000	 38	 0 	 0 	 0 	 0
36000	 38	 0 	 0 	 0 	 0
36000	 39	 0 	 0 	 0 	 0
36000	 39	 0 	 0 	 0 	 0
36000	 39	 0 	 0 	 0 	 0
36000	 39	 0 	 0 	 0 	 0
36000	 40	 0 	 0 	 0 	 0
36000	 40	 0 	 0 	 0 	 0
36000	 40	 0 	 0 	 0 	 0
36000	 40	 0 	 0 	 0 	 0
36000	 41	 0 	 0 	 0 	 0
36000	 41	 0 	 0 	 0 	 0
36000	 41	 0 	 0 	 0 	 0
36000	 41	 0 	 0 	 0 	 0
36000	 41	 0 	 0 	 0 	 0
36000	 41	 0 	 0 	 0 	 0
36000	 41	 0 	 0 	 0 	 0
36000	 41	 0 	 0 	 0 	 0
36000	 41	 0 	 0 	 0 	 0
36000	 41	 0 	 0 	 0 	 0
36000	 42	 0 	 0 	 0 	 0
36000	 42	 0 	 0 	 0 	 0
36000	 42	 0 	 0 	 0 	 0
36000	 42	 0 	 0 	 0 	 0
36000	 42	 0 	 0 	 0 	 0
36000	 42	 0 	 0 	 0 	 0
36000	 42	 0 	 0 	 0 	 0
36000	 42	 0 	 0 	 0 	 0
36000	 42	 0 	 0 	 0 	 0
36000	 42	 0 	 0 	 0 	 0
36000	 43	 0 	 0 	 0 	 0
36000	 43	 0 	 0 	 0 	 0
36000	 43	 0 	 0 	 0 	 0
36000	 43	 0 	 0 	 0 	 0
37000	 34	 0 	 0 	 0 	 0
37000	 34	 0 	 0 	 0 	 0
37000	 34	 0 	 0 	 0 	 0
37000	 34	 0 	 0 	 0 	 0
37000	 35	 0 	 0 	 0 	 0
37000	 35	 0 	 0 	 0 	 0
37000	 35	 0 	 0 	 0 	 0
37000	 35	 0 	 0 	 0 	 0
37000	 36	 0 	 0 	 0 	 0
37000	 36	 0 	 0 	 0 	 0
37000	 36	 0 	 0 	 0 	 0
37000	 36	 0 	 0 	 0 	 0
37000	 37	 0 	 0 	 0 	 0
37000	 37	 0 	 0 	 0 	 0
37000	 37	 0 	 0 	 0 	 0
37000	 37	 0 	 0 	 0 	 0
37000	 37	 0 	 0 	 0 	 0
37000	 37	 0 	 0 	 0 	 0
37000	 37	 0 	 0 	 0 	 0
37000	 38	 0 	 0 	 0 	 0
37000	 38	 0 	 0 	 0 	 0
37000	 38	 0 	 0 	 0 	 0
37000	 38	 0 	 0 	 0 	 0
37000	 38	 0 	 0 	 0 	 0
37000	 38	 0 	 0 	 0 	 0
37000	 38	 0 	 0 	 0 	 0
37000	 39	 0 	 0 	 0 	 0
37000	 39	 0 	 0 	 0 	 0
37000	 39	 0 	 0 	 0 	 0
37000	 39	 0 	 0 	 0 	 0
37000	 39	 0 	 0 	 0 	 0
37000	 39	 0 	 0 	 0 	 0
37000	 39	 0 	 0 	 0 	 0
37000	 39	 0 	 0 	 0 	 0
37000	 39	 0 	 0 	 0 	 0
37000	 39	 0 	 0 	 0 	 0
37000	 40	 0 	 0 	 0 	 0
37000	 40	 0 	 0 	 0 	 0
37000	 40	 0 	 0 	 0 	 0
37000	 40	 0 	 0 	 0 	 0
37000	 40	 0 	 0 	 0 	 0
37000	 40	 0 	 0 	 0 	 0
37000	 40	 0 	 0 	 0 	 0
37000	 40	 0 	 0 	 0 	 0
37000	 40	 0 	 0 	 0 	 0
37000	 40	 0 	 0 	 0 	 0
37000	 40	 0 	 0 	 0 	 0
37000	 40	 0 	 0 	 0 	 0
37000	 40	 0 	 0 	 0 	 0
37000	 40	 0 	 0 	 0 	 0
37000	 40	 0 	 0 	 0 	 0
37000	 40	 0 	 0 	 0 	 0
37000	 41	 0 	 0 	 0 	 0
37000	 41	 0 	 0 	 0 	 0
37000	 41	 0 	 0 	 0 	 0
37000	 41	 0 	 0 	 0 	 0
37000	 41	 0 	 0 	 0 	 0
37000	 41	 0 	 0 	 0 	 0
37000	 41	 0 	 0 	 0 	 0
37000	 41	 0 	 0 	 0 	 0
37000	 41	 0 	 0 	 0 	 0
37000	 41	 0 	 0 	 0 	 0
37000	 41	 0 	 0 	 0 	 0
37000	 41	 0 	 0 	 0 	 0
37000	 41	 0 	 0 	 0 	 0
37000	 41	 0 	 0 	 0 	 0
37000	 41	 0 	 0 	 0 	 0
37000	 41	 0 	 0 	 0 	 0
37000	 42	 0 	 0 	 0 	 0
37000	 42	 0 	 0 	 0 	 0
37000	 42	 0 	 0 	 0 	 0
37000	 42	 0 	 0 	 0 	 0
37000	 42	 0 	 0 	 0 	 0
37000	 42	 0 	 0 	 0 	 0
37000	 42	 0 	 0 	 0 	 0
37000	 42	 0 	 0 	 0 	 0
37000	 42	 0 	 0 	 0 	 0
37000	 42	 0 	 0 	 0 	 0
37000	 42	 0 	 0 	 0 	 0
37000	 42	 0 	 0 	 0 	 0
37000	 42	 0 	 0 	 0 	 0
37000	 42	 0 	 0 	 0 	 0
37000	 43	 0 	 0 	 0 	 0
37000	 43	 0 	 0 	 0 	 0
37000	 43	 0 	 0 	 0 	 0
37000	 43	 0 	 0 	 0 	 0
37000	 43	 0 	 0 	 0 	 0
37000	 43	 0 	 0 	 0 	 0
37000	 43	 0 	 0 	 0 	 0
37000	 43	 0 	 0 	 0 	 0
37000	 43	 0 	 0 	 0 	 0
37000	 43	 0 	 0 	 0 	 0
37000	 44	 0 	 0 	 0 	 0
37000	 44	 0 	 0 	 0 	 0
37000	 44	 0 	 0 	 0 	 0
37000	 44	 0 	 0 	 0 	 0
37000	 44	 0 	 0 	 0 	 0
37000	 44	 0 	 0 	 0 	 0
37000	 44	 0 	 0 	 0 	 0
37000	 44	 0 	 0 	 0 	 0
37000	 44	 0 	 0 	 0 	 0
37000	 44	 0 	 0 	 0 	 0
37000	 45	 0 	 0 	 0 	 0
37000	 45	 0 	 0 	 0 	 0
37000	 45	 0 	 0 	 0 	 0
37000	 45	 0 	 0 	 0 	 0
38000	 34	 0 	 0 	 0 	 0
38000	 34	 0 	 0 	 0 	 0
38000	 34	 0 	 0 	 0 	 0
38000	 34	 0 	 0 	 0 	 0
38000	 35	 0 	 0 	 0 	 0
38000	 35	 0 	 0 	 0 	 0
38000	 35	 0 	 0 	 0 	 0
38000	 35	 0 	 0 	 0 	 0
38000	 35	 0 	 0 	 0 	 0
38000	 35	 0 	 0 	 0 	 0
38000	 35	 0 	 0 	 0 	 0
38000	 36	 0 	 0 	 0 	 0
38000	 36	 0 	 0 	 0 	 0
38000	 36	 0 	 0 	 0 	 0
38000	 36	 0 	 0 	 0 	 0
38000	 36	 0 	 0 	 0 	 0
38000	 36	 0 	 0 	 0 	 0
38000	 36	 0 	 0 	 0 	 0
38000	 37	 0 	 0 	 0 	 0
38000	 37	 0 	 0 	 0 	 0
38000	 37	 0 	 0 	 0 	 0
38000	 37	 0 	 0 	 0 	 0
38000	 37	 0 	 0 	 0 	 0
38000	 37	 0 	 0 	 0 	 0
38000	 37	 0 	 0 	 0 	 0
38000	 38	 0 	 0 	 0 	 0
38000	 38	 0 	 0 	 0 	 0
38000	 38	 0 	 0 	 0 	 0
38000	 38	 0 	 0 	 0 	 0
38000	 38	 0 	 0 	 0 	 0
38000	 38	 0 	 0 	 0 	 0
38000	 38	 0 	 0 	 0 	 0
38000	 38	 0 	 0 	 0 	 0
38000	 38	 0 	 0 	 0 	 0
38000	 38	 0 	 0 	 0 	 0
38000	 38	 0 	 0 	 0 	 0
38000	 38	 0 	 0 	 0 	 0
38000	 38	 0 	 0 	 0 	 0
38000	 38	 0 	 0 	 0 	 0
38000	 38	 0 	 0 	 0 	 0
38000	 38	 0 	 0 	 0 	 0
38000	 39	 0 	 0 	 0 	 0
38000	 39	 0 	 0 	 0 	 0
38000	 39	 0 	 0 	 0 	 0
38000	 39	 0 	 0 	 0 	 0
38000	 39	 0 	 0 	 0 	 0
38000	 39	 0 	 0 	 0 	 0
38000	 39	 0 	 0 	 0 	 0
38000	 39	 0 	 0 	 0 	 0
38000	 39	 0 	 0 	 0 	 0
38000	 39	 0 	 0 	 0 	 0
38000	 39	 0 	 0 	 0 	 0
38000	 39	 0 	 0 	 0 	 0
38000	 39	 0 	 0 	 0 	 0
38000	 39	 0 	 0 	 0 	 0
38000	 39	 0 	 0 	 0 	 0
38000	 39	 0 	 0 	 0 	 0
38000	 39	 0 	 0 	 0 	 0
38000	 39	 0 	 0 	 0 	 0
38000	 39	 0 	 0 	 0 	 0
38000	 39	 0 	 0 	 0 	 0
38000	 40	 0 	 0 	 0 	 0
38000	 40	 0 	 0 	 0 	 0
38000	 40	 0 	 0 	 0 	 0
38000	 40	 0 	 0 	 0 	 0
38000	 40	 0 	 0 	 0 	 0
38000	 40	 0 	 0 	 0 	 0
38000	 40	 0 	 0 	 0 	 0
38000	 40	 0 	 0 	 0 	 0
38000	 40	 0 	 0 	 0 	 0
38000	 40	 0 	 0 	 0 	 0
38000	 40	 0 	 0 	 0 	 0
38000	 40	 0 	 0 	 0 	 0
38000	 40	 0 	 0 	 0 	 0
38000	 40	 0 	 0 	 0 	 0
38000	 40	 0 	 0 	 0 	 0
38000	 40	 0 	 0 	 0 	 0
38000	 40	 0 	 0 	 0 	 0
38000	 40	 0 	 0 	 0 	 0
38000	 40	 0 	 0 	 0 	 0
38000	 40	 0 	 0 	 0 	 0
38000	 41	 0 	 0 	 0 	 0
38000	 41	 0 	 0 	 0 	 0
38000	 41	 0 	 0 	 0 	 0
38000	 41	 0 	 0 	 0 	 0
38000	 41	 0 	 0 	 0 	 0
38000	 41	 0 	 0 	 0 	 0
38000	 41	 0 	 0 	 0 	 0
38000	 41	 0 	 0 	 0 	 0
38000	 41	 0 	 0 	 0 	 0
38000	 41	 0 	 0 	 0 	 0
38000	 41	 0 	 0 	 0 	 0
38000	 41	 0 	 0 	 0 	 0
38000	 41	 0 	 0 	 0 	 0
38000	 41	 0 	 0 	 0 	 0
38000	 41	 0 	 0 	 0 	 0
38000	 41	 0 	 0 	 0 	 0
38000	 41	 0 	 0 	 0 	 0
38000	 41	 0 	 0 	 0 	 0
38000	 41	 0 	 0 	 0 	 0
38000	 41	 0 	 0 	 0 	 0
38000	 42	 0 	 0 	 0 	 0
38000	 42	 0 	 0 	 0 	 0
38000	 42	 0 	 0 	 0 	 0
38000	 42	 0 	 0 	 0 	 0
38000	 42	 0 	 0 	 0 	 0
38000	 42	 0 	 0 	 0 	 0
38000	 42	 0 	 0 	 0 	 0
38000	 42	 0 	 0 	 0 	 0
38000	 42	 0 	 0 	 0 	 0
38000	 42	 0 	 0 	 0 	 0
38000	 42	 0 	 0 	 0 	 0
38000	 42	 0 	 0 	 0 	 0
38000	 42	 0 	 0 	 0 	 0
38000	 42	 0 	 0 	 0 	 0
38000	 42	 0 	 0 	 0 	 0
38000	 42	 0 	 0 	 0 	 0
38000	 42	 0 	 0 	 0 	 0
38000	 42	 0 	 0 	 0 	 0
38000	 42	 0 	 0 	 0 	 0
38000	 42	 0 	 0 	 0 	 0
38000	 43	 0 	 0 	 0 	 0
38000	 43	 0 	 0 	 0 	 0
38000	 43	 0 	 0 	 0 	 0
38000	 43	 0 	 0 	 0 	 0
38000	 43	 0 	 0 	 0 	 0
38000	 43	 0 	 0 	 0 	 0
38000	 43	 0 	 0 	 0 	 0
38000	 43	 0 	 0 	 0 	 0
38000	 43	 0 	 0 	 0 	 0
38000	 43	 0 	 0 	 0 	 0
38000	 43	 0 	 0 	 0 	 0
38000	 43	 0 	 0 	 0 	 0
38000	 43	 0 	 0 	 0 	 0
38000	 43	 0 	 0 	 0 	 0
38000	 43	 0 	 0 	 0 	 0
38000	 43	 0 	 0 	 0 	 0
38000	 44	 0 	 0 	 0 	 0
38000	 44	 0 	 0 	 0 	 0
38000	 44	 0 	 0 	 0 	 0
38000	 44	 0 	 0 	 0 	 0
38000	 44	 0 	 0 	 0 	 0
38000	 44	 0 	 0 	 0 	 0
38000	 44	 0 	 0 	 0 	 0
38000	 44	 0 	 0 	 0 	 0
38000	 44	 0 	 0 	 0 	 0
38000	 44	 0 	 0 	 0 	 0
38000	 45	 0 	 0 	 0 	 0
38000	 45	 0 	 0 	 0 	 0
38000	 45	 0 	 0 	 0 	 0
38000	 45	 0 	 0 	 0 	 0
38000	 45	 0 	 0 	 0 	 0
38000	 45	 0 	 0 	 0 	 0
38000	 46	 0 	 0 	 0 	 0
38000	 46	 0 	 0 	 0 	 0
38000	 46	 0 	 0 	 0 	 0
38000	 46	 0 	 0 	 0 	 0
39000	 34	 0 	 0 	 0 	 0
39000	 34	 0 	 0 	 0 	 0
39000	 34	 0 	 0 	 0 	 0
39000	 34	 0 	 0 	 0 	 0
39000	 34	 0 	 0 	 0 	 0
39000	 34	 0 	 0 	 0 	 0
39000	 35	 0 	 0 	 0 	 0
39000	 35	 0 	 0 	 0 	 0
39000	 35	 0 	 0 	 0 	 0
39000	 35	 0 	 0 	 0 	 0
39000	 35	 0 	 0 	 0 	 0
39000	 35	 0 	 0 	 0 	 0
39000	 35	 0 	 0 	 0 	 0
39000	 38	 0 	 0 	 0 	 0
39000	 38	 0 	 0 	 0 	 0
39000	 38	 0 	 0 	 0 	 0
39000	 38	 0 	 0 	 0 	 0
39000	 38	 0 	 0 	 0 	 0
39000	 38	 0 	 0 	 0 	 0
39000	 38	 0 	 0 	 0 	 0
39000	 38	 0 	 0 	 0 	 0
39000	 38	 0 	 0 	 0 	 0
39000	 38	 0 	 0 	 0 	 0
39000	 38	 0 	 0 	 0 	 0
39000	 38	 0 	 0 	 0 	 0
39000	 38	 0 	 0 	 0 	 0
39000	 38	 0 	 0 	 0 	 0
39000	 38	 0 	 0 	 0 	 0
39000	 38	 0 	 0 	 0 	 0
39000	 38	 0 	 0 	 0 	 0
39000	 38	 0 	 0 	 0 	 0
39000	 38	 0 	 0 	 0 	 0
39000	 38	 0 	 0 	 0 	 0
39000	 39	 0 	 0 	 0 	 0
39000	 39	 0 	 0 	 0 	 0
39000	 39	 0 	 0 	 0 	 0
39000	 39	 0 	 0 	 0 	 0
39000	 39	 0 	 0 	 0 	 0
39000	 39	 0 	 0 	 0 	 0
39000	 39	 0 	 0 	 0 	 0
39000	 39	 0 	 0 	 0 	 0
39000	 39	 0 	 0 	 0 	 0
39000	 39	 0 	 0 	 0 	 0
39000	 39	 0 	 0 	 0 	 0
39000	 39	 0 	 0 	 0 	 0
39000	 39	 0 	 0 	 0 	 0
39000	 39	 0 	 0 	 0 	 0
39000	 39	 0 	 0 	 0 	 0
39000	 39	 0 	 0 	 0 	 0
39000	 39	 0 	 0 	 0 	 0
39000	 39	 0 	 0 	 0 	 0
39000	 39	 0 	 0 	 0 	 0
39000	 39	 0 	 0 	 0 	 0
39000	 39	 0 	 0 	 0 	 0
39000	 39	 0 	 0 	 0 	 0
39000	 39	 0 	 0 	 0 	 0
39000	 39	 0 	 0 	 0 	 0
39000	 39	 0 	 0 	 0 	 0
39000	 39	 0 	 0 	 0 	 0
39000	 40	 0 	 0 	 0 	 0
39000	 40	 0 	 0 	 0 	 0
39000	 40	 0 	 0 	 0 	 0
39000	 40	 0 	 0 	 0 	 0
39000	 40	 0 	 0 	 0 	 0
39000	 40	 0 	 0 	 0 	 0
39000	 40	 0 	 0 	 0 	 0
39000	 40	 0 	 0 	 0 	 0
39000	 40	 0 	 0 	 0 	 0
39000	 40	 0 	 0 	 0 	 0
39000	 40	 0 	 0 	 0 	 0
39000	 40	 0 	 0 	 0 	 0
39000	 40	 0 	 0 	 0 	 0
39000	 40	 0 	 0 	 0 	 0
39000	 40	 0 	 0 	 0 	 0
39000	 40	 0 	 0 	 0 	 0
39000	 40	 0 	 0 	 0 	 0
39000	 40	 0 	 0 	 0 	 0
39000	 40	 0 	 0 	 0 	 0
39000	 40	 0 	 0 	 0 	 0
39000	 40	 0 	 0 	 0 	 0
39000	 40	 0 	 0 	 0 	 0
39000	 40	 0 	 0 	 0 	 0
39000	 40	 0 	 0 	 0 	 0
39000	 40	 0 	 0 	 0 	 0
39000	 40	 0 	 0 	 0 	 0
39000	 41	 0 	 0 	 0 	 0
39000	 41	 0 	 0 	 0 	 0
39000	 41	 0 	 0 	 0 	 0
39000	 41	 0 	 0 	 0 	 0
39000	 41	 0 	 0 	 0 	 0
39000	 41	 0 	 0 	 0 	 0
39000	 41	 0 	 0 	 0 	 0
39000	 41	 0 	 0 	 0 	 0
39000	 41	 0 	 0 	 0 	 0
39000	 41	 0 	 0 	 0 	 0
39000	 41	 0 	 0 	 0 	 0
39000	 41	 0 	 0 	 0 	 0
39000	 41	 0 	 0 	 0 	 0
39000	 41	 0 	 0 	 0 	 0
39000	 41	 0 	 0 	 0 	 0
39000	 41	 0 	 0 	 0 	 0
39000	 41	 0 	 0 	 0 	 0
39000	 41	 0 	 0 	 0 	 0
39000	 41	 0 	 0 	 0 	 0
39000	 41	 0 	 0 	 0 	 0
39000	 41	 0 	 0 	 0 	 0
39000	 41	 0 	 0 	 0 	 0
39000	 41	 0 	 0 	 0 	 0
39000	 41	 0 	 0 	 0 	 0
39000	 41	 0 	 0 	 0 	 0
39000	 41	 0 	 0 	 0 	 0
39000	 42	 0 	 0 	 0 	 0
39000	 42	 0 	 0 	 0 	 0
39000	 42	 0 	 0 	 0 	 0
39000	 42	 0 	 0 	 0 	 0
39000	 42	 0 	 0 	 0 	 0
39000	 42	 0 	 0 	 0 	 0
39000	 42	 0 	 0 	 0 	 0
39000	 42	 0 	 0 	 0 	 0
39000	 42	 0 	 0 	 0 	 0
39000	 42	 0 	 0 	 0 	 0
39000	 42	 0 	 0 	 0 	 0
39000	 42	 0 	 0 	 0 	 0
39000	 42	 0 	 0 	 0 	 0
39000	 42	 0 	 0 	 0 	 0
39000	 42	 0 	 0 	 0 	 0
39000	 42	 0 	 0 	 0 	 0
39000	 42	 0 	 0 	 0 	 0
39000	 42	 0 	 0 	 0 	 0
39000	 42	 0 	 0 	 0 	 0
39000	 42	 0 	 0 	 0 	 0
39000	 42	 0 	 0 	 0 	 0
39000	 42	 0 	 0 	 0 	 0
39000	 42	 0 	 0 	 0 	 0
39000	 42	 0 	 0 	 0 	 0
39000	 43	 0 	 0 	 0 	 0
39000	 43	 0 	 0 	 0 	 0
39000	 43	 0 	 0 	 0 	 0
39000	 43	 0 	 0 	 0 	 0
39000	 43	 0 	 0 	 0 	 0
39000	 43	 0 	 0 	 0 	 0
39000	 43	 0 	 0 	 0 	 0
39000	 43	 0 	 0 	 0 	 0
39000	 43	 0 	 0 	 0 	 0
39000	 43	 0 	 0 	 0 	 0
39000	 43	 0 	 0 	 0 	 0
39000	 43	 0 	 0 	 0 	 0
39000	 43	 0 	 0 	 0 	 0
39000	 43	 0 	 0 	 0 	 0
39000	 43	 0 	 0 	 0 	 0
39000	 43	 0 	 0 	 0 	 0
39000	 43	 0 	 0 	 0 	 0
39000	 43	 0 	 0 	 0 	 0
39000	 43	 0 	 0 	 0 	 0
39000	 43	 0 	 0 	 0 	 0
39000	 44	 0 	 0 	 0 	 0
39000	 44	 0 	 0 	 0 	 0
39000	 44	 0 	 0 	 0 	 0
39000	 44	 0 	 0 	 0 	 0
39000	 44	 0 	 0 	 0 	 0
39000	 44	 0 	 0 	 0 	 0
39000	 44	 0 	 0 	 0 	 0
39000	 44	 0 	 0 	 0 	 0
39000	 44	 0 	 0 	 0 	 0
39000	 44	 0 	 0 	 0 	 0
39000	 44	 0 	 0 	 0 	 0
39000	 44	 0 	 0 	 0 	 0
39000	 44	 0 	 0 	 0 	 0
39000	 44	 0 	 0 	 0 	 0
39000	 45	 0 	 0 	 0 	 0
39000	 45	 0 	 0 	 0 	 0
39000	 45	 0 	 0 	 0 	 0
39000	 45	 0 	 0 	 0 	 0
39000	 45	 0 	 0 	 0 	 0
39000	 45	 0 	 0 	 0 	 0
39000	 45	 0 	 0 	 0 	 0
39000	 46	 0 	 0 	 0 	 0
39000	 46	 0 	 0 	 0 	 0
39000	 46	 0 	 0 	 0 	 0
39000	 46	 0 	 0 	 0 	 0
39000	 46	 0 	 0 	 0 	 0
39000	 46	 0 	 0 	 0 	 0
39000	 46	 0 	 0 	 0 	 0
39000	 47	 0 	 0 	 0 	 0
39000	 47	 0 	 0 	 0 	 0
39000	 47	 0 	 0 	 0 	 0
39000	 47	 0 	 0 	 0 	 0
40000	 34	 0 	 0 	 0 	 0
40000	 34	 0 	 0 	 0 	 0
40000	 34	 0 	 0 	 0 	 0
40000	 34	 0 	 0 	 0 	 0
40000	 34	 0 	 0 	 0 	 0
40000	 34	 0 	 0 	 0 	 0
40000	 37	 0 	 0 	 0 	 0
40000	 37	 0 	 0 	 0 	 0
40000	 37	 0 	 0 	 0 	 0
40000	 37	 0 	 0 	 0 	 0
40000	 37	 0 	 0 	 0 	 0
40000	 37	 0 	 0 	 0 	 0
40000	 37	 0 	 0 	 0 	 0
40000	 37	 0 	 0 	 0 	 0
40000	 37	 0 	 0 	 0 	 0
40000	 37	 0 	 0 	 0 	 0
40000	 37	 0 	 0 	 0 	 0
40000	 38	 0 	 0 	 0 	 0
40000	 38	 0 	 0 	 0 	 0
40000	 38	 0 	 0 	 0 	 0
40000	 38	 0 	 0 	 0 	 0
40000	 38	 0 	 0 	 0 	 0
40000	 38	 0 	 0 	 0 	 0
40000	 38	 0 	 0 	 0 	 0
40000	 38	 0 	 0 	 0 	 0
40000	 38	 0 	 0 	 0 	 0
40000	 38	 0 	 0 	 0 	 0
40000	 38	 0 	 0 	 0 	 0
40000	 38	 0 	 0 	 0 	 0
40000	 38	 0 	 0 	 0 	 0
40000	 38	 0 	 0 	 0 	 0
40000	 38	 0 	 0 	 0 	 0
40000	 38	 0 	 0 	 0 	 0
40000	 38	 0 	 0 	 0 	 0
40000	 38	 0 	 0 	 0 	 0
40000	 38	 0 	 0 	 0 	 0
40000	 38	 0 	 0 	 0 	 0
40000	 39	 0 	 0 	 0 	 0
40000	 39	 0 	 0 	 0 	 0
40000	 39	 0 	 0 	 0 	 0
40000	 39	 0 	 0 	 0 	 0
40000	 39	 0 	 0 	 0 	 0
40000	 39	 0 	 0 	 0 	 0
40000	 39	 0 	 0 	 0 	 0
40000	 39	 0 	 0 	 0 	 0
40000	 39	 0 	 0 	 0 	 0
40000	 39	 0 	 0 	 0 	 0
40000	 39	 0 	 0 	 0 	 0
40000	 39	 0 	 0 	 0 	 0
40000	 39	 0 	 0 	 0 	 0
40000	 39	 0 	 0 	 0 	 0
40000	 39	 0 	 0 	 0 	 0
40000	 39	 0 	 0 	 0 	 0
40000	 39	 0 	 0 	 0 	 0
40000	 39	 0 	 0 	 0 	 0
40000	 39	 0 	 0 	 0 	 0
40000	 39	 0 	 0 	 0 	 0
40000	 39	 0 	 0 	 0 	 0
40000	 39	 0 	 0 	 0 	 0
40000	 39	 0 	 0 	 0 	 0
40000	 39	 0 	 0 	 0 	 0
40000	 39	 0 	 0 	 0 	 0
40000	 39	 0 	 0 	 0 	 0
40000	 40	 0 	 0 	 0 	 0
40000	 40	 0 	 0 	 0 	 0
40000	 40	 0 	 0 	 0 	 0
40000	 40	 0 	 0 	 0 	 0
40000	 40	 0 	 0 	 0 	 0
40000	 40	 0 	 0 	 0 	 0
40000	 40	 0 	 0 	 0 	 0
40000	 40	 0 	 0 	 0 	 0
40000	 40	 0 	 0 	 0 	 0
40000	 40	 0 	 0 	 0 	 0
40000	 40	 0 	 0 	 0 	 0
40000	 40	 0 	 0 	 0 	 0
40000	 40	 0 	 0 	 0 	 0
40000	 40	 0 	 0 	 0 	 0
40000	 40	 0 	 0 	 0 	 0
40000	 40	 0 	 0 	 0 	 0
40000	 40	 0 	 0 	 0 	 0
40000	 40	 0 	 0 	 0 	 0
40000	 40	 0 	 0 	 0 	 0
40000	 40	 0 	 0 	 0 	 0
40000	 40	 0 	 0 	 0 	 0
40000	 40	 0 	 0 	 0 	 0
40000	 40	 0 	 0 	 0 	 0
40000	 40	 0 	 0 	 0 	 0
40000	 40	 0 	 0 	 0 	 0
40000	 40	 0 	 0 	 0 	 0
40000	 40	 0 	 0 	 0 	 0
40000	 40	 0 	 0 	 0 	 0
40000	 40	 0 	 0 	 0 	 0
40000	 40	 0 	 0 	 0 	 0
40000	 41	 0 	 0 	 0 	 0
40000	 41	 0 	 0 	 0 	 0
40000	 41	 0 	 0 	 0 	 0
40000	 41	 0 	 0 	 0 	 0
40000	 41	 0 	 0 	 0 	 0
40000	 41	 0 	 0 	 0 	 0
40000	 41	 0 	 0 	 0 	 0
40000	 41	 0 	 0 	 0 	 0
40000	 41	 0 	 0 	 0 	 0
40000	 41	 0 	 0 	 0 	 0
40000	 41	 0 	 0 	 0 	 0
40000	 41	 0 	 0 	 0 	 0
40000	 41	 0 	 0 	 0 	 0
40000	 41	 0 	 0 	 0 	 0
40000	 41	 0 	 0 	 0 	 0
40000	 41	 0 	 0 	 0 	 0
40000	 41	 0 	 0 	 0 	 0
40000	 41	 0 	 0 	 0 	 0
40000	 41	 0 	 0 	 0 	 0
40000	 41	 0 	 0 	 0 	 0
40000	 41	 0 	 0 	 0 	 0
40000	 41	 0 	 0 	 0 	 0
40000	 41	 0 	 0 	 0 	 0
40000	 41	 0 	 0 	 0 	 0
40000	 41	 0 	 0 	 0 	 0
40000	 41	 0 	 0 	 0 	 0
40000	 41	 0 	 0 	 0 	 0
40000	 41	 0 	 0 	 0 	 0
40000	 41	 0 	 0 	 0 	 0
40000	 41	 0 	 0 	 0 	 0
40000	 42	 0 	 0 	 0 	 0
40000	 42	 0 	 0 	 0 	 0
40000	 42	 0 	 0 	 0 	 0
40000	 42	 0 	 0 	 0 	 0
40000	 42	 0 	 0 	 0 	 0
40000	 42	 0 	 0 	 0 	 0
40000	 42	 0 	 0 	 0 	 0
40000	 42	 0 	 0 	 0 	 0
40000	 42	 0 	 0 	 0 	 0
40000	 42	 0 	 0 	 0 	 0
40000	 42	 0 	 0 	 0 	 0
40000	 42	 0 	 0 	 0 	 0
40000	 42	 0 	 0 	 0 	 0
40000	 42	 0 	 0 	 0 	 0
40000	 42	 0 	 0 	 0 	 0
40000	 42	 0 	 0 	 0 	 0
40000	 42	 0 	 0 	 0 	 0
40000	 42	 0 	 0 	 0 	 0
40000	 42	 0 	 0 	 0 	 0
40000	 42	 0 	 0 	 0 	 0
40000	 42	 0 	 0 	 0 	 0
40000	 42	 0 	 0 	 0 	 0
40000	 42	 0 	 0 	 0 	 0
40000	 42	 0 	 0 	 0 	 0
40000	 43	 0 	 0 	 0 	 0
40000	 43	 0 	 0 	 0 	 0
40000	 43	 0 	 0 	 0 	 0
40000	 43	 0 	 0 	 0 	 0
40000	 43	 0 	 0 	 0 	 0
40000	 43	 0 	 0 	 0 	 0
40000	 43	 0 	 0 	 0 	 0
40000	 43	 0 	 0 	 0 	 0
40000	 43	 0 	 0 	 0 	 0
40000	 43	 0 	 0 	 0 	 0
40000	 43	 0 	 0 	 0 	 0
40000	 43	 0 	 0 	 0 	 0
40000	 43	 0 	 0 	 0 	 0
40000	 43	 0 	 0 	 0 	 0
40000	 43	 0 	 0 	 0 	 0
40000	 43	 0 	 0 	 0 	 0
40000	 43	 0 	 0 	 0 	 0
40000	 43	 0 	 0 	 0 	 0
40000	 43	 0 	 0 	 0 	 0
40000	 43	 0 	 0 	 0 	 0
40000	 44	 0 	 0 	 0 	 0
40000	 44	 0 	 0 	 0 	 0
40000	 44	 0 	 0 	 0 	 0
40000	 44	 0 	 0 	 0 	 0
40000	 44	 0 	 0 	 0 	 0
40000	 44	 0 	 0 	 0 	 0
40000	 44	 0 	 0 	 0 	 0
40000	 44	 0 	 0 	 0 	 0
40000	 44	 0 	 0 	 0 	 0
40000	 44	 0 	 0 	 0 	 0
40000	 44	 0 	 0 	 0 	 0
40000	 44	 0 	 0 	 0 	 0
40000	 44	 0 	 0 	 0 	 0
40000	 44	 0 	 0 	 0 	 0
40000	 46	 0 	 0 	 0 	 0
40000	 46	 0 	 0 	 0 	 0
40000	 46	 0 	 0 	 0 	 0
40000	 46	 0 	 0 	 0 	 0
40000	 46	 0 	 0 	 0 	 0
40000	 46	 0 	 0 	 0 	 0
40000	 46	 0 	 0 	 0 	 0
40000	 47	 0 	 0 	 0 	 0
40000	 47	 0 	 0 	 0 	 0
40000	 47	 0 	 0 	 0 	 0
40000	 47	 0 	 0 	 0 	 0
40000	 47	 0 	 0 	 0 	 0
40000	 47	 0 	 0 	 0 	 0
40000	 48	 0 	 0 	 0 	 0
40000	 48	 0 	 0 	 0 	 0
40000	 48	 0 	 0 	 0 	 0
40000	 48	 0 	 0 	 0 	 0
41000	 34	 0 	 0 	 0 	 0
41000	 34	 0 	 0 	 0 	 0
41000	 34	 0 	 0 	 0 	 0
41000	 34	 0 	 0 	 0 	 0
41000	 34	 0 	 0 	 0 	 0
41000	 34	 0 	 0 	 0 	 0
41000	 35	 0 	 0 	 0 	 0
41000	 35	 0 	 0 	 0 	 0
41000	 35	 0 	 0 	 0 	 0
41000	 35	 0 	 0 	 0 	 0
41000	 35	 0 	 0 	 0 	 0
41000	 35	 0 	 0 	 0 	 0
41000	 35	 0 	 0 	 0 	 0
41000	 37	 0 	 0 	 0 	 0
41000	 37	 0 	 0 	 0 	 0
41000	 37	 0 	 0 	 0 	 0
41000	 37	 0 	 0 	 0 	 0
41000	 37	 0 	 0 	 0 	 0
41000	 37	 0 	 0 	 0 	 0
41000	 37	 0 	 0 	 0 	 0
41000	 37	 0 	 0 	 0 	 0
41000	 37	 0 	 0 	 0 	 0
41000	 37	 0 	 0 	 0 	 0
41000	 37	 0 	 0 	 0 	 0
41000	 38	 0 	 0 	 0 	 0
41000	 38	 0 	 0 	 0 	 0
41000	 38	 0 	 0 	 0 	 0
41000	 38	 0 	 0 	 0 	 0
41000	 38	 0 	 0 	 0 	 0
41000	 38	 0 	 0 	 0 	 0
41000	 38	 0 	 0 	 0 	 0
41000	 38	 0 	 0 	 0 	 0
41000	 38	 0 	 0 	 0 	 0
41000	 38	 0 	 0 	 0 	 0
41000	 38	 0 	 0 	 0 	 0
41000	 38	 0 	 0 	 0 	 0
41000	 38	 0 	 0 	 0 	 0
41000	 38	 0 	 0 	 0 	 0
41000	 38	 0 	 0 	 0 	 0
41000	 38	 0 	 0 	 0 	 0
41000	 38	 0 	 0 	 0 	 0
41000	 38	 0 	 0 	 0 	 0
41000	 38	 0 	 0 	 0 	 0
41000	 38	 0 	 0 	 0 	 0
41000	 39	 0 	 0 	 0 	 0
41000	 39	 0 	 0 	 0 	 0
41000	 39	 0 	 0 	 0 	 0
41000	 39	 0 	 0 	 0 	 0
41000	 39	 0 	 0 	 0 	 0
41000	 39	 0 	 0 	 0 	 0
41000	 39	 0 	 0 	 0 	 0
41000	 39	 0 	 0 	 0 	 0
41000	 39	 0 	 0 	 0 	 0
41000	 39	 0 	 0 	 0 	 0
41000	 39	 0 	 0 	 0 	 0
41000	 39	 0 	 0 	 0 	 0
41000	 39	 0 	 0 	 0 	 0
41000	 39	 0 	 0 	 0 	 0
41000	 39	 0 	 0 	 0 	 0
41000	 39	 0 	 0 	 0 	 0
41000	 39	 0 	 0 	 0 	 0
41000	 39	 0 	 0 	 0 	 0
41000	 39	 0 	 0 	 0 	 0
41000	 39	 0 	 0 	 0 	 0
41000	 39	 0 	 0 	 0 	 0
41000	 39	 0 	 0 	 0 	 0
41000	 39	 0 	 0 	 0 	 0
41000	 39	 0 	 0 	 0 	 0
41000	 40	 0 	 0 	 0 	 0
41000	 40	 0 	 0 	 0 	 0
41000	 40	 0 	 0 	 0 	 0
41000	 40	 0 	 0 	 0 	 0
41000	 40	 0 	 0 	 0 	 0
41000	 40	 0 	 0 	 0 	 0
41000	 40	 0 	 0 	 0 	 0
41000	 40	 0 	 0 	 0 	 0
41000	 40	 0 	 0 	 0 	 0
41000	 40	 0 	 0 	 0 	 0
41000	 40	 0 	 0 	 0 	 0
41000	 40	 0 	 0 	 0 	 0
41000	 40	 0 	 0 	 0 	 0
41000	 40	 0 	 0 	 0 	 0
41000	 40	 0 	 0 	 0 	 0
41000	 40	 0 	 0 	 0 	 0
41000	 40	 0 	 0 	 0 	 0
41000	 40	 0 	 0 	 0 	 0
41000	 40	 0 	 0 	 0 	 0
41000	 40	 0 	 0 	 0 	 0
41000	 40	 0 	 0 	 0 	 0
41000	 40	 0 	 0 	 0 	 0
41000	 40	 0 	 0 	 0 	 0
41000	 40	 0 	 0 	 0 	 0
41000	 40	 0 	 0 	 0 	 0
41000	 40	 0 	 0 	 0 	 0
41000	 40	 0 	 0 	 0 	 0
41000	 40	 0 	 0 	 0 	 0
41000	 40	 0 	 0 	 0 	 0
41000	 40	 0 	 0 	 0 	 0
41000	 41	 0 	 0 	 0 	 0
41000	 41	 0 	 0 	 0 	 0
41000	 41	 0 	 0 	 0 	 0
41000	 41	 0 	 0 	 0 	 0
41000	 41	 0 	 0 	 0 	 0
41000	 41	 0 	 0 	 0 	 0
41000	 41	 0 	 0 	 0 	 0
41000	 41	 0 	 0 	 0 	 0
41000	 41	 0 	 0 	 0 	 0
41000	 41	 0 	 0 	 0 	 0
41000	 41	 0 	 0 	 0 	 0
41000	 41	 0 	 0 	 0 	 0
41000	 41	 0 	 0 	 0 	 0
41000	 41	 0 	 0 	 0 	 0
41000	 41	 0 	 0 	 0 	 0
41000	 41	 0 	 0 	 0 	 0
41000	 41	 0 	 0 	 0 	 0
41000	 41	 0 	 0 	 0 	 0
41000	 41	 0 	 0 	 0 	 0
41000	 41	 0 	 0 	 0 	 0
41000	 41	 0 	 0 	 0 	 0
41000	 41	 0 	 0 	 0 	 0
41000	 41	 0 	 0 	 0 	 0
41000	 41	 0 	 0 	 0 	 0
41000	 41	 0 	 0 	 0 	 0
41000	 41	 0 	 0 	 0 	 0
41000	 41	 0 	 0 	 0 	 0
41000	 41	 0 	 0 	 0 	 0
41000	 41	 0 	 0 	 0 	 0
41000	 41	 0 	 0 	 0 	 0
41000	 42	 0 	 0 	 0 	 0
41000	 42	 0 	 0 	 0 	 0
41000	 42	 0 	 0 	 0 	 0
41000	 42	 0 	 0 	 0 	 0
41000	 42	 0 	 0 	 0 	 0
41000	 42	 0 	 0 	 0 	 0
41000	 42	 0 	 0 	 0 	 0
41000	 42	 0 	 0 	 0 	 0
41000	 42	 0 	 0 	 0 	 0
41000	 42	 0 	 0 	 0 	 0
41000	 42	 0 	 0 	 0 	 0
41000	 42	 0 	 0 	 0 	 0
41000	 42	 0 	 0 	 0 	 0
41000	 42	 0 	 0 	 0 	 0
41000	 42	 0 	 0 	 0 	 0
41000	 42	 0 	 0 	 0 	 0
41000	 42	 0 	 0 	 0 	 0
41000	 42	 0 	 0 	 0 	 0
41000	 42	 0 	 0 	 0 	 0
41000	 42	 0 	 0 	 0 	 0
41000	 42	 0 	 0 	 0 	 0
41000	 42	 0 	 0 	 0 	 0
41000	 42	 0 	 0 	 0 	 0
41000	 42	 0 	 0 	 0 	 0
41000	 43	 0 	 0 	 0 	 0
41000	 43	 0 	 0 	 0 	 0
41000	 43	 0 	 0 	 0 	 0
41000	 43	 0 	 0 	 0 	 0
41000	 43	 0 	 0 	 0 	 0
41000	 43	 0 	 0 	 0 	 0
41000	 43	 0 	 0 	 0 	 0
41000	 43	 0 	 0 	 0 	 0
41000	 43	 0 	 0 	 0 	 0
41000	 43	 0 	 0 	 0 	 0
41000	 43	 0 	 0 	 0 	 0
41000	 43	 0 	 0 	 0 	 0
41000	 43	 0 	 0 	 0 	 0
41000	 43	 0 	 0 	 0 	 0
41000	 43	 0 	 0 	 0 	 0
41000	 43	 0 	 0 	 0 	 0
41000	 43	 0 	 0 	 0 	 0
41000	 43	 0 	 0 	 0 	 0
41000	 43	 0 	 0 	 0 	 0
41000	 43	 0 	 0 	 0 	 0
41000	 44	 0 	 0 	 0 	 0
41000	 44	 0 	 0 	 0 	 0
41000	 44	 0 	 0 	 0 	 0
41000	 44	 0 	 0 	 0 	 0
41000	 44	 0 	 0 	 0 	 0
41000	 44	 0 	 0 	 0 	 0
41000	 44	 0 	 0 	 0 	 0
41000	 44	 0 	 0 	 0 	 0
41000	 44	 0 	 0 	 0 	 0
41000	 44	 0 	 0 	 0 	 0
41000	 44	 0 	 0 	 0 	 0
41000	 44	 0 	 0 	 0 	 0
41000	 44	 0 	 0 	 0 	 0
41000	 44	 0 	 0 	 0 	 0
41000	 47	 0 	 0 	 0 	 0
41000	 47	 0 	 0 	 0 	 0
41000	 47	 0 	 0 	 0 	 0
41000	 47	 0 	 0 	 0 	 0
41000	 47	 0 	 0 	 0 	 0
41000	 47	 0 	 0 	 0 	 0
41000	 47	 0 	 0 	 0 	 0
41000	 48	 0 	 0 	 0 	 0
41000	 48	 0 	 0 	 0 	 0
41000	 48	 0 	 0 	 0 	 0
41000	 48	 0 	 0 	 0 	 0
42000	 34	 0 	 0 	 0 	 0
42000	 34	 0 	 0 	 0 	 0
42000	 34	 0 	 0 	 0 	 0
42000	 34	 0 	 0 	 0 	 0
42000	 35	 0 	 0 	 0 	 0
42000	 35	 0 	 0 	 0 	 0
42000	 35	 0 	 0 	 0 	 0
42000	 35	 0 	 0 	 0 	 0
42000	 35	 0 	 0 	 0 	 0
42000	 35	 0 	 0 	 0 	 0
42000	 36	 0 	 0 	 0 	 0
42000	 36	 0 	 0 	 0 	 0
42000	 36	 0 	 0 	 0 	 0
42000	 36	 0 	 0 	 0 	 0
42000	 36	 0 	 0 	 0 	 0
42000	 36	 0 	 0 	 0 	 0
42000	 36	 0 	 0 	 0 	 0
42000	 37	 0 	 0 	 0 	 0
42000	 37	 0 	 0 	 0 	 0
42000	 37	 0 	 0 	 0 	 0
42000	 37	 0 	 0 	 0 	 0
42000	 37	 0 	 0 	 0 	 0
42000	 37	 0 	 0 	 0 	 0
42000	 37	 0 	 0 	 0 	 0
42000	 37	 0 	 0 	 0 	 0
42000	 37	 0 	 0 	 0 	 0
42000	 37	 0 	 0 	 0 	 0
42000	 37	 0 	 0 	 0 	 0
42000	 38	 0 	 0 	 0 	 0
42000	 38	 0 	 0 	 0 	 0
42000	 38	 0 	 0 	 0 	 0
42000	 38	 0 	 0 	 0 	 0
42000	 38	 0 	 0 	 0 	 0
42000	 38	 0 	 0 	 0 	 0
42000	 38	 0 	 0 	 0 	 0
42000	 38	 0 	 0 	 0 	 0
42000	 38	 0 	 0 	 0 	 0
42000	 38	 0 	 0 	 0 	 0
42000	 38	 0 	 0 	 0 	 0
42000	 38	 0 	 0 	 0 	 0
42000	 38	 0 	 0 	 0 	 0
42000	 38	 0 	 0 	 0 	 0
42000	 38	 0 	 0 	 0 	 0
42000	 38	 0 	 0 	 0 	 0
42000	 38	 0 	 0 	 0 	 0
42000	 38	 0 	 0 	 0 	 0
42000	 38	 0 	 0 	 0 	 0
42000	 38	 0 	 0 	 0 	 0
42000	 39	 0 	 0 	 0 	 0
42000	 39	 0 	 0 	 0 	 0
42000	 39	 0 	 0 	 0 	 0
42000	 39	 0 	 0 	 0 	 0
42000	 39	 0 	 0 	 0 	 0
42000	 39	 0 	 0 	 0 	 0
42000	 39	 0 	 0 	 0 	 0
42000	 39	 0 	 0 	 0 	 0
42000	 39	 0 	 0 	 0 	 0
42000	 39	 0 	 0 	 0 	 0
42000	 39	 0 	 0 	 0 	 0
42000	 39	 0 	 0 	 0 	 0
42000	 39	 0 	 0 	 0 	 0
42000	 39	 0 	 0 	 0 	 0
42000	 39	 0 	 0 	 0 	 0
42000	 39	 0 	 0 	 0 	 0
42000	 39	 0 	 0 	 0 	 0
42000	 39	 0 	 0 	 0 	 0
42000	 39	 0 	 0 	 0 	 0
42000	 39	 0 	 0 	 0 	 0
42000	 39	 0 	 0 	 0 	 0
42000	 39	 0 	 0 	 0 	 0
42000	 39	 0 	 0 	 0 	 0
42000	 39	 0 	 0 	 0 	 0
42000	 40	 0 	 0 	 0 	 0
42000	 40	 0 	 0 	 0 	 0
42000	 40	 0 	 0 	 0 	 0
42000	 40	 0 	 0 	 0 	 0
42000	 40	 0 	 0 	 0 	 0
42000	 40	 0 	 0 	 0 	 0
42000	 40	 0 	 0 	 0 	 0
42000	 40	 0 	 0 	 0 	 0
42000	 40	 0 	 0 	 0 	 0
42000	 40	 0 	 0 	 0 	 0
42000	 40	 0 	 0 	 0 	 0
42000	 40	 0 	 0 	 0 	 0
42000	 40	 0 	 0 	 0 	 0
42000	 40	 0 	 0 	 0 	 0
42000	 40	 0 	 0 	 0 	 0
42000	 40	 0 	 0 	 0 	 0
42000	 40	 0 	 0 	 0 	 0
42000	 40	 0 	 0 	 0 	 0
42000	 40	 0 	 0 	 0 	 0
42000	 40	 0 	 0 	 0 	 0
42000	 40	 0 	 0 	 0 	 0
42000	 40	 0 	 0 	 0 	 0
42000	 40	 0 	 0 	 0 	 0
42000	 40	 0 	 0 	 0 	 0
42000	 41	 0 	 0 	 0 	 0
42000	 41	 0 	 0 	 0 	 0
42000	 41	 0 	 0 	 0 	 0
42000	 41	 0 	 0 	 0 	 0
42000	 41	 0 	 0 	 0 	 0
42000	 41	 0 	 0 	 0 	 0
42000	 41	 0 	 0 	 0 	 0
42000	 41	 0 	 0 	 0 	 0
42000	 41	 0 	 0 	 0 	 0
42000	 41	 0 	 0 	 0 	 0
42000	 41	 0 	 0 	 0 	 0
42000	 41	 0 	 0 	 0 	 0
42000	 41	 0 	 0 	 0 	 0
42000	 41	 0 	 0 	 0 	 0
42000	 41	 0 	 0 	 0 	 0
42000	 41	 0 	 0 	 0 	 0
42000	 41	 0 	 0 	 0 	 0
42000	 41	 0 	 0 	 0 	 0
42000	 41	 0 	 0 	 0 	 0
42000	 41	 0 	 0 	 0 	 0
42000	 41	 0 	 0 	 0 	 0
42000	 41	 0 	 0 	 0 	 0
42000	 41	 0 	 0 	 0 	 0
42000	 41	 0 	 0 	 0 	 0
42000	 42	 0 	 0 	 0 	 0
42000	 42	 0 	 0 	 0 	 0
42000	 42	 0 	 0 	 0 	 0
42000	 42	 0 	 0 	 0 	 0
42000	 42	 0 	 0 	 0 	 0
42000	 42	 0 	 0 	 0 	 0
42000	 42	 0 	 0 	 0 	 0
42000	 42	 0 	 0 	 0 	 0
42000	 42	 0 	 0 	 0 	 0
42000	 42	 0 	 0 	 0 	 0
42000	 42	 0 	 0 	 0 	 0
42000	 42	 0 	 0 	 0 	 0
42000	 42	 0 	 0 	 0 	 0
42000	 42	 0 	 0 	 0 	 0
42000	 42	 0 	 0 	 0 	 0
42000	 42	 0 	 0 	 0 	 0
42000	 42	 0 	 0 	 0 	 0
42000	 42	 0 	 0 	 0 	 0
42000	 42	 0 	 0 	 0 	 0
42000	 42	 0 	 0 	 0 	 0
42000	 42	 0 	 0 	 0 	 0
42000	 42	 0 	 0 	 0 	 0
42000	 42	 0 	 0 	 0 	 0
42000	 42	 0 	 0 	 0 	 0
42000	 43	 0 	 0 	 0 	 0
42000	 43	 0 	 0 	 0 	 0
42000	 43	 0 	 0 	 0 	 0
42000	 43	 0 	 0 	 0 	 0
42000	 43	 0 	 0 	 0 	 0
42000	 43	 0 	 0 	 0 	 0
42000	 43	 0 	 0 	 0 	 0
42000	 43	 0 	 0 	 0 	 0
42000	 43	 0 	 0 	 0 	 0
42000	 43	 0 	 0 	 0 	 0
42000	 43	 0 	 0 	 0 	 0
42000	 43	 0 	 0 	 0 	 0
42000	 43	 0 	 0 	 0 	 0
42000	 43	 0 	 0 	 0 	 0
42000	 43	 0 	 0 	 0 	 0
42000	 43	 0 	 0 	 0 	 0
42000	 44	 0 	 0 	 0 	 0
42000	 44	 0 	 0 	 0 	 0
42000	 44	 0 	 0 	 0 	 0
42000	 44	 0 	 0 	 0 	 0
42000	 44	 0 	 0 	 0 	 0
42000	 44	 0 	 0 	 0 	 0
42000	 44	 0 	 0 	 0 	 0
42000	 44	 0 	 0 	 0 	 0
42000	 44	 0 	 0 	 0 	 0
42000	 44	 0 	 0 	 0 	 0
42000	 44	 0 	 0 	 0 	 0
42000	 44	 0 	 0 	 0 	 0
42000	 44	 0 	 0 	 0 	 0
42000	 44	 0 	 0 	 0 	 0
42000	 46	 0 	 0 	 0 	 0
42000	 46	 0 	 0 	 0 	 0
42000	 46	 0 	 0 	 0 	 0
42000	 46	 0 	 0 	 0 	 0
42000	 46	 0 	 0 	 0 	 0
42000	 46	 0 	 0 	 0 	 0
42000	 46	 0 	 0 	 0 	 0
42000	 47	 0 	 0 	 0 	 0
42000	 47	 0 	 0 	 0 	 0
42000	 47	 0 	 0 	 0 	 0
42000	 47	 0 	 0 	 0 	 0
42000	 47	 0 	 0 	 0 	 0
42000	 47	 0 	 0 	 0 	 0
42000	 47	 0 	 0 	 0 	 0
42000	 48	 0 	 0 	 0 	 0
42000	 48	 0 	 0 	 0 	 0
42000	 48	 0 	 0 	 0 	 0
42000	 48	 0 	 0 	 0 	 0
43000	 35	 0 	 0 	 0 	 0
43000	 35	 0 	 0 	 0 	 0
43000	 35	 0 	 0 	 0 	 0
43000	 35	 0 	 0 	 0 	 0
43000	 36	 0 	 0 	 0 	 0
43000	 36	 0 	 0 	 0 	 0
43000	 36	 0 	 0 	 0 	 0
43000	 36	 0 	 0 	 0 	 0
43000	 36	 0 	 0 	 0 	 0
43000	 36	 0 	 0 	 0 	 0
43000	 37	 0 	 0 	 0 	 0
43000	 37	 0 	 0 	 0 	 0
43000	 37	 0 	 0 	 0 	 0
43000	 37	 0 	 0 	 0 	 0
43000	 37	 0 	 0 	 0 	 0
43000	 37	 0 	 0 	 0 	 0
43000	 37	 0 	 0 	 0 	 0
43000	 37	 0 	 0 	 0 	 0
43000	 37	 0 	 0 	 0 	 0
43000	 37	 0 	 0 	 0 	 0
43000	 38	 0 	 0 	 0 	 0
43000	 38	 0 	 0 	 0 	 0
43000	 38	 0 	 0 	 0 	 0
43000	 38	 0 	 0 	 0 	 0
43000	 38	 0 	 0 	 0 	 0
43000	 38	 0 	 0 	 0 	 0
43000	 38	 0 	 0 	 0 	 0
43000	 38	 0 	 0 	 0 	 0
43000	 38	 0 	 0 	 0 	 0
43000	 38	 0 	 0 	 0 	 0
43000	 38	 0 	 0 	 0 	 0
43000	 38	 0 	 0 	 0 	 0
43000	 38	 0 	 0 	 0 	 0
43000	 38	 0 	 0 	 0 	 0
43000	 39	 0 	 0 	 0 	 0
43000	 39	 0 	 0 	 0 	 0
43000	 39	 0 	 0 	 0 	 0
43000	 39	 0 	 0 	 0 	 0
43000	 39	 0 	 0 	 0 	 0
43000	 39	 0 	 0 	 0 	 0
43000	 39	 0 	 0 	 0 	 0
43000	 39	 0 	 0 	 0 	 0
43000	 39	 0 	 0 	 0 	 0
43000	 39	 0 	 0 	 0 	 0
43000	 39	 0 	 0 	 0 	 0
43000	 39	 0 	 0 	 0 	 0
43000	 39	 0 	 0 	 0 	 0
43000	 39	 0 	 0 	 0 	 0
43000	 39	 0 	 0 	 0 	 0
43000	 39	 0 	 0 	 0 	 0
43000	 39	 0 	 0 	 0 	 0
43000	 39	 0 	 0 	 0 	 0
43000	 39	 0 	 0 	 0 	 0
43000	 39	 0 	 0 	 0 	 0
43000	 40	 0 	 0 	 0 	 0
43000	 40	 0 	 0 	 0 	 0
43000	 40	 0 	 0 	 0 	 0
43000	 40	 0 	 0 	 0 	 0
43000	 40	 0 	 0 	 0 	 0
43000	 40	 0 	 0 	 0 	 0
43000	 40	 0 	 0 	 0 	 0
43000	 40	 0 	 0 	 0 	 0
43000	 40	 0 	 0 	 0 	 0
43000	 40	 0 	 0 	 0 	 0
43000	 40	 0 	 0 	 0 	 0
43000	 40	 0 	 0 	 0 	 0
43000	 40	 0 	 0 	 0 	 0
43000	 40	 0 	 0 	 0 	 0
43000	 40	 0 	 0 	 0 	 0
43000	 40	 0 	 0 	 0 	 0
43000	 40	 0 	 0 	 0 	 0
43000	 40	 0 	 0 	 0 	 0
43000	 40	 0 	 0 	 0 	 0
43000	 40	 0 	 0 	 0 	 0
43000	 41	 0 	 0 	 0 	 0
43000	 41	 0 	 0 	 0 	 0
43000	 41	 0 	 0 	 0 	 0
43000	 41	 0 	 0 	 0 	 0
43000	 41	 0 	 0 	 0 	 0
43000	 41	 0 	 0 	 0 	 0
43000	 41	 0 	 0 	 0 	 0
43000	 41	 0 	 0 	 0 	 0
43000	 41	 0 	 0 	 0 	 0
43000	 41	 0 	 0 	 0 	 0
43000	 41	 0 	 0 	 0 	 0
43000	 41	 0 	 0 	 0 	 0
43000	 41	 0 	 0 	 0 	 0
43000	 41	 0 	 0 	 0 	 0
43000	 41	 0 	 0 	 0 	 0
43000	 41	 0 	 0 	 0 	 0
43000	 41	 0 	 0 	 0 	 0
43000	 41	 0 	 0 	 0 	 0
43000	 41	 0 	 0 	 0 	 0
43000	 41	 0 	 0 	 0 	 0
43000	 42	 0 	 0 	 0 	 0
43000	 42	 0 	 0 	 0 	 0
43000	 42	 0 	 0 	 0 	 0
43000	 42	 0 	 0 	 0 	 0
43000	 42	 0 	 0 	 0 	 0
43000	 42	 0 	 0 	 0 	 0
43000	 42	 0 	 0 	 0 	 0
43000	 42	 0 	 0 	 0 	 0
43000	 42	 0 	 0 	 0 	 0
43000	 42	 0 	 0 	 0 	 0
43000	 42	 0 	 0 	 0 	 0
43000	 42	 0 	 0 	 0 	 0
43000	 42	 0 	 0 	 0 	 0
43000	 42	 0 	 0 	 0 	 0
43000	 42	 0 	 0 	 0 	 0
43000	 42	 0 	 0 	 0 	 0
43000	 42	 0 	 0 	 0 	 0
43000	 42	 0 	 0 	 0 	 0
43000	 42	 0 	 0 	 0 	 0
43000	 42	 0 	 0 	 0 	 0
43000	 43	 0 	 0 	 0 	 0
43000	 43	 0 	 0 	 0 	 0
43000	 43	 0 	 0 	 0 	 0
43000	 43	 0 	 0 	 0 	 0
43000	 43	 0 	 0 	 0 	 0
43000	 43	 0 	 0 	 0 	 0
43000	 43	 0 	 0 	 0 	 0
43000	 43	 0 	 0 	 0 	 0
43000	 43	 0 	 0 	 0 	 0
43000	 43	 0 	 0 	 0 	 0
43000	 43	 0 	 0 	 0 	 0
43000	 43	 0 	 0 	 0 	 0
43000	 43	 0 	 0 	 0 	 0
43000	 43	 0 	 0 	 0 	 0
43000	 43	 0 	 0 	 0 	 0
43000	 43	 0 	 0 	 0 	 0
43000	 44	 0 	 0 	 0 	 0
43000	 44	 0 	 0 	 0 	 0
43000	 44	 0 	 0 	 0 	 0
43000	 44	 0 	 0 	 0 	 0
43000	 44	 0 	 0 	 0 	 0
43000	 44	 0 	 0 	 0 	 0
43000	 44	 0 	 0 	 0 	 0
43000	 44	 0 	 0 	 0 	 0
43000	 44	 0 	 0 	 0 	 0
43000	 44	 0 	 0 	 0 	 0
43000	 44	 0 	 0 	 0 	 0
43000	 44	 0 	 0 	 0 	 0
43000	 44	 0 	 0 	 0 	 0
43000	 44	 0 	 0 	 0 	 0
43000	 45	 0 	 0 	 0 	 0
43000	 45	 0 	 0 	 0 	 0
43000	 45	 0 	 0 	 0 	 0
43000	 45	 0 	 0 	 0 	 0
43000	 45	 0 	 0 	 0 	 0
43000	 45	 0 	 0 	 0 	 0
43000	 45	 0 	 0 	 0 	 0
43000	 46	 0 	 0 	 0 	 0
43000	 46	 0 	 0 	 0 	 0
43000	 46	 0 	 0 	 0 	 0
43000	 46	 0 	 0 	 0 	 0
43000	 46	 0 	 0 	 0 	 0
43000	 46	 0 	 0 	 0 	 0
43000	 46	 0 	 0 	 0 	 0
43000	 47	 0 	 0 	 0 	 0
43000	 47	 0 	 0 	 0 	 0
43000	 47	 0 	 0 	 0 	 0
43000	 47	 0 	 0 	 0 	 0
43000	 48	 0 	 0 	 0 	 0
43000	 48	 0 	 0 	 0 	 0
43000	 48	 0 	 0 	 0 	 0
43000	 48	 0 	 0 	 0 	 0
44000	 37	 0 	 0 	 0 	 0
44000	 37	 0 	 0 	 0 	 0
44000	 37	 0 	 0 	 0 	 0
44000	 37	 0 	 0 	 0 	 0
44000	 37	 0 	 0 	 0 	 0
44000	 37	 0 	 0 	 0 	 0
44000	 37	 0 	 0 	 0 	 0
44000	 37	 0 	 0 	 0 	 0
44000	 37	 0 	 0 	 0 	 0
44000	 37	 0 	 0 	 0 	 0
44000	 38	 0 	 0 	 0 	 0
44000	 38	 0 	 0 	 0 	 0
44000	 38	 0 	 0 	 0 	 0
44000	 38	 0 	 0 	 0 	 0
44000	 38	 0 	 0 	 0 	 0
44000	 38	 0 	 0 	 0 	 0
44000	 38	 0 	 0 	 0 	 0
44000	 38	 0 	 0 	 0 	 0
44000	 38	 0 	 0 	 0 	 0
44000	 38	 0 	 0 	 0 	 0
44000	 39	 0 	 0 	 0 	 0
44000	 39	 0 	 0 	 0 	 0
44000	 39	 0 	 0 	 0 	 0
44000	 39	 0 	 0 	 0 	 0
44000	 39	 0 	 0 	 0 	 0
44000	 39	 0 	 0 	 0 	 0
44000	 39	 0 	 0 	 0 	 0
44000	 39	 0 	 0 	 0 	 0
44000	 39	 0 	 0 	 0 	 0
44000	 39	 0 	 0 	 0 	 0
44000	 39	 0 	 0 	 0 	 0
44000	 39	 0 	 0 	 0 	 0
44000	 39	 0 	 0 	 0 	 0
44000	 39	 0 	 0 	 0 	 0
44000	 40	 0 	 0 	 0 	 0
44000	 40	 0 	 0 	 0 	 0
44000	 40	 0 	 0 	 0 	 0
44000	 40	 0 	 0 	 0 	 0
44000	 40	 0 	 0 	 0 	 0
44000	 40	 0 	 0 	 0 	 0
44000	 40	 0 	 0 	 0 	 0
44000	 40	 0 	 0 	 0 	 0
44000	 40	 0 	 0 	 0 	 0
44000	 40	 0 	 0 	 0 	 0
44000	 40	 0 	 0 	 0 	 0
44000	 40	 0 	 0 	 0 	 0
44000	 40	 0 	 0 	 0 	 0
44000	 40	 0 	 0 	 0 	 0
44000	 41	 0 	 0 	 0 	 0
44000	 41	 0 	 0 	 0 	 0
44000	 41	 0 	 0 	 0 	 0
44000	 41	 0 	 0 	 0 	 0
44000	 41	 0 	 0 	 0 	 0
44000	 41	 0 	 0 	 0 	 0
44000	 41	 0 	 0 	 0 	 0
44000	 41	 0 	 0 	 0 	 0
44000	 41	 0 	 0 	 0 	 0
44000	 41	 0 	 0 	 0 	 0
44000	 41	 0 	 0 	 0 	 0
44000	 41	 0 	 0 	 0 	 0
44000	 41	 0 	 0 	 0 	 0
44000	 41	 0 	 0 	 0 	 0
44000	 42	 0 	 0 	 0 	 0
44000	 42	 0 	 0 	 0 	 0
44000	 42	 0 	 0 	 0 	 0
44000	 42	 0 	 0 	 0 	 0
44000	 42	 0 	 0 	 0 	 0
44000	 42	 0 	 0 	 0 	 0
44000	 42	 0 	 0 	 0 	 0
44000	 42	 0 	 0 	 0 	 0
44000	 42	 0 	 0 	 0 	 0
44000	 42	 0 	 0 	 0 	 0
44000	 42	 0 	 0 	 0 	 0
44000	 42	 0 	 0 	 0 	 0
44000	 42	 0 	 0 	 0 	 0
44000	 42	 0 	 0 	 0 	 0
44000	 43	 0 	 0 	 0 	 0
44000	 43	 0 	 0 	 0 	 0
44000	 43	 0 	 0 	 0 	 0
44000	 43	 0 	 0 	 0 	 0
44000	 43	 0 	 0 	 0 	 0
44000	 43	 0 	 0 	 0 	 0
44000	 43	 0 	 0 	 0 	 0
44000	 43	 0 	 0 	 0 	 0
44000	 43	 0 	 0 	 0 	 0
44000	 43	 0 	 0 	 0 	 0
44000	 43	 0 	 0 	 0 	 0
44000	 43	 0 	 0 	 0 	 0
44000	 43	 0 	 0 	 0 	 0
44000	 43	 0 	 0 	 0 	 0
44000	 44	 0 	 0 	 0 	 0
44000	 44	 0 	 0 	 0 	 0
44000	 44	 0 	 0 	 0 	 0
44000	 44	 0 	 0 	 0 	 0
44000	 44	 0 	 0 	 0 	 0
44000	 44	 0 	 0 	 0 	 0
44000	 44	 0 	 0 	 0 	 0
44000	 45	 0 	 0 	 0 	 0
44000	 45	 0 	 0 	 0 	 0
44000	 45	 0 	 0 	 0 	 0
44000	 45	 0 	 0 	 0 	 0
44000	 45	 0 	 0 	 0 	 0
44000	 45	 0 	 0 	 0 	 0
44000	 45	 0 	 0 	 0 	 0
44000	 46	 0 	 0 	 0 	 0
44000	 46	 0 	 0 	 0 	 0
44000	 46	 0 	 0 	 0 	 0
44000	 46	 0 	 0 	 0 	 0
44000	 47	 0 	 0 	 0 	 0
44000	 47	 0 	 0 	 0 	 0
44000	 47	 0 	 0 	 0 	 0
44000	 47	 0 	 0 	 0 	 0
45000	 38	 0 	 0 	 0 	 0
45000	 38	 0 	 0 	 0 	 0
45000	 38	 0 	 0 	 0 	 0
45000	 38	 0 	 0 	 0 	 0
45000	 38	 0 	 0 	 0 	 0
45000	 38	 0 	 0 	 0 	 0
45000	 38	 0 	 0 	 0 	 0
45000	 38	 0 	 0 	 0 	 0
45000	 38	 0 	 0 	 0 	 0
45000	 38	 0 	 0 	 0 	 0
45000	 38	 0 	 0 	 0 	 0
45000	 39	 0 	 0 	 0 	 0
45000	 39	 0 	 0 	 0 	 0
45000	 39	 0 	 0 	 0 	 0
45000	 39	 0 	 0 	 0 	 0
45000	 39	 0 	 0 	 0 	 0
45000	 39	 0 	 0 	 0 	 0
45000	 39	 0 	 0 	 0 	 0
45000	 39	 0 	 0 	 0 	 0
45000	 39	 0 	 0 	 0 	 0
45000	 39	 0 	 0 	 0 	 0
45000	 40	 0 	 0 	 0 	 0
45000	 40	 0 	 0 	 0 	 0
45000	 40	 0 	 0 	 0 	 0
45000	 40	 0 	 0 	 0 	 0
45000	 40	 0 	 0 	 0 	 0
45000	 40	 0 	 0 	 0 	 0
45000	 40	 0 	 0 	 0 	 0
45000	 40	 0 	 0 	 0 	 0
45000	 40	 0 	 0 	 0 	 0
45000	 40	 0 	 0 	 0 	 0
45000	 41	 0 	 0 	 0 	 0
45000	 41	 0 	 0 	 0 	 0
45000	 41	 0 	 0 	 0 	 0
45000	 41	 0 	 0 	 0 	 0
45000	 41	 0 	 0 	 0 	 0
45000	 41	 0 	 0 	 0 	 0
45000	 41	 0 	 0 	 0 	 0
45000	 41	 0 	 0 	 0 	 0
45000	 41	 0 	 0 	 0 	 0
45000	 41	 0 	 0 	 0 	 0
45000	 42	 0 	 0 	 0 	 0
45000	 42	 0 	 0 	 0 	 0
45000	 42	 0 	 0 	 0 	 0
45000	 42	 0 	 0 	 0 	 0
45000	 43	 0 	 0 	 0 	 0
45000	 43	 0 	 0 	 0 	 0
45000	 43	 0 	 0 	 0 	 0
45000	 43	 0 	 0 	 0 	 0
45000	 44	 0 	 0 	 0 	 0
45000	 44	 0 	 0 	 0 	 0
45000	 44	 0 	 0 	 0 	 0
45000	 44	 0 	 0 	 0 	 0
45000	 45	 0 	 0 	 0 	 0
45000	 45	 0 	 0 	 0 	 0
45000	 45	 0 	 0 	 0 	 0
45000	 45	 0 	 0 	 0 	 0
45000	 46	 0 	 0 	 0 	 0
45000	 46	 0 	 0 	 0 	 0
45000	 46	 0 	 0 	 0 	 0
45000	 46	 0 	 0 	 0 	 0
