%!PS-Adobe-2.0 EPSF-2.0
%%Title: 60Co_2_5.ps
%%Creator: gnuplot 4.2 patchlevel 0
%%CreationDate: Tue Sep 23 10:17:15 2008
%%DocumentFonts: (atend)
%%BoundingBox: 50 50 410 302
%%EndComments
%%BeginProlog
/gnudict 256 dict def
gnudict begin
%
% The following 6 true/false flags may be edited by hand if required
% The unit line width may also be changed
%
/Color true def
/Blacktext false def
/Solid true def
/Dashlength 1 def
/Landscape false def
/Level1 false def
/Rounded false def
/TransparentPatterns false def
/gnulinewidth 5.000 def
/userlinewidth gnulinewidth def
%
/vshift -70 def
/dl1 {
  10.0 Dashlength mul mul
  Rounded { currentlinewidth 0.75 mul sub dup 0 le { pop 0.01 } if } if
} def
/dl2 {
  10.0 Dashlength mul mul
  Rounded { currentlinewidth 0.75 mul add } if
} def
/hpt_ 31.5 def
/vpt_ 31.5 def
/hpt hpt_ def
/vpt vpt_ def
Level1 {} {
/SDict 10 dict def
systemdict /pdfmark known not {
  userdict /pdfmark systemdict /cleartomark get put
} if
SDict begin [
  /Title (60Co_2_5.ps)
  /Subject (gnuplot plot)
  /Creator (gnuplot 4.2 patchlevel 0)
  /Author (,,,)
%  /Producer (gnuplot)
%  /Keywords ()
  /CreationDate (Tue Sep 23 10:17:15 2008)
  /DOCINFO pdfmark
end
} ifelse
%
% Gnuplot Prolog Version 4.2 (August 2006)
%
/M {moveto} bind def
/L {lineto} bind def
/R {rmoveto} bind def
/V {rlineto} bind def
/N {newpath moveto} bind def
/Z {closepath} bind def
/C {setrgbcolor} bind def
/f {rlineto fill} bind def
/vpt2 vpt 2 mul def
/hpt2 hpt 2 mul def
/Lshow {currentpoint stroke M 0 vshift R 
	Blacktext {gsave 0 setgray show grestore} {show} ifelse} def
/Rshow {currentpoint stroke M dup stringwidth pop neg vshift R
	Blacktext {gsave 0 setgray show grestore} {show} ifelse} def
/Cshow {currentpoint stroke M dup stringwidth pop -2 div vshift R 
	Blacktext {gsave 0 setgray show grestore} {show} ifelse} def
/UP {dup vpt_ mul /vpt exch def hpt_ mul /hpt exch def
  /hpt2 hpt 2 mul def /vpt2 vpt 2 mul def} def
/DL {Color {setrgbcolor Solid {pop []} if 0 setdash}
 {pop pop pop 0 setgray Solid {pop []} if 0 setdash} ifelse} def
/BL {stroke userlinewidth 2 mul setlinewidth
	Rounded {1 setlinejoin 1 setlinecap} if} def
/AL {stroke userlinewidth 2 div setlinewidth
	Rounded {1 setlinejoin 1 setlinecap} if} def
/UL {dup gnulinewidth mul /userlinewidth exch def
	dup 1 lt {pop 1} if 10 mul /udl exch def} def
/PL {stroke userlinewidth setlinewidth
	Rounded {1 setlinejoin 1 setlinecap} if} def
% Default Line colors
/LCw {1 1 1} def
/LCb {0 0 0} def
/LCa {0 0 0} def
/LC0 {1 0 0} def
/LC1 {0 1 0} def
/LC2 {0 0 1} def
/LC3 {1 0 1} def
/LC4 {0 1 1} def
/LC5 {1 1 0} def
/LC6 {0 0 0} def
/LC7 {1 0.3 0} def
/LC8 {0.5 0.5 0.5} def
% Default Line Types
/LTw {PL [] 1 setgray} def
/LTb {BL [] LCb DL} def
/LTa {AL [1 udl mul 2 udl mul] 0 setdash LCa setrgbcolor} def
/LT0 {PL [] LC0 DL} def
/LT1 {PL [4 dl1 2 dl2] LC1 DL} def
/LT2 {PL [2 dl1 3 dl2] LC2 DL} def
/LT3 {PL [1 dl1 1.5 dl2] LC3 DL} def
/LT4 {PL [6 dl1 2 dl2 1 dl1 2 dl2] LC4 DL} def
/LT5 {PL [3 dl1 3 dl2 1 dl1 3 dl2] LC5 DL} def
/LT6 {PL [2 dl1 2 dl2 2 dl1 6 dl2] LC6 DL} def
/LT7 {PL [1 dl1 2 dl2 6 dl1 2 dl2 1 dl1 2 dl2] LC7 DL} def
/LT8 {PL [2 dl1 2 dl2 2 dl1 2 dl2 2 dl1 2 dl2 2 dl1 4 dl2] LC8 DL} def
/Pnt {stroke [] 0 setdash gsave 1 setlinecap M 0 0 V stroke grestore} def
/Dia {stroke [] 0 setdash 2 copy vpt add M
  hpt neg vpt neg V hpt vpt neg V
  hpt vpt V hpt neg vpt V closepath stroke
  Pnt} def
/Pls {stroke [] 0 setdash vpt sub M 0 vpt2 V
  currentpoint stroke M
  hpt neg vpt neg R hpt2 0 V stroke
 } def
/Box {stroke [] 0 setdash 2 copy exch hpt sub exch vpt add M
  0 vpt2 neg V hpt2 0 V 0 vpt2 V
  hpt2 neg 0 V closepath stroke
  Pnt} def
/Crs {stroke [] 0 setdash exch hpt sub exch vpt add M
  hpt2 vpt2 neg V currentpoint stroke M
  hpt2 neg 0 R hpt2 vpt2 V stroke} def
/TriU {stroke [] 0 setdash 2 copy vpt 1.12 mul add M
  hpt neg vpt -1.62 mul V
  hpt 2 mul 0 V
  hpt neg vpt 1.62 mul V closepath stroke
  Pnt} def
/Star {2 copy Pls Crs} def
/BoxF {stroke [] 0 setdash exch hpt sub exch vpt add M
  0 vpt2 neg V hpt2 0 V 0 vpt2 V
  hpt2 neg 0 V closepath fill} def
/TriUF {stroke [] 0 setdash vpt 1.12 mul add M
  hpt neg vpt -1.62 mul V
  hpt 2 mul 0 V
  hpt neg vpt 1.62 mul V closepath fill} def
/TriD {stroke [] 0 setdash 2 copy vpt 1.12 mul sub M
  hpt neg vpt 1.62 mul V
  hpt 2 mul 0 V
  hpt neg vpt -1.62 mul V closepath stroke
  Pnt} def
/TriDF {stroke [] 0 setdash vpt 1.12 mul sub M
  hpt neg vpt 1.62 mul V
  hpt 2 mul 0 V
  hpt neg vpt -1.62 mul V closepath fill} def
/DiaF {stroke [] 0 setdash vpt add M
  hpt neg vpt neg V hpt vpt neg V
  hpt vpt V hpt neg vpt V closepath fill} def
/Pent {stroke [] 0 setdash 2 copy gsave
  translate 0 hpt M 4 {72 rotate 0 hpt L} repeat
  closepath stroke grestore Pnt} def
/PentF {stroke [] 0 setdash gsave
  translate 0 hpt M 4 {72 rotate 0 hpt L} repeat
  closepath fill grestore} def
/Circle {stroke [] 0 setdash 2 copy
  hpt 0 360 arc stroke Pnt} def
/CircleF {stroke [] 0 setdash hpt 0 360 arc fill} def
/C0 {BL [] 0 setdash 2 copy moveto vpt 90 450 arc} bind def
/C1 {BL [] 0 setdash 2 copy moveto
	2 copy vpt 0 90 arc closepath fill
	vpt 0 360 arc closepath} bind def
/C2 {BL [] 0 setdash 2 copy moveto
	2 copy vpt 90 180 arc closepath fill
	vpt 0 360 arc closepath} bind def
/C3 {BL [] 0 setdash 2 copy moveto
	2 copy vpt 0 180 arc closepath fill
	vpt 0 360 arc closepath} bind def
/C4 {BL [] 0 setdash 2 copy moveto
	2 copy vpt 180 270 arc closepath fill
	vpt 0 360 arc closepath} bind def
/C5 {BL [] 0 setdash 2 copy moveto
	2 copy vpt 0 90 arc
	2 copy moveto
	2 copy vpt 180 270 arc closepath fill
	vpt 0 360 arc} bind def
/C6 {BL [] 0 setdash 2 copy moveto
	2 copy vpt 90 270 arc closepath fill
	vpt 0 360 arc closepath} bind def
/C7 {BL [] 0 setdash 2 copy moveto
	2 copy vpt 0 270 arc closepath fill
	vpt 0 360 arc closepath} bind def
/C8 {BL [] 0 setdash 2 copy moveto
	2 copy vpt 270 360 arc closepath fill
	vpt 0 360 arc closepath} bind def
/C9 {BL [] 0 setdash 2 copy moveto
	2 copy vpt 270 450 arc closepath fill
	vpt 0 360 arc closepath} bind def
/C10 {BL [] 0 setdash 2 copy 2 copy moveto vpt 270 360 arc closepath fill
	2 copy moveto
	2 copy vpt 90 180 arc closepath fill
	vpt 0 360 arc closepath} bind def
/C11 {BL [] 0 setdash 2 copy moveto
	2 copy vpt 0 180 arc closepath fill
	2 copy moveto
	2 copy vpt 270 360 arc closepath fill
	vpt 0 360 arc closepath} bind def
/C12 {BL [] 0 setdash 2 copy moveto
	2 copy vpt 180 360 arc closepath fill
	vpt 0 360 arc closepath} bind def
/C13 {BL [] 0 setdash 2 copy moveto
	2 copy vpt 0 90 arc closepath fill
	2 copy moveto
	2 copy vpt 180 360 arc closepath fill
	vpt 0 360 arc closepath} bind def
/C14 {BL [] 0 setdash 2 copy moveto
	2 copy vpt 90 360 arc closepath fill
	vpt 0 360 arc} bind def
/C15 {BL [] 0 setdash 2 copy vpt 0 360 arc closepath fill
	vpt 0 360 arc closepath} bind def
/Rec {newpath 4 2 roll moveto 1 index 0 rlineto 0 exch rlineto
	neg 0 rlineto closepath} bind def
/Square {dup Rec} bind def
/Bsquare {vpt sub exch vpt sub exch vpt2 Square} bind def
/S0 {BL [] 0 setdash 2 copy moveto 0 vpt rlineto BL Bsquare} bind def
/S1 {BL [] 0 setdash 2 copy vpt Square fill Bsquare} bind def
/S2 {BL [] 0 setdash 2 copy exch vpt sub exch vpt Square fill Bsquare} bind def
/S3 {BL [] 0 setdash 2 copy exch vpt sub exch vpt2 vpt Rec fill Bsquare} bind def
/S4 {BL [] 0 setdash 2 copy exch vpt sub exch vpt sub vpt Square fill Bsquare} bind def
/S5 {BL [] 0 setdash 2 copy 2 copy vpt Square fill
	exch vpt sub exch vpt sub vpt Square fill Bsquare} bind def
/S6 {BL [] 0 setdash 2 copy exch vpt sub exch vpt sub vpt vpt2 Rec fill Bsquare} bind def
/S7 {BL [] 0 setdash 2 copy exch vpt sub exch vpt sub vpt vpt2 Rec fill
	2 copy vpt Square fill Bsquare} bind def
/S8 {BL [] 0 setdash 2 copy vpt sub vpt Square fill Bsquare} bind def
/S9 {BL [] 0 setdash 2 copy vpt sub vpt vpt2 Rec fill Bsquare} bind def
/S10 {BL [] 0 setdash 2 copy vpt sub vpt Square fill 2 copy exch vpt sub exch vpt Square fill
	Bsquare} bind def
/S11 {BL [] 0 setdash 2 copy vpt sub vpt Square fill 2 copy exch vpt sub exch vpt2 vpt Rec fill
	Bsquare} bind def
/S12 {BL [] 0 setdash 2 copy exch vpt sub exch vpt sub vpt2 vpt Rec fill Bsquare} bind def
/S13 {BL [] 0 setdash 2 copy exch vpt sub exch vpt sub vpt2 vpt Rec fill
	2 copy vpt Square fill Bsquare} bind def
/S14 {BL [] 0 setdash 2 copy exch vpt sub exch vpt sub vpt2 vpt Rec fill
	2 copy exch vpt sub exch vpt Square fill Bsquare} bind def
/S15 {BL [] 0 setdash 2 copy Bsquare fill Bsquare} bind def
/D0 {gsave translate 45 rotate 0 0 S0 stroke grestore} bind def
/D1 {gsave translate 45 rotate 0 0 S1 stroke grestore} bind def
/D2 {gsave translate 45 rotate 0 0 S2 stroke grestore} bind def
/D3 {gsave translate 45 rotate 0 0 S3 stroke grestore} bind def
/D4 {gsave translate 45 rotate 0 0 S4 stroke grestore} bind def
/D5 {gsave translate 45 rotate 0 0 S5 stroke grestore} bind def
/D6 {gsave translate 45 rotate 0 0 S6 stroke grestore} bind def
/D7 {gsave translate 45 rotate 0 0 S7 stroke grestore} bind def
/D8 {gsave translate 45 rotate 0 0 S8 stroke grestore} bind def
/D9 {gsave translate 45 rotate 0 0 S9 stroke grestore} bind def
/D10 {gsave translate 45 rotate 0 0 S10 stroke grestore} bind def
/D11 {gsave translate 45 rotate 0 0 S11 stroke grestore} bind def
/D12 {gsave translate 45 rotate 0 0 S12 stroke grestore} bind def
/D13 {gsave translate 45 rotate 0 0 S13 stroke grestore} bind def
/D14 {gsave translate 45 rotate 0 0 S14 stroke grestore} bind def
/D15 {gsave translate 45 rotate 0 0 S15 stroke grestore} bind def
/DiaE {stroke [] 0 setdash vpt add M
  hpt neg vpt neg V hpt vpt neg V
  hpt vpt V hpt neg vpt V closepath stroke} def
/BoxE {stroke [] 0 setdash exch hpt sub exch vpt add M
  0 vpt2 neg V hpt2 0 V 0 vpt2 V
  hpt2 neg 0 V closepath stroke} def
/TriUE {stroke [] 0 setdash vpt 1.12 mul add M
  hpt neg vpt -1.62 mul V
  hpt 2 mul 0 V
  hpt neg vpt 1.62 mul V closepath stroke} def
/TriDE {stroke [] 0 setdash vpt 1.12 mul sub M
  hpt neg vpt 1.62 mul V
  hpt 2 mul 0 V
  hpt neg vpt -1.62 mul V closepath stroke} def
/PentE {stroke [] 0 setdash gsave
  translate 0 hpt M 4 {72 rotate 0 hpt L} repeat
  closepath stroke grestore} def
/CircE {stroke [] 0 setdash 
  hpt 0 360 arc stroke} def
/Opaque {gsave closepath 1 setgray fill grestore 0 setgray closepath} def
/DiaW {stroke [] 0 setdash vpt add M
  hpt neg vpt neg V hpt vpt neg V
  hpt vpt V hpt neg vpt V Opaque stroke} def
/BoxW {stroke [] 0 setdash exch hpt sub exch vpt add M
  0 vpt2 neg V hpt2 0 V 0 vpt2 V
  hpt2 neg 0 V Opaque stroke} def
/TriUW {stroke [] 0 setdash vpt 1.12 mul add M
  hpt neg vpt -1.62 mul V
  hpt 2 mul 0 V
  hpt neg vpt 1.62 mul V Opaque stroke} def
/TriDW {stroke [] 0 setdash vpt 1.12 mul sub M
  hpt neg vpt 1.62 mul V
  hpt 2 mul 0 V
  hpt neg vpt -1.62 mul V Opaque stroke} def
/PentW {stroke [] 0 setdash gsave
  translate 0 hpt M 4 {72 rotate 0 hpt L} repeat
  Opaque stroke grestore} def
/CircW {stroke [] 0 setdash 
  hpt 0 360 arc Opaque stroke} def
/BoxFill {gsave Rec 1 setgray fill grestore} def
/Density {
  /Fillden exch def
  currentrgbcolor
  /ColB exch def /ColG exch def /ColR exch def
  /ColR ColR Fillden mul Fillden sub 1 add def
  /ColG ColG Fillden mul Fillden sub 1 add def
  /ColB ColB Fillden mul Fillden sub 1 add def
  ColR ColG ColB setrgbcolor} def
/BoxColFill {gsave Rec PolyFill} def
/PolyFill {gsave Density fill grestore grestore} def
/h {rlineto rlineto rlineto gsave fill grestore} bind def
%
% PostScript Level 1 Pattern Fill routine for rectangles
% Usage: x y w h s a XX PatternFill
%	x,y = lower left corner of box to be filled
%	w,h = width and height of box
%	  a = angle in degrees between lines and x-axis
%	 XX = 0/1 for no/yes cross-hatch
%
/PatternFill {gsave /PFa [ 9 2 roll ] def
  PFa 0 get PFa 2 get 2 div add PFa 1 get PFa 3 get 2 div add translate
  PFa 2 get -2 div PFa 3 get -2 div PFa 2 get PFa 3 get Rec
  gsave 1 setgray fill grestore clip
  currentlinewidth 0.5 mul setlinewidth
  /PFs PFa 2 get dup mul PFa 3 get dup mul add sqrt def
  0 0 M PFa 5 get rotate PFs -2 div dup translate
  0 1 PFs PFa 4 get div 1 add floor cvi
	{PFa 4 get mul 0 M 0 PFs V} for
  0 PFa 6 get ne {
	0 1 PFs PFa 4 get div 1 add floor cvi
	{PFa 4 get mul 0 2 1 roll M PFs 0 V} for
 } if
  stroke grestore} def
%
/languagelevel where
 {pop languagelevel} {1} ifelse
 2 lt
	{/InterpretLevel1 true def}
	{/InterpretLevel1 Level1 def}
 ifelse
%
% PostScript level 2 pattern fill definitions
%
/Level2PatternFill {
/Tile8x8 {/PaintType 2 /PatternType 1 /TilingType 1 /BBox [0 0 8 8] /XStep 8 /YStep 8}
	bind def
/KeepColor {currentrgbcolor [/Pattern /DeviceRGB] setcolorspace} bind def
<< Tile8x8
 /PaintProc {0.5 setlinewidth pop 0 0 M 8 8 L 0 8 M 8 0 L stroke} 
>> matrix makepattern
/Pat1 exch def
<< Tile8x8
 /PaintProc {0.5 setlinewidth pop 0 0 M 8 8 L 0 8 M 8 0 L stroke
	0 4 M 4 8 L 8 4 L 4 0 L 0 4 L stroke}
>> matrix makepattern
/Pat2 exch def
<< Tile8x8
 /PaintProc {0.5 setlinewidth pop 0 0 M 0 8 L
	8 8 L 8 0 L 0 0 L fill}
>> matrix makepattern
/Pat3 exch def
<< Tile8x8
 /PaintProc {0.5 setlinewidth pop -4 8 M 8 -4 L
	0 12 M 12 0 L stroke}
>> matrix makepattern
/Pat4 exch def
<< Tile8x8
 /PaintProc {0.5 setlinewidth pop -4 0 M 8 12 L
	0 -4 M 12 8 L stroke}
>> matrix makepattern
/Pat5 exch def
<< Tile8x8
 /PaintProc {0.5 setlinewidth pop -2 8 M 4 -4 L
	0 12 M 8 -4 L 4 12 M 10 0 L stroke}
>> matrix makepattern
/Pat6 exch def
<< Tile8x8
 /PaintProc {0.5 setlinewidth pop -2 0 M 4 12 L
	0 -4 M 8 12 L 4 -4 M 10 8 L stroke}
>> matrix makepattern
/Pat7 exch def
<< Tile8x8
 /PaintProc {0.5 setlinewidth pop 8 -2 M -4 4 L
	12 0 M -4 8 L 12 4 M 0 10 L stroke}
>> matrix makepattern
/Pat8 exch def
<< Tile8x8
 /PaintProc {0.5 setlinewidth pop 0 -2 M 12 4 L
	-4 0 M 12 8 L -4 4 M 8 10 L stroke}
>> matrix makepattern
/Pat9 exch def
/Pattern1 {PatternBgnd KeepColor Pat1 setpattern} bind def
/Pattern2 {PatternBgnd KeepColor Pat2 setpattern} bind def
/Pattern3 {PatternBgnd KeepColor Pat3 setpattern} bind def
/Pattern4 {PatternBgnd KeepColor Landscape {Pat5} {Pat4} ifelse setpattern} bind def
/Pattern5 {PatternBgnd KeepColor Landscape {Pat4} {Pat5} ifelse setpattern} bind def
/Pattern6 {PatternBgnd KeepColor Landscape {Pat9} {Pat6} ifelse setpattern} bind def
/Pattern7 {PatternBgnd KeepColor Landscape {Pat8} {Pat7} ifelse setpattern} bind def
} def
%
%
%End of PostScript Level 2 code
%
/PatternBgnd {
  TransparentPatterns {} {gsave 1 setgray fill grestore} ifelse
} def
%
% Substitute for Level 2 pattern fill codes with
% grayscale if Level 2 support is not selected.
%
/Level1PatternFill {
/Pattern1 {0.250 Density} bind def
/Pattern2 {0.500 Density} bind def
/Pattern3 {0.750 Density} bind def
/Pattern4 {0.125 Density} bind def
/Pattern5 {0.375 Density} bind def
/Pattern6 {0.625 Density} bind def
/Pattern7 {0.875 Density} bind def
} def
%
% Now test for support of Level 2 code
%
Level1 {Level1PatternFill} {Level2PatternFill} ifelse
%
/Symbol-Oblique /Symbol findfont [1 0 .167 1 0 0] makefont
dup length dict begin {1 index /FID eq {pop pop} {def} ifelse} forall
currentdict end definefont pop
/MFshow {
   { dup 5 get 3 ge
     { 5 get 3 eq {gsave} {grestore} ifelse }
     {dup dup 0 get findfont exch 1 get scalefont setfont
     [ currentpoint ] exch dup 2 get 0 exch R dup 5 get 2 ne {dup dup 6
     get exch 4 get {show} {stringwidth pop 0 R} ifelse }if dup 5 get 0 eq
     {dup 3 get {2 get neg 0 exch R pop} {pop aload pop M} ifelse} {dup 5
     get 1 eq {dup 2 get exch dup 3 get exch 6 get stringwidth pop -2 div
     dup 0 R} {dup 6 get stringwidth pop -2 div 0 R 6 get
     show 2 index {aload pop M neg 3 -1 roll neg R pop pop} {pop pop pop
     pop aload pop M} ifelse }ifelse }ifelse }
     ifelse }
   forall} bind def
/MFwidth {0 exch { dup 5 get 3 ge { 5 get 3 eq { 0 } { pop } ifelse }
 {dup 3 get{dup dup 0 get findfont exch 1 get scalefont setfont
     6 get stringwidth pop add} {pop} ifelse} ifelse} forall} bind def
/MLshow { currentpoint stroke M
  0 exch R
  Blacktext {gsave 0 setgray MFshow grestore} {MFshow} ifelse } bind def
/MRshow { currentpoint stroke M
  exch dup MFwidth neg 3 -1 roll R
  Blacktext {gsave 0 setgray MFshow grestore} {MFshow} ifelse } bind def
/MCshow { currentpoint stroke M
  exch dup MFwidth -2 div 3 -1 roll R
  Blacktext {gsave 0 setgray MFshow grestore} {MFshow} ifelse } bind def
/XYsave    { [( ) 1 2 true false 3 ()] } bind def
/XYrestore { [( ) 1 2 true false 4 ()] } bind def
end
%%EndProlog
gnudict begin
gsave
50 50 translate
0.050 0.050 scale
0 setgray
newpath
(Helvetica) findfont 210 scalefont setfont
1.000 UL
LTb
819 630 M
63 0 V
5961 0 R
-63 0 V
stroke
693 630 M
[ [(Helvetica) 210.0 0.0 true true 0 ( 2)]
] -70.0 MRshow
1.000 UL
LTb
819 1323 M
63 0 V
5961 0 R
-63 0 V
stroke
693 1323 M
[ [(Helvetica) 210.0 0.0 true true 0 ( 3)]
] -70.0 MRshow
1.000 UL
LTb
819 2016 M
63 0 V
5961 0 R
-63 0 V
stroke
693 2016 M
[ [(Helvetica) 210.0 0.0 true true 0 ( 4)]
] -70.0 MRshow
1.000 UL
LTb
819 2709 M
63 0 V
5961 0 R
-63 0 V
stroke
693 2709 M
[ [(Helvetica) 210.0 0.0 true true 0 ( 5)]
] -70.0 MRshow
1.000 UL
LTb
819 3402 M
63 0 V
5961 0 R
-63 0 V
stroke
693 3402 M
[ [(Helvetica) 210.0 0.0 true true 0 ( 6)]
] -70.0 MRshow
1.000 UL
LTb
819 4095 M
63 0 V
5961 0 R
-63 0 V
stroke
693 4095 M
[ [(Helvetica) 210.0 0.0 true true 0 ( 7)]
] -70.0 MRshow
1.000 UL
LTb
819 4788 M
63 0 V
5961 0 R
-63 0 V
stroke
693 4788 M
[ [(Helvetica) 210.0 0.0 true true 0 ( 8)]
] -70.0 MRshow
1.000 UL
LTb
819 630 M
0 63 V
0 4095 R
0 -63 V
stroke
819 420 M
[ [(Helvetica) 210.0 0.0 true true 0 ( 3)]
] -70.0 MCshow
1.000 UL
LTb
1680 630 M
0 63 V
0 4095 R
0 -63 V
stroke
1680 420 M
[ [(Helvetica) 210.0 0.0 true true 0 ( 4)]
] -70.0 MCshow
1.000 UL
LTb
2540 630 M
0 63 V
0 4095 R
0 -63 V
stroke
2540 420 M
[ [(Helvetica) 210.0 0.0 true true 0 ( 5)]
] -70.0 MCshow
1.000 UL
LTb
3401 630 M
0 63 V
0 4095 R
0 -63 V
stroke
3401 420 M
[ [(Helvetica) 210.0 0.0 true true 0 ( 6)]
] -70.0 MCshow
1.000 UL
LTb
4261 630 M
0 63 V
0 4095 R
0 -63 V
stroke
4261 420 M
[ [(Helvetica) 210.0 0.0 true true 0 ( 7)]
] -70.0 MCshow
1.000 UL
LTb
5122 630 M
0 63 V
0 4095 R
0 -63 V
stroke
5122 420 M
[ [(Helvetica) 210.0 0.0 true true 0 ( 8)]
] -70.0 MCshow
1.000 UL
LTb
5982 630 M
0 63 V
0 4095 R
0 -63 V
stroke
5982 420 M
[ [(Helvetica) 210.0 0.0 true true 0 ( 9)]
] -70.0 MCshow
1.000 UL
LTb
6843 630 M
0 63 V
0 4095 R
0 -63 V
stroke
6843 420 M
[ [(Helvetica) 210.0 0.0 true true 0 ( 10)]
] -70.0 MCshow
1.000 UL
LTb
1.000 UL
LTb
819 4788 N
819 630 L
6024 0 V
0 4158 V
-6024 0 V
Z stroke
LCb setrgbcolor
210 2709 M
currentpoint gsave translate 90 rotate 0 0 moveto
[ [(Helvetica) 210.0 0.0 true true 0 (H\(MeV\))]
] -70.0 MCshow
grestore
LTb
LCb setrgbcolor
3831 105 M
[ [(Helvetica) 210.0 0.0 true true 0 (k)]
] -70.0 MCshow
LTb
1.000 UP
1.000 UL
LTb
2.000 UP
1.000 UL
LT2
/Helvetica findfont 210 scalefont setfont
3401 4644 M
2604 4095 L
-64 -40 V
1748 3402 L
-68 -121 V
1065 2709 L
-44 -693 V
13 -693 V
646 -160 V
449 160 V
411 48 V
861 117 V
860 484 V
60 44 V
801 486 V
281 207 V
579 592 V
126 101 V
-126 260 V
-110 433 V
-750 410 V
-861 147 V
-860 -8 V
0 -148 R
2818 4095 L
2540 3922 L
1910 3402 L
1680 2998 L
1369 2709 L
16 -693 V
295 -361 V
860 -81 V
861 224 V
369 218 V
491 191 V
684 502 V
177 254 V
481 439 V
-249 693 V
-232 127 V
-861 295 V
-860 -21 V
0 -147 R
3032 4095 L
2540 3788 L
2072 3402 L
1680 2715 L
-7 -6 V
7 -69 V
121 -624 V
739 -238 V
686 238 V
175 41 V
860 353 V
407 299 V
454 651 V
46 42 V
-46 112 V
-179 581 V
-682 286 V
-860 -32 V
0 -144 R
3241 4095 L
2540 3658 L
2230 3402 L
1841 2709 L
578 -693 V
121 -39 V
112 39 V
749 175 V
860 418 V
136 100 V
559 693 V
-330 693 V
-365 153 V
-860 -43 V
860 -93 R
-287 -17 V
-573 -34 V
2540 3524 L
2392 3402 L
2009 2709 L
531 -551 V
861 171 V
726 380 V
134 112 V
505 581 V
-463 693 V
-42 17 V
3401 3928 M
2558 3402 L
-18 -26 V
2178 2709 L
362 -376 V
861 133 V
464 243 V
396 330 V
315 363 V
-315 454 V
-860 72 V
0 -130 R
2767 3402 L
2540 3072 L
2343 2709 L
197 -205 V
861 97 V
206 108 V
654 544 V
130 149 V
-130 186 V
-860 210 V
0 -133 R
2979 3402 L
2540 2762 L
-29 -53 V
29 -30 V
383 30 V
478 67 V
741 626 V
-741 263 V
0 -133 R
3192 3402 L
209 -309 V
366 309 V
-366 130 V
3401 4644 Star
2604 4095 Star
2540 4055 Star
1748 3402 Star
1680 3281 Star
1065 2709 Star
1021 2016 Star
1034 1323 Star
1680 1163 Star
2129 1323 Star
2540 1371 Star
3401 1488 Star
4261 1972 Star
4321 2016 Star
5122 2502 Star
5403 2709 Star
5982 3301 Star
6108 3402 Star
5982 3662 Star
5872 4095 Star
5122 4505 Star
4261 4652 Star
3401 4644 Star
3401 4496 Star
2818 4095 Star
2540 3922 Star
1910 3402 Star
1680 2998 Star
1369 2709 Star
1385 2016 Star
1680 1655 Star
2540 1574 Star
3401 1798 Star
3770 2016 Star
4261 2207 Star
4945 2709 Star
5122 2963 Star
5603 3402 Star
5354 4095 Star
5122 4222 Star
4261 4517 Star
3401 4496 Star
3401 4349 Star
3032 4095 Star
2540 3788 Star
2072 3402 Star
1680 2715 Star
1673 2709 Star
1680 2640 Star
1801 2016 Star
2540 1778 Star
3226 2016 Star
3401 2057 Star
4261 2410 Star
4668 2709 Star
5122 3360 Star
5168 3402 Star
5122 3514 Star
4943 4095 Star
4261 4381 Star
3401 4349 Star
3401 4205 Star
3241 4095 Star
2540 3658 Star
2230 3402 Star
1841 2709 Star
2419 2016 Star
2540 1977 Star
2652 2016 Star
3401 2191 Star
4261 2609 Star
4397 2709 Star
4956 3402 Star
4626 4095 Star
4261 4248 Star
3401 4205 Star
4261 4112 Star
3974 4095 Star
3401 4061 Star
2540 3524 Star
2392 3402 Star
2009 2709 Star
2540 2158 Star
3401 2329 Star
4127 2709 Star
4261 2821 Star
4766 3402 Star
4303 4095 Star
4261 4112 Star
3401 3928 Star
2558 3402 Star
2540 3376 Star
2178 2709 Star
2540 2333 Star
3401 2466 Star
3865 2709 Star
4261 3039 Star
4576 3402 Star
4261 3856 Star
3401 3928 Star
3401 3798 Star
2767 3402 Star
2540 3072 Star
2343 2709 Star
2540 2504 Star
3401 2601 Star
3607 2709 Star
4261 3253 Star
4391 3402 Star
4261 3588 Star
3401 3798 Star
3401 3665 Star
2979 3402 Star
2540 2762 Star
2511 2709 Star
2540 2679 Star
2923 2709 Star
3401 2776 Star
4142 3402 Star
3401 3665 Star
3401 3532 Star
3192 3402 Star
3401 3093 Star
3767 3402 Star
3401 3532 Star
4.000 UL
LT0
/Helvetica findfont 210 scalefont setfont
4362 1934 M
151 90 V
146 95 V
141 97 V
136 101 V
130 103 V
123 106 V
116 107 V
108 109 V
101 110 V
92 110 V
83 110 V
75 110 V
65 109 V
55 108 V
45 106 V
35 104 V
25 102 V
15 98 V
5 96 V
-6 91 V
-17 87 V
-26 83 V
-37 78 V
-47 73 V
-57 68 V
-66 62 V
-76 56 V
-84 50 V
-94 44 V
-101 37 V
-110 30 V
-117 24 V
-124 17 V
-131 9 V
-137 3 V
-142 -4 V
-146 -11 V
-152 -18 V
-155 -25 V
-157 -32 V
-161 -39 V
-162 -44 V
-163 -52 V
-163 -57 V
-164 -63 V
-162 -69 V
-161 -74 V
-159 -79 V
-156 -84 V
-152 -88 V
-149 -92 V
-144 -96 V
-138 -99 V
1860 3589 L
1733 3484 L
1614 3377 L
1501 3269 L
1397 3160 L
-96 -110 V
-88 -110 V
-79 -111 V
-70 -109 V
-60 -109 V
954 2504 L
914 2399 L
883 2296 L
864 2196 L
-10 -97 V
1 -93 V
11 -90 V
21 -85 V
32 -80 V
42 -76 V
52 -70 V
61 -65 V
71 -59 V
80 -53 V
90 -47 V
97 -40 V
106 -34 V
113 -27 V
121 -20 V
127 -14 V
134 -6 V
140 1 V
144 7 V
149 15 V
153 22 V
157 28 V
159 35 V
161 42 V
163 48 V
163 54 V
164 60 V
163 66 V
162 72 V
160 76 V
157 82 V
154 86 V
/Helvetica findfont 210 scalefont setfont
-101 247 R
117 78 V
114 82 V
108 84 V
104 87 V
98 89 V
93 91 V
87 92 V
80 94 V
74 94 V
66 94 V
60 95 V
51 94 V
44 94 V
36 92 V
28 91 V
20 88 V
11 87 V
4 84 V
-6 81 V
-13 78 V
-22 74 V
-30 70 V
-37 67 V
-46 61 V
-54 58 V
-61 52 V
-68 47 V
-75 42 V
-82 36 V
-88 30 V
-94 25 V
-100 20 V
-105 13 V
-110 7 V
-114 1 V
-118 -5 V
-121 -10 V
-124 -17 V
-127 -23 V
-129 -28 V
-129 -34 V
-131 -40 V
-131 -45 V
-131 -50 V
-131 -55 V
-129 -60 V
-127 -64 V
-125 -69 V
-122 -73 V
-119 -76 V
-115 -80 V
-111 -83 V
-106 -85 V
-101 -88 V
-96 -90 V
-90 -92 V
-83 -93 V
-77 -94 V
-70 -95 V
-63 -94 V
-56 -95 V
-48 -94 V
-40 -92 V
-32 -92 V
-23 -90 V
-16 -88 V
-7 -85 V
1 -82 V
9 -80 V
17 -76 V
26 -72 V
1410 1995 L
42 -64 V
50 -59 V
57 -55 V
64 -49 V
72 -45 V
79 -39 V
85 -33 V
91 -28 V
97 -22 V
102 -16 V
108 -11 V
112 -4 V
116 2 V
119 8 V
123 14 V
126 19 V
128 26 V
129 31 V
130 37 V
131 42 V
131 48 V
131 52 V
130 58 V
128 62 V
126 67 V
124 71 V
120 74 V
/Helvetica findfont 210 scalefont setfont
-89 179 R
99 68 V
95 70 V
92 73 V
87 75 V
82 77 V
78 78 V
72 80 V
67 81 V
61 81 V
54 82 V
49 82 V
42 82 V
35 80 V
29 80 V
22 79 V
14 77 V
8 75 V
0 72 V
-6 71 V
-14 67 V
-20 64 V
-28 61 V
-34 58 V
-41 53 V
-48 50 V
-54 45 V
-60 41 V
-66 36 V
-71 32 V
-77 27 V
-81 22 V
-87 16 V
-91 12 V
-94 6 V
-98 2 V
-102 -4 V
-104 -9 V
-107 -15 V
-108 -19 V
-110 -24 V
-111 -30 V
-112 -34 V
-111 -38 V
-112 -43 V
-111 -48 V
-109 -52 V
-108 -55 V
-106 -59 V
-103 -63 V
-100 -66 V
-97 -69 V
-94 -72 V
-89 -73 V
-85 -76 V
-80 -78 V
-75 -79 V
-69 -81 V
-64 -81 V
-58 -82 V
-52 -82 V
-45 -81 V
-39 -82 V
-32 -80 V
-25 -79 V
-18 -78 V
-11 -76 V
-4 -74 V
3 -71 V
10 -69 V
17 -66 V
24 -63 V
31 -59 V
38 -55 V
44 -52 V
51 -48 V
57 -43 V
1975 1969 L
68 -34 V
75 -29 V
79 -25 V
84 -19 V
89 -14 V
92 -9 V
97 -4 V
100 1 V
103 7 V
105 11 V
108 17 V
109 22 V
110 27 V
112 32 V
111 36 V
112 41 V
111 45 V
110 50 V
109 53 V
107 58 V
105 61 V
101 64 V
/Helvetica findfont 210 scalefont setfont
2697 3818 M
-86 -59 V
-84 -61 V
-80 -64 V
-76 -65 V
-72 -68 V
-68 -69 V
-64 -70 V
-58 -71 V
-53 -71 V
-48 -72 V
-42 -72 V
-37 -71 V
-31 -72 V
-24 -70 V
-19 -69 V
-13 -68 V
-6 -66 V
0 -64 V
6 -62 V
12 -60 V
19 -57 V
24 -54 V
31 -51 V
36 -47 V
42 -44 V
48 -40 V
53 -37 V
58 -32 V
63 -29 V
67 -24 V
72 -20 V
77 -15 V
80 -11 V
83 -6 V
86 -2 V
90 3 V
91 8 V
94 11 V
95 17 V
97 21 V
98 25 V
98 29 V
98 33 V
98 38 V
97 41 V
96 45 V
95 48 V
93 52 V
90 55 V
88 57 V
85 61 V
82 62 V
78 65 V
75 66 V
70 68 V
65 70 V
61 70 V
56 72 V
51 71 V
45 72 V
39 72 V
34 72 V
28 70 V
21 70 V
16 69 V
10 67 V
3 65 V
-3 63 V
-9 61 V
-16 58 V
-21 55 V
-28 53 V
-33 49 V
-40 46 V
-44 42 V
-51 39 V
-55 34 V
-61 31 V
-65 26 V
-70 22 V
-74 17 V
4282 4259 L
-82 9 V
-85 4 V
-88 -1 V
-90 -5 V
-93 -9 V
-95 -15 V
-96 -18 V
-97 -23 V
-98 -27 V
-98 -32 V
-98 -35 V
-98 -40 V
-96 -43 V
-96 -46 V
-94 -50 V
-91 -54 V
-90 -56 V
/Helvetica findfont 210 scalefont setfont
3933 2565 M
80 51 V
77 53 V
75 55 V
71 56 V
68 58 V
65 60 V
60 60 V
56 61 V
51 62 V
47 62 V
43 62 V
37 61 V
32 62 V
26 60 V
22 60 V
15 58 V
11 57 V
4 55 V
-1 54 V
-6 51 V
-12 49 V
-18 47 V
-23 43 V
-29 41 V
-33 38 V
-39 35 V
-44 31 V
-49 28 V
-53 25 V
-57 21 V
-62 17 V
-65 13 V
-70 9 V
-72 5 V
-76 2 V
-78 -2 V
-81 -7 V
-83 -10 V
-84 -14 V
-86 -18 V
-88 -22 V
-87 -25 V
-89 -29 V
-88 -32 V
-88 -36 V
-87 -38 V
-87 -42 V
-85 -44 V
-83 -48 V
-81 -49 V
-79 -52 V
-76 -54 V
-73 -56 V
-69 -57 V
-67 -59 V
-62 -59 V
-58 -61 V
-54 -62 V
-49 -61 V
-45 -62 V
-39 -62 V
-35 -62 V
-29 -61 V
-24 -60 V
-19 -59 V
-13 -57 V
-7 -57 V
-2 -54 V
4 -52 V
9 -51 V
15 -47 V
20 -46 V
26 -42 V
31 -39 V
36 -37 V
42 -33 V
46 -30 V
51 -26 V
55 -22 V
60 -19 V
64 -15 V
67 -12 V
71 -7 V
74 -3 V
77 0 V
79 4 V
2898 2188 L
84 12 V
86 16 V
86 20 V
88 23 V
88 27 V
88 31 V
88 34 V
88 37 V
87 40 V
86 43 V
84 46 V
82 48 V
/Helvetica findfont 210 scalefont setfont
-116 86 R
67 43 V
65 44 V
63 46 V
60 48 V
57 48 V
54 50 V
51 51 V
47 52 V
43 52 V
39 52 V
35 52 V
31 52 V
27 52 V
22 52 V
18 50 V
13 50 V
8 48 V
3 47 V
-1 45 V
-6 44 V
-10 42 V
-16 40 V
-19 37 V
-25 35 V
-29 33 V
-33 30 V
-37 27 V
-41 24 V
-45 21 V
-49 18 V
-52 15 V
-56 12 V
-59 8 V
-61 6 V
-64 1 V
-66 -1 V
-69 -5 V
-70 -8 V
-71 -11 V
-73 -15 V
-73 -17 V
-75 -21 V
-74 -24 V
-75 -27 V
-74 -29 V
-74 -32 V
-72 -35 V
-72 -37 V
-70 -40 V
-68 -41 V
-66 -43 V
-64 -46 V
-62 -47 V
-58 -48 V
-56 -49 V
-52 -50 V
-49 -52 V
-45 -51 V
-41 -53 V
-38 -52 V
-33 -52 V
-29 -52 V
-24 -52 V
-20 -51 V
-15 -50 V
-11 -49 V
-6 -48 V
-1 -46 V
4 -44 V
8 -43 V
13 -41 V
17 -39 V
23 -36 V
26 -34 V
31 -31 V
35 -28 V
40 -26 V
43 -23 V
47 -19 V
50 -17 V
54 -13 V
58 -10 V
60 -7 V
62 -4 V
65 0 V
68 3 V
69 6 V
71 10 V
72 13 V
73 16 V
74 19 V
3308 2419 L
75 25 V
74 28 V
74 31 V
74 33 V
72 36 V
71 39 V
69 40 V
/Helvetica findfont 210 scalefont setfont
-59 132 R
56 39 V
54 41 V
53 42 V
50 42 V
47 44 V
45 45 V
42 45 V
39 45 V
36 46 V
32 45 V
29 46 V
26 45 V
22 44 V
18 44 V
14 42 V
11 42 V
6 40 V
3 39 V
-2 38 V
-5 35 V
-10 34 V
-13 32 V
-17 29 V
-21 28 V
-24 24 V
-28 23 V
-32 20 V
-35 17 V
-38 15 V
-41 11 V
-44 9 V
-47 7 V
-49 3 V
-51 0 V
-54 -2 V
-56 -6 V
-57 -8 V
-59 -11 V
-60 -14 V
-61 -17 V
-61 -19 V
-62 -22 V
-63 -24 V
-62 -27 V
-62 -29 V
-62 -31 V
-60 -33 V
-60 -36 V
-59 -36 V
-57 -39 V
-55 -40 V
-53 -41 V
-51 -43 V
-49 -43 V
-46 -44 V
-44 -45 V
-40 -45 V
-37 -46 V
-35 -46 V
-30 -45 V
-28 -45 V
-23 -45 V
-20 -44 V
-17 -43 V
-12 -42 V
-8 -41 V
-5 -40 V
-1 -38 V
4 -37 V
7 -34 V
11 -33 V
16 -31 V
18 -28 V
23 -26 V
26 -24 V
30 -21 V
33 -19 V
37 -16 V
40 -13 V
42 -10 V
46 -8 V
48 -4 V
50 -2 V
53 1 V
55 4 V
56 7 V
58 9 V
59 13 V
61 15 V
61 18 V
62 21 V
62 23 V
63 25 V
62 28 V
62 30 V
61 33 V
3641 2709 L
59 36 V
58 38 V
/Helvetica findfont 210 scalefont setfont
2536 2714 M
19 -17 V
21 -14 V
25 -12 V
28 -10 V
31 -8 V
34 -6 V
36 -3 V
39 0 V
42 1 V
44 4 V
45 7 V
48 8 V
49 11 V
51 13 V
53 15 V
53 18 V
54 19 V
55 21 V
55 23 V
55 25 V
56 27 V
55 28 V
55 30 V
54 31 V
53 32 V
52 34 V
51 34 V
49 35 V
48 36 V
45 36 V
44 37 V
41 36 V
39 37 V
36 37 V
33 37 V
31 36 V
27 36 V
25 35 V
21 35 V
18 33 V
14 32 V
12 32 V
7 29 V
4 29 V
1 27 V
-3 25 V
-6 23 V
-10 22 V
-13 20 V
-17 17 V
-20 16 V
-23 13 V
-26 11 V
-30 9 V
-32 7 V
-35 4 V
-38 2 V
-40 -1 V
-43 -3 V
-45 -5 V
-47 -7 V
-48 -10 V
-50 -12 V
-52 -14 V
-53 -16 V
-53 -19 V
-55 -20 V
-55 -22 V
-55 -24 V
-56 -26 V
-55 -28 V
-55 -29 V
-55 -30 V
-53 -32 V
-53 -32 V
-51 -34 V
-50 -35 V
-49 -35 V
-46 -36 V
-45 -37 V
-42 -37 V
-40 -36 V
-38 -37 V
-34 -37 V
-32 -37 V
-30 -36 V
-26 -35 V
-22 -35 V
-20 -34 V
-16 -33 V
-13 -32 V
-10 -30 V
-5 -29 V
-3 -28 V
1 -26 V
5 -24 V
8 -23 V
11 -21 V
15 -18 V
/Helvetica findfont 210 scalefont setfont
1157 708 R
-6 10 V
3680 3443 L
-8 10 V
-9 10 V
-10 9 V
-10 9 V
-12 8 V
-12 7 V
-12 7 V
-13 7 V
-14 5 V
-14 5 V
-15 4 V
-15 4 V
-15 3 V
-16 1 V
-16 2 V
-16 0 V
-16 0 V
-16 -1 V
-16 -2 V
-16 -3 V
-15 -3 V
-16 -4 V
-15 -5 V
-14 -6 V
-14 -6 V
-14 -7 V
-13 -7 V
-13 -9 V
-12 -8 V
-11 -9 V
-11 -10 V
-9 -10 V
-9 -11 V
-8 -11 V
-7 -11 V
-6 -11 V
-5 -12 V
-5 -12 V
-3 -12 V
-2 -12 V
-1 -12 V
-1 -12 V
1 -13 V
2 -12 V
3 -11 V
4 -12 V
4 -11 V
6 -11 V
7 -11 V
7 -11 V
9 -9 V
9 -10 V
10 -9 V
11 -8 V
12 -8 V
12 -7 V
13 -7 V
14 -6 V
14 -5 V
14 -5 V
15 -4 V
15 -3 V
16 -2 V
15 -2 V
16 0 V
16 0 V
16 0 V
16 2 V
16 2 V
16 3 V
15 4 V
16 4 V
14 6 V
15 6 V
14 6 V
13 7 V
13 8 V
12 8 V
12 9 V
11 10 V
10 10 V
9 10 V
9 11 V
7 11 V
7 11 V
5 12 V
5 12 V
4 12 V
3 12 V
1 12 V
1 12 V
0 12 V
-2 12 V
-2 12 V
-3 12 V
-4 11 V
-6 12 V
stroke
1.000 UL
LTb
819 4788 N
819 630 L
6024 0 V
0 4158 V
-6024 0 V
Z stroke
1.000 UP
1.000 UL
LTb
stroke
grestore
end
showpage
%%Trailer
%%DocumentFonts: Helvetica
