%!PS-Adobe-2.0 EPSF-2.0
%%Title: 60Co_1_5.ps
%%Creator: gnuplot 4.2 patchlevel 0
%%CreationDate: Thu Oct  2 06:54:06 2008
%%DocumentFonts: (atend)
%%BoundingBox: 50 50 410 302
%%EndComments
%%BeginProlog
/gnudict 256 dict def
gnudict begin
%
% The following 6 true/false flags may be edited by hand if required
% The unit line width may also be changed
%
/Color true def
/Blacktext false def
/Solid true def
/Dashlength 1 def
/Landscape false def
/Level1 false def
/Rounded false def
/TransparentPatterns false def
/gnulinewidth 5.000 def
/userlinewidth gnulinewidth def
%
/vshift -70 def
/dl1 {
  10.0 Dashlength mul mul
  Rounded { currentlinewidth 0.75 mul sub dup 0 le { pop 0.01 } if } if
} def
/dl2 {
  10.0 Dashlength mul mul
  Rounded { currentlinewidth 0.75 mul add } if
} def
/hpt_ 31.5 def
/vpt_ 31.5 def
/hpt hpt_ def
/vpt vpt_ def
Level1 {} {
/SDict 10 dict def
systemdict /pdfmark known not {
  userdict /pdfmark systemdict /cleartomark get put
} if
SDict begin [
  /Title (60Co_1_5.ps)
  /Subject (gnuplot plot)
  /Creator (gnuplot 4.2 patchlevel 0)
  /Author (,,,)
%  /Producer (gnuplot)
%  /Keywords ()
  /CreationDate (Thu Oct  2 06:54:06 2008)
  /DOCINFO pdfmark
end
} ifelse
%
% Gnuplot Prolog Version 4.2 (August 2006)
%
/M {moveto} bind def
/L {lineto} bind def
/R {rmoveto} bind def
/V {rlineto} bind def
/N {newpath moveto} bind def
/Z {closepath} bind def
/C {setrgbcolor} bind def
/f {rlineto fill} bind def
/vpt2 vpt 2 mul def
/hpt2 hpt 2 mul def
/Lshow {currentpoint stroke M 0 vshift R 
	Blacktext {gsave 0 setgray show grestore} {show} ifelse} def
/Rshow {currentpoint stroke M dup stringwidth pop neg vshift R
	Blacktext {gsave 0 setgray show grestore} {show} ifelse} def
/Cshow {currentpoint stroke M dup stringwidth pop -2 div vshift R 
	Blacktext {gsave 0 setgray show grestore} {show} ifelse} def
/UP {dup vpt_ mul /vpt exch def hpt_ mul /hpt exch def
  /hpt2 hpt 2 mul def /vpt2 vpt 2 mul def} def
/DL {Color {setrgbcolor Solid {pop []} if 0 setdash}
 {pop pop pop 0 setgray Solid {pop []} if 0 setdash} ifelse} def
/BL {stroke userlinewidth 2 mul setlinewidth
	Rounded {1 setlinejoin 1 setlinecap} if} def
/AL {stroke userlinewidth 2 div setlinewidth
	Rounded {1 setlinejoin 1 setlinecap} if} def
/UL {dup gnulinewidth mul /userlinewidth exch def
	dup 1 lt {pop 1} if 10 mul /udl exch def} def
/PL {stroke userlinewidth setlinewidth
	Rounded {1 setlinejoin 1 setlinecap} if} def
% Default Line colors
/LCw {1 1 1} def
/LCb {0 0 0} def
/LCa {0 0 0} def
/LC0 {1 0 0} def
/LC1 {0 1 0} def
/LC2 {0 0 1} def
/LC3 {1 0 1} def
/LC4 {0 1 1} def
/LC5 {1 1 0} def
/LC6 {0 0 0} def
/LC7 {1 0.3 0} def
/LC8 {0.5 0.5 0.5} def
% Default Line Types
/LTw {PL [] 1 setgray} def
/LTb {BL [] LCb DL} def
/LTa {AL [1 udl mul 2 udl mul] 0 setdash LCa setrgbcolor} def
/LT0 {PL [] LC0 DL} def
/LT1 {PL [4 dl1 2 dl2] LC1 DL} def
/LT2 {PL [2 dl1 3 dl2] LC2 DL} def
/LT3 {PL [1 dl1 1.5 dl2] LC3 DL} def
/LT4 {PL [6 dl1 2 dl2 1 dl1 2 dl2] LC4 DL} def
/LT5 {PL [3 dl1 3 dl2 1 dl1 3 dl2] LC5 DL} def
/LT6 {PL [2 dl1 2 dl2 2 dl1 6 dl2] LC6 DL} def
/LT7 {PL [1 dl1 2 dl2 6 dl1 2 dl2 1 dl1 2 dl2] LC7 DL} def
/LT8 {PL [2 dl1 2 dl2 2 dl1 2 dl2 2 dl1 2 dl2 2 dl1 4 dl2] LC8 DL} def
/Pnt {stroke [] 0 setdash gsave 1 setlinecap M 0 0 V stroke grestore} def
/Dia {stroke [] 0 setdash 2 copy vpt add M
  hpt neg vpt neg V hpt vpt neg V
  hpt vpt V hpt neg vpt V closepath stroke
  Pnt} def
/Pls {stroke [] 0 setdash vpt sub M 0 vpt2 V
  currentpoint stroke M
  hpt neg vpt neg R hpt2 0 V stroke
 } def
/Box {stroke [] 0 setdash 2 copy exch hpt sub exch vpt add M
  0 vpt2 neg V hpt2 0 V 0 vpt2 V
  hpt2 neg 0 V closepath stroke
  Pnt} def
/Crs {stroke [] 0 setdash exch hpt sub exch vpt add M
  hpt2 vpt2 neg V currentpoint stroke M
  hpt2 neg 0 R hpt2 vpt2 V stroke} def
/TriU {stroke [] 0 setdash 2 copy vpt 1.12 mul add M
  hpt neg vpt -1.62 mul V
  hpt 2 mul 0 V
  hpt neg vpt 1.62 mul V closepath stroke
  Pnt} def
/Star {2 copy Pls Crs} def
/BoxF {stroke [] 0 setdash exch hpt sub exch vpt add M
  0 vpt2 neg V hpt2 0 V 0 vpt2 V
  hpt2 neg 0 V closepath fill} def
/TriUF {stroke [] 0 setdash vpt 1.12 mul add M
  hpt neg vpt -1.62 mul V
  hpt 2 mul 0 V
  hpt neg vpt 1.62 mul V closepath fill} def
/TriD {stroke [] 0 setdash 2 copy vpt 1.12 mul sub M
  hpt neg vpt 1.62 mul V
  hpt 2 mul 0 V
  hpt neg vpt -1.62 mul V closepath stroke
  Pnt} def
/TriDF {stroke [] 0 setdash vpt 1.12 mul sub M
  hpt neg vpt 1.62 mul V
  hpt 2 mul 0 V
  hpt neg vpt -1.62 mul V closepath fill} def
/DiaF {stroke [] 0 setdash vpt add M
  hpt neg vpt neg V hpt vpt neg V
  hpt vpt V hpt neg vpt V closepath fill} def
/Pent {stroke [] 0 setdash 2 copy gsave
  translate 0 hpt M 4 {72 rotate 0 hpt L} repeat
  closepath stroke grestore Pnt} def
/PentF {stroke [] 0 setdash gsave
  translate 0 hpt M 4 {72 rotate 0 hpt L} repeat
  closepath fill grestore} def
/Circle {stroke [] 0 setdash 2 copy
  hpt 0 360 arc stroke Pnt} def
/CircleF {stroke [] 0 setdash hpt 0 360 arc fill} def
/C0 {BL [] 0 setdash 2 copy moveto vpt 90 450 arc} bind def
/C1 {BL [] 0 setdash 2 copy moveto
	2 copy vpt 0 90 arc closepath fill
	vpt 0 360 arc closepath} bind def
/C2 {BL [] 0 setdash 2 copy moveto
	2 copy vpt 90 180 arc closepath fill
	vpt 0 360 arc closepath} bind def
/C3 {BL [] 0 setdash 2 copy moveto
	2 copy vpt 0 180 arc closepath fill
	vpt 0 360 arc closepath} bind def
/C4 {BL [] 0 setdash 2 copy moveto
	2 copy vpt 180 270 arc closepath fill
	vpt 0 360 arc closepath} bind def
/C5 {BL [] 0 setdash 2 copy moveto
	2 copy vpt 0 90 arc
	2 copy moveto
	2 copy vpt 180 270 arc closepath fill
	vpt 0 360 arc} bind def
/C6 {BL [] 0 setdash 2 copy moveto
	2 copy vpt 90 270 arc closepath fill
	vpt 0 360 arc closepath} bind def
/C7 {BL [] 0 setdash 2 copy moveto
	2 copy vpt 0 270 arc closepath fill
	vpt 0 360 arc closepath} bind def
/C8 {BL [] 0 setdash 2 copy moveto
	2 copy vpt 270 360 arc closepath fill
	vpt 0 360 arc closepath} bind def
/C9 {BL [] 0 setdash 2 copy moveto
	2 copy vpt 270 450 arc closepath fill
	vpt 0 360 arc closepath} bind def
/C10 {BL [] 0 setdash 2 copy 2 copy moveto vpt 270 360 arc closepath fill
	2 copy moveto
	2 copy vpt 90 180 arc closepath fill
	vpt 0 360 arc closepath} bind def
/C11 {BL [] 0 setdash 2 copy moveto
	2 copy vpt 0 180 arc closepath fill
	2 copy moveto
	2 copy vpt 270 360 arc closepath fill
	vpt 0 360 arc closepath} bind def
/C12 {BL [] 0 setdash 2 copy moveto
	2 copy vpt 180 360 arc closepath fill
	vpt 0 360 arc closepath} bind def
/C13 {BL [] 0 setdash 2 copy moveto
	2 copy vpt 0 90 arc closepath fill
	2 copy moveto
	2 copy vpt 180 360 arc closepath fill
	vpt 0 360 arc closepath} bind def
/C14 {BL [] 0 setdash 2 copy moveto
	2 copy vpt 90 360 arc closepath fill
	vpt 0 360 arc} bind def
/C15 {BL [] 0 setdash 2 copy vpt 0 360 arc closepath fill
	vpt 0 360 arc closepath} bind def
/Rec {newpath 4 2 roll moveto 1 index 0 rlineto 0 exch rlineto
	neg 0 rlineto closepath} bind def
/Square {dup Rec} bind def
/Bsquare {vpt sub exch vpt sub exch vpt2 Square} bind def
/S0 {BL [] 0 setdash 2 copy moveto 0 vpt rlineto BL Bsquare} bind def
/S1 {BL [] 0 setdash 2 copy vpt Square fill Bsquare} bind def
/S2 {BL [] 0 setdash 2 copy exch vpt sub exch vpt Square fill Bsquare} bind def
/S3 {BL [] 0 setdash 2 copy exch vpt sub exch vpt2 vpt Rec fill Bsquare} bind def
/S4 {BL [] 0 setdash 2 copy exch vpt sub exch vpt sub vpt Square fill Bsquare} bind def
/S5 {BL [] 0 setdash 2 copy 2 copy vpt Square fill
	exch vpt sub exch vpt sub vpt Square fill Bsquare} bind def
/S6 {BL [] 0 setdash 2 copy exch vpt sub exch vpt sub vpt vpt2 Rec fill Bsquare} bind def
/S7 {BL [] 0 setdash 2 copy exch vpt sub exch vpt sub vpt vpt2 Rec fill
	2 copy vpt Square fill Bsquare} bind def
/S8 {BL [] 0 setdash 2 copy vpt sub vpt Square fill Bsquare} bind def
/S9 {BL [] 0 setdash 2 copy vpt sub vpt vpt2 Rec fill Bsquare} bind def
/S10 {BL [] 0 setdash 2 copy vpt sub vpt Square fill 2 copy exch vpt sub exch vpt Square fill
	Bsquare} bind def
/S11 {BL [] 0 setdash 2 copy vpt sub vpt Square fill 2 copy exch vpt sub exch vpt2 vpt Rec fill
	Bsquare} bind def
/S12 {BL [] 0 setdash 2 copy exch vpt sub exch vpt sub vpt2 vpt Rec fill Bsquare} bind def
/S13 {BL [] 0 setdash 2 copy exch vpt sub exch vpt sub vpt2 vpt Rec fill
	2 copy vpt Square fill Bsquare} bind def
/S14 {BL [] 0 setdash 2 copy exch vpt sub exch vpt sub vpt2 vpt Rec fill
	2 copy exch vpt sub exch vpt Square fill Bsquare} bind def
/S15 {BL [] 0 setdash 2 copy Bsquare fill Bsquare} bind def
/D0 {gsave translate 45 rotate 0 0 S0 stroke grestore} bind def
/D1 {gsave translate 45 rotate 0 0 S1 stroke grestore} bind def
/D2 {gsave translate 45 rotate 0 0 S2 stroke grestore} bind def
/D3 {gsave translate 45 rotate 0 0 S3 stroke grestore} bind def
/D4 {gsave translate 45 rotate 0 0 S4 stroke grestore} bind def
/D5 {gsave translate 45 rotate 0 0 S5 stroke grestore} bind def
/D6 {gsave translate 45 rotate 0 0 S6 stroke grestore} bind def
/D7 {gsave translate 45 rotate 0 0 S7 stroke grestore} bind def
/D8 {gsave translate 45 rotate 0 0 S8 stroke grestore} bind def
/D9 {gsave translate 45 rotate 0 0 S9 stroke grestore} bind def
/D10 {gsave translate 45 rotate 0 0 S10 stroke grestore} bind def
/D11 {gsave translate 45 rotate 0 0 S11 stroke grestore} bind def
/D12 {gsave translate 45 rotate 0 0 S12 stroke grestore} bind def
/D13 {gsave translate 45 rotate 0 0 S13 stroke grestore} bind def
/D14 {gsave translate 45 rotate 0 0 S14 stroke grestore} bind def
/D15 {gsave translate 45 rotate 0 0 S15 stroke grestore} bind def
/DiaE {stroke [] 0 setdash vpt add M
  hpt neg vpt neg V hpt vpt neg V
  hpt vpt V hpt neg vpt V closepath stroke} def
/BoxE {stroke [] 0 setdash exch hpt sub exch vpt add M
  0 vpt2 neg V hpt2 0 V 0 vpt2 V
  hpt2 neg 0 V closepath stroke} def
/TriUE {stroke [] 0 setdash vpt 1.12 mul add M
  hpt neg vpt -1.62 mul V
  hpt 2 mul 0 V
  hpt neg vpt 1.62 mul V closepath stroke} def
/TriDE {stroke [] 0 setdash vpt 1.12 mul sub M
  hpt neg vpt 1.62 mul V
  hpt 2 mul 0 V
  hpt neg vpt -1.62 mul V closepath stroke} def
/PentE {stroke [] 0 setdash gsave
  translate 0 hpt M 4 {72 rotate 0 hpt L} repeat
  closepath stroke grestore} def
/CircE {stroke [] 0 setdash 
  hpt 0 360 arc stroke} def
/Opaque {gsave closepath 1 setgray fill grestore 0 setgray closepath} def
/DiaW {stroke [] 0 setdash vpt add M
  hpt neg vpt neg V hpt vpt neg V
  hpt vpt V hpt neg vpt V Opaque stroke} def
/BoxW {stroke [] 0 setdash exch hpt sub exch vpt add M
  0 vpt2 neg V hpt2 0 V 0 vpt2 V
  hpt2 neg 0 V Opaque stroke} def
/TriUW {stroke [] 0 setdash vpt 1.12 mul add M
  hpt neg vpt -1.62 mul V
  hpt 2 mul 0 V
  hpt neg vpt 1.62 mul V Opaque stroke} def
/TriDW {stroke [] 0 setdash vpt 1.12 mul sub M
  hpt neg vpt 1.62 mul V
  hpt 2 mul 0 V
  hpt neg vpt -1.62 mul V Opaque stroke} def
/PentW {stroke [] 0 setdash gsave
  translate 0 hpt M 4 {72 rotate 0 hpt L} repeat
  Opaque stroke grestore} def
/CircW {stroke [] 0 setdash 
  hpt 0 360 arc Opaque stroke} def
/BoxFill {gsave Rec 1 setgray fill grestore} def
/Density {
  /Fillden exch def
  currentrgbcolor
  /ColB exch def /ColG exch def /ColR exch def
  /ColR ColR Fillden mul Fillden sub 1 add def
  /ColG ColG Fillden mul Fillden sub 1 add def
  /ColB ColB Fillden mul Fillden sub 1 add def
  ColR ColG ColB setrgbcolor} def
/BoxColFill {gsave Rec PolyFill} def
/PolyFill {gsave Density fill grestore grestore} def
/h {rlineto rlineto rlineto gsave fill grestore} bind def
%
% PostScript Level 1 Pattern Fill routine for rectangles
% Usage: x y w h s a XX PatternFill
%	x,y = lower left corner of box to be filled
%	w,h = width and height of box
%	  a = angle in degrees between lines and x-axis
%	 XX = 0/1 for no/yes cross-hatch
%
/PatternFill {gsave /PFa [ 9 2 roll ] def
  PFa 0 get PFa 2 get 2 div add PFa 1 get PFa 3 get 2 div add translate
  PFa 2 get -2 div PFa 3 get -2 div PFa 2 get PFa 3 get Rec
  gsave 1 setgray fill grestore clip
  currentlinewidth 0.5 mul setlinewidth
  /PFs PFa 2 get dup mul PFa 3 get dup mul add sqrt def
  0 0 M PFa 5 get rotate PFs -2 div dup translate
  0 1 PFs PFa 4 get div 1 add floor cvi
	{PFa 4 get mul 0 M 0 PFs V} for
  0 PFa 6 get ne {
	0 1 PFs PFa 4 get div 1 add floor cvi
	{PFa 4 get mul 0 2 1 roll M PFs 0 V} for
 } if
  stroke grestore} def
%
/languagelevel where
 {pop languagelevel} {1} ifelse
 2 lt
	{/InterpretLevel1 true def}
	{/InterpretLevel1 Level1 def}
 ifelse
%
% PostScript level 2 pattern fill definitions
%
/Level2PatternFill {
/Tile8x8 {/PaintType 2 /PatternType 1 /TilingType 1 /BBox [0 0 8 8] /XStep 8 /YStep 8}
	bind def
/KeepColor {currentrgbcolor [/Pattern /DeviceRGB] setcolorspace} bind def
<< Tile8x8
 /PaintProc {0.5 setlinewidth pop 0 0 M 8 8 L 0 8 M 8 0 L stroke} 
>> matrix makepattern
/Pat1 exch def
<< Tile8x8
 /PaintProc {0.5 setlinewidth pop 0 0 M 8 8 L 0 8 M 8 0 L stroke
	0 4 M 4 8 L 8 4 L 4 0 L 0 4 L stroke}
>> matrix makepattern
/Pat2 exch def
<< Tile8x8
 /PaintProc {0.5 setlinewidth pop 0 0 M 0 8 L
	8 8 L 8 0 L 0 0 L fill}
>> matrix makepattern
/Pat3 exch def
<< Tile8x8
 /PaintProc {0.5 setlinewidth pop -4 8 M 8 -4 L
	0 12 M 12 0 L stroke}
>> matrix makepattern
/Pat4 exch def
<< Tile8x8
 /PaintProc {0.5 setlinewidth pop -4 0 M 8 12 L
	0 -4 M 12 8 L stroke}
>> matrix makepattern
/Pat5 exch def
<< Tile8x8
 /PaintProc {0.5 setlinewidth pop -2 8 M 4 -4 L
	0 12 M 8 -4 L 4 12 M 10 0 L stroke}
>> matrix makepattern
/Pat6 exch def
<< Tile8x8
 /PaintProc {0.5 setlinewidth pop -2 0 M 4 12 L
	0 -4 M 8 12 L 4 -4 M 10 8 L stroke}
>> matrix makepattern
/Pat7 exch def
<< Tile8x8
 /PaintProc {0.5 setlinewidth pop 8 -2 M -4 4 L
	12 0 M -4 8 L 12 4 M 0 10 L stroke}
>> matrix makepattern
/Pat8 exch def
<< Tile8x8
 /PaintProc {0.5 setlinewidth pop 0 -2 M 12 4 L
	-4 0 M 12 8 L -4 4 M 8 10 L stroke}
>> matrix makepattern
/Pat9 exch def
/Pattern1 {PatternBgnd KeepColor Pat1 setpattern} bind def
/Pattern2 {PatternBgnd KeepColor Pat2 setpattern} bind def
/Pattern3 {PatternBgnd KeepColor Pat3 setpattern} bind def
/Pattern4 {PatternBgnd KeepColor Landscape {Pat5} {Pat4} ifelse setpattern} bind def
/Pattern5 {PatternBgnd KeepColor Landscape {Pat4} {Pat5} ifelse setpattern} bind def
/Pattern6 {PatternBgnd KeepColor Landscape {Pat9} {Pat6} ifelse setpattern} bind def
/Pattern7 {PatternBgnd KeepColor Landscape {Pat8} {Pat7} ifelse setpattern} bind def
} def
%
%
%End of PostScript Level 2 code
%
/PatternBgnd {
  TransparentPatterns {} {gsave 1 setgray fill grestore} ifelse
} def
%
% Substitute for Level 2 pattern fill codes with
% grayscale if Level 2 support is not selected.
%
/Level1PatternFill {
/Pattern1 {0.250 Density} bind def
/Pattern2 {0.500 Density} bind def
/Pattern3 {0.750 Density} bind def
/Pattern4 {0.125 Density} bind def
/Pattern5 {0.375 Density} bind def
/Pattern6 {0.625 Density} bind def
/Pattern7 {0.875 Density} bind def
} def
%
% Now test for support of Level 2 code
%
Level1 {Level1PatternFill} {Level2PatternFill} ifelse
%
/Symbol-Oblique /Symbol findfont [1 0 .167 1 0 0] makefont
dup length dict begin {1 index /FID eq {pop pop} {def} ifelse} forall
currentdict end definefont pop
/MFshow {
   { dup 5 get 3 ge
     { 5 get 3 eq {gsave} {grestore} ifelse }
     {dup dup 0 get findfont exch 1 get scalefont setfont
     [ currentpoint ] exch dup 2 get 0 exch R dup 5 get 2 ne {dup dup 6
     get exch 4 get {show} {stringwidth pop 0 R} ifelse }if dup 5 get 0 eq
     {dup 3 get {2 get neg 0 exch R pop} {pop aload pop M} ifelse} {dup 5
     get 1 eq {dup 2 get exch dup 3 get exch 6 get stringwidth pop -2 div
     dup 0 R} {dup 6 get stringwidth pop -2 div 0 R 6 get
     show 2 index {aload pop M neg 3 -1 roll neg R pop pop} {pop pop pop
     pop aload pop M} ifelse }ifelse }ifelse }
     ifelse }
   forall} bind def
/MFwidth {0 exch { dup 5 get 3 ge { 5 get 3 eq { 0 } { pop } ifelse }
 {dup 3 get{dup dup 0 get findfont exch 1 get scalefont setfont
     6 get stringwidth pop add} {pop} ifelse} ifelse} forall} bind def
/MLshow { currentpoint stroke M
  0 exch R
  Blacktext {gsave 0 setgray MFshow grestore} {MFshow} ifelse } bind def
/MRshow { currentpoint stroke M
  exch dup MFwidth neg 3 -1 roll R
  Blacktext {gsave 0 setgray MFshow grestore} {MFshow} ifelse } bind def
/MCshow { currentpoint stroke M
  exch dup MFwidth -2 div 3 -1 roll R
  Blacktext {gsave 0 setgray MFshow grestore} {MFshow} ifelse } bind def
/XYsave    { [( ) 1 2 true false 3 ()] } bind def
/XYrestore { [( ) 1 2 true false 4 ()] } bind def
end
%%EndProlog
gnudict begin
gsave
50 50 translate
0.050 0.050 scale
0 setgray
newpath
(Helvetica) findfont 210 scalefont setfont
1.000 UL
LTb
819 630 M
63 0 V
5961 0 R
-63 0 V
stroke
693 630 M
[ [(Helvetica) 210.0 0.0 true true 0 ( 2)]
] -70.0 MRshow
1.000 UL
LTb
819 1224 M
63 0 V
5961 0 R
-63 0 V
stroke
693 1224 M
[ [(Helvetica) 210.0 0.0 true true 0 ( 3)]
] -70.0 MRshow
1.000 UL
LTb
819 1818 M
63 0 V
5961 0 R
-63 0 V
stroke
693 1818 M
[ [(Helvetica) 210.0 0.0 true true 0 ( 4)]
] -70.0 MRshow
1.000 UL
LTb
819 2412 M
63 0 V
5961 0 R
-63 0 V
stroke
693 2412 M
[ [(Helvetica) 210.0 0.0 true true 0 ( 5)]
] -70.0 MRshow
1.000 UL
LTb
819 3006 M
63 0 V
5961 0 R
-63 0 V
stroke
693 3006 M
[ [(Helvetica) 210.0 0.0 true true 0 ( 6)]
] -70.0 MRshow
1.000 UL
LTb
819 3600 M
63 0 V
5961 0 R
-63 0 V
stroke
693 3600 M
[ [(Helvetica) 210.0 0.0 true true 0 ( 7)]
] -70.0 MRshow
1.000 UL
LTb
819 4194 M
63 0 V
5961 0 R
-63 0 V
stroke
693 4194 M
[ [(Helvetica) 210.0 0.0 true true 0 ( 8)]
] -70.0 MRshow
1.000 UL
LTb
819 4788 M
63 0 V
5961 0 R
-63 0 V
stroke
693 4788 M
[ [(Helvetica) 210.0 0.0 true true 0 ( 9)]
] -70.0 MRshow
1.000 UL
LTb
819 630 M
0 63 V
0 4095 R
0 -63 V
stroke
819 420 M
[ [(Helvetica) 210.0 0.0 true true 0 ( 2)]
] -70.0 MCshow
1.000 UL
LTb
1680 630 M
0 63 V
0 4095 R
0 -63 V
stroke
1680 420 M
[ [(Helvetica) 210.0 0.0 true true 0 ( 3)]
] -70.0 MCshow
1.000 UL
LTb
2540 630 M
0 63 V
0 4095 R
0 -63 V
stroke
2540 420 M
[ [(Helvetica) 210.0 0.0 true true 0 ( 4)]
] -70.0 MCshow
1.000 UL
LTb
3401 630 M
0 63 V
0 4095 R
0 -63 V
stroke
3401 420 M
[ [(Helvetica) 210.0 0.0 true true 0 ( 5)]
] -70.0 MCshow
1.000 UL
LTb
4261 630 M
0 63 V
0 4095 R
0 -63 V
stroke
4261 420 M
[ [(Helvetica) 210.0 0.0 true true 0 ( 6)]
] -70.0 MCshow
1.000 UL
LTb
5122 630 M
0 63 V
0 4095 R
0 -63 V
stroke
5122 420 M
[ [(Helvetica) 210.0 0.0 true true 0 ( 7)]
] -70.0 MCshow
1.000 UL
LTb
5982 630 M
0 63 V
0 4095 R
0 -63 V
stroke
5982 420 M
[ [(Helvetica) 210.0 0.0 true true 0 ( 8)]
] -70.0 MCshow
1.000 UL
LTb
6843 630 M
0 63 V
0 4095 R
0 -63 V
stroke
6843 420 M
[ [(Helvetica) 210.0 0.0 true true 0 ( 9)]
] -70.0 MCshow
1.000 UL
LTb
1.000 UL
LTb
819 4788 N
819 630 L
6024 0 V
0 4158 V
-6024 0 V
Z stroke
LCb setrgbcolor
210 2709 M
currentpoint gsave translate 90 rotate 0 0 moveto
[ [(Helvetica) 210.0 0.0 true true 0 (H\(MeV\))]
] -70.0 MCshow
grestore
LTb
LCb setrgbcolor
3831 105 M
[ [(Helvetica) 210.0 0.0 true true 0 (k)]
] -70.0 MCshow
LTb
1.000 UP
1.000 UL
LTb
2.000 UP
1.000 UL
LT2
/Helvetica findfont 210 scalefont setfont
4261 4650 M
3522 4194 L
-121 -86 V
2702 3600 L
2598 3006 L
-58 -71 V
1881 2412 L
1680 1856 L
-47 -38 V
47 -91 V
860 -503 V
861 54 V
860 198 V
654 342 V
207 90 V
848 504 V
12 11 V
677 583 V
132 594 V
22 594 V
-831 370 V
-860 105 V
-861 -19 V
0 -137 R
3745 4194 L
3401 3949 L
2921 3600 L
2755 3006 L
2540 2742 L
2124 2412 L
112 -594 V
304 -202 V
861 -23 V
860 198 V
52 27 V
809 353 V
405 241 V
455 382 V
246 212 V
303 594 V
-237 594 V
-312 139 V
-860 217 V
-861 -37 V
0 -138 R
3968 4194 L
3401 3790 L
3139 3600 L
2912 3006 L
2540 2549 L
2367 2412 L
173 -354 V
861 -196 V
860 116 V
832 434 V
29 17 V
751 577 V
109 165 V
290 429 V
-290 437 V
-143 157 V
-717 238 V
-861 -57 V
0 -134 R
-76 -47 V
3401 3636 L
-50 -36 V
3065 3006 L
2618 2412 L
783 -400 V
860 135 V
507 265 V
354 207 V
503 387 V
357 539 V
38 55 V
-38 56 V
-491 538 V
-369 122 V
-861 -75 V
861 -44 R
-36 -3 V
-825 -70 V
3517 3600 L
3401 3361 L
3221 3006 L
2919 2412 L
482 -246 V
860 156 V
172 90 V
689 403 V
248 191 V
409 594 V
-647 594 V
-10 3 V
4261 4018 M
3667 3600 L
3401 3050 L
-23 -44 V
3220 2412 L
181 -92 V
475 92 V
385 101 V
851 493 V
10 9 V
420 585 V
-420 384 V
-861 34 V
0 -103 R
3814 3600 L
-93 -594 V
540 -291 V
502 291 V
359 330 V
190 264 V
-190 173 V
-861 142 V
0 -106 R
3964 3600 L
143 -594 V
154 -83 V
144 83 V
638 594 V
-782 209 V
0 -106 R
4115 3600 L
146 -367 V
385 367 V
-385 103 V
4261 4650 Star
3522 4194 Star
3401 4108 Star
2702 3600 Star
2598 3006 Star
2540 2935 Star
1881 2412 Star
1680 1856 Star
1633 1818 Star
1680 1727 Star
2540 1224 Star
3401 1278 Star
4261 1476 Star
4915 1818 Star
5122 1908 Star
5970 2412 Star
5982 2423 Star
6659 3006 Star
6791 3600 Star
6813 4194 Star
5982 4564 Star
5122 4669 Star
4261 4650 Star
4261 4513 Star
3745 4194 Star
3401 3949 Star
2921 3600 Star
2755 3006 Star
2540 2742 Star
2124 2412 Star
2236 1818 Star
2540 1616 Star
3401 1593 Star
4261 1791 Star
4313 1818 Star
5122 2171 Star
5527 2412 Star
5982 2794 Star
6228 3006 Star
6531 3600 Star
6294 4194 Star
5982 4333 Star
5122 4550 Star
4261 4513 Star
4261 4375 Star
3968 4194 Star
3401 3790 Star
3139 3600 Star
2912 3006 Star
2540 2549 Star
2367 2412 Star
2540 2058 Star
3401 1862 Star
4261 1978 Star
5093 2412 Star
5122 2429 Star
5873 3006 Star
5982 3171 Star
6272 3600 Star
5982 4037 Star
5839 4194 Star
5122 4432 Star
4261 4375 Star
4261 4241 Star
4185 4194 Star
3401 3636 Star
3351 3600 Star
3065 3006 Star
2618 2412 Star
3401 2012 Star
4261 2147 Star
4768 2412 Star
5122 2619 Star
5625 3006 Star
5982 3545 Star
6020 3600 Star
5982 3656 Star
5491 4194 Star
5122 4316 Star
4261 4241 Star
5122 4197 Star
5086 4194 Star
4261 4124 Star
3517 3600 Star
3401 3361 Star
3221 3006 Star
2919 2412 Star
3401 2166 Star
4261 2322 Star
4433 2412 Star
5122 2815 Star
5370 3006 Star
5779 3600 Star
5132 4194 Star
5122 4197 Star
4261 4018 Star
3667 3600 Star
3401 3050 Star
3378 3006 Star
3220 2412 Star
3401 2320 Star
3876 2412 Star
4261 2513 Star
5112 3006 Star
5122 3015 Star
5542 3600 Star
5122 3984 Star
4261 4018 Star
4261 3915 Star
3814 3600 Star
3721 3006 Star
4261 2715 Star
4763 3006 Star
5122 3336 Star
5312 3600 Star
5122 3773 Star
4261 3915 Star
4261 3809 Star
3964 3600 Star
4107 3006 Star
4261 2923 Star
4405 3006 Star
5043 3600 Star
4261 3809 Star
4261 3703 Star
4115 3600 Star
4261 3233 Star
4646 3600 Star
4261 3703 Star
4.000 UL
LT0
/Helvetica findfont 210 scalefont setfont
6510 4558 M
-84 50 V
-93 43 V
-100 36 V
-109 29 V
-116 23 V
-123 15 V
-129 8 V
-135 0 V
-140 -6 V
-145 -14 V
-149 -20 V
-153 -28 V
-156 -35 V
-158 -42 V
-160 -48 V
-161 -54 V
-162 -61 V
-161 -67 V
-160 -73 V
-159 -78 V
-157 -83 V
-153 -88 V
-151 -92 V
-146 -96 V
3008 3777 L
2872 3674 L
2741 3568 L
2616 3460 L
2499 3349 L
2388 3237 L
2285 3124 L
-95 -113 V
-86 -114 V
-77 -113 V
-69 -113 V
-59 -112 V
-49 -110 V
-39 -107 V
-30 -105 V
-19 -103 V
-9 -99 V
1 -95 V
11 -91 V
22 -86 V
32 -82 V
41 -76 V
52 -71 V
61 -65 V
70 -59 V
80 -53 V
88 -46 V
97 -40 V
104 -33 V
112 -26 V
120 -18 V
126 -12 V
132 -4 V
138 3 V
142 10 V
148 17 V
151 24 V
154 32 V
158 38 V
159 45 V
160 51 V
161 58 V
162 64 V
161 69 V
159 76 V
158 80 V
155 86 V
152 90 V
149 94 V
144 98 V
139 102 V
134 104 V
128 108 V
121 109 V
114 111 V
107 113 V
99 113 V
90 114 V
82 114 V
73 113 V
64 112 V
54 111 V
44 108 V
35 107 V
24 104 V
14 100 V
4 97 V
-6 93 V
-16 89 V
-27 84 V
-37 79 V
-46 74 V
-57 68 V
-65 62 V
-75 56 V
/Helvetica findfont 210 scalefont setfont
3170 3775 M
-110 -88 V
-105 -91 V
-100 -93 V
-93 -94 V
-87 -96 V
-81 -97 V
-74 -98 V
-67 -98 V
-59 -97 V
-51 -97 V
-44 -96 V
-35 -95 V
-27 -92 V
-19 -91 V
-10 -88 V
-2 -85 V
7 -83 V
15 -78 V
23 -75 V
32 -71 V
40 -66 V
48 -61 V
56 -57 V
63 -51 V
71 -46 V
78 -41 V
85 -35 V
90 -28 V
97 -23 V
103 -17 V
108 -11 V
113 -4 V
117 1 V
120 8 V
125 14 V
3724 1575 L
129 26 V
132 33 V
132 37 V
134 44 V
133 49 V
134 54 V
132 59 V
132 64 V
129 69 V
127 73 V
124 77 V
121 81 V
116 83 V
113 87 V
107 90 V
102 92 V
97 94 V
90 95 V
85 96 V
77 98 V
70 97 V
63 98 V
55 97 V
48 97 V
39 95 V
31 94 V
23 92 V
15 89 V
6 87 V
-3 84 V
-10 80 V
-20 77 V
-27 73 V
-36 68 V
-44 64 V
-52 59 V
-60 54 V
-67 49 V
-74 43 V
-82 38 V
-87 31 V
-94 26 V
-100 20 V
-106 14 V
-110 8 V
-115 1 V
-119 -5 V
-122 -11 V
-126 -17 V
-128 -23 V
-131 -29 V
-132 -35 V
-133 -41 V
-134 -46 V
-133 -52 V
-133 -56 V
-132 -62 V
-131 -67 V
-128 -70 V
-126 -75 V
-122 -79 V
-119 -82 V
-114 -86 V
/Helvetica findfont 210 scalefont setfont
5306 2520 M
94 75 V
89 78 V
85 79 V
80 81 V
74 83 V
68 83 V
63 83 V
56 84 V
50 84 V
43 84 V
36 82 V
29 82 V
22 80 V
15 78 V
8 76 V
0 74 V
-7 71 V
-15 68 V
-21 64 V
-29 62 V
-35 57 V
-43 54 V
-49 49 V
-56 45 V
-62 40 V
-68 36 V
-74 31 V
-79 25 V
-85 21 V
-89 15 V
-93 10 V
-98 5 V
-101 -1 V
-105 -5 V
-108 -12 V
-109 -16 V
-112 -22 V
-114 -26 V
-114 -32 V
-115 -37 V
4222 4267 L
-115 -46 V
-114 -50 V
-113 -54 V
-111 -59 V
-108 -62 V
-107 -65 V
-103 -69 V
-100 -72 V
-96 -74 V
-92 -76 V
-87 -79 V
-82 -80 V
-77 -82 V
-71 -83 V
-66 -83 V
-59 -84 V
-53 -84 V
-47 -84 V
-39 -83 V
-33 -82 V
-25 -80 V
-19 -80 V
-11 -77 V
-4 -75 V
3 -72 V
11 -70 V
18 -66 V
25 -63 V
32 -60 V
40 -55 V
45 -52 V
53 -47 V
59 -42 V
65 -38 V
71 -34 V
77 -28 V
81 -23 V
87 -18 V
92 -12 V
95 -8 V
100 -2 V
103 3 V
106 9 V
109 14 V
111 19 V
112 24 V
114 29 V
115 34 V
115 39 V
115 44 V
115 48 V
113 52 V
112 56 V
110 61 V
108 63 V
104 68 V
102 70 V
98 73 V
/Helvetica findfont 210 scalefont setfont
407 1690 R
-57 33 V
-63 28 V
-67 24 V
-73 19 V
-77 15 V
-81 10 V
-85 6 V
-89 1 V
-92 -4 V
-94 -9 V
-97 -13 V
-99 -18 V
-100 -22 V
-102 -27 V
-103 -31 V
-102 -35 V
-103 -39 V
-103 -44 V
-101 -47 V
-101 -50 V
-98 -54 V
-97 -57 V
-94 -60 V
-91 -62 V
-88 -65 V
-85 -67 V
-81 -69 V
-76 -71 V
-72 -72 V
-67 -72 V
-62 -74 V
-57 -74 V
-51 -74 V
-45 -74 V
-39 -74 V
-34 -72 V
-27 -72 V
-20 -70 V
-14 -69 V
-8 -67 V
-1 -64 V
5 -62 V
12 -60 V
18 -56 V
25 -54 V
2808 2292 L
37 -46 V
43 -43 V
49 -39 V
55 -34 V
60 -31 V
65 -26 V
71 -22 V
74 -17 V
80 -12 V
83 -8 V
87 -3 V
90 1 V
93 6 V
96 11 V
98 16 V
99 20 V
102 24 V
102 29 V
102 33 V
103 38 V
103 41 V
102 45 V
101 49 V
100 52 V
97 56 V
96 58 V
93 61 V
89 64 V
87 66 V
82 68 V
79 70 V
74 71 V
70 72 V
64 74 V
59 74 V
54 74 V
49 74 V
42 73 V
36 73 V
30 73 V
24 71 V
18 69 V
11 68 V
4 66 V
-2 63 V
-9 61 V
-15 58 V
-21 55 V
-28 52 V
-34 48 V
-41 45 V
-46 40 V
-52 37 V
/Helvetica findfont 210 scalefont setfont
3645 3628 M
-75 -59 V
-72 -61 V
-69 -62 V
-66 -64 V
-61 -64 V
-57 -65 V
-53 -65 V
-48 -65 V
-43 -64 V
-38 -64 V
-33 -64 V
-27 -62 V
-23 -61 V
-16 -59 V
-11 -58 V
-6 -56 V
0 -53 V
6 -51 V
11 -49 V
17 -45 V
23 -42 V
27 -40 V
34 -36 V
38 -32 V
43 -29 V
48 -25 V
53 -21 V
57 -17 V
62 -13 V
65 -9 V
69 -5 V
73 -1 V
75 3 V
79 7 V
81 12 V
83 15 V
85 19 V
86 24 V
88 27 V
88 31 V
89 34 V
89 38 V
88 41 V
88 44 V
87 47 V
86 50 V
84 52 V
82 55 V
80 57 V
76 58 V
5161 2842 L
71 61 V
67 63 V
63 64 V
60 65 V
55 64 V
50 65 V
45 65 V
41 65 V
36 63 V
30 63 V
25 62 V
19 60 V
14 59 V
9 56 V
2 55 V
-3 52 V
-8 50 V
-14 47 V
-20 44 V
-25 41 V
-31 37 V
-35 35 V
-41 30 V
-46 27 V
-51 23 V
-55 19 V
-59 15 V
-63 12 V
-68 7 V
-70 3 V
-75 -1 V
-77 -6 V
-79 -9 V
-82 -13 V
-84 -18 V
-86 -21 V
-87 -25 V
-88 -29 V
-89 -33 V
-89 -36 V
-88 -39 V
-89 -43 V
-87 -46 V
-87 -48 V
-85 -51 V
-83 -54 V
-80 -56 V
-79 -58 V
/Helvetica findfont 210 scalefont setfont
1598 411 R
-42 20 V
-46 17 V
-49 13 V
-53 9 V
-55 7 V
-58 2 V
-61 -1 V
-63 -5 V
-65 -8 V
-67 -12 V
-68 -15 V
-69 -19 V
-71 -22 V
-71 -26 V
-71 -28 V
-72 -32 V
-71 -34 V
-71 -37 V
-70 -40 V
-69 -43 V
-67 -44 V
-66 -47 V
-65 -49 V
-62 -51 V
-59 -52 V
-57 -53 V
-54 -54 V
-52 -56 V
-47 -56 V
-45 -56 V
-40 -57 V
-37 -56 V
-33 -57 V
-29 -56 V
-25 -55 V
-20 -54 V
-16 -53 V
-12 -52 V
-6 -51 V
-3 -48 V
2 -47 V
7 -44 V
11 -42 V
15 -40 V
20 -37 V
25 -34 V
28 -31 V
33 -28 V
36 -25 V
41 -22 V
44 -18 V
47 -15 V
51 -11 V
54 -8 V
57 -4 V
3716 2321 L
62 3 V
64 6 V
66 10 V
67 14 V
69 17 V
70 21 V
71 23 V
71 27 V
72 30 V
71 33 V
71 36 V
71 39 V
69 41 V
69 44 V
66 45 V
66 48 V
63 50 V
61 51 V
58 53 V
56 54 V
52 55 V
50 55 V
46 57 V
42 56 V
39 57 V
35 56 V
31 57 V
27 55 V
22 55 V
18 54 V
14 52 V
9 51 V
5 50 V
0 47 V
-4 46 V
-9 43 V
-13 41 V
-18 38 V
-22 36 V
-27 33 V
-30 29 V
-35 27 V
-38 23 V
/Helvetica findfont 210 scalefont setfont
5001 3147 M
32 39 V
30 39 V
27 40 V
25 40 V
22 41 V
19 41 V
17 41 V
13 40 V
10 41 V
8 40 V
4 39 V
1 38 V
-2 38 V
-5 36 V
-9 35 V
-11 34 V
-15 32 V
-17 30 V
-20 29 V
-23 27 V
-26 24 V
-28 23 V
-31 20 V
-33 18 V
-36 16 V
-37 14 V
-40 10 V
-41 9 V
-43 6 V
-44 3 V
-46 0 V
-47 -2 V
-47 -4 V
-48 -7 V
-49 -10 V
-49 -12 V
-49 -15 V
-50 -17 V
-48 -19 V
-49 -22 V
-48 -24 V
-46 -25 V
-46 -28 V
-45 -30 V
-43 -31 V
-41 -33 V
-40 -34 V
-38 -36 V
-36 -37 V
-33 -38 V
-31 -39 V
-29 -40 V
-26 -40 V
-24 -40 V
-20 -41 V
-18 -41 V
-15 -41 V
-12 -40 V
-9 -40 V
-5 -40 V
3658 3165 L
1 -38 V
3 -37 V
7 -35 V
10 -35 V
13 -33 V
16 -31 V
18 -29 V
22 -28 V
25 -26 V
27 -24 V
29 -21 V
32 -19 V
35 -17 V
36 -15 V
39 -12 V
40 -10 V
42 -7 V
44 -4 V
45 -2 V
46 1 V
47 3 V
48 6 V
49 8 V
49 11 V
49 14 V
49 15 V
49 19 V
49 20 V
48 23 V
47 25 V
46 26 V
45 29 V
44 31 V
43 32 V
40 33 V
39 35 V
37 37 V
35 37 V
/Helvetica findfont 210 scalefont setfont
-141 696 R
-28 12 V
-30 11 V
-31 8 V
-33 8 V
-33 5 V
-35 3 V
-36 2 V
-37 -1 V
-37 -2 V
-37 -4 V
-38 -6 V
-39 -8 V
-38 -9 V
-38 -11 V
-37 -13 V
-38 -15 V
-36 -16 V
-36 -18 V
-36 -19 V
-34 -21 V
-32 -22 V
-32 -23 V
-30 -24 V
-29 -25 V
-27 -26 V
-25 -27 V
-23 -28 V
-22 -28 V
-19 -29 V
-17 -29 V
-15 -29 V
-13 -29 V
-11 -30 V
-8 -29 V
-5 -29 V
-4 -29 V
-1 -28 V
2 -28 V
4 -27 V
6 -26 V
9 -26 V
11 -24 V
13 -23 V
16 -22 V
18 -21 V
20 -19 V
22 -18 V
23 -17 V
26 -14 V
28 -14 V
29 -11 V
30 -10 V
32 -8 V
33 -6 V
35 -4 V
35 -3 V
36 0 V
37 1 V
38 3 V
37 5 V
38 7 V
39 9 V
38 10 V
38 12 V
37 14 V
4607 3040 L
37 17 V
35 19 V
35 20 V
33 21 V
32 23 V
31 23 V
30 25 V
28 26 V
26 26 V
24 27 V
22 28 V
21 29 V
18 29 V
16 29 V
14 29 V
12 30 V
9 29 V
7 29 V
4 29 V
2 29 V
0 28 V
-3 27 V
-5 27 V
-7 26 V
-10 24 V
-12 24 V
-15 23 V
-17 21 V
-19 20 V
-20 19 V
-23 17 V
-25 16 V
-27 14 V
/Helvetica findfont 210 scalefont setfont
-468 -99 R
-13 1 V
-13 0 V
-13 -2 V
-13 -2 V
-13 -3 V
-13 -4 V
-13 -6 V
-12 -6 V
-13 -7 V
-12 -8 V
-12 -9 V
-12 -9 V
-11 -11 V
-11 -11 V
-10 -12 V
-10 -13 V
-9 -13 V
-9 -13 V
-8 -15 V
-7 -14 V
-7 -15 V
-5 -16 V
-6 -15 V
-4 -16 V
-3 -16 V
-3 -16 V
-2 -16 V
-1 -16 V
-1 -16 V
1 -15 V
1 -15 V
2 -15 V
3 -15 V
4 -14 V
5 -14 V
5 -13 V
6 -13 V
7 -12 V
7 -11 V
9 -10 V
8 -10 V
10 -9 V
10 -8 V
10 -7 V
11 -6 V
11 -5 V
12 -5 V
12 -3 V
12 -2 V
13 -1 V
13 -1 V
13 1 V
13 2 V
13 3 V
13 3 V
13 5 V
12 6 V
13 6 V
13 8 V
12 8 V
11 10 V
12 10 V
11 11 V
10 11 V
11 12 V
9 13 V
9 14 V
8 14 V
8 14 V
7 15 V
4522 3422 L
6 16 V
4 15 V
4 16 V
3 16 V
3 16 V
1 16 V
1 16 V
0 16 V
-1 15 V
-2 15 V
-2 15 V
-4 14 V
-4 14 V
-5 14 V
-6 13 V
-6 12 V
-7 11 V
-8 11 V
-8 10 V
-9 10 V
-10 8 V
-10 8 V
-11 6 V
-11 6 V
-12 5 V
-12 4 V
-12 2 V
-12 2 V
stroke
1.000 UL
LTb
819 4788 N
819 630 L
6024 0 V
0 4158 V
-6024 0 V
Z stroke
1.000 UP
1.000 UL
LTb
stroke
grestore
end
showpage
