%!PS-Adobe-2.0 EPSF-2.0
%%Title: app0_60Co_2_5.ps
%%Creator: gnuplot 4.2 patchlevel 0
%%CreationDate: Thu Oct  2 07:52:30 2008
%%DocumentFonts: (atend)
%%BoundingBox: 50 50 410 302
%%EndComments
%%BeginProlog
/gnudict 256 dict def
gnudict begin
%
% The following 6 true/false flags may be edited by hand if required
% The unit line width may also be changed
%
/Color true def
/Blacktext false def
/Solid true def
/Dashlength 1 def
/Landscape false def
/Level1 false def
/Rounded false def
/TransparentPatterns false def
/gnulinewidth 5.000 def
/userlinewidth gnulinewidth def
%
/vshift -70 def
/dl1 {
  10.0 Dashlength mul mul
  Rounded { currentlinewidth 0.75 mul sub dup 0 le { pop 0.01 } if } if
} def
/dl2 {
  10.0 Dashlength mul mul
  Rounded { currentlinewidth 0.75 mul add } if
} def
/hpt_ 31.5 def
/vpt_ 31.5 def
/hpt hpt_ def
/vpt vpt_ def
Level1 {} {
/SDict 10 dict def
systemdict /pdfmark known not {
  userdict /pdfmark systemdict /cleartomark get put
} if
SDict begin [
  /Title (app0_60Co_2_5.ps)
  /Subject (gnuplot plot)
  /Creator (gnuplot 4.2 patchlevel 0)
  /Author (,,,)
%  /Producer (gnuplot)
%  /Keywords ()
  /CreationDate (Thu Oct  2 07:52:30 2008)
  /DOCINFO pdfmark
end
} ifelse
%
% Gnuplot Prolog Version 4.2 (August 2006)
%
/M {moveto} bind def
/L {lineto} bind def
/R {rmoveto} bind def
/V {rlineto} bind def
/N {newpath moveto} bind def
/Z {closepath} bind def
/C {setrgbcolor} bind def
/f {rlineto fill} bind def
/vpt2 vpt 2 mul def
/hpt2 hpt 2 mul def
/Lshow {currentpoint stroke M 0 vshift R 
	Blacktext {gsave 0 setgray show grestore} {show} ifelse} def
/Rshow {currentpoint stroke M dup stringwidth pop neg vshift R
	Blacktext {gsave 0 setgray show grestore} {show} ifelse} def
/Cshow {currentpoint stroke M dup stringwidth pop -2 div vshift R 
	Blacktext {gsave 0 setgray show grestore} {show} ifelse} def
/UP {dup vpt_ mul /vpt exch def hpt_ mul /hpt exch def
  /hpt2 hpt 2 mul def /vpt2 vpt 2 mul def} def
/DL {Color {setrgbcolor Solid {pop []} if 0 setdash}
 {pop pop pop 0 setgray Solid {pop []} if 0 setdash} ifelse} def
/BL {stroke userlinewidth 2 mul setlinewidth
	Rounded {1 setlinejoin 1 setlinecap} if} def
/AL {stroke userlinewidth 2 div setlinewidth
	Rounded {1 setlinejoin 1 setlinecap} if} def
/UL {dup gnulinewidth mul /userlinewidth exch def
	dup 1 lt {pop 1} if 10 mul /udl exch def} def
/PL {stroke userlinewidth setlinewidth
	Rounded {1 setlinejoin 1 setlinecap} if} def
% Default Line colors
/LCw {1 1 1} def
/LCb {0 0 0} def
/LCa {0 0 0} def
/LC0 {1 0 0} def
/LC1 {0 1 0} def
/LC2 {0 0 1} def
/LC3 {1 0 1} def
/LC4 {0 1 1} def
/LC5 {1 1 0} def
/LC6 {0 0 0} def
/LC7 {1 0.3 0} def
/LC8 {0.5 0.5 0.5} def
% Default Line Types
/LTw {PL [] 1 setgray} def
/LTb {BL [] LCb DL} def
/LTa {AL [1 udl mul 2 udl mul] 0 setdash LCa setrgbcolor} def
/LT0 {PL [] LC0 DL} def
/LT1 {PL [4 dl1 2 dl2] LC1 DL} def
/LT2 {PL [2 dl1 3 dl2] LC2 DL} def
/LT3 {PL [1 dl1 1.5 dl2] LC3 DL} def
/LT4 {PL [6 dl1 2 dl2 1 dl1 2 dl2] LC4 DL} def
/LT5 {PL [3 dl1 3 dl2 1 dl1 3 dl2] LC5 DL} def
/LT6 {PL [2 dl1 2 dl2 2 dl1 6 dl2] LC6 DL} def
/LT7 {PL [1 dl1 2 dl2 6 dl1 2 dl2 1 dl1 2 dl2] LC7 DL} def
/LT8 {PL [2 dl1 2 dl2 2 dl1 2 dl2 2 dl1 2 dl2 2 dl1 4 dl2] LC8 DL} def
/Pnt {stroke [] 0 setdash gsave 1 setlinecap M 0 0 V stroke grestore} def
/Dia {stroke [] 0 setdash 2 copy vpt add M
  hpt neg vpt neg V hpt vpt neg V
  hpt vpt V hpt neg vpt V closepath stroke
  Pnt} def
/Pls {stroke [] 0 setdash vpt sub M 0 vpt2 V
  currentpoint stroke M
  hpt neg vpt neg R hpt2 0 V stroke
 } def
/Box {stroke [] 0 setdash 2 copy exch hpt sub exch vpt add M
  0 vpt2 neg V hpt2 0 V 0 vpt2 V
  hpt2 neg 0 V closepath stroke
  Pnt} def
/Crs {stroke [] 0 setdash exch hpt sub exch vpt add M
  hpt2 vpt2 neg V currentpoint stroke M
  hpt2 neg 0 R hpt2 vpt2 V stroke} def
/TriU {stroke [] 0 setdash 2 copy vpt 1.12 mul add M
  hpt neg vpt -1.62 mul V
  hpt 2 mul 0 V
  hpt neg vpt 1.62 mul V closepath stroke
  Pnt} def
/Star {2 copy Pls Crs} def
/BoxF {stroke [] 0 setdash exch hpt sub exch vpt add M
  0 vpt2 neg V hpt2 0 V 0 vpt2 V
  hpt2 neg 0 V closepath fill} def
/TriUF {stroke [] 0 setdash vpt 1.12 mul add M
  hpt neg vpt -1.62 mul V
  hpt 2 mul 0 V
  hpt neg vpt 1.62 mul V closepath fill} def
/TriD {stroke [] 0 setdash 2 copy vpt 1.12 mul sub M
  hpt neg vpt 1.62 mul V
  hpt 2 mul 0 V
  hpt neg vpt -1.62 mul V closepath stroke
  Pnt} def
/TriDF {stroke [] 0 setdash vpt 1.12 mul sub M
  hpt neg vpt 1.62 mul V
  hpt 2 mul 0 V
  hpt neg vpt -1.62 mul V closepath fill} def
/DiaF {stroke [] 0 setdash vpt add M
  hpt neg vpt neg V hpt vpt neg V
  hpt vpt V hpt neg vpt V closepath fill} def
/Pent {stroke [] 0 setdash 2 copy gsave
  translate 0 hpt M 4 {72 rotate 0 hpt L} repeat
  closepath stroke grestore Pnt} def
/PentF {stroke [] 0 setdash gsave
  translate 0 hpt M 4 {72 rotate 0 hpt L} repeat
  closepath fill grestore} def
/Circle {stroke [] 0 setdash 2 copy
  hpt 0 360 arc stroke Pnt} def
/CircleF {stroke [] 0 setdash hpt 0 360 arc fill} def
/C0 {BL [] 0 setdash 2 copy moveto vpt 90 450 arc} bind def
/C1 {BL [] 0 setdash 2 copy moveto
	2 copy vpt 0 90 arc closepath fill
	vpt 0 360 arc closepath} bind def
/C2 {BL [] 0 setdash 2 copy moveto
	2 copy vpt 90 180 arc closepath fill
	vpt 0 360 arc closepath} bind def
/C3 {BL [] 0 setdash 2 copy moveto
	2 copy vpt 0 180 arc closepath fill
	vpt 0 360 arc closepath} bind def
/C4 {BL [] 0 setdash 2 copy moveto
	2 copy vpt 180 270 arc closepath fill
	vpt 0 360 arc closepath} bind def
/C5 {BL [] 0 setdash 2 copy moveto
	2 copy vpt 0 90 arc
	2 copy moveto
	2 copy vpt 180 270 arc closepath fill
	vpt 0 360 arc} bind def
/C6 {BL [] 0 setdash 2 copy moveto
	2 copy vpt 90 270 arc closepath fill
	vpt 0 360 arc closepath} bind def
/C7 {BL [] 0 setdash 2 copy moveto
	2 copy vpt 0 270 arc closepath fill
	vpt 0 360 arc closepath} bind def
/C8 {BL [] 0 setdash 2 copy moveto
	2 copy vpt 270 360 arc closepath fill
	vpt 0 360 arc closepath} bind def
/C9 {BL [] 0 setdash 2 copy moveto
	2 copy vpt 270 450 arc closepath fill
	vpt 0 360 arc closepath} bind def
/C10 {BL [] 0 setdash 2 copy 2 copy moveto vpt 270 360 arc closepath fill
	2 copy moveto
	2 copy vpt 90 180 arc closepath fill
	vpt 0 360 arc closepath} bind def
/C11 {BL [] 0 setdash 2 copy moveto
	2 copy vpt 0 180 arc closepath fill
	2 copy moveto
	2 copy vpt 270 360 arc closepath fill
	vpt 0 360 arc closepath} bind def
/C12 {BL [] 0 setdash 2 copy moveto
	2 copy vpt 180 360 arc closepath fill
	vpt 0 360 arc closepath} bind def
/C13 {BL [] 0 setdash 2 copy moveto
	2 copy vpt 0 90 arc closepath fill
	2 copy moveto
	2 copy vpt 180 360 arc closepath fill
	vpt 0 360 arc closepath} bind def
/C14 {BL [] 0 setdash 2 copy moveto
	2 copy vpt 90 360 arc closepath fill
	vpt 0 360 arc} bind def
/C15 {BL [] 0 setdash 2 copy vpt 0 360 arc closepath fill
	vpt 0 360 arc closepath} bind def
/Rec {newpath 4 2 roll moveto 1 index 0 rlineto 0 exch rlineto
	neg 0 rlineto closepath} bind def
/Square {dup Rec} bind def
/Bsquare {vpt sub exch vpt sub exch vpt2 Square} bind def
/S0 {BL [] 0 setdash 2 copy moveto 0 vpt rlineto BL Bsquare} bind def
/S1 {BL [] 0 setdash 2 copy vpt Square fill Bsquare} bind def
/S2 {BL [] 0 setdash 2 copy exch vpt sub exch vpt Square fill Bsquare} bind def
/S3 {BL [] 0 setdash 2 copy exch vpt sub exch vpt2 vpt Rec fill Bsquare} bind def
/S4 {BL [] 0 setdash 2 copy exch vpt sub exch vpt sub vpt Square fill Bsquare} bind def
/S5 {BL [] 0 setdash 2 copy 2 copy vpt Square fill
	exch vpt sub exch vpt sub vpt Square fill Bsquare} bind def
/S6 {BL [] 0 setdash 2 copy exch vpt sub exch vpt sub vpt vpt2 Rec fill Bsquare} bind def
/S7 {BL [] 0 setdash 2 copy exch vpt sub exch vpt sub vpt vpt2 Rec fill
	2 copy vpt Square fill Bsquare} bind def
/S8 {BL [] 0 setdash 2 copy vpt sub vpt Square fill Bsquare} bind def
/S9 {BL [] 0 setdash 2 copy vpt sub vpt vpt2 Rec fill Bsquare} bind def
/S10 {BL [] 0 setdash 2 copy vpt sub vpt Square fill 2 copy exch vpt sub exch vpt Square fill
	Bsquare} bind def
/S11 {BL [] 0 setdash 2 copy vpt sub vpt Square fill 2 copy exch vpt sub exch vpt2 vpt Rec fill
	Bsquare} bind def
/S12 {BL [] 0 setdash 2 copy exch vpt sub exch vpt sub vpt2 vpt Rec fill Bsquare} bind def
/S13 {BL [] 0 setdash 2 copy exch vpt sub exch vpt sub vpt2 vpt Rec fill
	2 copy vpt Square fill Bsquare} bind def
/S14 {BL [] 0 setdash 2 copy exch vpt sub exch vpt sub vpt2 vpt Rec fill
	2 copy exch vpt sub exch vpt Square fill Bsquare} bind def
/S15 {BL [] 0 setdash 2 copy Bsquare fill Bsquare} bind def
/D0 {gsave translate 45 rotate 0 0 S0 stroke grestore} bind def
/D1 {gsave translate 45 rotate 0 0 S1 stroke grestore} bind def
/D2 {gsave translate 45 rotate 0 0 S2 stroke grestore} bind def
/D3 {gsave translate 45 rotate 0 0 S3 stroke grestore} bind def
/D4 {gsave translate 45 rotate 0 0 S4 stroke grestore} bind def
/D5 {gsave translate 45 rotate 0 0 S5 stroke grestore} bind def
/D6 {gsave translate 45 rotate 0 0 S6 stroke grestore} bind def
/D7 {gsave translate 45 rotate 0 0 S7 stroke grestore} bind def
/D8 {gsave translate 45 rotate 0 0 S8 stroke grestore} bind def
/D9 {gsave translate 45 rotate 0 0 S9 stroke grestore} bind def
/D10 {gsave translate 45 rotate 0 0 S10 stroke grestore} bind def
/D11 {gsave translate 45 rotate 0 0 S11 stroke grestore} bind def
/D12 {gsave translate 45 rotate 0 0 S12 stroke grestore} bind def
/D13 {gsave translate 45 rotate 0 0 S13 stroke grestore} bind def
/D14 {gsave translate 45 rotate 0 0 S14 stroke grestore} bind def
/D15 {gsave translate 45 rotate 0 0 S15 stroke grestore} bind def
/DiaE {stroke [] 0 setdash vpt add M
  hpt neg vpt neg V hpt vpt neg V
  hpt vpt V hpt neg vpt V closepath stroke} def
/BoxE {stroke [] 0 setdash exch hpt sub exch vpt add M
  0 vpt2 neg V hpt2 0 V 0 vpt2 V
  hpt2 neg 0 V closepath stroke} def
/TriUE {stroke [] 0 setdash vpt 1.12 mul add M
  hpt neg vpt -1.62 mul V
  hpt 2 mul 0 V
  hpt neg vpt 1.62 mul V closepath stroke} def
/TriDE {stroke [] 0 setdash vpt 1.12 mul sub M
  hpt neg vpt 1.62 mul V
  hpt 2 mul 0 V
  hpt neg vpt -1.62 mul V closepath stroke} def
/PentE {stroke [] 0 setdash gsave
  translate 0 hpt M 4 {72 rotate 0 hpt L} repeat
  closepath stroke grestore} def
/CircE {stroke [] 0 setdash 
  hpt 0 360 arc stroke} def
/Opaque {gsave closepath 1 setgray fill grestore 0 setgray closepath} def
/DiaW {stroke [] 0 setdash vpt add M
  hpt neg vpt neg V hpt vpt neg V
  hpt vpt V hpt neg vpt V Opaque stroke} def
/BoxW {stroke [] 0 setdash exch hpt sub exch vpt add M
  0 vpt2 neg V hpt2 0 V 0 vpt2 V
  hpt2 neg 0 V Opaque stroke} def
/TriUW {stroke [] 0 setdash vpt 1.12 mul add M
  hpt neg vpt -1.62 mul V
  hpt 2 mul 0 V
  hpt neg vpt 1.62 mul V Opaque stroke} def
/TriDW {stroke [] 0 setdash vpt 1.12 mul sub M
  hpt neg vpt 1.62 mul V
  hpt 2 mul 0 V
  hpt neg vpt -1.62 mul V Opaque stroke} def
/PentW {stroke [] 0 setdash gsave
  translate 0 hpt M 4 {72 rotate 0 hpt L} repeat
  Opaque stroke grestore} def
/CircW {stroke [] 0 setdash 
  hpt 0 360 arc Opaque stroke} def
/BoxFill {gsave Rec 1 setgray fill grestore} def
/Density {
  /Fillden exch def
  currentrgbcolor
  /ColB exch def /ColG exch def /ColR exch def
  /ColR ColR Fillden mul Fillden sub 1 add def
  /ColG ColG Fillden mul Fillden sub 1 add def
  /ColB ColB Fillden mul Fillden sub 1 add def
  ColR ColG ColB setrgbcolor} def
/BoxColFill {gsave Rec PolyFill} def
/PolyFill {gsave Density fill grestore grestore} def
/h {rlineto rlineto rlineto gsave fill grestore} bind def
%
% PostScript Level 1 Pattern Fill routine for rectangles
% Usage: x y w h s a XX PatternFill
%	x,y = lower left corner of box to be filled
%	w,h = width and height of box
%	  a = angle in degrees between lines and x-axis
%	 XX = 0/1 for no/yes cross-hatch
%
/PatternFill {gsave /PFa [ 9 2 roll ] def
  PFa 0 get PFa 2 get 2 div add PFa 1 get PFa 3 get 2 div add translate
  PFa 2 get -2 div PFa 3 get -2 div PFa 2 get PFa 3 get Rec
  gsave 1 setgray fill grestore clip
  currentlinewidth 0.5 mul setlinewidth
  /PFs PFa 2 get dup mul PFa 3 get dup mul add sqrt def
  0 0 M PFa 5 get rotate PFs -2 div dup translate
  0 1 PFs PFa 4 get div 1 add floor cvi
	{PFa 4 get mul 0 M 0 PFs V} for
  0 PFa 6 get ne {
	0 1 PFs PFa 4 get div 1 add floor cvi
	{PFa 4 get mul 0 2 1 roll M PFs 0 V} for
 } if
  stroke grestore} def
%
/languagelevel where
 {pop languagelevel} {1} ifelse
 2 lt
	{/InterpretLevel1 true def}
	{/InterpretLevel1 Level1 def}
 ifelse
%
% PostScript level 2 pattern fill definitions
%
/Level2PatternFill {
/Tile8x8 {/PaintType 2 /PatternType 1 /TilingType 1 /BBox [0 0 8 8] /XStep 8 /YStep 8}
	bind def
/KeepColor {currentrgbcolor [/Pattern /DeviceRGB] setcolorspace} bind def
<< Tile8x8
 /PaintProc {0.5 setlinewidth pop 0 0 M 8 8 L 0 8 M 8 0 L stroke} 
>> matrix makepattern
/Pat1 exch def
<< Tile8x8
 /PaintProc {0.5 setlinewidth pop 0 0 M 8 8 L 0 8 M 8 0 L stroke
	0 4 M 4 8 L 8 4 L 4 0 L 0 4 L stroke}
>> matrix makepattern
/Pat2 exch def
<< Tile8x8
 /PaintProc {0.5 setlinewidth pop 0 0 M 0 8 L
	8 8 L 8 0 L 0 0 L fill}
>> matrix makepattern
/Pat3 exch def
<< Tile8x8
 /PaintProc {0.5 setlinewidth pop -4 8 M 8 -4 L
	0 12 M 12 0 L stroke}
>> matrix makepattern
/Pat4 exch def
<< Tile8x8
 /PaintProc {0.5 setlinewidth pop -4 0 M 8 12 L
	0 -4 M 12 8 L stroke}
>> matrix makepattern
/Pat5 exch def
<< Tile8x8
 /PaintProc {0.5 setlinewidth pop -2 8 M 4 -4 L
	0 12 M 8 -4 L 4 12 M 10 0 L stroke}
>> matrix makepattern
/Pat6 exch def
<< Tile8x8
 /PaintProc {0.5 setlinewidth pop -2 0 M 4 12 L
	0 -4 M 8 12 L 4 -4 M 10 8 L stroke}
>> matrix makepattern
/Pat7 exch def
<< Tile8x8
 /PaintProc {0.5 setlinewidth pop 8 -2 M -4 4 L
	12 0 M -4 8 L 12 4 M 0 10 L stroke}
>> matrix makepattern
/Pat8 exch def
<< Tile8x8
 /PaintProc {0.5 setlinewidth pop 0 -2 M 12 4 L
	-4 0 M 12 8 L -4 4 M 8 10 L stroke}
>> matrix makepattern
/Pat9 exch def
/Pattern1 {PatternBgnd KeepColor Pat1 setpattern} bind def
/Pattern2 {PatternBgnd KeepColor Pat2 setpattern} bind def
/Pattern3 {PatternBgnd KeepColor Pat3 setpattern} bind def
/Pattern4 {PatternBgnd KeepColor Landscape {Pat5} {Pat4} ifelse setpattern} bind def
/Pattern5 {PatternBgnd KeepColor Landscape {Pat4} {Pat5} ifelse setpattern} bind def
/Pattern6 {PatternBgnd KeepColor Landscape {Pat9} {Pat6} ifelse setpattern} bind def
/Pattern7 {PatternBgnd KeepColor Landscape {Pat8} {Pat7} ifelse setpattern} bind def
} def
%
%
%End of PostScript Level 2 code
%
/PatternBgnd {
  TransparentPatterns {} {gsave 1 setgray fill grestore} ifelse
} def
%
% Substitute for Level 2 pattern fill codes with
% grayscale if Level 2 support is not selected.
%
/Level1PatternFill {
/Pattern1 {0.250 Density} bind def
/Pattern2 {0.500 Density} bind def
/Pattern3 {0.750 Density} bind def
/Pattern4 {0.125 Density} bind def
/Pattern5 {0.375 Density} bind def
/Pattern6 {0.625 Density} bind def
/Pattern7 {0.875 Density} bind def
} def
%
% Now test for support of Level 2 code
%
Level1 {Level1PatternFill} {Level2PatternFill} ifelse
%
/Symbol-Oblique /Symbol findfont [1 0 .167 1 0 0] makefont
dup length dict begin {1 index /FID eq {pop pop} {def} ifelse} forall
currentdict end definefont pop
/MFshow {
   { dup 5 get 3 ge
     { 5 get 3 eq {gsave} {grestore} ifelse }
     {dup dup 0 get findfont exch 1 get scalefont setfont
     [ currentpoint ] exch dup 2 get 0 exch R dup 5 get 2 ne {dup dup 6
     get exch 4 get {show} {stringwidth pop 0 R} ifelse }if dup 5 get 0 eq
     {dup 3 get {2 get neg 0 exch R pop} {pop aload pop M} ifelse} {dup 5
     get 1 eq {dup 2 get exch dup 3 get exch 6 get stringwidth pop -2 div
     dup 0 R} {dup 6 get stringwidth pop -2 div 0 R 6 get
     show 2 index {aload pop M neg 3 -1 roll neg R pop pop} {pop pop pop
     pop aload pop M} ifelse }ifelse }ifelse }
     ifelse }
   forall} bind def
/MFwidth {0 exch { dup 5 get 3 ge { 5 get 3 eq { 0 } { pop } ifelse }
 {dup 3 get{dup dup 0 get findfont exch 1 get scalefont setfont
     6 get stringwidth pop add} {pop} ifelse} ifelse} forall} bind def
/MLshow { currentpoint stroke M
  0 exch R
  Blacktext {gsave 0 setgray MFshow grestore} {MFshow} ifelse } bind def
/MRshow { currentpoint stroke M
  exch dup MFwidth neg 3 -1 roll R
  Blacktext {gsave 0 setgray MFshow grestore} {MFshow} ifelse } bind def
/MCshow { currentpoint stroke M
  exch dup MFwidth -2 div 3 -1 roll R
  Blacktext {gsave 0 setgray MFshow grestore} {MFshow} ifelse } bind def
/XYsave    { [( ) 1 2 true false 3 ()] } bind def
/XYrestore { [( ) 1 2 true false 4 ()] } bind def
end
%%EndProlog
gnudict begin
gsave
50 50 translate
0.050 0.050 scale
0 setgray
newpath
(Helvetica) findfont 210 scalefont setfont
1.000 UL
LTb
945 630 M
63 0 V
5835 0 R
-63 0 V
stroke
819 630 M
[ [(Helvetica) 210.0 0.0 true true 0 ( 2)]
] -70.0 MRshow
1.000 UL
LTb
945 1046 M
63 0 V
5835 0 R
-63 0 V
stroke
819 1046 M
[ [(Helvetica) 210.0 0.0 true true 0 ( 3)]
] -70.0 MRshow
1.000 UL
LTb
945 1462 M
63 0 V
5835 0 R
-63 0 V
stroke
819 1462 M
[ [(Helvetica) 210.0 0.0 true true 0 ( 4)]
] -70.0 MRshow
1.000 UL
LTb
945 1877 M
63 0 V
5835 0 R
-63 0 V
stroke
819 1877 M
[ [(Helvetica) 210.0 0.0 true true 0 ( 5)]
] -70.0 MRshow
1.000 UL
LTb
945 2293 M
63 0 V
5835 0 R
-63 0 V
stroke
819 2293 M
[ [(Helvetica) 210.0 0.0 true true 0 ( 6)]
] -70.0 MRshow
1.000 UL
LTb
945 2709 M
63 0 V
5835 0 R
-63 0 V
stroke
819 2709 M
[ [(Helvetica) 210.0 0.0 true true 0 ( 7)]
] -70.0 MRshow
1.000 UL
LTb
945 3125 M
63 0 V
5835 0 R
-63 0 V
stroke
819 3125 M
[ [(Helvetica) 210.0 0.0 true true 0 ( 8)]
] -70.0 MRshow
1.000 UL
LTb
945 3541 M
63 0 V
5835 0 R
-63 0 V
stroke
819 3541 M
[ [(Helvetica) 210.0 0.0 true true 0 ( 9)]
] -70.0 MRshow
1.000 UL
LTb
945 3956 M
63 0 V
5835 0 R
-63 0 V
stroke
819 3956 M
[ [(Helvetica) 210.0 0.0 true true 0 ( 10)]
] -70.0 MRshow
1.000 UL
LTb
945 4372 M
63 0 V
5835 0 R
-63 0 V
stroke
819 4372 M
[ [(Helvetica) 210.0 0.0 true true 0 ( 11)]
] -70.0 MRshow
1.000 UL
LTb
945 4788 M
63 0 V
5835 0 R
-63 0 V
stroke
819 4788 M
[ [(Helvetica) 210.0 0.0 true true 0 ( 12)]
] -70.0 MRshow
1.000 UL
LTb
945 630 M
0 63 V
0 4095 R
0 -63 V
stroke
945 420 M
[ [(Helvetica) 210.0 0.0 true true 0 ( 2)]
] -70.0 MCshow
1.000 UL
LTb
1788 630 M
0 63 V
0 4095 R
0 -63 V
stroke
1788 420 M
[ [(Helvetica) 210.0 0.0 true true 0 ( 4)]
] -70.0 MCshow
1.000 UL
LTb
2630 630 M
0 63 V
0 4095 R
0 -63 V
stroke
2630 420 M
[ [(Helvetica) 210.0 0.0 true true 0 ( 6)]
] -70.0 MCshow
1.000 UL
LTb
3473 630 M
0 63 V
0 4095 R
0 -63 V
stroke
3473 420 M
[ [(Helvetica) 210.0 0.0 true true 0 ( 8)]
] -70.0 MCshow
1.000 UL
LTb
4315 630 M
0 63 V
0 4095 R
0 -63 V
stroke
4315 420 M
[ [(Helvetica) 210.0 0.0 true true 0 ( 10)]
] -70.0 MCshow
1.000 UL
LTb
5158 630 M
0 63 V
0 4095 R
0 -63 V
stroke
5158 420 M
[ [(Helvetica) 210.0 0.0 true true 0 ( 12)]
] -70.0 MCshow
1.000 UL
LTb
6000 630 M
0 63 V
0 4095 R
0 -63 V
stroke
6000 420 M
[ [(Helvetica) 210.0 0.0 true true 0 ( 14)]
] -70.0 MCshow
1.000 UL
LTb
6843 630 M
0 63 V
0 4095 R
0 -63 V
stroke
6843 420 M
[ [(Helvetica) 210.0 0.0 true true 0 ( 16)]
] -70.0 MCshow
1.000 UL
LTb
1.000 UL
LTb
945 4788 N
945 630 L
5898 0 V
0 4158 V
-5898 0 V
Z stroke
LCb setrgbcolor
210 2709 M
currentpoint gsave translate 90 rotate 0 0 moveto
[ [(Helvetica) 210.0 0.0 true true 0 (H\(MeV\))]
] -70.0 MCshow
grestore
LTb
LCb setrgbcolor
3894 105 M
[ [(Helvetica) 210.0 0.0 true true 0 (k)]
] -70.0 MCshow
LTb
1.000 UP
1.000 UL
LTb
2.000 UP
1.000 UL
LT2
/Helvetica findfont 210 scalefont setfont
2630 3038 M
2240 2709 L
-31 -24 V
1821 2293 L
-33 -72 V
1487 1877 L
-22 -415 V
7 -416 V
316 -96 V
219 96 V
202 28 V
421 71 V
421 290 V
30 27 V
392 291 V
137 124 V
284 355 V
62 61 V
-62 156 V
-54 260 V
-367 246 V
-422 88 V
-421 -5 V
0 -88 R
2345 2709 L
2209 2605 L
1900 2293 L
1788 2051 L
1636 1877 L
7 -415 V
145 -217 V
421 -48 V
421 134 V
181 131 V
240 114 V
335 301 V
87 153 V
235 263 V
-122 416 V
-113 76 V
-422 177 V
-421 -12 V
0 -89 R
2450 2709 L
2209 2525 L
1980 2293 L
1788 1881 L
-4 -4 V
4 -41 V
59 -374 V
362 -143 V
336 143 V
85 24 V
421 212 V
200 179 V
222 391 V
22 25 V
-22 67 V
-88 349 V
-334 172 V
-421 -20 V
0 -86 R
-78 -66 V
2209 2447 L
2057 2293 L
1867 1877 L
283 -415 V
59 -24 V
55 24 V
366 105 V
421 251 V
67 59 V
274 416 V
-162 416 V
-179 92 V
-421 -26 V
421 -56 R
-140 -10 V
-281 -20 V
2209 2366 L
-73 -73 V
1949 1877 L
260 -330 V
421 102 V
356 228 V
65 67 V
248 349 V
-227 416 V
-21 10 V
2630 2609 M
2218 2293 L
-9 -16 V
2032 1877 L
177 -225 V
421 80 V
227 145 V
194 199 V
155 217 V
-155 273 V
-421 43 V
0 -78 R
2320 2293 L
2209 2095 L
-97 -218 V
97 -123 V
421 58 V
101 65 V
320 327 V
64 89 V
-64 112 V
-421 126 V
0 -80 R
2424 2293 L
2209 1909 L
-14 -32 V
14 -17 V
187 17 V
234 41 V
363 375 V
-363 158 V
0 -80 R
-102 -78 V
102 -185 V
180 185 V
-180 78 V
2630 3038 Star
2240 2709 Star
2209 2685 Star
1821 2293 Star
1788 2221 Star
1487 1877 Star
1465 1462 Star
1472 1046 Star
1788 950 Star
2007 1046 Star
2209 1074 Star
2630 1145 Star
3051 1435 Star
3081 1462 Star
3473 1753 Star
3610 1877 Star
3894 2232 Star
3956 2293 Star
3894 2449 Star
3840 2709 Star
3473 2955 Star
3051 3043 Star
2630 3038 Star
2630 2950 Star
2345 2709 Star
2209 2605 Star
1900 2293 Star
1788 2051 Star
1636 1877 Star
1643 1462 Star
1788 1245 Star
2209 1197 Star
2630 1331 Star
2811 1462 Star
3051 1576 Star
3386 1877 Star
3473 2030 Star
3708 2293 Star
3586 2709 Star
3473 2785 Star
3051 2962 Star
2630 2950 Star
2630 2861 Star
2450 2709 Star
2209 2525 Star
1980 2293 Star
1788 1881 Star
1784 1877 Star
1788 1836 Star
1847 1462 Star
2209 1319 Star
2545 1462 Star
2630 1486 Star
3051 1698 Star
3251 1877 Star
3473 2268 Star
3495 2293 Star
3473 2360 Star
3385 2709 Star
3051 2881 Star
2630 2861 Star
2630 2775 Star
2552 2709 Star
2209 2447 Star
2057 2293 Star
1867 1877 Star
2150 1462 Star
2209 1438 Star
2264 1462 Star
2630 1567 Star
3051 1818 Star
3118 1877 Star
3392 2293 Star
3230 2709 Star
3051 2801 Star
2630 2775 Star
3051 2719 Star
2911 2709 Star
2630 2689 Star
2209 2366 Star
2136 2293 Star
1949 1877 Star
2209 1547 Star
2630 1649 Star
2986 1877 Star
3051 1944 Star
3299 2293 Star
3072 2709 Star
3051 2719 Star
2630 2609 Star
2218 2293 Star
2209 2277 Star
2032 1877 Star
2209 1652 Star
2630 1732 Star
2857 1877 Star
3051 2076 Star
3206 2293 Star
3051 2566 Star
2630 2609 Star
2630 2531 Star
2320 2293 Star
2209 2095 Star
2112 1877 Star
2209 1754 Star
2630 1812 Star
2731 1877 Star
3051 2204 Star
3115 2293 Star
3051 2405 Star
2630 2531 Star
2630 2451 Star
2424 2293 Star
2209 1909 Star
2195 1877 Star
2209 1860 Star
2396 1877 Star
2630 1918 Star
2993 2293 Star
2630 2451 Star
2630 2371 Star
2528 2293 Star
2630 2108 Star
2810 2293 Star
2630 2371 Star
4.000 UL
LT0
/Helvetica findfont 210 scalefont setfont
4486 4666 M
-104 -15 V
-103 -19 V
-101 -24 V
-100 -27 V
-97 -31 V
-95 -35 V
-92 -39 V
-88 -42 V
-85 -46 V
-81 -48 V
-76 -52 V
-72 -54 V
-67 -57 V
-62 -58 V
-56 -61 V
-51 -63 V
-44 -64 V
-39 -66 V
-32 -67 V
-26 -67 V
-19 -68 V
-13 -68 V
-7 -67 V
1 -68 V
6 -67 V
14 -66 V
20 -65 V
27 -63 V
32 -62 V
39 -60 V
46 -57 V
51 -56 V
56 -52 V
62 -50 V
68 -47 V
72 -44 V
77 -40 V
81 -36 V
85 -33 V
89 -29 V
92 -25 V
95 -22 V
98 -16 V
100 -13 V
101 -9 V
103 -4 V
104 0 V
104 5 V
105 9 V
104 13 V
103 17 V
102 21 V
101 25 V
98 30 V
96 33 V
94 37 V
90 40 V
87 44 V
83 47 V
79 50 V
74 53 V
69 55 V
64 58 V
59 60 V
54 62 V
47 64 V
42 65 V
35 66 V
30 67 V
22 67 V
17 68 V
9 68 V
3 68 V
-3 67 V
-11 67 V
-16 65 V
-24 64 V
-29 63 V
-36 61 V
-42 58 V
-49 57 V
-53 54 V
-60 51 V
-65 49 V
-69 45 V
-75 42 V
-79 38 V
-83 35 V
-88 31 V
-90 27 V
-94 23 V
-96 19 V
-99 15 V
-101 11 V
-102 6 V
-103 2 V
-104 -2 V
-105 -7 V
-104 -11 V
/Helvetica findfont 210 scalefont setfont
4244 4400 M
-81 -46 V
-79 -50 V
-77 -51 V
-74 -55 V
3862 4142 L
-68 -58 V
-65 -60 V
-60 -61 V
-57 -62 V
-53 -64 V
-48 -64 V
-44 -64 V
-38 -64 V
-34 -65 V
-29 -64 V
-24 -63 V
-18 -63 V
-13 -61 V
-7 -60 V
-3 -59 V
4 -56 V
9 -55 V
14 -52 V
19 -49 V
25 -47 V
30 -44 V
35 -41 V
40 -38 V
45 -34 V
49 -31 V
53 -27 V
58 -23 V
62 -20 V
65 -15 V
69 -12 V
72 -7 V
74 -3 V
78 0 V
79 5 V
82 9 V
82 13 V
85 17 V
85 21 V
85 24 V
86 29 V
86 32 V
85 35 V
85 39 V
83 42 V
82 45 V
80 48 V
78 50 V
75 53 V
73 56 V
70 57 V
66 59 V
63 60 V
58 62 V
55 63 V
51 64 V
45 64 V
42 64 V
36 65 V
31 64 V
27 64 V
21 63 V
15 62 V
10 61 V
5 59 V
0 57 V
-6 56 V
-12 53 V
-17 51 V
-22 48 V
-27 46 V
-33 42 V
-37 39 V
-43 36 V
-47 33 V
-51 29 V
-56 25 V
-59 22 V
-64 17 V
-67 14 V
-70 9 V
-74 5 V
-76 2 V
-78 -3 V
-81 -7 V
-82 -11 V
-83 -15 V
-85 -19 V
-85 -22 V
-86 -27 V
-86 -30 V
-86 -34 V
-85 -37 V
-84 -40 V
-82 -44 V
/Helvetica findfont 210 scalefont setfont
-2 -112 R
-69 -42 V
-67 -45 V
-66 -46 V
-63 -48 V
-60 -50 V
-58 -52 V
-54 -53 V
-52 -54 V
-48 -55 V
3661 3788 L
-40 -56 V
-37 -56 V
-32 -57 V
-28 -56 V
-24 -55 V
-19 -55 V
-15 -54 V
-10 -53 V
-6 -52 V
0 -50 V
3 -48 V
9 -47 V
13 -44 V
18 -42 V
22 -40 V
27 -36 V
30 -35 V
35 -31 V
40 -28 V
43 -25 V
46 -22 V
50 -18 V
54 -15 V
56 -12 V
60 -8 V
62 -5 V
64 -1 V
67 3 V
68 6 V
70 10 V
72 13 V
72 17 V
73 20 V
74 23 V
73 27 V
74 29 V
72 33 V
73 35 V
71 39 V
70 40 V
68 43 V
66 46 V
64 47 V
62 49 V
59 51 V
56 52 V
53 54 V
50 54 V
46 55 V
42 56 V
39 56 V
34 57 V
30 56 V
26 56 V
22 55 V
17 55 V
12 53 V
8 52 V
3 51 V
-1 49 V
-6 48 V
-11 45 V
-16 43 V
-20 41 V
-24 38 V
-29 36 V
-33 33 V
-37 29 V
-41 27 V
-45 24 V
-48 20 V
-52 17 V
-55 13 V
-58 10 V
-61 6 V
-63 3 V
-66 -1 V
-67 -4 V
-70 -8 V
-70 -12 V
-72 -15 V
-73 -18 V
-73 -22 V
-74 -25 V
-73 -28 V
-73 -31 V
-73 -34 V
-72 -37 V
-70 -39 V
/Helvetica findfont 210 scalefont setfont
38 -104 R
-60 -40 V
-60 -41 V
-57 -43 V
-56 -44 V
-53 -46 V
-51 -47 V
-48 -48 V
-46 -48 V
-42 -49 V
-39 -50 V
-36 -50 V
-33 -49 V
-28 -50 V
-25 -49 V
3625 3482 L
-18 -48 V
-13 -47 V
-9 -45 V
-5 -44 V
-1 -42 V
3 -41 V
7 -39 V
12 -37 V
15 -34 V
19 -33 V
23 -29 V
27 -28 V
31 -24 V
34 -22 V
38 -19 V
41 -16 V
44 -12 V
47 -10 V
49 -7 V
52 -3 V
55 -1 V
57 3 V
58 6 V
60 9 V
62 12 V
63 15 V
63 18 V
64 21 V
65 24 V
65 27 V
65 29 V
64 32 V
63 34 V
63 36 V
62 38 V
60 41 V
58 42 V
57 43 V
54 46 V
52 46 V
50 47 V
47 48 V
44 49 V
41 50 V
37 49 V
34 50 V
31 50 V
27 49 V
23 49 V
19 48 V
15 47 V
11 46 V
7 45 V
3 43 V
-1 42 V
-5 39 V
-9 38 V
-13 36 V
-18 33 V
-21 31 V
-25 29 V
-29 26 V
-32 23 V
-36 20 V
-39 18 V
-43 14 V
-45 11 V
-49 9 V
-51 5 V
-53 2 V
-56 -2 V
-57 -4 V
-60 -7 V
-60 -11 V
-63 -14 V
-63 -16 V
-64 -20 V
-64 -22 V
-65 -26 V
-65 -27 V
-64 -31 V
-64 -33 V
-63 -35 V
-63 -37 V
/Helvetica findfont 210 scalefont setfont
3748 3122 M
19 -24 V
23 -22 V
26 -20 V
29 -17 V
32 -14 V
34 -11 V
38 -9 V
40 -6 V
42 -3 V
45 -1 V
47 2 V
49 6 V
50 7 V
52 11 V
53 13 V
54 16 V
55 19 V
55 21 V
56 23 V
4603 3139 L
56 28 V
56 30 V
55 32 V
55 34 V
53 35 V
53 38 V
51 38 V
49 40 V
48 41 V
45 42 V
44 43 V
41 43 V
39 44 V
36 44 V
33 44 V
30 44 V
27 43 V
24 44 V
21 42 V
17 42 V
14 41 V
11 39 V
7 39 V
3 37 V
0 35 V
-4 34 V
-7 31 V
-11 30 V
-14 28 V
-17 25 V
-21 23 V
-25 21 V
-27 18 V
-30 15 V
-34 13 V
-36 11 V
-39 7 V
-41 5 V
-44 2 V
-45 -1 V
-48 -4 V
-50 -7 V
-51 -9 V
-52 -12 V
-54 -14 V
-54 -18 V
-55 -19 V
-56 -23 V
-56 -24 V
-56 -27 V
-56 -29 V
-56 -31 V
-55 -33 V
-54 -35 V
-53 -36 V
-51 -38 V
-51 -39 V
-48 -41 V
-47 -41 V
-44 -43 V
-43 -43 V
-40 -43 V
-37 -44 V
-34 -44 V
-32 -44 V
-29 -44 V
-26 -43 V
-22 -43 V
-19 -43 V
-16 -41 V
-12 -40 V
-9 -39 V
-5 -38 V
-2 -36 V
2 -35 V
6 -32 V
9 -31 V
12 -29 V
16 -26 V
/Helvetica findfont 210 scalefont setfont
710 964 R
-38 -1 V
-37 -3 V
-37 -5 V
-37 -6 V
-36 -9 V
-36 -10 V
-34 -12 V
-34 -13 V
-32 -16 V
-31 -17 V
-29 -18 V
-28 -20 V
-27 -21 V
-24 -22 V
-23 -24 V
-21 -25 V
-19 -25 V
-17 -27 V
-14 -27 V
-12 -29 V
-11 -28 V
-7 -29 V
-6 -30 V
-3 -29 V
3865 3610 L
2 -30 V
4 -29 V
6 -29 V
9 -29 V
11 -29 V
14 -27 V
15 -27 V
18 -27 V
20 -25 V
22 -24 V
24 -23 V
25 -22 V
27 -20 V
29 -20 V
31 -17 V
31 -16 V
33 -15 V
34 -12 V
35 -12 V
36 -9 V
36 -7 V
37 -6 V
37 -4 V
38 -2 V
38 0 V
37 2 V
38 4 V
36 6 V
37 7 V
36 9 V
35 12 V
34 12 V
32 15 V
32 16 V
30 17 V
29 20 V
27 20 V
26 22 V
24 23 V
22 24 V
19 25 V
18 27 V
16 27 V
13 27 V
11 29 V
9 29 V
7 29 V
4 29 V
2 30 V
-1 30 V
-3 29 V
-5 30 V
-8 29 V
-10 28 V
-12 29 V
-15 27 V
-16 27 V
-19 25 V
-21 25 V
-23 24 V
-25 22 V
-26 21 V
-28 20 V
-30 18 V
-31 17 V
-32 16 V
-33 13 V
-35 12 V
-35 10 V
-36 9 V
-37 6 V
-37 5 V
-38 3 V
-37 1 V
/Helvetica findfont 210 scalefont setfont
557 -71 R
-14 17 V
-15 15 V
-18 14 V
-19 13 V
-20 10 V
-23 10 V
-23 7 V
-25 6 V
-27 4 V
-27 2 V
-29 1 V
-30 -2 V
-30 -3 V
-31 -4 V
-32 -7 V
-32 -8 V
-33 -9 V
-32 -12 V
-33 -13 V
-33 -14 V
-32 -16 V
-32 -17 V
-32 -19 V
-31 -20 V
-30 -21 V
-30 -22 V
-28 -23 V
-28 -25 V
-26 -24 V
4195 3829 L
-24 -26 V
-22 -27 V
-20 -27 V
-19 -27 V
-18 -28 V
-15 -28 V
-13 -27 V
-12 -27 V
-10 -28 V
-7 -26 V
-6 -27 V
-3 -25 V
-2 -25 V
1 -24 V
2 -24 V
5 -22 V
7 -21 V
9 -20 V
10 -19 V
13 -18 V
15 -16 V
16 -14 V
18 -13 V
20 -12 V
22 -10 V
23 -8 V
24 -7 V
26 -5 V
27 -3 V
28 -1 V
29 0 V
30 2 V
31 4 V
31 5 V
32 8 V
33 9 V
32 10 V
33 12 V
33 14 V
32 15 V
33 17 V
32 18 V
31 19 V
31 21 V
30 21 V
29 23 V
28 24 V
27 24 V
25 25 V
25 26 V
22 27 V
22 27 V
20 27 V
18 27 V
16 28 V
14 27 V
13 28 V
11 27 V
8 27 V
7 27 V
4 26 V
3 25 V
0 25 V
-1 23 V
-4 23 V
-6 22 V
-8 21 V
-9 19 V
-12 18 V
/Helvetica findfont 210 scalefont setfont
-660 -36 R
-16 -9 V
-15 -11 V
-14 -12 V
-14 -13 V
-12 -14 V
-11 -15 V
-11 -16 V
-9 -18 V
-8 -18 V
-7 -19 V
-5 -19 V
-5 -20 V
-3 -21 V
-2 -21 V
-1 -22 V
0 -21 V
2 -22 V
3 -23 V
4 -22 V
6 -22 V
7 -22 V
7 -22 V
9 -21 V
10 -21 V
11 -21 V
13 -19 V
13 -20 V
14 -18 V
15 -18 V
15 -17 V
17 -16 V
17 -14 V
17 -14 V
19 -13 V
4439 3354 L
19 -11 V
20 -9 V
19 -7 V
20 -7 V
20 -5 V
20 -3 V
19 -2 V
20 -1 V
19 1 V
19 2 V
19 3 V
18 5 V
17 6 V
17 8 V
16 8 V
16 10 V
15 12 V
13 12 V
13 14 V
12 15 V
11 15 V
10 17 V
8 18 V
8 18 V
6 19 V
5 20 V
4 21 V
3 21 V
1 21 V
0 22 V
-1 22 V
-2 22 V
-4 22 V
-5 22 V
-6 22 V
-7 22 V
-8 22 V
-10 21 V
-11 21 V
-11 20 V
-13 19 V
-13 19 V
-15 18 V
-15 18 V
-16 16 V
-17 15 V
-17 15 V
-18 13 V
-19 12 V
-19 11 V
-19 9 V
-19 9 V
-20 7 V
-20 5 V
-20 5 V
-19 3 V
-20 1 V
-19 0 V
-19 -1 V
-19 -3 V
-19 -4 V
-17 -6 V
-18 -6 V
-16 -9 V
/Helvetica findfont 210 scalefont setfont
73 -313 R
-11 2 V
-11 2 V
-11 1 V
-11 1 V
-10 0 V
-11 0 V
-11 0 V
-10 -2 V
-11 -1 V
-9 -2 V
-10 -3 V
-9 -3 V
-9 -4 V
-9 -4 V
-8 -4 V
-7 -5 V
-7 -5 V
-7 -6 V
-6 -6 V
-5 -6 V
-4 -7 V
-4 -7 V
-4 -7 V
-3 -7 V
-2 -8 V
-1 -7 V
0 -8 V
0 -8 V
0 -8 V
2 -8 V
2 -8 V
3 -8 V
3 -7 V
4 -8 V
5 -8 V
5 -7 V
6 -8 V
7 -7 V
7 -7 V
4279 3472 L
8 -6 V
8 -6 V
9 -6 V
10 -5 V
9 -5 V
10 -4 V
10 -4 V
11 -4 V
11 -3 V
10 -2 V
11 -2 V
11 -2 V
11 -1 V
11 -1 V
11 0 V
11 1 V
10 1 V
10 1 V
11 2 V
9 2 V
10 3 V
9 4 V
9 3 V
8 5 V
8 4 V
7 5 V
6 6 V
7 6 V
5 6 V
5 6 V
5 7 V
3 7 V
3 7 V
3 7 V
1 8 V
1 8 V
1 8 V
-1 7 V
-1 8 V
-2 8 V
-2 8 V
-3 8 V
-4 8 V
-5 8 V
-5 7 V
-5 8 V
-7 7 V
-6 7 V
-8 7 V
-8 6 V
-8 6 V
-9 6 V
-9 5 V
-9 5 V
-10 5 V
-10 4 V
-11 4 V
-10 3 V
-11 3 V
stroke
1.000 UL
LTb
945 4788 N
945 630 L
5898 0 V
0 4158 V
-5898 0 V
Z stroke
1.000 UP
1.000 UL
LTb
stroke
grestore
end
showpage
%%Trailer
%%DocumentFonts: Helvetica
