%!PS-Adobe-2.0 EPSF-2.0
%%Title: app0_207Bi_1_20.ps
%%Creator: gnuplot 4.2 patchlevel 0
%%CreationDate: Thu Oct  2 09:23:41 2008
%%DocumentFonts: (atend)
%%BoundingBox: 50 50 410 302
%%EndComments
%%BeginProlog
/gnudict 256 dict def
gnudict begin
%
% The following 6 true/false flags may be edited by hand if required
% The unit line width may also be changed
%
/Color true def
/Blacktext false def
/Solid true def
/Dashlength 1 def
/Landscape false def
/Level1 false def
/Rounded false def
/TransparentPatterns false def
/gnulinewidth 5.000 def
/userlinewidth gnulinewidth def
%
/vshift -70 def
/dl1 {
  10.0 Dashlength mul mul
  Rounded { currentlinewidth 0.75 mul sub dup 0 le { pop 0.01 } if } if
} def
/dl2 {
  10.0 Dashlength mul mul
  Rounded { currentlinewidth 0.75 mul add } if
} def
/hpt_ 31.5 def
/vpt_ 31.5 def
/hpt hpt_ def
/vpt vpt_ def
Level1 {} {
/SDict 10 dict def
systemdict /pdfmark known not {
  userdict /pdfmark systemdict /cleartomark get put
} if
SDict begin [
  /Title (app0_207Bi_1_20.ps)
  /Subject (gnuplot plot)
  /Creator (gnuplot 4.2 patchlevel 0)
  /Author (,,,)
%  /Producer (gnuplot)
%  /Keywords ()
  /CreationDate (Thu Oct  2 09:23:41 2008)
  /DOCINFO pdfmark
end
} ifelse
%
% Gnuplot Prolog Version 4.2 (August 2006)
%
/M {moveto} bind def
/L {lineto} bind def
/R {rmoveto} bind def
/V {rlineto} bind def
/N {newpath moveto} bind def
/Z {closepath} bind def
/C {setrgbcolor} bind def
/f {rlineto fill} bind def
/vpt2 vpt 2 mul def
/hpt2 hpt 2 mul def
/Lshow {currentpoint stroke M 0 vshift R 
	Blacktext {gsave 0 setgray show grestore} {show} ifelse} def
/Rshow {currentpoint stroke M dup stringwidth pop neg vshift R
	Blacktext {gsave 0 setgray show grestore} {show} ifelse} def
/Cshow {currentpoint stroke M dup stringwidth pop -2 div vshift R 
	Blacktext {gsave 0 setgray show grestore} {show} ifelse} def
/UP {dup vpt_ mul /vpt exch def hpt_ mul /hpt exch def
  /hpt2 hpt 2 mul def /vpt2 vpt 2 mul def} def
/DL {Color {setrgbcolor Solid {pop []} if 0 setdash}
 {pop pop pop 0 setgray Solid {pop []} if 0 setdash} ifelse} def
/BL {stroke userlinewidth 2 mul setlinewidth
	Rounded {1 setlinejoin 1 setlinecap} if} def
/AL {stroke userlinewidth 2 div setlinewidth
	Rounded {1 setlinejoin 1 setlinecap} if} def
/UL {dup gnulinewidth mul /userlinewidth exch def
	dup 1 lt {pop 1} if 10 mul /udl exch def} def
/PL {stroke userlinewidth setlinewidth
	Rounded {1 setlinejoin 1 setlinecap} if} def
% Default Line colors
/LCw {1 1 1} def
/LCb {0 0 0} def
/LCa {0 0 0} def
/LC0 {1 0 0} def
/LC1 {0 1 0} def
/LC2 {0 0 1} def
/LC3 {1 0 1} def
/LC4 {0 1 1} def
/LC5 {1 1 0} def
/LC6 {0 0 0} def
/LC7 {1 0.3 0} def
/LC8 {0.5 0.5 0.5} def
% Default Line Types
/LTw {PL [] 1 setgray} def
/LTb {BL [] LCb DL} def
/LTa {AL [1 udl mul 2 udl mul] 0 setdash LCa setrgbcolor} def
/LT0 {PL [] LC0 DL} def
/LT1 {PL [4 dl1 2 dl2] LC1 DL} def
/LT2 {PL [2 dl1 3 dl2] LC2 DL} def
/LT3 {PL [1 dl1 1.5 dl2] LC3 DL} def
/LT4 {PL [6 dl1 2 dl2 1 dl1 2 dl2] LC4 DL} def
/LT5 {PL [3 dl1 3 dl2 1 dl1 3 dl2] LC5 DL} def
/LT6 {PL [2 dl1 2 dl2 2 dl1 6 dl2] LC6 DL} def
/LT7 {PL [1 dl1 2 dl2 6 dl1 2 dl2 1 dl1 2 dl2] LC7 DL} def
/LT8 {PL [2 dl1 2 dl2 2 dl1 2 dl2 2 dl1 2 dl2 2 dl1 4 dl2] LC8 DL} def
/Pnt {stroke [] 0 setdash gsave 1 setlinecap M 0 0 V stroke grestore} def
/Dia {stroke [] 0 setdash 2 copy vpt add M
  hpt neg vpt neg V hpt vpt neg V
  hpt vpt V hpt neg vpt V closepath stroke
  Pnt} def
/Pls {stroke [] 0 setdash vpt sub M 0 vpt2 V
  currentpoint stroke M
  hpt neg vpt neg R hpt2 0 V stroke
 } def
/Box {stroke [] 0 setdash 2 copy exch hpt sub exch vpt add M
  0 vpt2 neg V hpt2 0 V 0 vpt2 V
  hpt2 neg 0 V closepath stroke
  Pnt} def
/Crs {stroke [] 0 setdash exch hpt sub exch vpt add M
  hpt2 vpt2 neg V currentpoint stroke M
  hpt2 neg 0 R hpt2 vpt2 V stroke} def
/TriU {stroke [] 0 setdash 2 copy vpt 1.12 mul add M
  hpt neg vpt -1.62 mul V
  hpt 2 mul 0 V
  hpt neg vpt 1.62 mul V closepath stroke
  Pnt} def
/Star {2 copy Pls Crs} def
/BoxF {stroke [] 0 setdash exch hpt sub exch vpt add M
  0 vpt2 neg V hpt2 0 V 0 vpt2 V
  hpt2 neg 0 V closepath fill} def
/TriUF {stroke [] 0 setdash vpt 1.12 mul add M
  hpt neg vpt -1.62 mul V
  hpt 2 mul 0 V
  hpt neg vpt 1.62 mul V closepath fill} def
/TriD {stroke [] 0 setdash 2 copy vpt 1.12 mul sub M
  hpt neg vpt 1.62 mul V
  hpt 2 mul 0 V
  hpt neg vpt -1.62 mul V closepath stroke
  Pnt} def
/TriDF {stroke [] 0 setdash vpt 1.12 mul sub M
  hpt neg vpt 1.62 mul V
  hpt 2 mul 0 V
  hpt neg vpt -1.62 mul V closepath fill} def
/DiaF {stroke [] 0 setdash vpt add M
  hpt neg vpt neg V hpt vpt neg V
  hpt vpt V hpt neg vpt V closepath fill} def
/Pent {stroke [] 0 setdash 2 copy gsave
  translate 0 hpt M 4 {72 rotate 0 hpt L} repeat
  closepath stroke grestore Pnt} def
/PentF {stroke [] 0 setdash gsave
  translate 0 hpt M 4 {72 rotate 0 hpt L} repeat
  closepath fill grestore} def
/Circle {stroke [] 0 setdash 2 copy
  hpt 0 360 arc stroke Pnt} def
/CircleF {stroke [] 0 setdash hpt 0 360 arc fill} def
/C0 {BL [] 0 setdash 2 copy moveto vpt 90 450 arc} bind def
/C1 {BL [] 0 setdash 2 copy moveto
	2 copy vpt 0 90 arc closepath fill
	vpt 0 360 arc closepath} bind def
/C2 {BL [] 0 setdash 2 copy moveto
	2 copy vpt 90 180 arc closepath fill
	vpt 0 360 arc closepath} bind def
/C3 {BL [] 0 setdash 2 copy moveto
	2 copy vpt 0 180 arc closepath fill
	vpt 0 360 arc closepath} bind def
/C4 {BL [] 0 setdash 2 copy moveto
	2 copy vpt 180 270 arc closepath fill
	vpt 0 360 arc closepath} bind def
/C5 {BL [] 0 setdash 2 copy moveto
	2 copy vpt 0 90 arc
	2 copy moveto
	2 copy vpt 180 270 arc closepath fill
	vpt 0 360 arc} bind def
/C6 {BL [] 0 setdash 2 copy moveto
	2 copy vpt 90 270 arc closepath fill
	vpt 0 360 arc closepath} bind def
/C7 {BL [] 0 setdash 2 copy moveto
	2 copy vpt 0 270 arc closepath fill
	vpt 0 360 arc closepath} bind def
/C8 {BL [] 0 setdash 2 copy moveto
	2 copy vpt 270 360 arc closepath fill
	vpt 0 360 arc closepath} bind def
/C9 {BL [] 0 setdash 2 copy moveto
	2 copy vpt 270 450 arc closepath fill
	vpt 0 360 arc closepath} bind def
/C10 {BL [] 0 setdash 2 copy 2 copy moveto vpt 270 360 arc closepath fill
	2 copy moveto
	2 copy vpt 90 180 arc closepath fill
	vpt 0 360 arc closepath} bind def
/C11 {BL [] 0 setdash 2 copy moveto
	2 copy vpt 0 180 arc closepath fill
	2 copy moveto
	2 copy vpt 270 360 arc closepath fill
	vpt 0 360 arc closepath} bind def
/C12 {BL [] 0 setdash 2 copy moveto
	2 copy vpt 180 360 arc closepath fill
	vpt 0 360 arc closepath} bind def
/C13 {BL [] 0 setdash 2 copy moveto
	2 copy vpt 0 90 arc closepath fill
	2 copy moveto
	2 copy vpt 180 360 arc closepath fill
	vpt 0 360 arc closepath} bind def
/C14 {BL [] 0 setdash 2 copy moveto
	2 copy vpt 90 360 arc closepath fill
	vpt 0 360 arc} bind def
/C15 {BL [] 0 setdash 2 copy vpt 0 360 arc closepath fill
	vpt 0 360 arc closepath} bind def
/Rec {newpath 4 2 roll moveto 1 index 0 rlineto 0 exch rlineto
	neg 0 rlineto closepath} bind def
/Square {dup Rec} bind def
/Bsquare {vpt sub exch vpt sub exch vpt2 Square} bind def
/S0 {BL [] 0 setdash 2 copy moveto 0 vpt rlineto BL Bsquare} bind def
/S1 {BL [] 0 setdash 2 copy vpt Square fill Bsquare} bind def
/S2 {BL [] 0 setdash 2 copy exch vpt sub exch vpt Square fill Bsquare} bind def
/S3 {BL [] 0 setdash 2 copy exch vpt sub exch vpt2 vpt Rec fill Bsquare} bind def
/S4 {BL [] 0 setdash 2 copy exch vpt sub exch vpt sub vpt Square fill Bsquare} bind def
/S5 {BL [] 0 setdash 2 copy 2 copy vpt Square fill
	exch vpt sub exch vpt sub vpt Square fill Bsquare} bind def
/S6 {BL [] 0 setdash 2 copy exch vpt sub exch vpt sub vpt vpt2 Rec fill Bsquare} bind def
/S7 {BL [] 0 setdash 2 copy exch vpt sub exch vpt sub vpt vpt2 Rec fill
	2 copy vpt Square fill Bsquare} bind def
/S8 {BL [] 0 setdash 2 copy vpt sub vpt Square fill Bsquare} bind def
/S9 {BL [] 0 setdash 2 copy vpt sub vpt vpt2 Rec fill Bsquare} bind def
/S10 {BL [] 0 setdash 2 copy vpt sub vpt Square fill 2 copy exch vpt sub exch vpt Square fill
	Bsquare} bind def
/S11 {BL [] 0 setdash 2 copy vpt sub vpt Square fill 2 copy exch vpt sub exch vpt2 vpt Rec fill
	Bsquare} bind def
/S12 {BL [] 0 setdash 2 copy exch vpt sub exch vpt sub vpt2 vpt Rec fill Bsquare} bind def
/S13 {BL [] 0 setdash 2 copy exch vpt sub exch vpt sub vpt2 vpt Rec fill
	2 copy vpt Square fill Bsquare} bind def
/S14 {BL [] 0 setdash 2 copy exch vpt sub exch vpt sub vpt2 vpt Rec fill
	2 copy exch vpt sub exch vpt Square fill Bsquare} bind def
/S15 {BL [] 0 setdash 2 copy Bsquare fill Bsquare} bind def
/D0 {gsave translate 45 rotate 0 0 S0 stroke grestore} bind def
/D1 {gsave translate 45 rotate 0 0 S1 stroke grestore} bind def
/D2 {gsave translate 45 rotate 0 0 S2 stroke grestore} bind def
/D3 {gsave translate 45 rotate 0 0 S3 stroke grestore} bind def
/D4 {gsave translate 45 rotate 0 0 S4 stroke grestore} bind def
/D5 {gsave translate 45 rotate 0 0 S5 stroke grestore} bind def
/D6 {gsave translate 45 rotate 0 0 S6 stroke grestore} bind def
/D7 {gsave translate 45 rotate 0 0 S7 stroke grestore} bind def
/D8 {gsave translate 45 rotate 0 0 S8 stroke grestore} bind def
/D9 {gsave translate 45 rotate 0 0 S9 stroke grestore} bind def
/D10 {gsave translate 45 rotate 0 0 S10 stroke grestore} bind def
/D11 {gsave translate 45 rotate 0 0 S11 stroke grestore} bind def
/D12 {gsave translate 45 rotate 0 0 S12 stroke grestore} bind def
/D13 {gsave translate 45 rotate 0 0 S13 stroke grestore} bind def
/D14 {gsave translate 45 rotate 0 0 S14 stroke grestore} bind def
/D15 {gsave translate 45 rotate 0 0 S15 stroke grestore} bind def
/DiaE {stroke [] 0 setdash vpt add M
  hpt neg vpt neg V hpt vpt neg V
  hpt vpt V hpt neg vpt V closepath stroke} def
/BoxE {stroke [] 0 setdash exch hpt sub exch vpt add M
  0 vpt2 neg V hpt2 0 V 0 vpt2 V
  hpt2 neg 0 V closepath stroke} def
/TriUE {stroke [] 0 setdash vpt 1.12 mul add M
  hpt neg vpt -1.62 mul V
  hpt 2 mul 0 V
  hpt neg vpt 1.62 mul V closepath stroke} def
/TriDE {stroke [] 0 setdash vpt 1.12 mul sub M
  hpt neg vpt 1.62 mul V
  hpt 2 mul 0 V
  hpt neg vpt -1.62 mul V closepath stroke} def
/PentE {stroke [] 0 setdash gsave
  translate 0 hpt M 4 {72 rotate 0 hpt L} repeat
  closepath stroke grestore} def
/CircE {stroke [] 0 setdash 
  hpt 0 360 arc stroke} def
/Opaque {gsave closepath 1 setgray fill grestore 0 setgray closepath} def
/DiaW {stroke [] 0 setdash vpt add M
  hpt neg vpt neg V hpt vpt neg V
  hpt vpt V hpt neg vpt V Opaque stroke} def
/BoxW {stroke [] 0 setdash exch hpt sub exch vpt add M
  0 vpt2 neg V hpt2 0 V 0 vpt2 V
  hpt2 neg 0 V Opaque stroke} def
/TriUW {stroke [] 0 setdash vpt 1.12 mul add M
  hpt neg vpt -1.62 mul V
  hpt 2 mul 0 V
  hpt neg vpt 1.62 mul V Opaque stroke} def
/TriDW {stroke [] 0 setdash vpt 1.12 mul sub M
  hpt neg vpt 1.62 mul V
  hpt 2 mul 0 V
  hpt neg vpt -1.62 mul V Opaque stroke} def
/PentW {stroke [] 0 setdash gsave
  translate 0 hpt M 4 {72 rotate 0 hpt L} repeat
  Opaque stroke grestore} def
/CircW {stroke [] 0 setdash 
  hpt 0 360 arc Opaque stroke} def
/BoxFill {gsave Rec 1 setgray fill grestore} def
/Density {
  /Fillden exch def
  currentrgbcolor
  /ColB exch def /ColG exch def /ColR exch def
  /ColR ColR Fillden mul Fillden sub 1 add def
  /ColG ColG Fillden mul Fillden sub 1 add def
  /ColB ColB Fillden mul Fillden sub 1 add def
  ColR ColG ColB setrgbcolor} def
/BoxColFill {gsave Rec PolyFill} def
/PolyFill {gsave Density fill grestore grestore} def
/h {rlineto rlineto rlineto gsave fill grestore} bind def
%
% PostScript Level 1 Pattern Fill routine for rectangles
% Usage: x y w h s a XX PatternFill
%	x,y = lower left corner of box to be filled
%	w,h = width and height of box
%	  a = angle in degrees between lines and x-axis
%	 XX = 0/1 for no/yes cross-hatch
%
/PatternFill {gsave /PFa [ 9 2 roll ] def
  PFa 0 get PFa 2 get 2 div add PFa 1 get PFa 3 get 2 div add translate
  PFa 2 get -2 div PFa 3 get -2 div PFa 2 get PFa 3 get Rec
  gsave 1 setgray fill grestore clip
  currentlinewidth 0.5 mul setlinewidth
  /PFs PFa 2 get dup mul PFa 3 get dup mul add sqrt def
  0 0 M PFa 5 get rotate PFs -2 div dup translate
  0 1 PFs PFa 4 get div 1 add floor cvi
	{PFa 4 get mul 0 M 0 PFs V} for
  0 PFa 6 get ne {
	0 1 PFs PFa 4 get div 1 add floor cvi
	{PFa 4 get mul 0 2 1 roll M PFs 0 V} for
 } if
  stroke grestore} def
%
/languagelevel where
 {pop languagelevel} {1} ifelse
 2 lt
	{/InterpretLevel1 true def}
	{/InterpretLevel1 Level1 def}
 ifelse
%
% PostScript level 2 pattern fill definitions
%
/Level2PatternFill {
/Tile8x8 {/PaintType 2 /PatternType 1 /TilingType 1 /BBox [0 0 8 8] /XStep 8 /YStep 8}
	bind def
/KeepColor {currentrgbcolor [/Pattern /DeviceRGB] setcolorspace} bind def
<< Tile8x8
 /PaintProc {0.5 setlinewidth pop 0 0 M 8 8 L 0 8 M 8 0 L stroke} 
>> matrix makepattern
/Pat1 exch def
<< Tile8x8
 /PaintProc {0.5 setlinewidth pop 0 0 M 8 8 L 0 8 M 8 0 L stroke
	0 4 M 4 8 L 8 4 L 4 0 L 0 4 L stroke}
>> matrix makepattern
/Pat2 exch def
<< Tile8x8
 /PaintProc {0.5 setlinewidth pop 0 0 M 0 8 L
	8 8 L 8 0 L 0 0 L fill}
>> matrix makepattern
/Pat3 exch def
<< Tile8x8
 /PaintProc {0.5 setlinewidth pop -4 8 M 8 -4 L
	0 12 M 12 0 L stroke}
>> matrix makepattern
/Pat4 exch def
<< Tile8x8
 /PaintProc {0.5 setlinewidth pop -4 0 M 8 12 L
	0 -4 M 12 8 L stroke}
>> matrix makepattern
/Pat5 exch def
<< Tile8x8
 /PaintProc {0.5 setlinewidth pop -2 8 M 4 -4 L
	0 12 M 8 -4 L 4 12 M 10 0 L stroke}
>> matrix makepattern
/Pat6 exch def
<< Tile8x8
 /PaintProc {0.5 setlinewidth pop -2 0 M 4 12 L
	0 -4 M 8 12 L 4 -4 M 10 8 L stroke}
>> matrix makepattern
/Pat7 exch def
<< Tile8x8
 /PaintProc {0.5 setlinewidth pop 8 -2 M -4 4 L
	12 0 M -4 8 L 12 4 M 0 10 L stroke}
>> matrix makepattern
/Pat8 exch def
<< Tile8x8
 /PaintProc {0.5 setlinewidth pop 0 -2 M 12 4 L
	-4 0 M 12 8 L -4 4 M 8 10 L stroke}
>> matrix makepattern
/Pat9 exch def
/Pattern1 {PatternBgnd KeepColor Pat1 setpattern} bind def
/Pattern2 {PatternBgnd KeepColor Pat2 setpattern} bind def
/Pattern3 {PatternBgnd KeepColor Pat3 setpattern} bind def
/Pattern4 {PatternBgnd KeepColor Landscape {Pat5} {Pat4} ifelse setpattern} bind def
/Pattern5 {PatternBgnd KeepColor Landscape {Pat4} {Pat5} ifelse setpattern} bind def
/Pattern6 {PatternBgnd KeepColor Landscape {Pat9} {Pat6} ifelse setpattern} bind def
/Pattern7 {PatternBgnd KeepColor Landscape {Pat8} {Pat7} ifelse setpattern} bind def
} def
%
%
%End of PostScript Level 2 code
%
/PatternBgnd {
  TransparentPatterns {} {gsave 1 setgray fill grestore} ifelse
} def
%
% Substitute for Level 2 pattern fill codes with
% grayscale if Level 2 support is not selected.
%
/Level1PatternFill {
/Pattern1 {0.250 Density} bind def
/Pattern2 {0.500 Density} bind def
/Pattern3 {0.750 Density} bind def
/Pattern4 {0.125 Density} bind def
/Pattern5 {0.375 Density} bind def
/Pattern6 {0.625 Density} bind def
/Pattern7 {0.875 Density} bind def
} def
%
% Now test for support of Level 2 code
%
Level1 {Level1PatternFill} {Level2PatternFill} ifelse
%
/Symbol-Oblique /Symbol findfont [1 0 .167 1 0 0] makefont
dup length dict begin {1 index /FID eq {pop pop} {def} ifelse} forall
currentdict end definefont pop
/MFshow {
   { dup 5 get 3 ge
     { 5 get 3 eq {gsave} {grestore} ifelse }
     {dup dup 0 get findfont exch 1 get scalefont setfont
     [ currentpoint ] exch dup 2 get 0 exch R dup 5 get 2 ne {dup dup 6
     get exch 4 get {show} {stringwidth pop 0 R} ifelse }if dup 5 get 0 eq
     {dup 3 get {2 get neg 0 exch R pop} {pop aload pop M} ifelse} {dup 5
     get 1 eq {dup 2 get exch dup 3 get exch 6 get stringwidth pop -2 div
     dup 0 R} {dup 6 get stringwidth pop -2 div 0 R 6 get
     show 2 index {aload pop M neg 3 -1 roll neg R pop pop} {pop pop pop
     pop aload pop M} ifelse }ifelse }ifelse }
     ifelse }
   forall} bind def
/MFwidth {0 exch { dup 5 get 3 ge { 5 get 3 eq { 0 } { pop } ifelse }
 {dup 3 get{dup dup 0 get findfont exch 1 get scalefont setfont
     6 get stringwidth pop add} {pop} ifelse} ifelse} forall} bind def
/MLshow { currentpoint stroke M
  0 exch R
  Blacktext {gsave 0 setgray MFshow grestore} {MFshow} ifelse } bind def
/MRshow { currentpoint stroke M
  exch dup MFwidth neg 3 -1 roll R
  Blacktext {gsave 0 setgray MFshow grestore} {MFshow} ifelse } bind def
/MCshow { currentpoint stroke M
  exch dup MFwidth -2 div 3 -1 roll R
  Blacktext {gsave 0 setgray MFshow grestore} {MFshow} ifelse } bind def
/XYsave    { [( ) 1 2 true false 3 ()] } bind def
/XYrestore { [( ) 1 2 true false 4 ()] } bind def
end
%%EndProlog
gnudict begin
gsave
50 50 translate
0.050 0.050 scale
0 setgray
newpath
(Helvetica) findfont 210 scalefont setfont
1.000 UL
LTb
945 630 M
63 0 V
5835 0 R
-63 0 V
stroke
819 630 M
[ [(Helvetica) 210.0 0.0 true true 0 ( 13)]
] -70.0 MRshow
1.000 UL
LTb
945 1046 M
63 0 V
5835 0 R
-63 0 V
stroke
819 1046 M
[ [(Helvetica) 210.0 0.0 true true 0 ( 14)]
] -70.0 MRshow
1.000 UL
LTb
945 1462 M
63 0 V
5835 0 R
-63 0 V
stroke
819 1462 M
[ [(Helvetica) 210.0 0.0 true true 0 ( 15)]
] -70.0 MRshow
1.000 UL
LTb
945 1877 M
63 0 V
5835 0 R
-63 0 V
stroke
819 1877 M
[ [(Helvetica) 210.0 0.0 true true 0 ( 16)]
] -70.0 MRshow
1.000 UL
LTb
945 2293 M
63 0 V
5835 0 R
-63 0 V
stroke
819 2293 M
[ [(Helvetica) 210.0 0.0 true true 0 ( 17)]
] -70.0 MRshow
1.000 UL
LTb
945 2709 M
63 0 V
5835 0 R
-63 0 V
stroke
819 2709 M
[ [(Helvetica) 210.0 0.0 true true 0 ( 18)]
] -70.0 MRshow
1.000 UL
LTb
945 3125 M
63 0 V
5835 0 R
-63 0 V
stroke
819 3125 M
[ [(Helvetica) 210.0 0.0 true true 0 ( 19)]
] -70.0 MRshow
1.000 UL
LTb
945 3541 M
63 0 V
5835 0 R
-63 0 V
stroke
819 3541 M
[ [(Helvetica) 210.0 0.0 true true 0 ( 20)]
] -70.0 MRshow
1.000 UL
LTb
945 3956 M
63 0 V
5835 0 R
-63 0 V
stroke
819 3956 M
[ [(Helvetica) 210.0 0.0 true true 0 ( 21)]
] -70.0 MRshow
1.000 UL
LTb
945 4372 M
63 0 V
5835 0 R
-63 0 V
stroke
819 4372 M
[ [(Helvetica) 210.0 0.0 true true 0 ( 22)]
] -70.0 MRshow
1.000 UL
LTb
945 4788 M
63 0 V
5835 0 R
-63 0 V
stroke
819 4788 M
[ [(Helvetica) 210.0 0.0 true true 0 ( 23)]
] -70.0 MRshow
1.000 UL
LTb
945 630 M
0 63 V
0 4095 R
0 -63 V
stroke
945 420 M
[ [(Helvetica) 210.0 0.0 true true 0 ( 14)]
] -70.0 MCshow
1.000 UL
LTb
1928 630 M
0 63 V
0 4095 R
0 -63 V
stroke
1928 420 M
[ [(Helvetica) 210.0 0.0 true true 0 ( 16)]
] -70.0 MCshow
1.000 UL
LTb
2911 630 M
0 63 V
0 4095 R
0 -63 V
stroke
2911 420 M
[ [(Helvetica) 210.0 0.0 true true 0 ( 18)]
] -70.0 MCshow
1.000 UL
LTb
3894 630 M
0 63 V
0 4095 R
0 -63 V
stroke
3894 420 M
[ [(Helvetica) 210.0 0.0 true true 0 ( 20)]
] -70.0 MCshow
1.000 UL
LTb
4877 630 M
0 63 V
0 4095 R
0 -63 V
stroke
4877 420 M
[ [(Helvetica) 210.0 0.0 true true 0 ( 22)]
] -70.0 MCshow
1.000 UL
LTb
5860 630 M
0 63 V
0 4095 R
0 -63 V
stroke
5860 420 M
[ [(Helvetica) 210.0 0.0 true true 0 ( 24)]
] -70.0 MCshow
1.000 UL
LTb
6843 630 M
0 63 V
0 4095 R
0 -63 V
stroke
6843 420 M
[ [(Helvetica) 210.0 0.0 true true 0 ( 26)]
] -70.0 MCshow
1.000 UL
LTb
1.000 UL
LTb
945 4788 N
945 630 L
5898 0 V
0 4158 V
-5898 0 V
Z stroke
LCb setrgbcolor
210 2709 M
currentpoint gsave translate 90 rotate 0 0 moveto
[ [(Helvetica) 210.0 0.0 true true 0 (H\(MeV\))]
] -70.0 MCshow
grestore
LTb
LCb setrgbcolor
3894 105 M
[ [(Helvetica) 210.0 0.0 true true 0 (k)]
] -70.0 MCshow
LTb
1.000 UP
1.000 UL
LTb
2.000 UP
1.000 UL
LT2
/Helvetica findfont 210 scalefont setfont
3894 4123 M
3648 3956 L
3403 3838 L
-492 -10 V
2571 3541 L
2420 3422 L
1928 3208 L
-70 -83 V
1655 2709 L
1437 2376 L
-71 -83 V
1163 1877 L
28 -415 V
246 -250 V
491 -55 V
492 -111 V
2911 838 L
369 208 V
123 46 V
491 132 V
328 238 V
164 75 V
491 162 V
295 178 V
159 416 V
38 60 V
491 148 V
140 208 V
87 416 V
101 416 V
-328 118 V
-491 228 V
-492 13 V
-184 56 V
-307 231 V
-492 -64 V
2911 3637 M
-113 -96 V
2420 3244 L
2201 3125 L
1961 2709 L
-33 -139 V
1788 2293 L
1518 1877 L
103 -415 V
307 -139 V
492 -69 V
491 -208 V
492 185 V
409 231 V
82 46 V
492 256 V
245 113 V
246 60 V
340 356 V
152 238 V
294 178 V
197 416 V
-491 356 V
-36 60 V
-456 245 V
-491 133 V
-492 -81 V
3403 3659 L
-492 -22 V
1475 55 R
3992 3541 L
-98 -28 V
-491 1 V
2911 3402 L
2542 3125 L
-122 -83 V
2157 2709 L
-32 -416 V
1989 1877 L
431 -415 V
491 27 V
98 -27 V
394 -93 V
163 93 V
328 184 V
378 231 V
114 52 V
491 127 V
227 237 V
265 416 V
0 416 V
-246 416 V
-246 132 V
-491 19 V
491 -132 R
-164 -19 V
-327 -60 V
3894 3347 L
-491 86 V
2911 3125 L
2420 2792 L
-66 -83 V
66 -416 V
-62 -416 V
62 -59 V
491 -162 V
492 -28 V
491 157 V
151 92 V
341 156 V
491 141 V
113 119 V
10 416 V
123 416 V
-211 416 V
-35 19 V
3403 3353 M
3039 3125 L
2911 2813 L
2747 2709 L
2575 2293 L
196 -416 V
140 -55 V
197 55 V
295 38 V
491 46 V
492 176 V
491 156 V
-103 416 V
103 416 V
-491 178 V
3894 3180 L
-491 173 V
0 -81 R
3167 3125 L
-77 -416 V
2911 2558 L
2730 2293 L
181 -264 V
492 -38 V
491 219 V
492 31 V
163 52 V
69 416 V
-232 416 V
-492 -64 V
-131 64 V
-360 147 V
0 -80 R
-107 -67 V
62 -416 V
2911 2331 L
-26 -38 V
26 -38 V
492 -189 V
402 227 V
89 83 V
492 125 V
77 208 V
-77 139 V
-492 117 V
-328 160 V
-163 67 V
491 -323 R
3566 2709 L
3403 2587 L
3056 2293 L
347 -151 V
268 151 V
223 208 V
378 208 V
-378 160 V
0 -96 R
-131 -64 V
3403 2440 L
3229 2293 L
174 -75 V
134 75 V
357 333 V
151 83 V
-151 64 V
3894 4123 Star
3648 3956 Star
3403 3838 Star
2911 3828 Star
2571 3541 Star
2420 3422 Star
1928 3208 Star
1858 3125 Star
1655 2709 Star
1437 2376 Star
1366 2293 Star
1163 1877 Star
1191 1462 Star
1437 1212 Star
1928 1157 Star
2420 1046 Star
2911 838 Star
3280 1046 Star
3403 1092 Star
3894 1224 Star
4222 1462 Star
4386 1537 Star
4877 1699 Star
5172 1877 Star
5331 2293 Star
5369 2353 Star
5860 2501 Star
6000 2709 Star
6087 3125 Star
6188 3541 Star
5860 3659 Star
5369 3887 Star
4877 3900 Star
4693 3956 Star
4386 4187 Star
3894 4123 Star
2911 3637 Star
2798 3541 Star
2420 3244 Star
2201 3125 Star
1961 2709 Star
1928 2570 Star
1788 2293 Star
1518 1877 Star
1621 1462 Star
1928 1323 Star
2420 1254 Star
2911 1046 Star
3403 1231 Star
3812 1462 Star
3894 1508 Star
4386 1764 Star
4631 1877 Star
4877 1937 Star
5217 2293 Star
5369 2531 Star
5663 2709 Star
5860 3125 Star
5369 3481 Star
5333 3541 Star
4877 3786 Star
4386 3919 Star
3894 3838 Star
3403 3659 Star
2911 3637 Star
4386 3692 Star
3992 3541 Star
3894 3513 Star
3403 3514 Star
2911 3402 Star
2542 3125 Star
2420 3042 Star
2157 2709 Star
2125 2293 Star
1989 1877 Star
2420 1462 Star
2911 1489 Star
3009 1462 Star
3403 1369 Star
3566 1462 Star
3894 1646 Star
4272 1877 Star
4386 1929 Star
4877 2056 Star
5104 2293 Star
5369 2709 Star
5369 3125 Star
5123 3541 Star
4877 3673 Star
4386 3692 Star
4877 3560 Star
4713 3541 Star
4386 3481 Star
3894 3347 Star
3403 3433 Star
2911 3125 Star
2420 2792 Star
2354 2709 Star
2420 2293 Star
2358 1877 Star
2420 1818 Star
2911 1656 Star
3403 1628 Star
3894 1785 Star
4045 1877 Star
4386 2033 Star
4877 2174 Star
4990 2293 Star
5000 2709 Star
5123 3125 Star
4912 3541 Star
4877 3560 Star
3403 3353 Star
3039 3125 Star
2911 2813 Star
2747 2709 Star
2575 2293 Star
2771 1877 Star
2911 1822 Star
3108 1877 Star
3403 1915 Star
3894 1961 Star
4386 2137 Star
4877 2293 Star
4774 2709 Star
4877 3125 Star
4386 3303 Star
3894 3180 Star
3403 3353 Star
3403 3272 Star
3167 3125 Star
3090 2709 Star
2911 2558 Star
2730 2293 Star
2911 2029 Star
3403 1991 Star
3894 2210 Star
4386 2241 Star
4549 2293 Star
4618 2709 Star
4386 3125 Star
3894 3061 Star
3763 3125 Star
3403 3272 Star
3403 3192 Star
3296 3125 Star
3358 2709 Star
2911 2331 Star
2885 2293 Star
2911 2255 Star
3403 2066 Star
3805 2293 Star
3894 2376 Star
4386 2501 Star
4463 2709 Star
4386 2848 Star
3894 2965 Star
3566 3125 Star
3403 3192 Star
3894 2869 Star
3566 2709 Star
3403 2587 Star
3056 2293 Star
3403 2142 Star
3671 2293 Star
3894 2501 Star
4272 2709 Star
3894 2869 Star
3894 2773 Star
3763 2709 Star
3403 2440 Star
3229 2293 Star
3403 2218 Star
3537 2293 Star
3894 2626 Star
4045 2709 Star
3894 2773 Star
4.000 UL
LT0
/Helvetica findfont 210 scalefont setfont
5689 4084 M
-75 65 V
-82 59 V
-90 52 V
-98 46 V
-104 39 V
-111 31 V
-116 24 V
-123 17 V
-127 10 V
-132 2 V
-135 -6 V
-140 -13 V
-142 -20 V
-144 -28 V
-146 -35 V
-147 -41 V
-148 -49 V
-148 -56 V
-147 -62 V
-146 -68 V
-144 -74 V
-142 -80 V
-139 -85 V
-135 -90 V
-131 -95 V
-127 -99 V
2249 3425 L
2133 3319 L
2023 3210 L
1920 3098 L
-96 -114 V
-89 -116 V
-82 -116 V
-73 -118 V
-65 -118 V
-56 -117 V
-48 -117 V
-39 -116 V
-29 -114 V
-21 -112 V
-11 -109 V
-1 -106 V
7 -103 V
17 -100 V
27 -94 V
35 -91 V
45 -85 V
53 -80 V
62 -74 V
71 -69 V
78 -62 V
87 -56 V
94 -49 V
100 -42 V
108 -35 V
114 -28 V
119 -20 V
125 -14 V
130 -5 V
133 1 V
138 10 V
141 16 V
143 24 V
145 31 V
147 39 V
148 45 V
148 52 V
147 59 V
147 65 V
145 72 V
143 77 V
140 82 V
137 88 V
133 92 V
129 97 V
124 101 V
119 105 V
113 108 V
106 110 V
100 113 V
93 115 V
85 116 V
78 117 V
69 118 V
61 118 V
52 117 V
43 116 V
34 115 V
25 113 V
16 111 V
6 108 V
-3 105 V
-12 101 V
-22 97 V
-31 92 V
-40 88 V
-49 83 V
-58 77 V
-66 72 V
/Helvetica findfont 210 scalefont setfont
5084 3578 M
-57 50 V
-62 45 V
-68 41 V
-72 36 V
-77 31 V
-81 26 V
-85 21 V
-89 15 V
-92 11 V
-95 5 V
-97 -1 V
-100 -5 V
-101 -11 V
-102 -16 V
-104 -22 V
-104 -26 V
-104 -32 V
-103 -36 V
-103 -41 V
-102 -46 V
-100 -50 V
-98 -54 V
-95 -59 V
-93 -62 V
-90 -65 V
-86 -69 V
-82 -71 V
-79 -75 V
-73 -76 V
-69 -79 V
-64 -81 V
-58 -81 V
-53 -83 V
-47 -84 V
2158 2550 L
-35 -84 V
-29 -84 V
-22 -83 V
-16 -82 V
-9 -81 V
-2 -80 V
4 -77 V
10 -76 V
17 -72 V
24 -70 V
30 -67 V
36 -63 V
42 -60 V
49 -56 V
54 -52 V
59 -47 V
65 -43 V
70 -39 V
74 -33 V
79 -29 V
84 -23 V
86 -18 V
91 -13 V
93 -8 V
97 -3 V
98 3 V
100 9 V
102 13 V
103 19 V
104 24 V
104 29 V
104 34 V
103 39 V
102 43 V
101 48 V
99 52 V
97 57 V
95 60 V
91 64 V
88 67 V
84 70 V
80 73 V
76 75 V
72 78 V
66 80 V
61 81 V
56 82 V
50 84 V
44 84 V
38 84 V
31 84 V
26 83 V
19 83 V
12 82 V
6 80 V
0 79 V
-8 76 V
-13 74 V
-21 71 V
-27 69 V
-33 65 V
-39 61 V
-45 58 V
-51 54 V
/Helvetica findfont 210 scalefont setfont
4668 3322 M
-46 40 V
-50 37 V
-55 34 V
-57 30 V
-62 26 V
-64 22 V
-67 18 V
-70 14 V
-72 10 V
-74 6 V
-76 2 V
-77 -2 V
-78 -7 V
-79 -10 V
-80 -15 V
-80 -18 V
-79 -23 V
-80 -26 V
-78 -31 V
-77 -33 V
-76 -38 V
-74 -40 V
-72 -44 V
-70 -47 V
-67 -49 V
-64 -52 V
-61 -55 V
-58 -57 V
-54 -58 V
-50 -61 V
-46 -62 V
-42 -63 V
-38 -64 V
-33 -64 V
-28 -66 V
-24 -65 V
-19 -65 V
-14 -65 V
-8 -65 V
2365 2253 L
1 -62 V
7 -61 V
11 -60 V
16 -57 V
22 -56 V
26 -53 V
31 -51 V
35 -47 V
40 -45 V
44 -42 V
49 -39 V
52 -35 V
56 -32 V
60 -27 V
62 -25 V
66 -20 V
69 -16 V
71 -12 V
73 -8 V
75 -4 V
76 0 V
78 5 V
79 8 V
79 13 V
80 16 V
80 21 V
79 24 V
79 29 V
78 32 V
76 35 V
75 39 V
73 42 V
71 46 V
69 48 V
65 51 V
63 53 V
59 56 V
56 57 V
52 60 V
49 61 V
44 63 V
40 63 V
35 65 V
31 65 V
26 65 V
21 65 V
16 65 V
12 65 V
6 64 V
1 63 V
-4 62 V
-9 60 V
-14 58 V
-18 57 V
-24 54 V
-29 52 V
-33 49 V
-38 47 V
-42 43 V
/Helvetica findfont 210 scalefont setfont
4213 3092 M
-29 25 V
-31 22 V
-34 21 V
-35 19 V
-37 16 V
-39 14 V
-41 12 V
-42 9 V
-43 7 V
-45 4 V
-45 2 V
-46 0 V
-47 -3 V
-47 -6 V
-47 -8 V
-47 -10 V
-47 -13 V
-46 -15 V
-46 -17 V
-45 -19 V
-44 -22 V
-44 -24 V
-41 -25 V
-40 -27 V
-39 -29 V
-37 -31 V
-35 -32 V
-33 -34 V
-30 -34 V
-28 -36 V
-26 -37 V
-23 -37 V
-21 -38 V
-18 -39 V
-15 -39 V
-12 -39 V
-9 -39 V
-7 -39 V
-3 -38 V
0 -38 V
2 -38 V
6 -37 V
9 -35 V
11 -35 V
2911 2296 L
18 -32 V
20 -31 V
22 -29 V
25 -27 V
28 -26 V
30 -24 V
32 -21 V
35 -20 V
36 -17 V
38 -16 V
40 -12 V
42 -11 V
42 -8 V
44 -6 V
45 -3 V
46 -1 V
46 2 V
47 4 V
47 7 V
47 9 V
47 12 V
47 13 V
46 17 V
46 18 V
44 20 V
44 23 V
42 25 V
41 26 V
40 28 V
37 30 V
36 31 V
34 33 V
32 34 V
29 36 V
27 36 V
25 37 V
22 38 V
19 38 V
16 39 V
14 39 V
11 39 V
7 39 V
5 38 V
2 39 V
-1 38 V
-4 37 V
-7 36 V
-10 35 V
-13 35 V
-16 32 V
-19 32 V
-21 30 V
-24 28 V
-26 27 V
/Helvetica findfont 210 scalefont setfont
4062 2833 M
-6 4 V
-7 3 V
-9 2 V
-11 1 V
-12 -1 V
-13 -1 V
-15 -3 V
-16 -5 V
-17 -5 V
-18 -7 V
-19 -8 V
-21 -8 V
-21 -10 V
-22 -11 V
-23 -12 V
-23 -13 V
-24 -14 V
-25 -15 V
-24 -15 V
-26 -16 V
-25 -17 V
-25 -17 V
-25 -18 V
-25 -19 V
-25 -18 V
-24 -19 V
-24 -20 V
-24 -19 V
-22 -19 V
-22 -20 V
-22 -19 V
-20 -19 V
-19 -19 V
-18 -19 V
-18 -18 V
-15 -17 V
-15 -17 V
-13 -17 V
-12 -16 V
-11 -15 V
-9 -14 V
-7 -14 V
-6 -12 V
-4 -12 V
-3 -10 V
-1 -10 V
0 -8 V
2 -7 V
4 -6 V
3287 2239 L
7 -4 V
8 -2 V
10 -2 V
11 0 V
13 2 V
14 2 V
15 4 V
17 4 V
18 6 V
18 8 V
20 8 V
21 9 V
22 11 V
22 11 V
23 13 V
24 13 V
24 14 V
25 15 V
25 16 V
25 17 V
25 17 V
25 17 V
25 19 V
25 18 V
25 19 V
24 19 V
24 19 V
23 20 V
22 19 V
22 20 V
21 19 V
20 19 V
18 18 V
18 19 V
16 18 V
16 17 V
14 17 V
12 16 V
11 16 V
10 14 V
8 14 V
7 13 V
5 12 V
4 11 V
2 10 V
0 9 V
-1 8 V
-3 7 V
-5 5 V
stroke
1.000 UL
LTb
945 4788 N
945 630 L
5898 0 V
0 4158 V
-5898 0 V
Z stroke
1.000 UP
1.000 UL
LTb
stroke
grestore
end
showpage
%%Trailer
%%DocumentFonts: Helvetica
