%!PS-Adobe-2.0
%%Title: app0_207Bi_20.ps
%%Creator: gnuplot 4.2 patchlevel 0
%%CreationDate: Fri Jul 25 09:18:30 2008
%%DocumentFonts: (atend)
%%BoundingBox: 50 50 554 770
%%Orientation: Landscape
%%Pages: (atend)
%%EndComments
%%BeginProlog
/gnudict 256 dict def
gnudict begin
%
% The following 6 true/false flags may be edited by hand if required
% The unit line width may also be changed
%
/Color true def
/Blacktext false def
/Solid true def
/Dashlength 1 def
/Landscape true def
/Level1 false def
/Rounded false def
/TransparentPatterns false def
/gnulinewidth 5.000 def
/userlinewidth gnulinewidth def
%
/vshift -46 def
/dl1 {
  10.0 Dashlength mul mul
  Rounded { currentlinewidth 0.75 mul sub dup 0 le { pop 0.01 } if } if
} def
/dl2 {
  10.0 Dashlength mul mul
  Rounded { currentlinewidth 0.75 mul add } if
} def
/hpt_ 31.5 def
/vpt_ 31.5 def
/hpt hpt_ def
/vpt vpt_ def
Level1 {} {
/SDict 10 dict def
systemdict /pdfmark known not {
  userdict /pdfmark systemdict /cleartomark get put
} if
SDict begin [
  /Title (app0_207Bi_20.ps)
  /Subject (gnuplot plot)
  /Creator (gnuplot 4.2 patchlevel 0)
  /Author (,,,)
%  /Producer (gnuplot)
%  /Keywords ()
  /CreationDate (Fri Jul 25 09:18:30 2008)
  /DOCINFO pdfmark
end
} ifelse
%
% Gnuplot Prolog Version 4.2 (August 2006)
%
/M {moveto} bind def
/L {lineto} bind def
/R {rmoveto} bind def
/V {rlineto} bind def
/N {newpath moveto} bind def
/Z {closepath} bind def
/C {setrgbcolor} bind def
/f {rlineto fill} bind def
/vpt2 vpt 2 mul def
/hpt2 hpt 2 mul def
/Lshow {currentpoint stroke M 0 vshift R 
	Blacktext {gsave 0 setgray show grestore} {show} ifelse} def
/Rshow {currentpoint stroke M dup stringwidth pop neg vshift R
	Blacktext {gsave 0 setgray show grestore} {show} ifelse} def
/Cshow {currentpoint stroke M dup stringwidth pop -2 div vshift R 
	Blacktext {gsave 0 setgray show grestore} {show} ifelse} def
/UP {dup vpt_ mul /vpt exch def hpt_ mul /hpt exch def
  /hpt2 hpt 2 mul def /vpt2 vpt 2 mul def} def
/DL {Color {setrgbcolor Solid {pop []} if 0 setdash}
 {pop pop pop 0 setgray Solid {pop []} if 0 setdash} ifelse} def
/BL {stroke userlinewidth 2 mul setlinewidth
	Rounded {1 setlinejoin 1 setlinecap} if} def
/AL {stroke userlinewidth 2 div setlinewidth
	Rounded {1 setlinejoin 1 setlinecap} if} def
/UL {dup gnulinewidth mul /userlinewidth exch def
	dup 1 lt {pop 1} if 10 mul /udl exch def} def
/PL {stroke userlinewidth setlinewidth
	Rounded {1 setlinejoin 1 setlinecap} if} def
% Default Line colors
/LCw {1 1 1} def
/LCb {0 0 0} def
/LCa {0 0 0} def
/LC0 {1 0 0} def
/LC1 {0 1 0} def
/LC2 {0 0 1} def
/LC3 {1 0 1} def
/LC4 {0 1 1} def
/LC5 {1 1 0} def
/LC6 {0 0 0} def
/LC7 {1 0.3 0} def
/LC8 {0.5 0.5 0.5} def
% Default Line Types
/LTw {PL [] 1 setgray} def
/LTb {BL [] LCb DL} def
/LTa {AL [1 udl mul 2 udl mul] 0 setdash LCa setrgbcolor} def
/LT0 {PL [] LC0 DL} def
/LT1 {PL [4 dl1 2 dl2] LC1 DL} def
/LT2 {PL [2 dl1 3 dl2] LC2 DL} def
/LT3 {PL [1 dl1 1.5 dl2] LC3 DL} def
/LT4 {PL [6 dl1 2 dl2 1 dl1 2 dl2] LC4 DL} def
/LT5 {PL [3 dl1 3 dl2 1 dl1 3 dl2] LC5 DL} def
/LT6 {PL [2 dl1 2 dl2 2 dl1 6 dl2] LC6 DL} def
/LT7 {PL [1 dl1 2 dl2 6 dl1 2 dl2 1 dl1 2 dl2] LC7 DL} def
/LT8 {PL [2 dl1 2 dl2 2 dl1 2 dl2 2 dl1 2 dl2 2 dl1 4 dl2] LC8 DL} def
/Pnt {stroke [] 0 setdash gsave 1 setlinecap M 0 0 V stroke grestore} def
/Dia {stroke [] 0 setdash 2 copy vpt add M
  hpt neg vpt neg V hpt vpt neg V
  hpt vpt V hpt neg vpt V closepath stroke
  Pnt} def
/Pls {stroke [] 0 setdash vpt sub M 0 vpt2 V
  currentpoint stroke M
  hpt neg vpt neg R hpt2 0 V stroke
 } def
/Box {stroke [] 0 setdash 2 copy exch hpt sub exch vpt add M
  0 vpt2 neg V hpt2 0 V 0 vpt2 V
  hpt2 neg 0 V closepath stroke
  Pnt} def
/Crs {stroke [] 0 setdash exch hpt sub exch vpt add M
  hpt2 vpt2 neg V currentpoint stroke M
  hpt2 neg 0 R hpt2 vpt2 V stroke} def
/TriU {stroke [] 0 setdash 2 copy vpt 1.12 mul add M
  hpt neg vpt -1.62 mul V
  hpt 2 mul 0 V
  hpt neg vpt 1.62 mul V closepath stroke
  Pnt} def
/Star {2 copy Pls Crs} def
/BoxF {stroke [] 0 setdash exch hpt sub exch vpt add M
  0 vpt2 neg V hpt2 0 V 0 vpt2 V
  hpt2 neg 0 V closepath fill} def
/TriUF {stroke [] 0 setdash vpt 1.12 mul add M
  hpt neg vpt -1.62 mul V
  hpt 2 mul 0 V
  hpt neg vpt 1.62 mul V closepath fill} def
/TriD {stroke [] 0 setdash 2 copy vpt 1.12 mul sub M
  hpt neg vpt 1.62 mul V
  hpt 2 mul 0 V
  hpt neg vpt -1.62 mul V closepath stroke
  Pnt} def
/TriDF {stroke [] 0 setdash vpt 1.12 mul sub M
  hpt neg vpt 1.62 mul V
  hpt 2 mul 0 V
  hpt neg vpt -1.62 mul V closepath fill} def
/DiaF {stroke [] 0 setdash vpt add M
  hpt neg vpt neg V hpt vpt neg V
  hpt vpt V hpt neg vpt V closepath fill} def
/Pent {stroke [] 0 setdash 2 copy gsave
  translate 0 hpt M 4 {72 rotate 0 hpt L} repeat
  closepath stroke grestore Pnt} def
/PentF {stroke [] 0 setdash gsave
  translate 0 hpt M 4 {72 rotate 0 hpt L} repeat
  closepath fill grestore} def
/Circle {stroke [] 0 setdash 2 copy
  hpt 0 360 arc stroke Pnt} def
/CircleF {stroke [] 0 setdash hpt 0 360 arc fill} def
/C0 {BL [] 0 setdash 2 copy moveto vpt 90 450 arc} bind def
/C1 {BL [] 0 setdash 2 copy moveto
	2 copy vpt 0 90 arc closepath fill
	vpt 0 360 arc closepath} bind def
/C2 {BL [] 0 setdash 2 copy moveto
	2 copy vpt 90 180 arc closepath fill
	vpt 0 360 arc closepath} bind def
/C3 {BL [] 0 setdash 2 copy moveto
	2 copy vpt 0 180 arc closepath fill
	vpt 0 360 arc closepath} bind def
/C4 {BL [] 0 setdash 2 copy moveto
	2 copy vpt 180 270 arc closepath fill
	vpt 0 360 arc closepath} bind def
/C5 {BL [] 0 setdash 2 copy moveto
	2 copy vpt 0 90 arc
	2 copy moveto
	2 copy vpt 180 270 arc closepath fill
	vpt 0 360 arc} bind def
/C6 {BL [] 0 setdash 2 copy moveto
	2 copy vpt 90 270 arc closepath fill
	vpt 0 360 arc closepath} bind def
/C7 {BL [] 0 setdash 2 copy moveto
	2 copy vpt 0 270 arc closepath fill
	vpt 0 360 arc closepath} bind def
/C8 {BL [] 0 setdash 2 copy moveto
	2 copy vpt 270 360 arc closepath fill
	vpt 0 360 arc closepath} bind def
/C9 {BL [] 0 setdash 2 copy moveto
	2 copy vpt 270 450 arc closepath fill
	vpt 0 360 arc closepath} bind def
/C10 {BL [] 0 setdash 2 copy 2 copy moveto vpt 270 360 arc closepath fill
	2 copy moveto
	2 copy vpt 90 180 arc closepath fill
	vpt 0 360 arc closepath} bind def
/C11 {BL [] 0 setdash 2 copy moveto
	2 copy vpt 0 180 arc closepath fill
	2 copy moveto
	2 copy vpt 270 360 arc closepath fill
	vpt 0 360 arc closepath} bind def
/C12 {BL [] 0 setdash 2 copy moveto
	2 copy vpt 180 360 arc closepath fill
	vpt 0 360 arc closepath} bind def
/C13 {BL [] 0 setdash 2 copy moveto
	2 copy vpt 0 90 arc closepath fill
	2 copy moveto
	2 copy vpt 180 360 arc closepath fill
	vpt 0 360 arc closepath} bind def
/C14 {BL [] 0 setdash 2 copy moveto
	2 copy vpt 90 360 arc closepath fill
	vpt 0 360 arc} bind def
/C15 {BL [] 0 setdash 2 copy vpt 0 360 arc closepath fill
	vpt 0 360 arc closepath} bind def
/Rec {newpath 4 2 roll moveto 1 index 0 rlineto 0 exch rlineto
	neg 0 rlineto closepath} bind def
/Square {dup Rec} bind def
/Bsquare {vpt sub exch vpt sub exch vpt2 Square} bind def
/S0 {BL [] 0 setdash 2 copy moveto 0 vpt rlineto BL Bsquare} bind def
/S1 {BL [] 0 setdash 2 copy vpt Square fill Bsquare} bind def
/S2 {BL [] 0 setdash 2 copy exch vpt sub exch vpt Square fill Bsquare} bind def
/S3 {BL [] 0 setdash 2 copy exch vpt sub exch vpt2 vpt Rec fill Bsquare} bind def
/S4 {BL [] 0 setdash 2 copy exch vpt sub exch vpt sub vpt Square fill Bsquare} bind def
/S5 {BL [] 0 setdash 2 copy 2 copy vpt Square fill
	exch vpt sub exch vpt sub vpt Square fill Bsquare} bind def
/S6 {BL [] 0 setdash 2 copy exch vpt sub exch vpt sub vpt vpt2 Rec fill Bsquare} bind def
/S7 {BL [] 0 setdash 2 copy exch vpt sub exch vpt sub vpt vpt2 Rec fill
	2 copy vpt Square fill Bsquare} bind def
/S8 {BL [] 0 setdash 2 copy vpt sub vpt Square fill Bsquare} bind def
/S9 {BL [] 0 setdash 2 copy vpt sub vpt vpt2 Rec fill Bsquare} bind def
/S10 {BL [] 0 setdash 2 copy vpt sub vpt Square fill 2 copy exch vpt sub exch vpt Square fill
	Bsquare} bind def
/S11 {BL [] 0 setdash 2 copy vpt sub vpt Square fill 2 copy exch vpt sub exch vpt2 vpt Rec fill
	Bsquare} bind def
/S12 {BL [] 0 setdash 2 copy exch vpt sub exch vpt sub vpt2 vpt Rec fill Bsquare} bind def
/S13 {BL [] 0 setdash 2 copy exch vpt sub exch vpt sub vpt2 vpt Rec fill
	2 copy vpt Square fill Bsquare} bind def
/S14 {BL [] 0 setdash 2 copy exch vpt sub exch vpt sub vpt2 vpt Rec fill
	2 copy exch vpt sub exch vpt Square fill Bsquare} bind def
/S15 {BL [] 0 setdash 2 copy Bsquare fill Bsquare} bind def
/D0 {gsave translate 45 rotate 0 0 S0 stroke grestore} bind def
/D1 {gsave translate 45 rotate 0 0 S1 stroke grestore} bind def
/D2 {gsave translate 45 rotate 0 0 S2 stroke grestore} bind def
/D3 {gsave translate 45 rotate 0 0 S3 stroke grestore} bind def
/D4 {gsave translate 45 rotate 0 0 S4 stroke grestore} bind def
/D5 {gsave translate 45 rotate 0 0 S5 stroke grestore} bind def
/D6 {gsave translate 45 rotate 0 0 S6 stroke grestore} bind def
/D7 {gsave translate 45 rotate 0 0 S7 stroke grestore} bind def
/D8 {gsave translate 45 rotate 0 0 S8 stroke grestore} bind def
/D9 {gsave translate 45 rotate 0 0 S9 stroke grestore} bind def
/D10 {gsave translate 45 rotate 0 0 S10 stroke grestore} bind def
/D11 {gsave translate 45 rotate 0 0 S11 stroke grestore} bind def
/D12 {gsave translate 45 rotate 0 0 S12 stroke grestore} bind def
/D13 {gsave translate 45 rotate 0 0 S13 stroke grestore} bind def
/D14 {gsave translate 45 rotate 0 0 S14 stroke grestore} bind def
/D15 {gsave translate 45 rotate 0 0 S15 stroke grestore} bind def
/DiaE {stroke [] 0 setdash vpt add M
  hpt neg vpt neg V hpt vpt neg V
  hpt vpt V hpt neg vpt V closepath stroke} def
/BoxE {stroke [] 0 setdash exch hpt sub exch vpt add M
  0 vpt2 neg V hpt2 0 V 0 vpt2 V
  hpt2 neg 0 V closepath stroke} def
/TriUE {stroke [] 0 setdash vpt 1.12 mul add M
  hpt neg vpt -1.62 mul V
  hpt 2 mul 0 V
  hpt neg vpt 1.62 mul V closepath stroke} def
/TriDE {stroke [] 0 setdash vpt 1.12 mul sub M
  hpt neg vpt 1.62 mul V
  hpt 2 mul 0 V
  hpt neg vpt -1.62 mul V closepath stroke} def
/PentE {stroke [] 0 setdash gsave
  translate 0 hpt M 4 {72 rotate 0 hpt L} repeat
  closepath stroke grestore} def
/CircE {stroke [] 0 setdash 
  hpt 0 360 arc stroke} def
/Opaque {gsave closepath 1 setgray fill grestore 0 setgray closepath} def
/DiaW {stroke [] 0 setdash vpt add M
  hpt neg vpt neg V hpt vpt neg V
  hpt vpt V hpt neg vpt V Opaque stroke} def
/BoxW {stroke [] 0 setdash exch hpt sub exch vpt add M
  0 vpt2 neg V hpt2 0 V 0 vpt2 V
  hpt2 neg 0 V Opaque stroke} def
/TriUW {stroke [] 0 setdash vpt 1.12 mul add M
  hpt neg vpt -1.62 mul V
  hpt 2 mul 0 V
  hpt neg vpt 1.62 mul V Opaque stroke} def
/TriDW {stroke [] 0 setdash vpt 1.12 mul sub M
  hpt neg vpt 1.62 mul V
  hpt 2 mul 0 V
  hpt neg vpt -1.62 mul V Opaque stroke} def
/PentW {stroke [] 0 setdash gsave
  translate 0 hpt M 4 {72 rotate 0 hpt L} repeat
  Opaque stroke grestore} def
/CircW {stroke [] 0 setdash 
  hpt 0 360 arc Opaque stroke} def
/BoxFill {gsave Rec 1 setgray fill grestore} def
/Density {
  /Fillden exch def
  currentrgbcolor
  /ColB exch def /ColG exch def /ColR exch def
  /ColR ColR Fillden mul Fillden sub 1 add def
  /ColG ColG Fillden mul Fillden sub 1 add def
  /ColB ColB Fillden mul Fillden sub 1 add def
  ColR ColG ColB setrgbcolor} def
/BoxColFill {gsave Rec PolyFill} def
/PolyFill {gsave Density fill grestore grestore} def
/h {rlineto rlineto rlineto gsave fill grestore} bind def
%
% PostScript Level 1 Pattern Fill routine for rectangles
% Usage: x y w h s a XX PatternFill
%	x,y = lower left corner of box to be filled
%	w,h = width and height of box
%	  a = angle in degrees between lines and x-axis
%	 XX = 0/1 for no/yes cross-hatch
%
/PatternFill {gsave /PFa [ 9 2 roll ] def
  PFa 0 get PFa 2 get 2 div add PFa 1 get PFa 3 get 2 div add translate
  PFa 2 get -2 div PFa 3 get -2 div PFa 2 get PFa 3 get Rec
  gsave 1 setgray fill grestore clip
  currentlinewidth 0.5 mul setlinewidth
  /PFs PFa 2 get dup mul PFa 3 get dup mul add sqrt def
  0 0 M PFa 5 get rotate PFs -2 div dup translate
  0 1 PFs PFa 4 get div 1 add floor cvi
	{PFa 4 get mul 0 M 0 PFs V} for
  0 PFa 6 get ne {
	0 1 PFs PFa 4 get div 1 add floor cvi
	{PFa 4 get mul 0 2 1 roll M PFs 0 V} for
 } if
  stroke grestore} def
%
/languagelevel where
 {pop languagelevel} {1} ifelse
 2 lt
	{/InterpretLevel1 true def}
	{/InterpretLevel1 Level1 def}
 ifelse
%
% PostScript level 2 pattern fill definitions
%
/Level2PatternFill {
/Tile8x8 {/PaintType 2 /PatternType 1 /TilingType 1 /BBox [0 0 8 8] /XStep 8 /YStep 8}
	bind def
/KeepColor {currentrgbcolor [/Pattern /DeviceRGB] setcolorspace} bind def
<< Tile8x8
 /PaintProc {0.5 setlinewidth pop 0 0 M 8 8 L 0 8 M 8 0 L stroke} 
>> matrix makepattern
/Pat1 exch def
<< Tile8x8
 /PaintProc {0.5 setlinewidth pop 0 0 M 8 8 L 0 8 M 8 0 L stroke
	0 4 M 4 8 L 8 4 L 4 0 L 0 4 L stroke}
>> matrix makepattern
/Pat2 exch def
<< Tile8x8
 /PaintProc {0.5 setlinewidth pop 0 0 M 0 8 L
	8 8 L 8 0 L 0 0 L fill}
>> matrix makepattern
/Pat3 exch def
<< Tile8x8
 /PaintProc {0.5 setlinewidth pop -4 8 M 8 -4 L
	0 12 M 12 0 L stroke}
>> matrix makepattern
/Pat4 exch def
<< Tile8x8
 /PaintProc {0.5 setlinewidth pop -4 0 M 8 12 L
	0 -4 M 12 8 L stroke}
>> matrix makepattern
/Pat5 exch def
<< Tile8x8
 /PaintProc {0.5 setlinewidth pop -2 8 M 4 -4 L
	0 12 M 8 -4 L 4 12 M 10 0 L stroke}
>> matrix makepattern
/Pat6 exch def
<< Tile8x8
 /PaintProc {0.5 setlinewidth pop -2 0 M 4 12 L
	0 -4 M 8 12 L 4 -4 M 10 8 L stroke}
>> matrix makepattern
/Pat7 exch def
<< Tile8x8
 /PaintProc {0.5 setlinewidth pop 8 -2 M -4 4 L
	12 0 M -4 8 L 12 4 M 0 10 L stroke}
>> matrix makepattern
/Pat8 exch def
<< Tile8x8
 /PaintProc {0.5 setlinewidth pop 0 -2 M 12 4 L
	-4 0 M 12 8 L -4 4 M 8 10 L stroke}
>> matrix makepattern
/Pat9 exch def
/Pattern1 {PatternBgnd KeepColor Pat1 setpattern} bind def
/Pattern2 {PatternBgnd KeepColor Pat2 setpattern} bind def
/Pattern3 {PatternBgnd KeepColor Pat3 setpattern} bind def
/Pattern4 {PatternBgnd KeepColor Landscape {Pat5} {Pat4} ifelse setpattern} bind def
/Pattern5 {PatternBgnd KeepColor Landscape {Pat4} {Pat5} ifelse setpattern} bind def
/Pattern6 {PatternBgnd KeepColor Landscape {Pat9} {Pat6} ifelse setpattern} bind def
/Pattern7 {PatternBgnd KeepColor Landscape {Pat8} {Pat7} ifelse setpattern} bind def
} def
%
%
%End of PostScript Level 2 code
%
/PatternBgnd {
  TransparentPatterns {} {gsave 1 setgray fill grestore} ifelse
} def
%
% Substitute for Level 2 pattern fill codes with
% grayscale if Level 2 support is not selected.
%
/Level1PatternFill {
/Pattern1 {0.250 Density} bind def
/Pattern2 {0.500 Density} bind def
/Pattern3 {0.750 Density} bind def
/Pattern4 {0.125 Density} bind def
/Pattern5 {0.375 Density} bind def
/Pattern6 {0.625 Density} bind def
/Pattern7 {0.875 Density} bind def
} def
%
% Now test for support of Level 2 code
%
Level1 {Level1PatternFill} {Level2PatternFill} ifelse
%
/Symbol-Oblique /Symbol findfont [1 0 .167 1 0 0] makefont
dup length dict begin {1 index /FID eq {pop pop} {def} ifelse} forall
currentdict end definefont pop
end
%%EndProlog
%%Page: 1 1
gnudict begin
gsave
50 50 translate
0.100 0.100 scale
90 rotate
0 -5040 translate
0 setgray
newpath
(Helvetica) findfont 140 scalefont setfont
1.000 UL
LTb
630 420 M
63 0 V
6269 0 R
-63 0 V
546 420 M
( 12) Rshow
1.000 UL
LTb
630 915 M
63 0 V
6269 0 R
-63 0 V
546 915 M
( 13) Rshow
1.000 UL
LTb
630 1409 M
63 0 V
6269 0 R
-63 0 V
-6353 0 R
( 14) Rshow
1.000 UL
LTb
630 1904 M
63 0 V
6269 0 R
-63 0 V
-6353 0 R
( 15) Rshow
1.000 UL
LTb
630 2399 M
63 0 V
6269 0 R
-63 0 V
-6353 0 R
( 16) Rshow
1.000 UL
LTb
630 2893 M
63 0 V
6269 0 R
-63 0 V
-6353 0 R
( 17) Rshow
1.000 UL
LTb
630 3388 M
63 0 V
6269 0 R
-63 0 V
-6353 0 R
( 18) Rshow
1.000 UL
LTb
630 3883 M
63 0 V
6269 0 R
-63 0 V
-6353 0 R
( 19) Rshow
1.000 UL
LTb
630 4377 M
63 0 V
6269 0 R
-63 0 V
-6353 0 R
( 20) Rshow
1.000 UL
LTb
630 4872 M
63 0 V
6269 0 R
-63 0 V
-6353 0 R
( 21) Rshow
1.000 UL
LTb
630 420 M
0 63 V
0 4389 R
0 -63 V
630 280 M
( 12) Cshow
1.000 UL
LTb
1535 420 M
0 63 V
0 4389 R
0 -63 V
0 -4529 R
( 14) Cshow
1.000 UL
LTb
2439 420 M
0 63 V
0 4389 R
0 -63 V
0 -4529 R
( 16) Cshow
1.000 UL
LTb
3344 420 M
0 63 V
0 4389 R
0 -63 V
0 -4529 R
( 18) Cshow
1.000 UL
LTb
4248 420 M
0 63 V
0 4389 R
0 -63 V
0 -4529 R
( 20) Cshow
1.000 UL
LTb
5153 420 M
0 63 V
0 4389 R
0 -63 V
0 -4529 R
( 22) Cshow
1.000 UL
LTb
6057 420 M
0 63 V
0 4389 R
0 -63 V
0 -4529 R
( 24) Cshow
1.000 UL
LTb
6962 420 M
0 63 V
0 4389 R
0 -63 V
0 -4529 R
( 26) Cshow
1.000 UL
LTb
1.000 UL
LTb
630 4872 N
630 420 L
6332 0 V
0 4452 V
-6332 0 V
Z stroke
LCb setrgbcolor
140 2646 M
currentpoint gsave translate 90 rotate 0 0 M
(H\(MeV\)) Cshow
grestore
LTb
LCb setrgbcolor
3796 70 M
(k) Cshow
LTb
1.000 UP
1.000 UL
LTb
2.000 UP
1.000 UL
LT2
/Helvetica findfont 140 scalefont setfont
4701 4332 M
4559 3883 L
142 -86 V
129 86 V
-129 449 V
-905 90 R
-41 -45 V
3344 4171 L
3080 3883 L
2891 3737 L
2572 3388 L
2439 3182 L
2175 2893 L
1987 2444 L
-41 -45 V
1740 1904 L
1535 1454 L
-42 -45 V
42 -45 V
41 45 V
411 225 V
452 -70 V
168 -155 V
2439 960 L
-41 -45 V
41 -45 V
41 45 V
411 183 V
3174 915 L
3344 729 L
452 141 V
41 45 V
411 206 V
453 243 V
41 45 V
411 450 V
41 45 V
411 309 V
170 186 V
-170 185 V
-94 309 V
94 155 V
452 155 V
170 185 V
-170 186 V
-452 154 V
5294 3388 L
5153 3285 L
-78 103 V
78 141 V
323 354 V
-282 494 V
-41 45 V
-452 0 V
-453 225 V
3796 4422 L
452 23 R
-123 -68 V
3796 4241 L
3344 3986 L
-94 -103 V
2891 3606 L
2692 3388 L
2439 2996 L
-94 -103 V
2213 2399 L
1987 2039 L
-62 -135 V
62 -67 V
452 -134 V
318 -294 V
134 -146 V
453 -256 V
452 155 V
452 144 V
174 103 V
279 165 V
301 330 V
151 113 V
407 382 V
-134 494 V
179 294 V
368 201 V
-368 201 V
5421 3388 L
5153 3192 L
-148 196 V
148 269 V
207 226 V
-207 329 V
4946 3883 L
4701 3721 L
-269 162 V
-60 494 V
-124 68 V
3796 4070 M
3485 3883 L
3344 3780 L
2891 3461 L
-66 -73 V
2533 2893 L
-63 -494 V
-31 -198 V
2303 1904 L
136 -46 V
452 -402 V
181 -47 V
272 -92 V
271 92 V
181 29 V
452 74 V
453 268 V
113 124 V
339 254 V
256 241 V
-77 494 V
273 449 V
85 46 V
-85 46 V
-42 -46 V
5153 3089 L
-226 299 V
226 410 V
77 85 V
-77 123 V
-78 -123 V
4701 3635 L
-410 248 V
-43 148 V
-452 39 V
0 -153 R
-57 -34 V
3344 3594 L
3021 3388 L
2891 3247 L
2703 2893 L
-92 -494 V
-2 -495 V
282 -236 V
453 -135 V
452 32 V
452 133 V
348 206 V
105 53 V
452 329 V
120 113 V
-26 494 V
-94 103 V
-296 392 V
-156 171 V
-453 246 V
-339 78 V
-113 34 V
3344 3409 M
-33 -21 V
2891 2929 L
-18 -36 V
2751 2399 L
112 -495 V
28 -24 V
453 -161 V
452 -27 V
452 191 V
35 21 V
418 212 V
425 283 V
27 247 V
9 247 V
-9 11 V
-367 484 V
-85 94 V
-453 205 V
-452 80 V
3344 3409 L
452 193 R
3529 3388 L
3344 3165 L
3095 2893 L
2909 2399 L
435 -476 V
75 -19 V
377 -71 V
162 71 V
290 139 V
453 250 V
159 106 V
89 494 V
-241 495 V
-7 9 V
-453 160 V
-452 45 V
0 -148 R
-82 -66 V
3344 2943 L
-46 -50 V
3065 2399 L
279 -305 V
452 -128 V
452 216 V
373 217 V
80 296 V
45 198 V
-45 99 V
-302 396 V
-151 52 V
-452 14 V
0 -214 R
3508 2893 L
3344 2611 L
3239 2399 L
105 -115 V
452 -164 V
452 217 V
107 62 V
181 494 V
-288 347 V
-452 0 V
0 -223 R
3693 2893 L
3457 2399 L
339 -139 V
291 139 V
161 247 V
103 247 V
-103 124 V
-452 0 V
4701 4332 Star
4559 3883 Star
4701 3797 Star
4830 3883 Star
4701 4332 Star
3796 4422 Star
3755 4377 Star
3344 4171 Star
3080 3883 Star
2891 3737 Star
2572 3388 Star
2439 3182 Star
2175 2893 Star
1987 2444 Star
1946 2399 Star
1740 1904 Star
1535 1454 Star
1493 1409 Star
1535 1364 Star
1576 1409 Star
1987 1634 Star
2439 1564 Star
2607 1409 Star
2439 960 Star
2398 915 Star
2439 870 Star
2480 915 Star
2891 1098 Star
3174 915 Star
3344 729 Star
3796 870 Star
3837 915 Star
4248 1121 Star
4701 1364 Star
4742 1409 Star
5153 1859 Star
5194 1904 Star
5605 2213 Star
5775 2399 Star
5605 2584 Star
5511 2893 Star
5605 3048 Star
6057 3203 Star
6227 3388 Star
6057 3574 Star
5605 3728 Star
5294 3388 Star
5153 3285 Star
5075 3388 Star
5153 3529 Star
5476 3883 Star
5194 4377 Star
5153 4422 Star
4701 4422 Star
4248 4647 Star
3796 4422 Star
4248 4445 Star
4125 4377 Star
3796 4241 Star
3344 3986 Star
3250 3883 Star
2891 3606 Star
2692 3388 Star
2439 2996 Star
2345 2893 Star
2213 2399 Star
1987 2039 Star
1925 1904 Star
1987 1837 Star
2439 1703 Star
2757 1409 Star
2891 1263 Star
3344 1007 Star
3796 1162 Star
4248 1306 Star
4422 1409 Star
4701 1574 Star
5002 1904 Star
5153 2017 Star
5560 2399 Star
5426 2893 Star
5605 3187 Star
5973 3388 Star
5605 3589 Star
5421 3388 Star
5153 3192 Star
5005 3388 Star
5153 3657 Star
5360 3883 Star
5153 4212 Star
4946 3883 Star
4701 3721 Star
4432 3883 Star
4372 4377 Star
4248 4445 Star
3796 4070 Star
3485 3883 Star
3344 3780 Star
2891 3461 Star
2825 3388 Star
2533 2893 Star
2470 2399 Star
2439 2201 Star
2303 1904 Star
2439 1858 Star
2891 1456 Star
3072 1409 Star
3344 1317 Star
3615 1409 Star
3796 1438 Star
4248 1512 Star
4701 1780 Star
4814 1904 Star
5153 2158 Star
5409 2399 Star
5332 2893 Star
5605 3342 Star
5690 3388 Star
5605 3434 Star
5563 3388 Star
5153 3089 Star
4927 3388 Star
5153 3798 Star
5230 3883 Star
5153 4006 Star
5075 3883 Star
4701 3635 Star
4291 3883 Star
4248 4031 Star
3796 4070 Star
3796 3917 Star
3739 3883 Star
3344 3594 Star
3021 3388 Star
2891 3247 Star
2703 2893 Star
2611 2399 Star
2609 1904 Star
2891 1668 Star
3344 1533 Star
3796 1565 Star
4248 1698 Star
4596 1904 Star
4701 1957 Star
5153 2286 Star
5273 2399 Star
5247 2893 Star
5153 2996 Star
4857 3388 Star
4701 3559 Star
4248 3805 Star
3909 3883 Star
3796 3917 Star
3344 3409 Star
3311 3388 Star
2891 2929 Star
2873 2893 Star
2751 2399 Star
2863 1904 Star
2891 1880 Star
3344 1719 Star
3796 1692 Star
4248 1883 Star
4283 1904 Star
4701 2116 Star
5126 2399 Star
5153 2646 Star
5162 2893 Star
5153 2904 Star
4786 3388 Star
4701 3482 Star
4248 3687 Star
3796 3767 Star
3344 3409 Star
3796 3602 Star
3529 3388 Star
3344 3165 Star
3095 2893 Star
2909 2399 Star
3344 1923 Star
3419 1904 Star
3796 1833 Star
3958 1904 Star
4248 2043 Star
4701 2293 Star
4860 2399 Star
4949 2893 Star
4708 3388 Star
4701 3397 Star
4248 3557 Star
3796 3602 Star
3796 3454 Star
3714 3388 Star
3344 2943 Star
3298 2893 Star
3065 2399 Star
3344 2094 Star
3796 1966 Star
4248 2182 Star
4621 2399 Star
4701 2695 Star
4746 2893 Star
4701 2992 Star
4399 3388 Star
4248 3440 Star
3796 3454 Star
3796 3240 Star
3508 2893 Star
3344 2611 Star
3239 2399 Star
3344 2284 Star
3796 2120 Star
4248 2337 Star
4355 2399 Star
4536 2893 Star
4248 3240 Star
3796 3240 Star
3796 3017 Star
3693 2893 Star
3457 2399 Star
3796 2260 Star
4087 2399 Star
4248 2646 Star
4351 2893 Star
4248 3017 Star
3796 3017 Star
1.000 UL
LT0
/Helvetica findfont 140 scalefont setfont
5883 4448 M
-62 72 V
-70 65 V
-77 58 V
-84 49 V
-91 41 V
-98 32 V
-104 25 V
-109 15 V
-114 7 V
-119 -2 V
-123 -11 V
-128 -19 V
-130 -28 V
-133 -37 V
-135 -45 V
-137 -53 V
-137 -61 V
-139 -68 V
-138 -76 V
-138 -83 V
-136 -90 V
-135 -97 V
3213 4040 L
3084 3932 L
2957 3819 L
2834 3701 L
2716 3579 L
2603 3453 L
2494 3324 L
2391 3192 L
-96 -134 V
-90 -136 V
-83 -137 V
-77 -137 V
-68 -138 V
-61 -136 V
-53 -136 V
-44 -134 V
-37 -132 V
-27 -130 V
-19 -126 V
-11 -122 V
-1 -118 V
7 -113 V
16 -109 V
25 -102 V
33 -97 V
42 -90 V
50 -83 V
58 -77 V
66 -68 V
73 -62 V
81 -53 V
88 -45 V
94 -37 V
101 -28 V
106 -20 V
112 -11 V
117 -2 V
121 6 V
125 15 V
129 24 V
132 32 V
134 41 V
136 49 V
137 57 V
138 64 V
139 73 V
138 79 V
137 87 V
136 93 V
134 100 V
131 105 V
128 110 V
125 116 V
120 120 V
116 124 V
111 128 V
106 130 V
99 133 V
94 135 V
87 137 V
79 137 V
73 137 V
64 138 V
57 136 V
49 135 V
41 133 V
31 131 V
24 127 V
14 125 V
6 120 V
-2 116 V
-12 111 V
-20 105 V
-29 100 V
-38 93 V
-46 87 V
-54 80 V
/Helvetica findfont 140 scalefont setfont
-152 -2 R
-59 67 V
-64 62 V
-71 54 V
-77 47 V
-83 41 V
-88 33 V
-93 25 V
-98 18 V
-102 10 V
-106 2 V
-109 -5 V
-112 -13 V
-114 -21 V
-117 -28 V
-118 -36 V
-119 -42 V
-120 -51 V
-120 -57 V
-120 -63 V
-119 -70 V
-117 -77 V
-116 -82 V
-113 -88 V
-111 -92 V
-107 -98 V
3054 3880 L
2954 3774 L
-96 -110 V
-91 -112 V
-85 -116 V
-80 -117 V
-75 -120 V
-68 -120 V
-62 -121 V
-55 -122 V
-48 -121 V
-41 -121 V
-34 -120 V
-27 -117 V
-19 -116 V
-11 -113 V
-4 -110 V
4 -107 V
11 -102 V
19 -98 V
26 -94 V
34 -88 V
41 -83 V
48 -77 V
55 -71 V
61 -65 V
68 -57 V
74 -51 V
80 -44 V
85 -37 V
91 -29 V
95 -21 V
100 -14 V
104 -7 V
108 2 V
110 9 V
114 17 V
115 24 V
118 32 V
118 39 V
120 47 V
120 54 V
120 60 V
119 67 V
118 73 V
117 79 V
115 85 V
112 91 V
109 95 V
106 100 V
102 104 V
98 108 V
93 111 V
88 114 V
83 117 V
77 118 V
71 120 V
65 121 V
59 122 V
52 121 V
44 121 V
38 120 V
30 119 V
23 117 V
15 114 V
8 112 V
0 108 V
-7 105 V
-16 100 V
-22 96 V
-30 91 V
-37 86 V
-45 80 V
-51 74 V
/Helvetica findfont 140 scalefont setfont
-63 -219 R
-54 63 V
-60 58 V
-65 51 V
-70 46 V
-76 38 V
-81 33 V
-84 25 V
-89 19 V
-93 11 V
-96 5 V
-100 -2 V
-101 -9 V
-104 -16 V
-106 -23 V
-107 -30 V
-108 -36 V
-108 -43 V
-109 -50 V
-108 -55 V
-107 -61 V
-106 -67 V
-104 -73 V
-103 -77 V
-99 -82 V
-97 -87 V
-93 -91 V
-90 -95 V
-86 -98 V
-81 -101 V
-77 -103 V
-71 -106 V
2769 3164 L
-61 -109 V
-55 -109 V
-48 -110 V
-43 -110 V
-36 -110 V
-30 -108 V
-22 -108 V
-16 -105 V
-10 -103 V
-2 -101 V
4 -97 V
12 -94 V
18 -91 V
25 -86 V
32 -82 V
38 -76 V
44 -72 V
51 -66 V
57 -61 V
62 -54 V
68 -49 V
73 -42 V
78 -35 V
83 -29 V
87 -22 V
91 -16 V
94 -8 V
98 -1 V
101 6 V
103 12 V
104 20 V
107 26 V
107 33 V
109 40 V
108 46 V
108 52 V
108 59 V
107 64 V
105 70 V
103 75 V
101 80 V
98 84 V
96 89 V
91 93 V
88 96 V
83 100 V
79 102 V
75 105 V
68 106 V
64 108 V
58 109 V
51 110 V
46 110 V
39 110 V
33 109 V
26 108 V
20 106 V
12 105 V
6 102 V
-1 99 V
-8 96 V
-15 92 V
-21 88 V
-29 84 V
-34 79 V
-42 75 V
-47 69 V
/Helvetica findfont 140 scalefont setfont
5112 3843 M
-48 56 V
-53 52 V
-56 48 V
-61 42 V
-65 37 V
-68 32 V
-72 26 V
-74 21 V
-77 16 V
-80 9 V
-81 4 V
-84 -2 V
-84 -8 V
-86 -13 V
-87 -19 V
-86 -24 V
-87 -30 V
-87 -36 V
-86 -40 V
-84 -46 V
-84 -50 V
-81 -55 V
-80 -60 V
-77 -63 V
-75 -68 V
-72 -71 V
-68 -75 V
-65 -78 V
-61 -80 V
-57 -83 V
-53 -85 V
-48 -87 V
-44 -88 V
-38 -90 V
-34 -90 V
-29 -90 V
2617 2665 L
-18 -90 V
-13 -90 V
-7 -88 V
-1 -86 V
4 -85 V
9 -83 V
15 -80 V
20 -77 V
26 -74 V
31 -71 V
36 -67 V
41 -63 V
45 -59 V
51 -55 V
54 -49 V
59 -45 V
63 -40 V
66 -34 V
70 -29 V
73 -24 V
76 -18 V
78 -13 V
81 -6 V
82 -1 V
84 4 V
86 11 V
86 16 V
87 22 V
86 27 V
87 33 V
86 38 V
86 43 V
84 48 V
83 52 V
80 58 V
79 61 V
76 66 V
73 70 V
70 73 V
67 76 V
63 79 V
59 82 V
55 84 V
50 86 V
46 88 V
41 88 V
37 90 V
31 90 V
26 91 V
20 90 V
16 90 V
10 88 V
4 88 V
-1 85 V
-7 84 V
-12 81 V
-18 79 V
-23 76 V
-28 73 V
-34 69 V
-38 65 V
-43 61 V
/Helvetica findfont 140 scalefont setfont
4964 3575 M
-40 47 V
-44 44 V
-48 40 V
-50 35 V
-55 32 V
-57 26 V
-60 23 V
-63 17 V
-64 13 V
-67 8 V
-69 3 V
-71 -2 V
-71 -6 V
-73 -11 V
-73 -16 V
-73 -21 V
-74 -25 V
-73 -30 V
-73 -34 V
-72 -39 V
-70 -42 V
-70 -46 V
-68 -51 V
-65 -53 V
-64 -57 V
-61 -60 V
-58 -63 V
-56 -66 V
-52 -68 V
-49 -69 V
-45 -72 V
-42 -73 V
-37 -75 V
-34 -75 V
-29 -76 V
-25 -76 V
-21 -76 V
-16 -75 V
-11 -75 V
-7 -75 V
-2 -72 V
2815 2212 L
7 -69 V
12 -68 V
16 -65 V
21 -62 V
25 -60 V
30 -56 V
34 -53 V
38 -50 V
42 -46 V
46 -41 V
49 -38 V
52 -33 V
56 -29 V
59 -25 V
61 -20 V
64 -15 V
66 -10 V
68 -6 V
69 -1 V
71 4 V
72 9 V
73 14 V
73 18 V
74 23 V
73 28 V
74 32 V
72 36 V
71 41 V
70 44 V
69 48 V
67 52 V
65 56 V
62 58 V
60 62 V
57 64 V
54 67 V
50 68 V
47 71 V
44 73 V
39 73 V
36 75 V
31 76 V
27 76 V
23 76 V
18 76 V
14 75 V
9 75 V
5 73 V
-1 72 V
-5 71 V
-9 68 V
-14 67 V
-19 64 V
-23 61 V
-28 58 V
-31 54 V
-36 52 V
/Helvetica findfont 140 scalefont setfont
4726 3382 M
-34 40 V
-36 36 V
-39 34 V
-42 31 V
-44 27 V
-46 23 V
-48 20 V
-51 17 V
-51 12 V
-54 9 V
-54 5 V
-56 2 V
-56 -3 V
-57 -6 V
-57 -10 V
-58 -14 V
-57 -18 V
-57 -21 V
-56 -25 V
-55 -28 V
-55 -32 V
-53 -34 V
-52 -38 V
-50 -41 V
-48 -43 V
-46 -47 V
-43 -48 V
-42 -51 V
-39 -52 V
-36 -55 V
-33 -55 V
-30 -58 V
-27 -58 V
-23 -59 V
-21 -60 V
-16 -60 V
-14 -61 V
-9 -60 V
-7 -60 V
-2 -59 V
1 -59 V
5 -57 V
8 -56 V
12 -55 V
15 -53 V
19 -51 V
3155 2102 L
25 -46 V
29 -44 V
32 -41 V
35 -39 V
38 -35 V
40 -32 V
43 -29 V
45 -25 V
47 -22 V
50 -18 V
51 -15 V
52 -11 V
54 -7 V
55 -3 V
56 1 V
57 4 V
57 8 V
57 13 V
58 15 V
57 20 V
56 23 V
56 26 V
55 30 V
54 33 V
52 37 V
51 39 V
49 42 V
47 45 V
45 47 V
43 50 V
40 51 V
37 54 V
35 55 V
32 57 V
28 58 V
25 58 V
22 60 V
19 60 V
15 60 V
12 61 V
7 60 V
5 59 V
1 59 V
-3 58 V
-7 57 V
-10 56 V
-14 54 V
-17 51 V
-21 50 V
-24 48 V
-27 45 V
-30 43 V
/Helvetica findfont 140 scalefont setfont
-6 87 R
-30 34 V
-32 31 V
-35 29 V
-37 25 V
-40 23 V
-42 19 V
-44 15 V
-45 12 V
-48 9 V
-49 5 V
-50 2 V
-51 -2 V
-52 -6 V
-53 -8 V
-53 -13 V
-54 -16 V
-53 -19 V
-54 -22 V
-52 -26 V
-53 -29 V
-51 -31 V
-50 -35 V
-50 -37 V
-47 -40 V
-46 -42 V
-44 -44 V
-43 -47 V
-40 -48 V
-37 -50 V
-36 -52 V
-32 -52 V
-30 -54 V
-27 -55 V
-24 -55 V
-21 -55 V
-18 -56 V
-14 -56 V
-11 -55 V
-8 -55 V
-5 -54 V
-1 -53 V
3 -52 V
5 -51 V
9 -49 V
13 -47 V
15 -45 V
19 -44 V
22 -40 V
25 -39 V
28 -35 V
31 -33 V
3362 2041 L
36 -27 V
39 -24 V
40 -21 V
43 -17 V
45 -14 V
47 -10 V
48 -7 V
50 -4 V
50 0 V
52 4 V
53 7 V
53 11 V
53 14 V
53 17 V
54 21 V
53 24 V
53 27 V
51 31 V
51 33 V
50 36 V
49 38 V
46 41 V
46 44 V
43 45 V
41 47 V
39 50 V
36 50 V
34 52 V
31 54 V
29 54 V
25 55 V
23 55 V
19 56 V
16 55 V
13 56 V
10 55 V
6 55 V
2 53 V
0 53 V
-4 51 V
-8 50 V
-10 48 V
-14 47 V
-18 44 V
-20 42 V
-24 39 V
-26 38 V
/Helvetica findfont 140 scalefont setfont
4355 3124 M
-22 26 V
-24 23 V
-26 21 V
-27 19 V
-29 17 V
-31 15 V
-32 12 V
-33 9 V
-35 7 V
-36 5 V
-36 1 V
-37 0 V
-38 -4 V
-38 -5 V
-39 -9 V
-39 -11 V
-38 -13 V
-39 -15 V
-38 -19 V
-37 -20 V
-37 -22 V
-36 -25 V
-36 -26 V
-34 -29 V
-33 -30 V
-31 -32 V
-30 -33 V
-29 -35 V
-26 -36 V
-25 -37 V
-23 -38 V
-21 -39 V
-19 -39 V
-17 -40 V
-14 -41 V
-12 -40 V
-10 -41 V
-8 -40 V
-5 -40 V
-2 -39 V
0 -39 V
2 -38 V
5 -37 V
7 -36 V
10 -35 V
12 -33 V
14 -32 V
16 -30 V
19 -29 V
21 -26 V
23 -25 V
24 -22 V
27 -20 V
28 -18 V
30 -16 V
32 -13 V
3536 2021 L
34 -8 V
35 -6 V
36 -3 V
37 0 V
37 2 V
38 4 V
39 7 V
38 10 V
39 12 V
38 14 V
39 17 V
37 19 V
38 22 V
36 23 V
36 26 V
35 27 V
33 30 V
32 31 V
31 32 V
30 35 V
27 35 V
26 36 V
24 38 V
22 39 V
20 39 V
18 39 V
15 41 V
14 40 V
11 41 V
8 40 V
6 40 V
4 40 V
2 39 V
-2 38 V
-3 38 V
-6 37 V
-9 35 V
-10 34 V
-14 32 V
-15 31 V
-18 30 V
-19 27 V
/Helvetica findfont 140 scalefont setfont
13 4 R
-14 17 V
-16 14 V
-18 13 V
-19 11 V
-20 9 V
-22 7 V
-23 5 V
-24 4 V
-25 1 V
-27 0 V
-27 -3 V
-28 -4 V
-29 -7 V
-29 -8 V
-29 -10 V
-30 -12 V
-30 -13 V
-31 -15 V
-30 -17 V
-30 -19 V
-29 -20 V
-30 -22 V
-28 -22 V
-28 -24 V
-28 -26 V
-26 -26 V
-25 -27 V
-25 -28 V
-23 -29 V
-22 -29 V
-20 -30 V
-19 -30 V
-18 -31 V
-16 -30 V
-14 -31 V
-13 -31 V
-11 -30 V
-9 -30 V
-7 -29 V
-5 -29 V
-4 -28 V
-1 -27 V
0 -26 V
3 -25 V
4 -25 V
6 -22 V
8 -22 V
10 -20 V
11 -18 V
14 -17 V
15 -16 V
16 -13 V
19 -12 V
19 -10 V
21 -8 V
23 -6 V
24 -5 V
24 -2 V
26 -1 V
27 2 V
28 3 V
3792 2255 L
29 7 V
29 9 V
30 11 V
30 13 V
30 14 V
30 16 V
30 18 V
30 19 V
30 21 V
29 22 V
28 24 V
28 24 V
27 26 V
26 27 V
24 28 V
24 28 V
23 29 V
21 30 V
20 30 V
18 30 V
17 31 V
15 30 V
14 31 V
11 30 V
10 30 V
8 30 V
7 29 V
4 28 V
2 28 V
1 27 V
-1 25 V
-4 25 V
-5 24 V
-7 22 V
-9 20 V
-11 20 V
-12 17 V
stroke
LTb
630 4872 N
630 420 L
6332 0 V
0 4452 V
-6332 0 V
Z stroke
1.000 UP
1.000 UL
LTb
stroke
grestore
end
showpage
%%Trailer
%%DocumentFonts: Helvetica
%%Pages: 1
