%!PS-Adobe-2.0 EPSF-2.0
%%Title: app0_207Bi_1_50.ps
%%Creator: gnuplot 4.2 patchlevel 0
%%CreationDate: Thu Oct  2 09:26:15 2008
%%DocumentFonts: (atend)
%%BoundingBox: 50 50 410 302
%%EndComments
%%BeginProlog
/gnudict 256 dict def
gnudict begin
%
% The following 6 true/false flags may be edited by hand if required
% The unit line width may also be changed
%
/Color true def
/Blacktext false def
/Solid true def
/Dashlength 1 def
/Landscape false def
/Level1 false def
/Rounded false def
/TransparentPatterns false def
/gnulinewidth 5.000 def
/userlinewidth gnulinewidth def
%
/vshift -70 def
/dl1 {
  10.0 Dashlength mul mul
  Rounded { currentlinewidth 0.75 mul sub dup 0 le { pop 0.01 } if } if
} def
/dl2 {
  10.0 Dashlength mul mul
  Rounded { currentlinewidth 0.75 mul add } if
} def
/hpt_ 31.5 def
/vpt_ 31.5 def
/hpt hpt_ def
/vpt vpt_ def
Level1 {} {
/SDict 10 dict def
systemdict /pdfmark known not {
  userdict /pdfmark systemdict /cleartomark get put
} if
SDict begin [
  /Title (app0_207Bi_1_50.ps)
  /Subject (gnuplot plot)
  /Creator (gnuplot 4.2 patchlevel 0)
  /Author (,,,)
%  /Producer (gnuplot)
%  /Keywords ()
  /CreationDate (Thu Oct  2 09:26:15 2008)
  /DOCINFO pdfmark
end
} ifelse
%
% Gnuplot Prolog Version 4.2 (August 2006)
%
/M {moveto} bind def
/L {lineto} bind def
/R {rmoveto} bind def
/V {rlineto} bind def
/N {newpath moveto} bind def
/Z {closepath} bind def
/C {setrgbcolor} bind def
/f {rlineto fill} bind def
/vpt2 vpt 2 mul def
/hpt2 hpt 2 mul def
/Lshow {currentpoint stroke M 0 vshift R 
	Blacktext {gsave 0 setgray show grestore} {show} ifelse} def
/Rshow {currentpoint stroke M dup stringwidth pop neg vshift R
	Blacktext {gsave 0 setgray show grestore} {show} ifelse} def
/Cshow {currentpoint stroke M dup stringwidth pop -2 div vshift R 
	Blacktext {gsave 0 setgray show grestore} {show} ifelse} def
/UP {dup vpt_ mul /vpt exch def hpt_ mul /hpt exch def
  /hpt2 hpt 2 mul def /vpt2 vpt 2 mul def} def
/DL {Color {setrgbcolor Solid {pop []} if 0 setdash}
 {pop pop pop 0 setgray Solid {pop []} if 0 setdash} ifelse} def
/BL {stroke userlinewidth 2 mul setlinewidth
	Rounded {1 setlinejoin 1 setlinecap} if} def
/AL {stroke userlinewidth 2 div setlinewidth
	Rounded {1 setlinejoin 1 setlinecap} if} def
/UL {dup gnulinewidth mul /userlinewidth exch def
	dup 1 lt {pop 1} if 10 mul /udl exch def} def
/PL {stroke userlinewidth setlinewidth
	Rounded {1 setlinejoin 1 setlinecap} if} def
% Default Line colors
/LCw {1 1 1} def
/LCb {0 0 0} def
/LCa {0 0 0} def
/LC0 {1 0 0} def
/LC1 {0 1 0} def
/LC2 {0 0 1} def
/LC3 {1 0 1} def
/LC4 {0 1 1} def
/LC5 {1 1 0} def
/LC6 {0 0 0} def
/LC7 {1 0.3 0} def
/LC8 {0.5 0.5 0.5} def
% Default Line Types
/LTw {PL [] 1 setgray} def
/LTb {BL [] LCb DL} def
/LTa {AL [1 udl mul 2 udl mul] 0 setdash LCa setrgbcolor} def
/LT0 {PL [] LC0 DL} def
/LT1 {PL [4 dl1 2 dl2] LC1 DL} def
/LT2 {PL [2 dl1 3 dl2] LC2 DL} def
/LT3 {PL [1 dl1 1.5 dl2] LC3 DL} def
/LT4 {PL [6 dl1 2 dl2 1 dl1 2 dl2] LC4 DL} def
/LT5 {PL [3 dl1 3 dl2 1 dl1 3 dl2] LC5 DL} def
/LT6 {PL [2 dl1 2 dl2 2 dl1 6 dl2] LC6 DL} def
/LT7 {PL [1 dl1 2 dl2 6 dl1 2 dl2 1 dl1 2 dl2] LC7 DL} def
/LT8 {PL [2 dl1 2 dl2 2 dl1 2 dl2 2 dl1 2 dl2 2 dl1 4 dl2] LC8 DL} def
/Pnt {stroke [] 0 setdash gsave 1 setlinecap M 0 0 V stroke grestore} def
/Dia {stroke [] 0 setdash 2 copy vpt add M
  hpt neg vpt neg V hpt vpt neg V
  hpt vpt V hpt neg vpt V closepath stroke
  Pnt} def
/Pls {stroke [] 0 setdash vpt sub M 0 vpt2 V
  currentpoint stroke M
  hpt neg vpt neg R hpt2 0 V stroke
 } def
/Box {stroke [] 0 setdash 2 copy exch hpt sub exch vpt add M
  0 vpt2 neg V hpt2 0 V 0 vpt2 V
  hpt2 neg 0 V closepath stroke
  Pnt} def
/Crs {stroke [] 0 setdash exch hpt sub exch vpt add M
  hpt2 vpt2 neg V currentpoint stroke M
  hpt2 neg 0 R hpt2 vpt2 V stroke} def
/TriU {stroke [] 0 setdash 2 copy vpt 1.12 mul add M
  hpt neg vpt -1.62 mul V
  hpt 2 mul 0 V
  hpt neg vpt 1.62 mul V closepath stroke
  Pnt} def
/Star {2 copy Pls Crs} def
/BoxF {stroke [] 0 setdash exch hpt sub exch vpt add M
  0 vpt2 neg V hpt2 0 V 0 vpt2 V
  hpt2 neg 0 V closepath fill} def
/TriUF {stroke [] 0 setdash vpt 1.12 mul add M
  hpt neg vpt -1.62 mul V
  hpt 2 mul 0 V
  hpt neg vpt 1.62 mul V closepath fill} def
/TriD {stroke [] 0 setdash 2 copy vpt 1.12 mul sub M
  hpt neg vpt 1.62 mul V
  hpt 2 mul 0 V
  hpt neg vpt -1.62 mul V closepath stroke
  Pnt} def
/TriDF {stroke [] 0 setdash vpt 1.12 mul sub M
  hpt neg vpt 1.62 mul V
  hpt 2 mul 0 V
  hpt neg vpt -1.62 mul V closepath fill} def
/DiaF {stroke [] 0 setdash vpt add M
  hpt neg vpt neg V hpt vpt neg V
  hpt vpt V hpt neg vpt V closepath fill} def
/Pent {stroke [] 0 setdash 2 copy gsave
  translate 0 hpt M 4 {72 rotate 0 hpt L} repeat
  closepath stroke grestore Pnt} def
/PentF {stroke [] 0 setdash gsave
  translate 0 hpt M 4 {72 rotate 0 hpt L} repeat
  closepath fill grestore} def
/Circle {stroke [] 0 setdash 2 copy
  hpt 0 360 arc stroke Pnt} def
/CircleF {stroke [] 0 setdash hpt 0 360 arc fill} def
/C0 {BL [] 0 setdash 2 copy moveto vpt 90 450 arc} bind def
/C1 {BL [] 0 setdash 2 copy moveto
	2 copy vpt 0 90 arc closepath fill
	vpt 0 360 arc closepath} bind def
/C2 {BL [] 0 setdash 2 copy moveto
	2 copy vpt 90 180 arc closepath fill
	vpt 0 360 arc closepath} bind def
/C3 {BL [] 0 setdash 2 copy moveto
	2 copy vpt 0 180 arc closepath fill
	vpt 0 360 arc closepath} bind def
/C4 {BL [] 0 setdash 2 copy moveto
	2 copy vpt 180 270 arc closepath fill
	vpt 0 360 arc closepath} bind def
/C5 {BL [] 0 setdash 2 copy moveto
	2 copy vpt 0 90 arc
	2 copy moveto
	2 copy vpt 180 270 arc closepath fill
	vpt 0 360 arc} bind def
/C6 {BL [] 0 setdash 2 copy moveto
	2 copy vpt 90 270 arc closepath fill
	vpt 0 360 arc closepath} bind def
/C7 {BL [] 0 setdash 2 copy moveto
	2 copy vpt 0 270 arc closepath fill
	vpt 0 360 arc closepath} bind def
/C8 {BL [] 0 setdash 2 copy moveto
	2 copy vpt 270 360 arc closepath fill
	vpt 0 360 arc closepath} bind def
/C9 {BL [] 0 setdash 2 copy moveto
	2 copy vpt 270 450 arc closepath fill
	vpt 0 360 arc closepath} bind def
/C10 {BL [] 0 setdash 2 copy 2 copy moveto vpt 270 360 arc closepath fill
	2 copy moveto
	2 copy vpt 90 180 arc closepath fill
	vpt 0 360 arc closepath} bind def
/C11 {BL [] 0 setdash 2 copy moveto
	2 copy vpt 0 180 arc closepath fill
	2 copy moveto
	2 copy vpt 270 360 arc closepath fill
	vpt 0 360 arc closepath} bind def
/C12 {BL [] 0 setdash 2 copy moveto
	2 copy vpt 180 360 arc closepath fill
	vpt 0 360 arc closepath} bind def
/C13 {BL [] 0 setdash 2 copy moveto
	2 copy vpt 0 90 arc closepath fill
	2 copy moveto
	2 copy vpt 180 360 arc closepath fill
	vpt 0 360 arc closepath} bind def
/C14 {BL [] 0 setdash 2 copy moveto
	2 copy vpt 90 360 arc closepath fill
	vpt 0 360 arc} bind def
/C15 {BL [] 0 setdash 2 copy vpt 0 360 arc closepath fill
	vpt 0 360 arc closepath} bind def
/Rec {newpath 4 2 roll moveto 1 index 0 rlineto 0 exch rlineto
	neg 0 rlineto closepath} bind def
/Square {dup Rec} bind def
/Bsquare {vpt sub exch vpt sub exch vpt2 Square} bind def
/S0 {BL [] 0 setdash 2 copy moveto 0 vpt rlineto BL Bsquare} bind def
/S1 {BL [] 0 setdash 2 copy vpt Square fill Bsquare} bind def
/S2 {BL [] 0 setdash 2 copy exch vpt sub exch vpt Square fill Bsquare} bind def
/S3 {BL [] 0 setdash 2 copy exch vpt sub exch vpt2 vpt Rec fill Bsquare} bind def
/S4 {BL [] 0 setdash 2 copy exch vpt sub exch vpt sub vpt Square fill Bsquare} bind def
/S5 {BL [] 0 setdash 2 copy 2 copy vpt Square fill
	exch vpt sub exch vpt sub vpt Square fill Bsquare} bind def
/S6 {BL [] 0 setdash 2 copy exch vpt sub exch vpt sub vpt vpt2 Rec fill Bsquare} bind def
/S7 {BL [] 0 setdash 2 copy exch vpt sub exch vpt sub vpt vpt2 Rec fill
	2 copy vpt Square fill Bsquare} bind def
/S8 {BL [] 0 setdash 2 copy vpt sub vpt Square fill Bsquare} bind def
/S9 {BL [] 0 setdash 2 copy vpt sub vpt vpt2 Rec fill Bsquare} bind def
/S10 {BL [] 0 setdash 2 copy vpt sub vpt Square fill 2 copy exch vpt sub exch vpt Square fill
	Bsquare} bind def
/S11 {BL [] 0 setdash 2 copy vpt sub vpt Square fill 2 copy exch vpt sub exch vpt2 vpt Rec fill
	Bsquare} bind def
/S12 {BL [] 0 setdash 2 copy exch vpt sub exch vpt sub vpt2 vpt Rec fill Bsquare} bind def
/S13 {BL [] 0 setdash 2 copy exch vpt sub exch vpt sub vpt2 vpt Rec fill
	2 copy vpt Square fill Bsquare} bind def
/S14 {BL [] 0 setdash 2 copy exch vpt sub exch vpt sub vpt2 vpt Rec fill
	2 copy exch vpt sub exch vpt Square fill Bsquare} bind def
/S15 {BL [] 0 setdash 2 copy Bsquare fill Bsquare} bind def
/D0 {gsave translate 45 rotate 0 0 S0 stroke grestore} bind def
/D1 {gsave translate 45 rotate 0 0 S1 stroke grestore} bind def
/D2 {gsave translate 45 rotate 0 0 S2 stroke grestore} bind def
/D3 {gsave translate 45 rotate 0 0 S3 stroke grestore} bind def
/D4 {gsave translate 45 rotate 0 0 S4 stroke grestore} bind def
/D5 {gsave translate 45 rotate 0 0 S5 stroke grestore} bind def
/D6 {gsave translate 45 rotate 0 0 S6 stroke grestore} bind def
/D7 {gsave translate 45 rotate 0 0 S7 stroke grestore} bind def
/D8 {gsave translate 45 rotate 0 0 S8 stroke grestore} bind def
/D9 {gsave translate 45 rotate 0 0 S9 stroke grestore} bind def
/D10 {gsave translate 45 rotate 0 0 S10 stroke grestore} bind def
/D11 {gsave translate 45 rotate 0 0 S11 stroke grestore} bind def
/D12 {gsave translate 45 rotate 0 0 S12 stroke grestore} bind def
/D13 {gsave translate 45 rotate 0 0 S13 stroke grestore} bind def
/D14 {gsave translate 45 rotate 0 0 S14 stroke grestore} bind def
/D15 {gsave translate 45 rotate 0 0 S15 stroke grestore} bind def
/DiaE {stroke [] 0 setdash vpt add M
  hpt neg vpt neg V hpt vpt neg V
  hpt vpt V hpt neg vpt V closepath stroke} def
/BoxE {stroke [] 0 setdash exch hpt sub exch vpt add M
  0 vpt2 neg V hpt2 0 V 0 vpt2 V
  hpt2 neg 0 V closepath stroke} def
/TriUE {stroke [] 0 setdash vpt 1.12 mul add M
  hpt neg vpt -1.62 mul V
  hpt 2 mul 0 V
  hpt neg vpt 1.62 mul V closepath stroke} def
/TriDE {stroke [] 0 setdash vpt 1.12 mul sub M
  hpt neg vpt 1.62 mul V
  hpt 2 mul 0 V
  hpt neg vpt -1.62 mul V closepath stroke} def
/PentE {stroke [] 0 setdash gsave
  translate 0 hpt M 4 {72 rotate 0 hpt L} repeat
  closepath stroke grestore} def
/CircE {stroke [] 0 setdash 
  hpt 0 360 arc stroke} def
/Opaque {gsave closepath 1 setgray fill grestore 0 setgray closepath} def
/DiaW {stroke [] 0 setdash vpt add M
  hpt neg vpt neg V hpt vpt neg V
  hpt vpt V hpt neg vpt V Opaque stroke} def
/BoxW {stroke [] 0 setdash exch hpt sub exch vpt add M
  0 vpt2 neg V hpt2 0 V 0 vpt2 V
  hpt2 neg 0 V Opaque stroke} def
/TriUW {stroke [] 0 setdash vpt 1.12 mul add M
  hpt neg vpt -1.62 mul V
  hpt 2 mul 0 V
  hpt neg vpt 1.62 mul V Opaque stroke} def
/TriDW {stroke [] 0 setdash vpt 1.12 mul sub M
  hpt neg vpt 1.62 mul V
  hpt 2 mul 0 V
  hpt neg vpt -1.62 mul V Opaque stroke} def
/PentW {stroke [] 0 setdash gsave
  translate 0 hpt M 4 {72 rotate 0 hpt L} repeat
  Opaque stroke grestore} def
/CircW {stroke [] 0 setdash 
  hpt 0 360 arc Opaque stroke} def
/BoxFill {gsave Rec 1 setgray fill grestore} def
/Density {
  /Fillden exch def
  currentrgbcolor
  /ColB exch def /ColG exch def /ColR exch def
  /ColR ColR Fillden mul Fillden sub 1 add def
  /ColG ColG Fillden mul Fillden sub 1 add def
  /ColB ColB Fillden mul Fillden sub 1 add def
  ColR ColG ColB setrgbcolor} def
/BoxColFill {gsave Rec PolyFill} def
/PolyFill {gsave Density fill grestore grestore} def
/h {rlineto rlineto rlineto gsave fill grestore} bind def
%
% PostScript Level 1 Pattern Fill routine for rectangles
% Usage: x y w h s a XX PatternFill
%	x,y = lower left corner of box to be filled
%	w,h = width and height of box
%	  a = angle in degrees between lines and x-axis
%	 XX = 0/1 for no/yes cross-hatch
%
/PatternFill {gsave /PFa [ 9 2 roll ] def
  PFa 0 get PFa 2 get 2 div add PFa 1 get PFa 3 get 2 div add translate
  PFa 2 get -2 div PFa 3 get -2 div PFa 2 get PFa 3 get Rec
  gsave 1 setgray fill grestore clip
  currentlinewidth 0.5 mul setlinewidth
  /PFs PFa 2 get dup mul PFa 3 get dup mul add sqrt def
  0 0 M PFa 5 get rotate PFs -2 div dup translate
  0 1 PFs PFa 4 get div 1 add floor cvi
	{PFa 4 get mul 0 M 0 PFs V} for
  0 PFa 6 get ne {
	0 1 PFs PFa 4 get div 1 add floor cvi
	{PFa 4 get mul 0 2 1 roll M PFs 0 V} for
 } if
  stroke grestore} def
%
/languagelevel where
 {pop languagelevel} {1} ifelse
 2 lt
	{/InterpretLevel1 true def}
	{/InterpretLevel1 Level1 def}
 ifelse
%
% PostScript level 2 pattern fill definitions
%
/Level2PatternFill {
/Tile8x8 {/PaintType 2 /PatternType 1 /TilingType 1 /BBox [0 0 8 8] /XStep 8 /YStep 8}
	bind def
/KeepColor {currentrgbcolor [/Pattern /DeviceRGB] setcolorspace} bind def
<< Tile8x8
 /PaintProc {0.5 setlinewidth pop 0 0 M 8 8 L 0 8 M 8 0 L stroke} 
>> matrix makepattern
/Pat1 exch def
<< Tile8x8
 /PaintProc {0.5 setlinewidth pop 0 0 M 8 8 L 0 8 M 8 0 L stroke
	0 4 M 4 8 L 8 4 L 4 0 L 0 4 L stroke}
>> matrix makepattern
/Pat2 exch def
<< Tile8x8
 /PaintProc {0.5 setlinewidth pop 0 0 M 0 8 L
	8 8 L 8 0 L 0 0 L fill}
>> matrix makepattern
/Pat3 exch def
<< Tile8x8
 /PaintProc {0.5 setlinewidth pop -4 8 M 8 -4 L
	0 12 M 12 0 L stroke}
>> matrix makepattern
/Pat4 exch def
<< Tile8x8
 /PaintProc {0.5 setlinewidth pop -4 0 M 8 12 L
	0 -4 M 12 8 L stroke}
>> matrix makepattern
/Pat5 exch def
<< Tile8x8
 /PaintProc {0.5 setlinewidth pop -2 8 M 4 -4 L
	0 12 M 8 -4 L 4 12 M 10 0 L stroke}
>> matrix makepattern
/Pat6 exch def
<< Tile8x8
 /PaintProc {0.5 setlinewidth pop -2 0 M 4 12 L
	0 -4 M 8 12 L 4 -4 M 10 8 L stroke}
>> matrix makepattern
/Pat7 exch def
<< Tile8x8
 /PaintProc {0.5 setlinewidth pop 8 -2 M -4 4 L
	12 0 M -4 8 L 12 4 M 0 10 L stroke}
>> matrix makepattern
/Pat8 exch def
<< Tile8x8
 /PaintProc {0.5 setlinewidth pop 0 -2 M 12 4 L
	-4 0 M 12 8 L -4 4 M 8 10 L stroke}
>> matrix makepattern
/Pat9 exch def
/Pattern1 {PatternBgnd KeepColor Pat1 setpattern} bind def
/Pattern2 {PatternBgnd KeepColor Pat2 setpattern} bind def
/Pattern3 {PatternBgnd KeepColor Pat3 setpattern} bind def
/Pattern4 {PatternBgnd KeepColor Landscape {Pat5} {Pat4} ifelse setpattern} bind def
/Pattern5 {PatternBgnd KeepColor Landscape {Pat4} {Pat5} ifelse setpattern} bind def
/Pattern6 {PatternBgnd KeepColor Landscape {Pat9} {Pat6} ifelse setpattern} bind def
/Pattern7 {PatternBgnd KeepColor Landscape {Pat8} {Pat7} ifelse setpattern} bind def
} def
%
%
%End of PostScript Level 2 code
%
/PatternBgnd {
  TransparentPatterns {} {gsave 1 setgray fill grestore} ifelse
} def
%
% Substitute for Level 2 pattern fill codes with
% grayscale if Level 2 support is not selected.
%
/Level1PatternFill {
/Pattern1 {0.250 Density} bind def
/Pattern2 {0.500 Density} bind def
/Pattern3 {0.750 Density} bind def
/Pattern4 {0.125 Density} bind def
/Pattern5 {0.375 Density} bind def
/Pattern6 {0.625 Density} bind def
/Pattern7 {0.875 Density} bind def
} def
%
% Now test for support of Level 2 code
%
Level1 {Level1PatternFill} {Level2PatternFill} ifelse
%
/Symbol-Oblique /Symbol findfont [1 0 .167 1 0 0] makefont
dup length dict begin {1 index /FID eq {pop pop} {def} ifelse} forall
currentdict end definefont pop
/MFshow {
   { dup 5 get 3 ge
     { 5 get 3 eq {gsave} {grestore} ifelse }
     {dup dup 0 get findfont exch 1 get scalefont setfont
     [ currentpoint ] exch dup 2 get 0 exch R dup 5 get 2 ne {dup dup 6
     get exch 4 get {show} {stringwidth pop 0 R} ifelse }if dup 5 get 0 eq
     {dup 3 get {2 get neg 0 exch R pop} {pop aload pop M} ifelse} {dup 5
     get 1 eq {dup 2 get exch dup 3 get exch 6 get stringwidth pop -2 div
     dup 0 R} {dup 6 get stringwidth pop -2 div 0 R 6 get
     show 2 index {aload pop M neg 3 -1 roll neg R pop pop} {pop pop pop
     pop aload pop M} ifelse }ifelse }ifelse }
     ifelse }
   forall} bind def
/MFwidth {0 exch { dup 5 get 3 ge { 5 get 3 eq { 0 } { pop } ifelse }
 {dup 3 get{dup dup 0 get findfont exch 1 get scalefont setfont
     6 get stringwidth pop add} {pop} ifelse} ifelse} forall} bind def
/MLshow { currentpoint stroke M
  0 exch R
  Blacktext {gsave 0 setgray MFshow grestore} {MFshow} ifelse } bind def
/MRshow { currentpoint stroke M
  exch dup MFwidth neg 3 -1 roll R
  Blacktext {gsave 0 setgray MFshow grestore} {MFshow} ifelse } bind def
/MCshow { currentpoint stroke M
  exch dup MFwidth -2 div 3 -1 roll R
  Blacktext {gsave 0 setgray MFshow grestore} {MFshow} ifelse } bind def
/XYsave    { [( ) 1 2 true false 3 ()] } bind def
/XYrestore { [( ) 1 2 true false 4 ()] } bind def
end
%%EndProlog
gnudict begin
gsave
50 50 translate
0.050 0.050 scale
0 setgray
newpath
(Helvetica) findfont 210 scalefont setfont
1.000 UL
LTb
945 630 M
63 0 V
5835 0 R
-63 0 V
stroke
819 630 M
[ [(Helvetica) 210.0 0.0 true true 0 ( 34)]
] -70.0 MRshow
1.000 UL
LTb
945 1092 M
63 0 V
5835 0 R
-63 0 V
stroke
819 1092 M
[ [(Helvetica) 210.0 0.0 true true 0 ( 36)]
] -70.0 MRshow
1.000 UL
LTb
945 1554 M
63 0 V
5835 0 R
-63 0 V
stroke
819 1554 M
[ [(Helvetica) 210.0 0.0 true true 0 ( 38)]
] -70.0 MRshow
1.000 UL
LTb
945 2016 M
63 0 V
5835 0 R
-63 0 V
stroke
819 2016 M
[ [(Helvetica) 210.0 0.0 true true 0 ( 40)]
] -70.0 MRshow
1.000 UL
LTb
945 2478 M
63 0 V
5835 0 R
-63 0 V
stroke
819 2478 M
[ [(Helvetica) 210.0 0.0 true true 0 ( 42)]
] -70.0 MRshow
1.000 UL
LTb
945 2940 M
63 0 V
5835 0 R
-63 0 V
stroke
819 2940 M
[ [(Helvetica) 210.0 0.0 true true 0 ( 44)]
] -70.0 MRshow
1.000 UL
LTb
945 3402 M
63 0 V
5835 0 R
-63 0 V
stroke
819 3402 M
[ [(Helvetica) 210.0 0.0 true true 0 ( 46)]
] -70.0 MRshow
1.000 UL
LTb
945 3864 M
63 0 V
5835 0 R
-63 0 V
stroke
819 3864 M
[ [(Helvetica) 210.0 0.0 true true 0 ( 48)]
] -70.0 MRshow
1.000 UL
LTb
945 4326 M
63 0 V
5835 0 R
-63 0 V
stroke
819 4326 M
[ [(Helvetica) 210.0 0.0 true true 0 ( 50)]
] -70.0 MRshow
1.000 UL
LTb
945 4788 M
63 0 V
5835 0 R
-63 0 V
stroke
819 4788 M
[ [(Helvetica) 210.0 0.0 true true 0 ( 52)]
] -70.0 MRshow
1.000 UL
LTb
945 630 M
0 63 V
0 4095 R
0 -63 V
stroke
945 420 M
[ [(Helvetica) 210.0 0.0 true true 0 ( 32)]
] -70.0 MCshow
1.000 UL
LTb
1600 630 M
0 63 V
0 4095 R
0 -63 V
stroke
1600 420 M
[ [(Helvetica) 210.0 0.0 true true 0 ( 34)]
] -70.0 MCshow
1.000 UL
LTb
2256 630 M
0 63 V
0 4095 R
0 -63 V
stroke
2256 420 M
[ [(Helvetica) 210.0 0.0 true true 0 ( 36)]
] -70.0 MCshow
1.000 UL
LTb
2911 630 M
0 63 V
0 4095 R
0 -63 V
stroke
2911 420 M
[ [(Helvetica) 210.0 0.0 true true 0 ( 38)]
] -70.0 MCshow
1.000 UL
LTb
3566 630 M
0 63 V
0 4095 R
0 -63 V
stroke
3566 420 M
[ [(Helvetica) 210.0 0.0 true true 0 ( 40)]
] -70.0 MCshow
1.000 UL
LTb
4222 630 M
0 63 V
0 4095 R
0 -63 V
stroke
4222 420 M
[ [(Helvetica) 210.0 0.0 true true 0 ( 42)]
] -70.0 MCshow
1.000 UL
LTb
4877 630 M
0 63 V
0 4095 R
0 -63 V
stroke
4877 420 M
[ [(Helvetica) 210.0 0.0 true true 0 ( 44)]
] -70.0 MCshow
1.000 UL
LTb
5532 630 M
0 63 V
0 4095 R
0 -63 V
stroke
5532 420 M
[ [(Helvetica) 210.0 0.0 true true 0 ( 46)]
] -70.0 MCshow
1.000 UL
LTb
6188 630 M
0 63 V
0 4095 R
0 -63 V
stroke
6188 420 M
[ [(Helvetica) 210.0 0.0 true true 0 ( 48)]
] -70.0 MCshow
1.000 UL
LTb
6843 630 M
0 63 V
0 4095 R
0 -63 V
stroke
6843 420 M
[ [(Helvetica) 210.0 0.0 true true 0 ( 50)]
] -70.0 MCshow
1.000 UL
LTb
1.000 UL
LTb
945 4788 N
945 630 L
5898 0 V
0 4158 V
-5898 0 V
Z stroke
LCb setrgbcolor
210 2709 M
currentpoint gsave translate 90 rotate 0 0 moveto
[ [(Helvetica) 210.0 0.0 true true 0 (H\(MeV\))]
] -70.0 MCshow
grestore
LTb
LCb setrgbcolor
3894 105 M
[ [(Helvetica) 210.0 0.0 true true 0 (k)]
] -70.0 MCshow
LTb
1.000 UP
1.000 UL
LTb
2.000 UP
1.000 UL
LT2
/Helvetica findfont 210 scalefont setfont
5205 1092 M
-3277 0 R
2294 231 R
1310 462 R
-4259 0 R
945 2016 M
1311 462 R
1928 2247 L
328 -77 V
82 77 V
-82 231 V
-983 0 R
5570 462 R
-5243 0 R
6188 3941 M
-110 -77 V
110 -77 V
109 77 V
-109 77 V
3894 3864 M
82 -231 V
-82 -39 V
-328 -7 V
3304 3402 L
-65 -231 V
-328 231 V
328 231 V
-328 0 V
-328 -58 V
2338 3402 L
-82 -77 V
2092 3171 L
164 -115 V
327 -70 V
164 -46 V
2630 2709 L
-47 -46 V
-163 46 V
-164 77 V
-110 -77 V
110 -231 V
1928 2247 L
0 -231 V
1710 1785 L
218 -154 V
328 154 V
327 -115 V
328 0 V
109 -116 V
219 -154 V
327 -77 V
328 154 V
164 77 V
164 231 V
327 0 V
328 58 V
246 173 V
-49 231 V
131 231 V
327 0 V
328 154 V
164 77 V
-164 116 V
-82 115 V
82 116 V
328 115 V
327 231 V
6188 3171 L
-164 231 V
-164 116 V
-164 115 V
-164 77 V
-327 39 V
-328 -39 V
-328 77 V
-109 77 V
-218 154 V
3894 3864 L
2256 2709 M
2621 578 R
4549 3171 L
164 -231 V
164 -58 V
109 58 V
-27 231 V
-82 116 V
2583 3518 M
2420 3402 L
2256 3248 L
-82 -77 V
82 -58 V
327 -81 V
246 139 V
-27 231 V
-219 116 V
3605 346 R
-1966 77 R
-164 -77 V
0 -231 V
-164 -77 V
-328 -15 V
3370 3402 L
196 -231 V
3239 3056 L
2911 2940 L
2677 2709 L
-94 -92 V
2338 2478 L
82 -231 V
2256 2093 L
-164 -77 V
1928 1901 L
1819 1785 L
109 -77 V
164 77 V
164 116 V
164 -116 V
163 -58 V
328 58 V
218 -231 V
110 -77 V
327 -77 V
328 154 V
246 231 V
82 231 V
327 -185 V
328 70 V
164 115 V
-33 231 V
-131 154 V
-328 77 V
328 58 V
328 173 V
327 0 V
328 0 V
-164 231 V
164 231 V
0 231 V
-328 231 V
-327 0 V
-328 0 V
-328 77 V
-218 154 V
-109 77 V
2583 3402 M
2420 3171 L
163 -46 V
82 46 V
-82 231 V
1639 231 R
3894 3479 L
-328 -31 V
-65 -46 V
65 -77 V
94 -154 V
-94 -92 V
3321 2940 L
-82 -46 V
-328 -46 V
2771 2709 L
2583 2524 L
-82 -46 V
82 -231 V
164 231 V
164 58 V
328 -58 V
2966 2247 L
-55 -46 V
2693 2016 L
218 -154 V
164 -77 V
164 -154 V
327 -77 V
328 154 V
82 77 V
-82 116 V
-164 115 V
164 29 V
328 202 V
164 -231 V
163 -92 V
328 92 V
0 231 V
-328 116 V
-109 115 V
109 77 V
328 96 V
109 58 V
219 231 V
327 0 V
110 231 V
0 231 V
-110 77 V
-327 -77 V
-82 -231 V
82 -231 V
4877 2767 L
-328 127 V
-65 46 V
-17 231 V
82 231 V
-327 231 V
3894 1785 M
655 520 R
-163 -58 V
81 -231 V
82 -46 V
164 46 V
0 231 V
-164 58 V
-983 -32 R
-65 -26 V
65 -231 V
47 231 V
-47 26 V
-983 898 R
2949 231 R
5205 3171 L
327 0 V
0 231 V
-1966 0 R
141 -231 V
3566 3032 L
-163 -92 V
-164 -92 V
-328 -47 V
-94 -92 V
2583 2478 L
328 116 V
328 -58 V
36 -58 V
-36 -46 V
3020 2247 L
-109 -92 V
2747 2016 L
164 -115 V
246 -116 V
82 -77 V
164 77 V
163 231 V
328 58 V
281 173 V
47 58 V
164 173 V
163 116 V
328 115 V
-328 139 V
-131 92 V
8 231 V
-204 231 V
-328 39 V
-328 -39 V
4549 2247 M
0 -231 V
0 231 V
3894 3402 M
3754 3171 L
3566 2986 L
-82 -46 V
3239 2801 L
-328 -46 V
-47 -46 V
47 -58 V
328 -57 V
72 -116 V
-72 -92 V
3075 2247 L
2911 2108 L
-109 -92 V
109 -77 V
328 -154 V
164 231 V
32 231 V
131 51 V
94 -51 V
234 -144 V
234 144 V
94 116 V
109 115 V
218 154 V
219 77 V
-219 92 V
-196 139 V
33 231 V
-164 185 V
-328 46 V
0 -154 R
-47 -77 V
3730 2940 L
3566 2709 L
-327 0 V
145 -231 V
3239 2293 L
-55 -46 V
2911 2016 L
328 116 V
65 115 V
262 103 V
188 -103 V
140 -87 V
140 87 V
188 231 V
327 231 V
4222 2478 L
-328 231 V
328 231 V
82 231 V
-82 92 V
-328 -15 V
3566 2663 M
3421 2478 L
3239 2247 L
327 128 V
234 -128 V
94 -58 V
94 58 V
-94 231 V
-328 185 V
328 508 R
0 -231 V
328 116 V
41 115 V
-41 46 V
-328 -46 V
0 -924 R
-328 323 R
-72 -92 V
72 -51 V
164 51 V
-164 92 V
0 -46 R
-36 -46 V
36 -26 V
82 26 V
-82 46 V
5205 1092 Star
1928 1092 Star
4222 1323 Star
5532 1785 Star
1273 1785 Star
945 2016 Star
2256 2478 Star
1928 2247 Star
2256 2170 Star
2338 2247 Star
2256 2478 Star
1273 2478 Star
6843 2940 Star
1600 2940 Star
6188 3941 Star
6078 3864 Star
6188 3787 Star
6297 3864 Star
6188 3941 Star
3894 3864 Star
3976 3633 Star
3894 3594 Star
3566 3587 Star
3304 3402 Star
3239 3171 Star
2911 3402 Star
3239 3633 Star
2911 3633 Star
2583 3575 Star
2338 3402 Star
2256 3325 Star
2092 3171 Star
2256 3056 Star
2583 2986 Star
2747 2940 Star
2630 2709 Star
2583 2663 Star
2420 2709 Star
2256 2786 Star
2146 2709 Star
2256 2478 Star
1928 2247 Star
1928 2016 Star
1710 1785 Star
1928 1631 Star
2256 1785 Star
2583 1670 Star
2911 1670 Star
3020 1554 Star
3239 1400 Star
3566 1323 Star
3894 1477 Star
4058 1554 Star
4222 1785 Star
4549 1785 Star
4877 1843 Star
5123 2016 Star
5074 2247 Star
5205 2478 Star
5532 2478 Star
5860 2632 Star
6024 2709 Star
5860 2825 Star
5778 2940 Star
5860 3056 Star
6188 3171 Star
6515 3402 Star
6188 3171 Star
6024 3402 Star
5860 3518 Star
5696 3633 Star
5532 3710 Star
5205 3749 Star
4877 3710 Star
4549 3787 Star
4440 3864 Star
4222 4018 Star
3894 3864 Star
2256 2709 Star
4877 3287 Star
4549 3171 Star
4713 2940 Star
4877 2882 Star
4986 2940 Star
4959 3171 Star
4877 3287 Star
2583 3518 Star
2420 3402 Star
2256 3248 Star
2174 3171 Star
2256 3113 Star
2583 3032 Star
2829 3171 Star
2802 3402 Star
2583 3518 Star
6188 3864 Star
4222 3941 Star
4058 3864 Star
4058 3633 Star
3894 3556 Star
3566 3541 Star
3370 3402 Star
3566 3171 Star
3239 3056 Star
2911 2940 Star
2677 2709 Star
2583 2617 Star
2338 2478 Star
2420 2247 Star
2256 2093 Star
2092 2016 Star
1928 1901 Star
1819 1785 Star
1928 1708 Star
2092 1785 Star
2256 1901 Star
2420 1785 Star
2583 1727 Star
2911 1785 Star
3129 1554 Star
3239 1477 Star
3566 1400 Star
3894 1554 Star
4140 1785 Star
4222 2016 Star
4549 1831 Star
4877 1901 Star
5041 2016 Star
5008 2247 Star
4877 2401 Star
4549 2478 Star
4877 2536 Star
5205 2709 Star
5532 2709 Star
5860 2709 Star
5696 2940 Star
5860 3171 Star
5860 3402 Star
5532 3633 Star
5205 3633 Star
4877 3633 Star
4549 3710 Star
4331 3864 Star
4222 3941 Star
2583 3402 Star
2420 3171 Star
2583 3125 Star
2665 3171 Star
2583 3402 Star
4222 3633 Star
3894 3479 Star
3566 3448 Star
3501 3402 Star
3566 3325 Star
3660 3171 Star
3566 3079 Star
3321 2940 Star
3239 2894 Star
2911 2848 Star
2771 2709 Star
2583 2524 Star
2501 2478 Star
2583 2247 Star
2747 2478 Star
2911 2536 Star
3239 2478 Star
2966 2247 Star
2911 2201 Star
2693 2016 Star
2911 1862 Star
3075 1785 Star
3239 1631 Star
3566 1554 Star
3894 1708 Star
3976 1785 Star
3894 1901 Star
3730 2016 Star
3894 2045 Star
4222 2247 Star
4386 2016 Star
4549 1924 Star
4877 2016 Star
4877 2247 Star
4549 2363 Star
4440 2478 Star
4549 2555 Star
4877 2651 Star
4986 2709 Star
5205 2940 Star
5532 2940 Star
5642 3171 Star
5642 3402 Star
5532 3479 Star
5205 3402 Star
5123 3171 Star
5205 2940 Star
4877 2767 Star
4549 2894 Star
4484 2940 Star
4467 3171 Star
4549 3402 Star
4222 3633 Star
3894 1785 Star
4549 2305 Star
4386 2247 Star
4467 2016 Star
4549 1970 Star
4713 2016 Star
4713 2247 Star
4549 2305 Star
3566 2273 Star
3501 2247 Star
3566 2016 Star
3613 2247 Star
3566 2273 Star
2583 3171 Star
5532 3402 Star
5205 3171 Star
5532 3171 Star
5532 3402 Star
3566 3402 Star
3707 3171 Star
3566 3032 Star
3403 2940 Star
3239 2848 Star
2911 2801 Star
2817 2709 Star
2583 2478 Star
2911 2594 Star
3239 2536 Star
3275 2478 Star
3239 2432 Star
3020 2247 Star
2911 2155 Star
2747 2016 Star
2911 1901 Star
3157 1785 Star
3239 1708 Star
3403 1785 Star
3566 2016 Star
3894 2074 Star
4175 2247 Star
4222 2305 Star
4386 2478 Star
4549 2594 Star
4877 2709 Star
4549 2848 Star
4418 2940 Star
4426 3171 Star
4222 3402 Star
3894 3441 Star
3566 3402 Star
4549 2247 Star
4549 2016 Star
4549 2247 Star
3894 3402 Star
3754 3171 Star
3566 2986 Star
3484 2940 Star
3239 2801 Star
2911 2755 Star
2864 2709 Star
2911 2651 Star
3239 2594 Star
3311 2478 Star
3239 2386 Star
3075 2247 Star
2911 2108 Star
2802 2016 Star
2911 1939 Star
3239 1785 Star
3403 2016 Star
3435 2247 Star
3566 2298 Star
3660 2247 Star
3894 2103 Star
4128 2247 Star
4222 2363 Star
4331 2478 Star
4549 2632 Star
4768 2709 Star
4549 2801 Star
4353 2940 Star
4386 3171 Star
4222 3356 Star
3894 3402 Star
3894 3248 Star
3847 3171 Star
3730 2940 Star
3566 2709 Star
3239 2709 Star
3384 2478 Star
3239 2293 Star
3184 2247 Star
2911 2016 Star
3239 2132 Star
3304 2247 Star
3566 2350 Star
3754 2247 Star
3894 2160 Star
4034 2247 Star
4222 2478 Star
4549 2709 Star
4222 2478 Star
3894 2709 Star
4222 2940 Star
4304 3171 Star
4222 3263 Star
3894 3248 Star
3566 2663 Star
3421 2478 Star
3239 2247 Star
3566 2375 Star
3800 2247 Star
3894 2189 Star
3988 2247 Star
3894 2478 Star
3566 2663 Star
3894 3171 Star
3894 2940 Star
4222 3056 Star
4263 3171 Star
4222 3217 Star
3894 3171 Star
3894 2247 Star
3566 2570 Star
3494 2478 Star
3566 2427 Star
3730 2478 Star
3566 2570 Star
3566 2524 Star
3530 2478 Star
3566 2452 Star
3648 2478 Star
3566 2524 Star
4.000 UL
LT0
/Helvetica findfont 210 scalefont setfont
5922 4262 M
-123 78 V
-131 71 V
-139 65 V
-145 58 V
-152 51 V
-157 43 V
-162 36 V
-167 28 V
-170 20 V
-173 12 V
-176 4 V
-177 -4 V
-178 -12 V
-178 -20 V
-178 -27 V
-176 -36 V
-174 -43 V
-172 -50 V
-168 -58 V
-164 -65 V
-160 -71 V
-154 -78 V
-148 -84 V
-142 -90 V
-134 -95 V
1797 3894 L
1679 3789 L
1569 3680 L
1468 3567 L
-91 -116 V
-81 -119 V
-72 -122 V
-60 -124 V
-50 -124 V
-39 -126 V
-28 -126 V
-16 -126 V
-6 -126 V
6 -124 V
18 -123 V
28 -120 V
40 -118 V
50 -115 V
62 -111 V
71 -108 V
82 -102 V
92 -98 V
101 -93 V
111 -87 V
119 -82 V
127 -75 V
135 -68 V
142 -61 V
149 -55 V
154 -47 V
160 -39 V
164 -32 V
169 -24 V
172 -16 V
174 -8 V
176 0 V
178 8 V
178 16 V
178 23 V
177 32 V
176 39 V
173 47 V
170 54 V
166 61 V
162 68 V
157 75 V
151 81 V
145 87 V
138 93 V
131 98 V
122 102 V
115 108 V
105 111 V
96 114 V
86 118 V
77 121 V
65 122 V
56 125 V
44 125 V
33 126 V
23 126 V
11 126 V
-1 125 V
-11 123 V
-23 122 V
-34 119 V
-45 117 V
-56 113 V
-67 109 V
-77 105 V
-87 101 V
-96 95 V
-106 90 V
-115 85 V
/Helvetica findfont 210 scalefont setfont
5241 3677 M
-78 49 V
-83 45 V
-88 40 V
-92 36 V
-97 31 V
-100 26 V
-104 21 V
-106 17 V
-109 11 V
-111 6 V
-113 0 V
-114 -4 V
-115 -10 V
-114 -14 V
-115 -20 V
-114 -25 V
-113 -29 V
-111 -34 V
-109 -39 V
-106 -44 V
-104 -47 V
-101 -52 V
-96 -56 V
-93 -59 V
-88 -63 V
-83 -66 V
-78 -69 V
-72 -71 V
-67 -74 V
-61 -76 V
-54 -77 V
-48 -79 V
-41 -80 V
2129 2790 L
-28 -81 V
-20 -82 V
-13 -81 V
-5 -81 V
2 -80 V
8 -79 V
17 -77 V
23 -75 V
30 -74 V
38 -71 V
44 -68 V
51 -65 V
57 -62 V
64 -59 V
69 -55 V
75 -51 V
81 -47 V
85 -42 V
90 -38 V
95 -34 V
98 -28 V
102 -24 V
105 -19 V
108 -13 V
110 -9 V
112 -3 V
113 2 V
115 6 V
114 13 V
115 17 V
114 22 V
114 27 V
112 32 V
110 37 V
108 41 V
105 45 V
102 50 V
99 54 V
94 57 V
91 61 V
85 65 V
81 67 V
75 70 V
70 73 V
64 75 V
57 77 V
51 78 V
45 79 V
38 81 V
30 81 V
24 82 V
16 81 V
10 81 V
2 80 V
-6 80 V
-12 78 V
-20 76 V
-27 75 V
-34 72 V
-41 69 V
-47 67 V
-54 64 V
-61 60 V
-66 57 V
-72 53 V
/Helvetica findfont 210 scalefont setfont
4550 3133 M
-51 33 V
-55 30 V
-58 27 V
-61 25 V
-63 22 V
-66 18 V
-67 16 V
-69 12 V
-70 9 V
-72 6 V
-72 3 V
-73 -1 V
-73 -4 V
-74 -7 V
-72 -10 V
-73 -14 V
-71 -17 V
-70 -20 V
-68 -23 V
-67 -25 V
-65 -29 V
-62 -31 V
-60 -34 V
-57 -36 V
-54 -39 V
-51 -40 V
-47 -43 V
-44 -44 V
-40 -46 V
-36 -47 V
-32 -49 V
-27 -50 V
-24 -50 V
-19 -51 V
-14 -52 V
-9 -52 V
-6 -51 V
0 -52 V
2562 2366 L
9 -51 V
13 -49 V
18 -49 V
23 -48 V
27 -46 V
31 -44 V
35 -43 V
39 -41 V
43 -39 V
47 -36 V
50 -34 V
54 -32 V
56 -28 V
59 -26 V
62 -24 V
65 -20 V
66 -17 V
68 -14 V
70 -11 V
71 -7 V
72 -4 V
73 -1 V
73 2 V
73 6 V
73 8 V
73 12 V
71 16 V
71 18 V
69 21 V
68 25 V
66 27 V
63 30 V
61 32 V
59 35 V
55 38 V
53 39 V
49 42 V
46 43 V
42 45 V
37 47 V
34 48 V
30 49 V
26 50 V
21 51 V
16 51 V
12 52 V
8 52 V
2 52 V
-2 51 V
-6 51 V
-11 50 V
-16 49 V
-20 49 V
-25 46 V
-29 46 V
-33 43 V
-37 42 V
-41 40 V
-45 38 V
-49 35 V
/Helvetica findfont 210 scalefont setfont
-141 -42 R
-25 15 V
-28 14 V
-29 11 V
-32 10 V
-33 8 V
-36 5 V
-37 4 V
-38 1 V
-40 0 V
-41 -3 V
-42 -4 V
-43 -7 V
-44 -8 V
-44 -11 V
-44 -12 V
-45 -14 V
-44 -16 V
-45 -18 V
-44 -20 V
-43 -21 V
-43 -22 V
-41 -24 V
-41 -25 V
-39 -27 V
-38 -27 V
-37 -29 V
-35 -29 V
-32 -31 V
-31 -30 V
-29 -32 V
-27 -31 V
-24 -32 V
-22 -33 V
-19 -32 V
-17 -32 V
-14 -31 V
-11 -32 V
-9 -31 V
-6 -30 V
-3 -29 V
0 -29 V
3 -27 V
5 -27 V
3130 2328 L
11 -24 V
14 -23 V
16 -21 V
19 -19 V
22 -18 V
24 -16 V
26 -14 V
29 -13 V
30 -10 V
33 -9 V
34 -7 V
37 -4 V
37 -3 V
40 0 V
40 1 V
42 4 V
42 5 V
43 8 V
44 9 V
45 12 V
44 13 V
45 15 V
44 17 V
44 19 V
44 20 V
43 22 V
42 23 V
41 25 V
41 25 V
38 27 V
37 29 V
36 29 V
34 29 V
32 31 V
30 31 V
27 31 V
26 32 V
23 32 V
20 33 V
18 32 V
16 32 V
13 31 V
10 31 V
7 31 V
4 30 V
2 29 V
-1 28 V
-4 27 V
-7 26 V
-10 24 V
-12 24 V
-15 21 V
-18 21 V
-20 18 V
-23 17 V
/Helvetica findfont 210 scalefont setfont
3607 2515 M
-3 2 V
-3 2 V
-3 2 V
-4 1 V
-3 2 V
-4 1 V
-3 1 V
-4 2 V
-3 1 V
-4 0 V
-4 1 V
-3 1 V
-4 0 V
-3 0 V
-4 0 V
-3 0 V
-3 0 V
-4 -1 V
-3 0 V
-3 -1 V
-2 -1 V
-3 -1 V
-2 -1 V
-3 -2 V
-2 -1 V
-2 -2 V
-1 -1 V
-2 -2 V
-1 -2 V
-1 -2 V
-1 -2 V
0 -3 V
-1 -2 V
0 -2 V
0 -3 V
0 -2 V
1 -2 V
1 -3 V
1 -2 V
1 -3 V
2 -3 V
1 -2 V
2 -3 V
2 -2 V
2 -2 V
3 -3 V
2 -2 V
3 -2 V
3542 2469 L
3 -2 V
3 -2 V
3 -2 V
4 -2 V
3 -1 V
4 -2 V
3 -1 V
4 -1 V
4 -1 V
3 -1 V
4 -1 V
3 -1 V
4 0 V
4 0 V
3 0 V
3 0 V
4 0 V
3 0 V
3 1 V
3 0 V
3 1 V
3 1 V
2 1 V
2 2 V
3 1 V
2 2 V
1 1 V
2 2 V
1 2 V
1 2 V
1 2 V
1 2 V
1 2 V
0 3 V
0 2 V
0 2 V
-1 3 V
-1 2 V
0 3 V
-2 2 V
-1 3 V
-1 2 V
-2 3 V
-2 2 V
-2 3 V
-3 2 V
-2 3 V
-3 2 V
-3 2 V
-3 2 V
stroke
1.000 UL
LTb
945 4788 N
945 630 L
5898 0 V
0 4158 V
-5898 0 V
Z stroke
1.000 UP
1.000 UL
LTb
stroke
grestore
end
showpage
%%Trailer
%%DocumentFonts: Helvetica
