%!PS-Adobe-2.0
%%Title: App0_60Co_2_5.ps
%%Creator: gnuplot 4.2 patchlevel 0
%%CreationDate: Fri Jul 25 04:24:40 2008
%%DocumentFonts: (atend)
%%BoundingBox: 50 50 554 770
%%Orientation: Landscape
%%Pages: (atend)
%%EndComments
%%BeginProlog
/gnudict 256 dict def
gnudict begin
%
% The following 6 true/false flags may be edited by hand if required
% The unit line width may also be changed
%
/Color true def
/Blacktext false def
/Solid true def
/Dashlength 1 def
/Landscape true def
/Level1 false def
/Rounded false def
/TransparentPatterns false def
/gnulinewidth 5.000 def
/userlinewidth gnulinewidth def
%
/vshift -46 def
/dl1 {
  10.0 Dashlength mul mul
  Rounded { currentlinewidth 0.75 mul sub dup 0 le { pop 0.01 } if } if
} def
/dl2 {
  10.0 Dashlength mul mul
  Rounded { currentlinewidth 0.75 mul add } if
} def
/hpt_ 31.5 def
/vpt_ 31.5 def
/hpt hpt_ def
/vpt vpt_ def
Level1 {} {
/SDict 10 dict def
systemdict /pdfmark known not {
  userdict /pdfmark systemdict /cleartomark get put
} if
SDict begin [
  /Title (App0_60Co_2_5.ps)
  /Subject (gnuplot plot)
  /Creator (gnuplot 4.2 patchlevel 0)
  /Author (,,,)
%  /Producer (gnuplot)
%  /Keywords ()
  /CreationDate (Fri Jul 25 04:24:40 2008)
  /DOCINFO pdfmark
end
} ifelse
%
% Gnuplot Prolog Version 4.2 (August 2006)
%
/M {moveto} bind def
/L {lineto} bind def
/R {rmoveto} bind def
/V {rlineto} bind def
/N {newpath moveto} bind def
/Z {closepath} bind def
/C {setrgbcolor} bind def
/f {rlineto fill} bind def
/vpt2 vpt 2 mul def
/hpt2 hpt 2 mul def
/Lshow {currentpoint stroke M 0 vshift R 
	Blacktext {gsave 0 setgray show grestore} {show} ifelse} def
/Rshow {currentpoint stroke M dup stringwidth pop neg vshift R
	Blacktext {gsave 0 setgray show grestore} {show} ifelse} def
/Cshow {currentpoint stroke M dup stringwidth pop -2 div vshift R 
	Blacktext {gsave 0 setgray show grestore} {show} ifelse} def
/UP {dup vpt_ mul /vpt exch def hpt_ mul /hpt exch def
  /hpt2 hpt 2 mul def /vpt2 vpt 2 mul def} def
/DL {Color {setrgbcolor Solid {pop []} if 0 setdash}
 {pop pop pop 0 setgray Solid {pop []} if 0 setdash} ifelse} def
/BL {stroke userlinewidth 2 mul setlinewidth
	Rounded {1 setlinejoin 1 setlinecap} if} def
/AL {stroke userlinewidth 2 div setlinewidth
	Rounded {1 setlinejoin 1 setlinecap} if} def
/UL {dup gnulinewidth mul /userlinewidth exch def
	dup 1 lt {pop 1} if 10 mul /udl exch def} def
/PL {stroke userlinewidth setlinewidth
	Rounded {1 setlinejoin 1 setlinecap} if} def
% Default Line colors
/LCw {1 1 1} def
/LCb {0 0 0} def
/LCa {0 0 0} def
/LC0 {1 0 0} def
/LC1 {0 1 0} def
/LC2 {0 0 1} def
/LC3 {1 0 1} def
/LC4 {0 1 1} def
/LC5 {1 1 0} def
/LC6 {0 0 0} def
/LC7 {1 0.3 0} def
/LC8 {0.5 0.5 0.5} def
% Default Line Types
/LTw {PL [] 1 setgray} def
/LTb {BL [] LCb DL} def
/LTa {AL [1 udl mul 2 udl mul] 0 setdash LCa setrgbcolor} def
/LT0 {PL [] LC0 DL} def
/LT1 {PL [4 dl1 2 dl2] LC1 DL} def
/LT2 {PL [2 dl1 3 dl2] LC2 DL} def
/LT3 {PL [1 dl1 1.5 dl2] LC3 DL} def
/LT4 {PL [6 dl1 2 dl2 1 dl1 2 dl2] LC4 DL} def
/LT5 {PL [3 dl1 3 dl2 1 dl1 3 dl2] LC5 DL} def
/LT6 {PL [2 dl1 2 dl2 2 dl1 6 dl2] LC6 DL} def
/LT7 {PL [1 dl1 2 dl2 6 dl1 2 dl2 1 dl1 2 dl2] LC7 DL} def
/LT8 {PL [2 dl1 2 dl2 2 dl1 2 dl2 2 dl1 2 dl2 2 dl1 4 dl2] LC8 DL} def
/Pnt {stroke [] 0 setdash gsave 1 setlinecap M 0 0 V stroke grestore} def
/Dia {stroke [] 0 setdash 2 copy vpt add M
  hpt neg vpt neg V hpt vpt neg V
  hpt vpt V hpt neg vpt V closepath stroke
  Pnt} def
/Pls {stroke [] 0 setdash vpt sub M 0 vpt2 V
  currentpoint stroke M
  hpt neg vpt neg R hpt2 0 V stroke
 } def
/Box {stroke [] 0 setdash 2 copy exch hpt sub exch vpt add M
  0 vpt2 neg V hpt2 0 V 0 vpt2 V
  hpt2 neg 0 V closepath stroke
  Pnt} def
/Crs {stroke [] 0 setdash exch hpt sub exch vpt add M
  hpt2 vpt2 neg V currentpoint stroke M
  hpt2 neg 0 R hpt2 vpt2 V stroke} def
/TriU {stroke [] 0 setdash 2 copy vpt 1.12 mul add M
  hpt neg vpt -1.62 mul V
  hpt 2 mul 0 V
  hpt neg vpt 1.62 mul V closepath stroke
  Pnt} def
/Star {2 copy Pls Crs} def
/BoxF {stroke [] 0 setdash exch hpt sub exch vpt add M
  0 vpt2 neg V hpt2 0 V 0 vpt2 V
  hpt2 neg 0 V closepath fill} def
/TriUF {stroke [] 0 setdash vpt 1.12 mul add M
  hpt neg vpt -1.62 mul V
  hpt 2 mul 0 V
  hpt neg vpt 1.62 mul V closepath fill} def
/TriD {stroke [] 0 setdash 2 copy vpt 1.12 mul sub M
  hpt neg vpt 1.62 mul V
  hpt 2 mul 0 V
  hpt neg vpt -1.62 mul V closepath stroke
  Pnt} def
/TriDF {stroke [] 0 setdash vpt 1.12 mul sub M
  hpt neg vpt 1.62 mul V
  hpt 2 mul 0 V
  hpt neg vpt -1.62 mul V closepath fill} def
/DiaF {stroke [] 0 setdash vpt add M
  hpt neg vpt neg V hpt vpt neg V
  hpt vpt V hpt neg vpt V closepath fill} def
/Pent {stroke [] 0 setdash 2 copy gsave
  translate 0 hpt M 4 {72 rotate 0 hpt L} repeat
  closepath stroke grestore Pnt} def
/PentF {stroke [] 0 setdash gsave
  translate 0 hpt M 4 {72 rotate 0 hpt L} repeat
  closepath fill grestore} def
/Circle {stroke [] 0 setdash 2 copy
  hpt 0 360 arc stroke Pnt} def
/CircleF {stroke [] 0 setdash hpt 0 360 arc fill} def
/C0 {BL [] 0 setdash 2 copy moveto vpt 90 450 arc} bind def
/C1 {BL [] 0 setdash 2 copy moveto
	2 copy vpt 0 90 arc closepath fill
	vpt 0 360 arc closepath} bind def
/C2 {BL [] 0 setdash 2 copy moveto
	2 copy vpt 90 180 arc closepath fill
	vpt 0 360 arc closepath} bind def
/C3 {BL [] 0 setdash 2 copy moveto
	2 copy vpt 0 180 arc closepath fill
	vpt 0 360 arc closepath} bind def
/C4 {BL [] 0 setdash 2 copy moveto
	2 copy vpt 180 270 arc closepath fill
	vpt 0 360 arc closepath} bind def
/C5 {BL [] 0 setdash 2 copy moveto
	2 copy vpt 0 90 arc
	2 copy moveto
	2 copy vpt 180 270 arc closepath fill
	vpt 0 360 arc} bind def
/C6 {BL [] 0 setdash 2 copy moveto
	2 copy vpt 90 270 arc closepath fill
	vpt 0 360 arc closepath} bind def
/C7 {BL [] 0 setdash 2 copy moveto
	2 copy vpt 0 270 arc closepath fill
	vpt 0 360 arc closepath} bind def
/C8 {BL [] 0 setdash 2 copy moveto
	2 copy vpt 270 360 arc closepath fill
	vpt 0 360 arc closepath} bind def
/C9 {BL [] 0 setdash 2 copy moveto
	2 copy vpt 270 450 arc closepath fill
	vpt 0 360 arc closepath} bind def
/C10 {BL [] 0 setdash 2 copy 2 copy moveto vpt 270 360 arc closepath fill
	2 copy moveto
	2 copy vpt 90 180 arc closepath fill
	vpt 0 360 arc closepath} bind def
/C11 {BL [] 0 setdash 2 copy moveto
	2 copy vpt 0 180 arc closepath fill
	2 copy moveto
	2 copy vpt 270 360 arc closepath fill
	vpt 0 360 arc closepath} bind def
/C12 {BL [] 0 setdash 2 copy moveto
	2 copy vpt 180 360 arc closepath fill
	vpt 0 360 arc closepath} bind def
/C13 {BL [] 0 setdash 2 copy moveto
	2 copy vpt 0 90 arc closepath fill
	2 copy moveto
	2 copy vpt 180 360 arc closepath fill
	vpt 0 360 arc closepath} bind def
/C14 {BL [] 0 setdash 2 copy moveto
	2 copy vpt 90 360 arc closepath fill
	vpt 0 360 arc} bind def
/C15 {BL [] 0 setdash 2 copy vpt 0 360 arc closepath fill
	vpt 0 360 arc closepath} bind def
/Rec {newpath 4 2 roll moveto 1 index 0 rlineto 0 exch rlineto
	neg 0 rlineto closepath} bind def
/Square {dup Rec} bind def
/Bsquare {vpt sub exch vpt sub exch vpt2 Square} bind def
/S0 {BL [] 0 setdash 2 copy moveto 0 vpt rlineto BL Bsquare} bind def
/S1 {BL [] 0 setdash 2 copy vpt Square fill Bsquare} bind def
/S2 {BL [] 0 setdash 2 copy exch vpt sub exch vpt Square fill Bsquare} bind def
/S3 {BL [] 0 setdash 2 copy exch vpt sub exch vpt2 vpt Rec fill Bsquare} bind def
/S4 {BL [] 0 setdash 2 copy exch vpt sub exch vpt sub vpt Square fill Bsquare} bind def
/S5 {BL [] 0 setdash 2 copy 2 copy vpt Square fill
	exch vpt sub exch vpt sub vpt Square fill Bsquare} bind def
/S6 {BL [] 0 setdash 2 copy exch vpt sub exch vpt sub vpt vpt2 Rec fill Bsquare} bind def
/S7 {BL [] 0 setdash 2 copy exch vpt sub exch vpt sub vpt vpt2 Rec fill
	2 copy vpt Square fill Bsquare} bind def
/S8 {BL [] 0 setdash 2 copy vpt sub vpt Square fill Bsquare} bind def
/S9 {BL [] 0 setdash 2 copy vpt sub vpt vpt2 Rec fill Bsquare} bind def
/S10 {BL [] 0 setdash 2 copy vpt sub vpt Square fill 2 copy exch vpt sub exch vpt Square fill
	Bsquare} bind def
/S11 {BL [] 0 setdash 2 copy vpt sub vpt Square fill 2 copy exch vpt sub exch vpt2 vpt Rec fill
	Bsquare} bind def
/S12 {BL [] 0 setdash 2 copy exch vpt sub exch vpt sub vpt2 vpt Rec fill Bsquare} bind def
/S13 {BL [] 0 setdash 2 copy exch vpt sub exch vpt sub vpt2 vpt Rec fill
	2 copy vpt Square fill Bsquare} bind def
/S14 {BL [] 0 setdash 2 copy exch vpt sub exch vpt sub vpt2 vpt Rec fill
	2 copy exch vpt sub exch vpt Square fill Bsquare} bind def
/S15 {BL [] 0 setdash 2 copy Bsquare fill Bsquare} bind def
/D0 {gsave translate 45 rotate 0 0 S0 stroke grestore} bind def
/D1 {gsave translate 45 rotate 0 0 S1 stroke grestore} bind def
/D2 {gsave translate 45 rotate 0 0 S2 stroke grestore} bind def
/D3 {gsave translate 45 rotate 0 0 S3 stroke grestore} bind def
/D4 {gsave translate 45 rotate 0 0 S4 stroke grestore} bind def
/D5 {gsave translate 45 rotate 0 0 S5 stroke grestore} bind def
/D6 {gsave translate 45 rotate 0 0 S6 stroke grestore} bind def
/D7 {gsave translate 45 rotate 0 0 S7 stroke grestore} bind def
/D8 {gsave translate 45 rotate 0 0 S8 stroke grestore} bind def
/D9 {gsave translate 45 rotate 0 0 S9 stroke grestore} bind def
/D10 {gsave translate 45 rotate 0 0 S10 stroke grestore} bind def
/D11 {gsave translate 45 rotate 0 0 S11 stroke grestore} bind def
/D12 {gsave translate 45 rotate 0 0 S12 stroke grestore} bind def
/D13 {gsave translate 45 rotate 0 0 S13 stroke grestore} bind def
/D14 {gsave translate 45 rotate 0 0 S14 stroke grestore} bind def
/D15 {gsave translate 45 rotate 0 0 S15 stroke grestore} bind def
/DiaE {stroke [] 0 setdash vpt add M
  hpt neg vpt neg V hpt vpt neg V
  hpt vpt V hpt neg vpt V closepath stroke} def
/BoxE {stroke [] 0 setdash exch hpt sub exch vpt add M
  0 vpt2 neg V hpt2 0 V 0 vpt2 V
  hpt2 neg 0 V closepath stroke} def
/TriUE {stroke [] 0 setdash vpt 1.12 mul add M
  hpt neg vpt -1.62 mul V
  hpt 2 mul 0 V
  hpt neg vpt 1.62 mul V closepath stroke} def
/TriDE {stroke [] 0 setdash vpt 1.12 mul sub M
  hpt neg vpt 1.62 mul V
  hpt 2 mul 0 V
  hpt neg vpt -1.62 mul V closepath stroke} def
/PentE {stroke [] 0 setdash gsave
  translate 0 hpt M 4 {72 rotate 0 hpt L} repeat
  closepath stroke grestore} def
/CircE {stroke [] 0 setdash 
  hpt 0 360 arc stroke} def
/Opaque {gsave closepath 1 setgray fill grestore 0 setgray closepath} def
/DiaW {stroke [] 0 setdash vpt add M
  hpt neg vpt neg V hpt vpt neg V
  hpt vpt V hpt neg vpt V Opaque stroke} def
/BoxW {stroke [] 0 setdash exch hpt sub exch vpt add M
  0 vpt2 neg V hpt2 0 V 0 vpt2 V
  hpt2 neg 0 V Opaque stroke} def
/TriUW {stroke [] 0 setdash vpt 1.12 mul add M
  hpt neg vpt -1.62 mul V
  hpt 2 mul 0 V
  hpt neg vpt 1.62 mul V Opaque stroke} def
/TriDW {stroke [] 0 setdash vpt 1.12 mul sub M
  hpt neg vpt 1.62 mul V
  hpt 2 mul 0 V
  hpt neg vpt -1.62 mul V Opaque stroke} def
/PentW {stroke [] 0 setdash gsave
  translate 0 hpt M 4 {72 rotate 0 hpt L} repeat
  Opaque stroke grestore} def
/CircW {stroke [] 0 setdash 
  hpt 0 360 arc Opaque stroke} def
/BoxFill {gsave Rec 1 setgray fill grestore} def
/Density {
  /Fillden exch def
  currentrgbcolor
  /ColB exch def /ColG exch def /ColR exch def
  /ColR ColR Fillden mul Fillden sub 1 add def
  /ColG ColG Fillden mul Fillden sub 1 add def
  /ColB ColB Fillden mul Fillden sub 1 add def
  ColR ColG ColB setrgbcolor} def
/BoxColFill {gsave Rec PolyFill} def
/PolyFill {gsave Density fill grestore grestore} def
/h {rlineto rlineto rlineto gsave fill grestore} bind def
%
% PostScript Level 1 Pattern Fill routine for rectangles
% Usage: x y w h s a XX PatternFill
%	x,y = lower left corner of box to be filled
%	w,h = width and height of box
%	  a = angle in degrees between lines and x-axis
%	 XX = 0/1 for no/yes cross-hatch
%
/PatternFill {gsave /PFa [ 9 2 roll ] def
  PFa 0 get PFa 2 get 2 div add PFa 1 get PFa 3 get 2 div add translate
  PFa 2 get -2 div PFa 3 get -2 div PFa 2 get PFa 3 get Rec
  gsave 1 setgray fill grestore clip
  currentlinewidth 0.5 mul setlinewidth
  /PFs PFa 2 get dup mul PFa 3 get dup mul add sqrt def
  0 0 M PFa 5 get rotate PFs -2 div dup translate
  0 1 PFs PFa 4 get div 1 add floor cvi
	{PFa 4 get mul 0 M 0 PFs V} for
  0 PFa 6 get ne {
	0 1 PFs PFa 4 get div 1 add floor cvi
	{PFa 4 get mul 0 2 1 roll M PFs 0 V} for
 } if
  stroke grestore} def
%
/languagelevel where
 {pop languagelevel} {1} ifelse
 2 lt
	{/InterpretLevel1 true def}
	{/InterpretLevel1 Level1 def}
 ifelse
%
% PostScript level 2 pattern fill definitions
%
/Level2PatternFill {
/Tile8x8 {/PaintType 2 /PatternType 1 /TilingType 1 /BBox [0 0 8 8] /XStep 8 /YStep 8}
	bind def
/KeepColor {currentrgbcolor [/Pattern /DeviceRGB] setcolorspace} bind def
<< Tile8x8
 /PaintProc {0.5 setlinewidth pop 0 0 M 8 8 L 0 8 M 8 0 L stroke} 
>> matrix makepattern
/Pat1 exch def
<< Tile8x8
 /PaintProc {0.5 setlinewidth pop 0 0 M 8 8 L 0 8 M 8 0 L stroke
	0 4 M 4 8 L 8 4 L 4 0 L 0 4 L stroke}
>> matrix makepattern
/Pat2 exch def
<< Tile8x8
 /PaintProc {0.5 setlinewidth pop 0 0 M 0 8 L
	8 8 L 8 0 L 0 0 L fill}
>> matrix makepattern
/Pat3 exch def
<< Tile8x8
 /PaintProc {0.5 setlinewidth pop -4 8 M 8 -4 L
	0 12 M 12 0 L stroke}
>> matrix makepattern
/Pat4 exch def
<< Tile8x8
 /PaintProc {0.5 setlinewidth pop -4 0 M 8 12 L
	0 -4 M 12 8 L stroke}
>> matrix makepattern
/Pat5 exch def
<< Tile8x8
 /PaintProc {0.5 setlinewidth pop -2 8 M 4 -4 L
	0 12 M 8 -4 L 4 12 M 10 0 L stroke}
>> matrix makepattern
/Pat6 exch def
<< Tile8x8
 /PaintProc {0.5 setlinewidth pop -2 0 M 4 12 L
	0 -4 M 8 12 L 4 -4 M 10 8 L stroke}
>> matrix makepattern
/Pat7 exch def
<< Tile8x8
 /PaintProc {0.5 setlinewidth pop 8 -2 M -4 4 L
	12 0 M -4 8 L 12 4 M 0 10 L stroke}
>> matrix makepattern
/Pat8 exch def
<< Tile8x8
 /PaintProc {0.5 setlinewidth pop 0 -2 M 12 4 L
	-4 0 M 12 8 L -4 4 M 8 10 L stroke}
>> matrix makepattern
/Pat9 exch def
/Pattern1 {PatternBgnd KeepColor Pat1 setpattern} bind def
/Pattern2 {PatternBgnd KeepColor Pat2 setpattern} bind def
/Pattern3 {PatternBgnd KeepColor Pat3 setpattern} bind def
/Pattern4 {PatternBgnd KeepColor Landscape {Pat5} {Pat4} ifelse setpattern} bind def
/Pattern5 {PatternBgnd KeepColor Landscape {Pat4} {Pat5} ifelse setpattern} bind def
/Pattern6 {PatternBgnd KeepColor Landscape {Pat9} {Pat6} ifelse setpattern} bind def
/Pattern7 {PatternBgnd KeepColor Landscape {Pat8} {Pat7} ifelse setpattern} bind def
} def
%
%
%End of PostScript Level 2 code
%
/PatternBgnd {
  TransparentPatterns {} {gsave 1 setgray fill grestore} ifelse
} def
%
% Substitute for Level 2 pattern fill codes with
% grayscale if Level 2 support is not selected.
%
/Level1PatternFill {
/Pattern1 {0.250 Density} bind def
/Pattern2 {0.500 Density} bind def
/Pattern3 {0.750 Density} bind def
/Pattern4 {0.125 Density} bind def
/Pattern5 {0.375 Density} bind def
/Pattern6 {0.625 Density} bind def
/Pattern7 {0.875 Density} bind def
} def
%
% Now test for support of Level 2 code
%
Level1 {Level1PatternFill} {Level2PatternFill} ifelse
%
/Symbol-Oblique /Symbol findfont [1 0 .167 1 0 0] makefont
dup length dict begin {1 index /FID eq {pop pop} {def} ifelse} forall
currentdict end definefont pop
end
%%EndProlog
%%Page: 1 1
gnudict begin
gsave
50 50 translate
0.100 0.100 scale
90 rotate
0 -5040 translate
0 setgray
newpath
(Helvetica) findfont 140 scalefont setfont
1.000 UL
LTb
546 420 M
63 0 V
6353 0 R
-63 0 V
462 420 M
( 2) Rshow
1.000 UL
LTb
546 1056 M
63 0 V
6353 0 R
-63 0 V
-6437 0 R
( 3) Rshow
1.000 UL
LTb
546 1692 M
63 0 V
6353 0 R
-63 0 V
-6437 0 R
( 4) Rshow
1.000 UL
LTb
546 2328 M
63 0 V
6353 0 R
-63 0 V
-6437 0 R
( 5) Rshow
1.000 UL
LTb
546 2964 M
63 0 V
6353 0 R
-63 0 V
-6437 0 R
( 6) Rshow
1.000 UL
LTb
546 3600 M
63 0 V
6353 0 R
-63 0 V
-6437 0 R
( 7) Rshow
1.000 UL
LTb
546 4236 M
63 0 V
6353 0 R
-63 0 V
-6437 0 R
( 8) Rshow
1.000 UL
LTb
546 4872 M
63 0 V
6353 0 R
-63 0 V
-6437 0 R
( 9) Rshow
1.000 UL
LTb
546 420 M
0 63 V
0 4389 R
0 -63 V
546 280 M
( 2) Cshow
1.000 UL
LTb
1348 420 M
0 63 V
0 4389 R
0 -63 V
0 -4529 R
( 3) Cshow
1.000 UL
LTb
2150 420 M
0 63 V
0 4389 R
0 -63 V
0 -4529 R
( 4) Cshow
1.000 UL
LTb
2952 420 M
0 63 V
0 4389 R
0 -63 V
0 -4529 R
( 5) Cshow
1.000 UL
LTb
3754 420 M
0 63 V
0 4389 R
0 -63 V
0 -4529 R
( 6) Cshow
1.000 UL
LTb
4556 420 M
0 63 V
0 4389 R
0 -63 V
0 -4529 R
( 7) Cshow
1.000 UL
LTb
5358 420 M
0 63 V
0 4389 R
0 -63 V
0 -4529 R
( 8) Cshow
1.000 UL
LTb
6160 420 M
0 63 V
0 4389 R
0 -63 V
0 -4529 R
( 9) Cshow
1.000 UL
LTb
6962 420 M
0 63 V
0 4389 R
0 -63 V
0 -4529 R
( 10) Cshow
1.000 UL
LTb
1.000 UL
LTb
546 4872 N
546 420 L
6416 0 V
0 4452 V
-6416 0 V
Z stroke
LCb setrgbcolor
140 2646 M
currentpoint gsave translate 90 rotate 0 0 M
(H \(MeV\)) Cshow
grestore
LTb
LCb setrgbcolor
3754 70 M
(k) Cshow
LTb
1.000 UP
1.000 UL
LTb
2.000 UP
1.000 UL
LT2
/Helvetica findfont 140 scalefont setfont
3754 4104 M
3011 3600 L
-59 -36 V
2214 2964 L
-64 -111 V
1577 2328 L
-41 -636 V
13 -636 V
2150 909 L
418 147 V
384 44 V
802 107 V
802 444 V
56 41 V
746 446 V
262 190 V
540 543 V
117 93 V
-117 239 V
-103 397 V
-699 376 V
-802 135 V
-802 -7 V
0 -136 R
3211 3600 L
2952 3441 L
2365 2964 L
2150 2593 L
1861 2328 L
14 -636 V
275 -331 V
802 -74 V
802 205 V
344 200 V
458 175 V
637 461 V
165 233 V
448 403 V
-232 636 V
-216 116 V
-802 271 V
-802 -19 V
0 -135 R
3410 3600 L
2952 3318 L
2516 2964 L
2150 2334 L
-6 -6 V
6 -64 V
113 -572 V
689 -219 V
639 219 V
163 38 V
802 324 V
379 274 V
423 597 V
43 39 V
-43 103 V
-167 533 V
-635 262 V
-802 -29 V
0 -132 R
3605 3600 L
2952 3199 L
2663 2964 L
2300 2328 L
539 -636 V
113 -36 V
105 36 V
697 161 V
802 384 V
126 91 V
522 636 V
-308 636 V
-340 140 V
-802 -39 V
802 -85 R
-267 -16 V
-535 -31 V
2952 3076 L
2814 2964 L
2457 2328 L
495 -506 V
802 157 V
677 349 V
125 102 V
471 534 V
-433 636 V
-38 16 V
3754 3447 M
2969 2964 L
-17 -24 V
2614 2328 L
338 -345 V
802 122 V
432 223 V
370 303 V
294 333 V
-294 417 V
-802 66 V
0 -120 R
3163 2964 L
2952 2661 L
2768 2328 L
184 -188 V
802 89 V
193 99 V
609 499 V
120 137 V
-120 171 V
-802 192 V
0 -122 R
3361 2964 L
2952 2376 L
-27 -48 V
27 -27 V
356 27 V
446 62 V
691 574 V
-691 241 V
0 -122 R
3560 2964 L
194 -284 V
342 284 V
-342 119 V
3754 4104 Star
3011 3600 Star
2952 3564 Star
2214 2964 Star
2150 2853 Star
1577 2328 Star
1536 1692 Star
1549 1056 Star
2150 909 Star
2568 1056 Star
2952 1100 Star
3754 1207 Star
4556 1651 Star
4612 1692 Star
5358 2138 Star
5620 2328 Star
6160 2871 Star
6277 2964 Star
6160 3203 Star
6057 3600 Star
5358 3976 Star
4556 4111 Star
3754 4104 Star
3754 3968 Star
3211 3600 Star
2952 3441 Star
2365 2964 Star
2150 2593 Star
1861 2328 Star
1875 1692 Star
2150 1361 Star
2952 1287 Star
3754 1492 Star
4098 1692 Star
4556 1867 Star
5193 2328 Star
5358 2561 Star
5806 2964 Star
5574 3600 Star
5358 3716 Star
4556 3987 Star
3754 3968 Star
3754 3833 Star
3410 3600 Star
2952 3318 Star
2516 2964 Star
2150 2334 Star
2144 2328 Star
2150 2264 Star
2263 1692 Star
2952 1473 Star
3591 1692 Star
3754 1730 Star
4556 2054 Star
4935 2328 Star
5358 2925 Star
5401 2964 Star
5358 3067 Star
5191 3600 Star
4556 3862 Star
3754 3833 Star
3754 3701 Star
3605 3600 Star
2952 3199 Star
2663 2964 Star
2300 2328 Star
2839 1692 Star
2952 1656 Star
3057 1692 Star
3754 1853 Star
4556 2237 Star
4682 2328 Star
5204 2964 Star
4896 3600 Star
4556 3740 Star
3754 3701 Star
4556 3616 Star
4289 3600 Star
3754 3569 Star
2952 3076 Star
2814 2964 Star
2457 2328 Star
2952 1822 Star
3754 1979 Star
4431 2328 Star
4556 2430 Star
5027 2964 Star
4594 3600 Star
4556 3616 Star
3754 3447 Star
2969 2964 Star
2952 2940 Star
2614 2328 Star
2952 1983 Star
3754 2105 Star
4186 2328 Star
4556 2631 Star
4850 2964 Star
4556 3381 Star
3754 3447 Star
3754 3327 Star
3163 2964 Star
2952 2661 Star
2768 2328 Star
2952 2140 Star
3754 2229 Star
3947 2328 Star
4556 2827 Star
4676 2964 Star
4556 3135 Star
3754 3327 Star
3754 3205 Star
3361 2964 Star
2952 2376 Star
2925 2328 Star
2952 2301 Star
3308 2328 Star
3754 2390 Star
4445 2964 Star
3754 3205 Star
3754 3083 Star
3560 2964 Star
3754 2680 Star
4096 2964 Star
3754 3083 Star
1.000 UL
LT0
/Helvetica findfont 140 scalefont setfont
6195 3913 M
-69 64 V
-78 58 V
-87 52 V
-96 46 V
-103 38 V
-112 33 V
-118 25 V
-125 18 V
-132 11 V
-137 5 V
-142 -3 V
-147 -10 V
-151 -17 V
-154 -24 V
-157 -31 V
-159 -38 V
-161 -44 V
-161 -51 V
-162 -57 V
-161 -63 V
-160 -69 V
-158 -74 V
-156 -79 V
-153 -84 V
-149 -89 V
-145 -93 V
-141 -97 V
2387 3240 L
2258 3137 L
2135 3032 L
2020 2924 L
1912 2815 L
1811 2704 L
-92 -112 V
-83 -112 V
-75 -111 V
-65 -112 V
-56 -110 V
-46 -109 V
-36 -107 V
-26 -105 V
-16 -102 V
-5 -99 V
5 -95 V
14 -92 V
26 -87 V
35 -83 V
45 -78 V
55 -72 V
64 -67 V
74 -61 V
82 -55 V
92 -49 V
99 -42 V
108 -35 V
115 -29 V
121 -22 V
129 -15 V
134 -7 V
140 -1 V
144 6 V
149 14 V
153 21 V
156 27 V
158 34 V
160 41 V
161 48 V
161 54 V
162 60 V
161 66 V
159 71 V
157 77 V
155 82 V
151 86 V
147 91 V
143 95 V
137 98 V
132 102 V
126 104 V
119 107 V
112 109 V
104 110 V
96 111 V
88 112 V
79 112 V
70 111 V
61 111 V
50 110 V
41 108 V
32 106 V
20 103 V
11 101 V
1 97 V
-10 94 V
-20 89 V
-30 85 V
-40 80 V
-50 76 V
-60 69 V
/Helvetica findfont 140 scalefont setfont
5487 3782 M
-56 48 V
-63 43 V
-69 38 V
-75 32 V
-82 28 V
-87 22 V
-92 16 V
-97 11 V
-102 6 V
-105 0 V
-110 -6 V
-112 -11 V
-116 -17 V
-117 -22 V
-120 -28 V
-120 -33 V
-122 -38 V
-122 -43 V
-122 -48 V
-121 -52 V
-120 -57 V
-119 -61 V
-116 -65 V
-114 -69 V
-111 -72 V
-108 -75 V
-103 -77 V
-100 -81 V
-94 -82 V
-90 -85 V
-84 -85 V
-78 -87 V
-73 -88 V
-66 -88 V
-59 -89 V
-52 -88 V
-46 -87 V
1906 2306 L
-30 -85 V
-23 -84 V
-16 -81 V
-7 -79 V
0 -76 V
7 -74 V
16 -70 V
23 -67 V
31 -62 V
38 -59 V
45 -55 V
53 -50 V
59 -45 V
66 -40 V
72 -35 V
79 -30 V
84 -25 V
90 -20 V
94 -13 V
100 -9 V
104 -2 V
107 3 V
111 8 V
114 14 V
117 20 V
118 25 V
120 30 V
122 36 V
121 40 V
122 46 V
122 50 V
121 54 V
119 59 V
118 63 V
115 67 V
113 70 V
109 74 V
106 76 V
101 80 V
97 81 V
92 84 V
87 85 V
82 86 V
75 87 V
69 88 V
63 89 V
56 88 V
48 88 V
42 86 V
34 86 V
27 84 V
20 83 V
11 80 V
4 78 V
-4 75 V
-12 72 V
-19 68 V
-27 65 V
-34 61 V
-42 56 V
-49 52 V
/Helvetica findfont 140 scalefont setfont
5170 3655 M
-50 41 V
-55 37 V
-61 33 V
-66 28 V
-71 24 V
-75 19 V
-80 14 V
-84 10 V
-87 5 V
-90 0 V
-94 -5 V
-96 -9 V
-98 -14 V
-101 -20 V
-101 -23 V
-102 -28 V
-103 -33 V
-103 -37 V
-103 -41 V
-102 -45 V
-101 -49 V
-100 -52 V
-98 -56 V
-95 -59 V
-92 -62 V
-90 -65 V
-86 -67 V
-82 -69 V
-79 -71 V
-74 -72 V
-69 -74 V
-64 -75 V
-59 -76 V
-53 -76 V
-48 -76 V
-42 -75 V
-35 -76 V
-30 -74 V
-23 -73 V
-17 -72 V
-10 -71 V
-4 -68 V
2100 2037 L
9 -63 V
16 -61 V
22 -57 V
29 -54 V
34 -51 V
41 -47 V
47 -43 V
53 -39 V
58 -35 V
63 -31 V
68 -26 V
73 -22 V
78 -16 V
82 -12 V
85 -8 V
89 -2 V
92 2 V
95 7 V
98 12 V
99 17 V
101 21 V
102 26 V
102 31 V
103 34 V
103 39 V
103 43 V
102 47 V
100 51 V
98 54 V
97 58 V
94 60 V
91 63 V
88 66 V
84 68 V
81 70 V
76 72 V
71 74 V
67 74 V
61 75 V
57 76 V
50 76 V
45 76 V
39 76 V
32 75 V
27 73 V
20 73 V
13 71 V
7 69 V
1 67 V
-6 65 V
-13 62 V
-19 59 V
-25 56 V
-32 53 V
-38 49 V
-43 45 V
/Helvetica findfont 140 scalefont setfont
-236 -89 R
-44 36 V
-50 31 V
-54 28 V
-58 24 V
-63 19 V
-66 16 V
-70 12 V
-74 7 V
-76 3 V
-79 -1 V
-82 -6 V
-84 -10 V
-85 -14 V
-87 -18 V
-88 -22 V
-89 -26 V
-89 -30 V
-89 -34 V
-88 -37 V
-88 -41 V
-87 -44 V
-86 -48 V
-83 -50 V
-82 -53 V
-79 -55 V
-76 -58 V
-74 -60 V
-69 -62 V
-67 -63 V
-62 -64 V
-58 -66 V
-54 -67 V
-50 -66 V
-44 -68 V
-39 -67 V
-35 -67 V
-29 -66 V
-23 -66 V
-19 -64 V
-12 -63 V
-7 -62 V
-1 -59 V
4 -58 V
10 -55 V
15 -53 V
21 -50 V
27 -47 V
2404 1858 L
37 -40 V
42 -38 V
47 -33 V
52 -30 V
56 -25 V
61 -22 V
64 -18 V
68 -14 V
72 -9 V
75 -5 V
78 -1 V
81 3 V
82 8 V
85 12 V
86 16 V
88 20 V
88 24 V
89 28 V
89 32 V
89 36 V
88 39 V
88 43 V
86 45 V
84 49 V
83 52 V
80 54 V
78 57 V
75 59 V
72 60 V
68 63 V
64 64 V
61 65 V
56 66 V
51 67 V
47 67 V
42 67 V
37 67 V
32 67 V
26 66 V
21 65 V
15 64 V
10 62 V
4 61 V
-1 58 V
-7 57 V
-13 54 V
-18 51 V
-24 49 V
-29 45 V
-35 42 V
-40 39 V
/Helvetica findfont 140 scalefont setfont
43 119 R
-40 31 V
-45 27 V
-49 24 V
-53 21 V
-57 17 V
-60 12 V
-64 9 V
-67 6 V
-70 1 V
-72 -3 V
-74 -7 V
-77 -10 V
-78 -15 V
-79 -18 V
-80 -22 V
-81 -25 V
-82 -30 V
-81 -32 V
-81 -36 V
-80 -39 V
-80 -42 V
-78 -44 V
-77 -48 V
-74 -50 V
-73 -52 V
-70 -54 V
-67 -55 V
-64 -58 V
-61 -59 V
-57 -60 V
-54 -60 V
-49 -62 V
-45 -62 V
-41 -62 V
-37 -62 V
-32 -61 V
-26 -61 V
-22 -60 V
-17 -59 V
-12 -57 V
-7 -56 V
-2 -55 V
4 -52 V
9 -50 V
14 -48 V
18 -45 V
24 -42 V
29 -39 V
34 -36 V
38 -33 V
42 -29 V
47 -26 V
2873 1935 L
55 -19 V
58 -15 V
62 -11 V
66 -7 V
68 -3 V
71 1 V
73 5 V
76 8 V
77 13 V
79 16 V
79 20 V
81 24 V
81 27 V
82 31 V
81 34 V
81 38 V
80 40 V
78 43 V
78 46 V
76 49 V
73 51 V
71 53 V
69 55 V
66 57 V
62 58 V
59 59 V
56 61 V
51 61 V
48 62 V
43 61 V
39 62 V
34 62 V
29 61 V
24 61 V
20 59 V
14 59 V
10 56 V
4 56 V
-1 53 V
-6 51 V
-12 49 V
-16 46 V
-21 44 V
-27 40 V
-31 38 V
-36 35 V
/Helvetica findfont 140 scalefont setfont
4599 3343 M
-34 27 V
-36 23 V
-40 21 V
-44 18 V
-46 15 V
-49 13 V
-51 9 V
-54 6 V
-56 3 V
-58 -1 V
-59 -3 V
-61 -6 V
-62 -10 V
-63 -12 V
-64 -15 V
-64 -19 V
-65 -21 V
-64 -24 V
-64 -26 V
-63 -30 V
-63 -31 V
-61 -34 V
-60 -36 V
-59 -38 V
-56 -40 V
-55 -42 V
-52 -43 V
-50 -44 V
-47 -46 V
-44 -47 V
-42 -47 V
-37 -49 V
-35 -48 V
-31 -49 V
-27 -49 V
-24 -49 V
-20 -48 V
-16 -48 V
-12 -47 V
-8 -46 V
-3 -45 V
0 -44 V
4 -42 V
9 -41 V
12 -39 V
17 -37 V
20 -35 V
25 -32 V
27 -30 V
32 -28 V
35 -25 V
39 -22 V
41 -20 V
45 -16 V
47 -14 V
51 -10 V
52 -8 V
3211 1938 L
57 -2 V
59 2 V
60 5 V
62 8 V
62 10 V
64 14 V
64 17 V
64 20 V
65 23 V
64 25 V
63 28 V
63 30 V
62 33 V
61 35 V
59 37 V
58 39 V
56 41 V
53 42 V
51 44 V
49 45 V
45 46 V
43 48 V
40 48 V
36 48 V
33 49 V
29 49 V
25 49 V
22 48 V
18 48 V
14 48 V
10 47 V
6 45 V
1 45 V
-2 43 V
-7 41 V
-10 40 V
-14 38 V
-19 36 V
-22 33 V
-26 32 V
-30 28 V
/Helvetica findfont 140 scalefont setfont
4465 3239 M
-28 22 V
-31 20 V
-34 17 V
-36 15 V
-39 13 V
-42 9 V
-43 8 V
-46 4 V
-48 2 V
-49 -1 V
-51 -3 V
-51 -6 V
-53 -9 V
-54 -11 V
-55 -14 V
-54 -16 V
-55 -18 V
-55 -21 V
-55 -23 V
-54 -26 V
-53 -27 V
-53 -30 V
-51 -31 V
-50 -33 V
-49 -34 V
-47 -36 V
-44 -37 V
-43 -38 V
-41 -40 V
-38 -40 V
-35 -41 V
-33 -41 V
-29 -42 V
-27 -41 V
-24 -42 V
-20 -42 V
-18 -41 V
-14 -41 V
-10 -40 V
-7 -39 V
-4 -38 V
0 -38 V
4 -35 V
6 -35 V
11 -33 V
13 -31 V
17 -29 V
21 -27 V
23 -26 V
27 -23 V
30 -21 V
32 -18 V
35 -16 V
38 -14 V
40 -11 V
43 -9 V
45 -5 V
46 -4 V
49 0 V
50 2 V
51 4 V
52 8 V
3529 2056 L
54 12 V
55 15 V
54 17 V
55 20 V
55 22 V
55 25 V
53 26 V
53 28 V
52 31 V
51 32 V
49 33 V
48 36 V
46 36 V
44 38 V
41 39 V
40 39 V
36 41 V
34 41 V
32 41 V
28 42 V
25 42 V
22 42 V
19 41 V
16 41 V
12 41 V
9 39 V
5 39 V
2 38 V
-2 36 V
-5 36 V
-8 33 V
-12 32 V
-16 30 V
-18 29 V
-22 26 V
-26 24 V
/Helvetica findfont 140 scalefont setfont
-282 -59 R
-20 14 V
-23 12 V
-26 9 V
-29 7 V
-31 5 V
-34 1 V
-36 0 V
-38 -3 V
-41 -6 V
-42 -8 V
-44 -10 V
-45 -13 V
-47 -15 V
-49 -18 V
-49 -20 V
-50 -21 V
-50 -24 V
-51 -26 V
-51 -28 V
-51 -29 V
-51 -31 V
-51 -32 V
-49 -34 V
-49 -35 V
-48 -36 V
-47 -37 V
-45 -38 V
-44 -39 V
-42 -39 V
-40 -39 V
-38 -39 V
-36 -40 V
-33 -39 V
-31 -39 V
-28 -38 V
-25 -38 V
-22 -37 V
-20 -37 V
-16 -35 V
-14 -33 V
-10 -33 V
-7 -31 V
-4 -29 V
0 -28 V
3 -26 V
6 -24 V
9 -22 V
12 -19 V
16 -18 V
18 -15 V
22 -13 V
24 -11 V
27 -8 V
30 -6 V
33 -3 V
34 0 V
38 1 V
39 5 V
41 7 V
44 9 V
44 12 V
47 14 V
47 16 V
49 19 V
49 20 V
51 23 V
51 25 V
3411 2164 L
51 28 V
51 30 V
50 32 V
51 33 V
49 35 V
48 35 V
48 37 V
46 37 V
44 39 V
43 38 V
41 39 V
39 40 V
37 39 V
34 40 V
33 39 V
29 38 V
27 39 V
24 37 V
20 37 V
18 35 V
15 35 V
12 33 V
9 32 V
5 30 V
2 29 V
-1 26 V
-4 25 V
-8 23 V
-11 21 V
-13 19 V
-17 16 V
/Helvetica findfont 140 scalefont setfont
-211 -77 R
-11 7 V
-11 8 V
-12 6 V
-12 6 V
-13 5 V
-14 4 V
-14 4 V
-14 3 V
-15 2 V
-15 1 V
-15 1 V
-16 0 V
-15 -1 V
-16 -2 V
-16 -3 V
-15 -3 V
-16 -4 V
-15 -5 V
-15 -5 V
-14 -7 V
-14 -6 V
-14 -8 V
-13 -8 V
-13 -9 V
-12 -9 V
-12 -10 V
-10 -10 V
-11 -11 V
-9 -11 V
-8 -11 V
-8 -12 V
-6 -12 V
-6 -12 V
-5 -12 V
-4 -12 V
-3 -13 V
-2 -12 V
-1 -12 V
0 -12 V
1 -12 V
2 -12 V
3 -12 V
4 -11 V
5 -11 V
6 -11 V
7 -10 V
7 -10 V
9 -9 V
9 -9 V
10 -8 V
11 -7 V
12 -7 V
12 -6 V
13 -6 V
13 -4 V
14 -4 V
14 -4 V
15 -2 V
14 -2 V
16 -1 V
15 0 V
16 1 V
15 1 V
16 2 V
15 3 V
16 4 V
15 4 V
15 5 V
15 6 V
14 7 V
14 7 V
14 8 V
3927 2816 L
12 9 V
12 10 V
11 10 V
11 10 V
9 11 V
9 11 V
8 12 V
7 11 V
6 12 V
6 13 V
4 12 V
3 12 V
3 13 V
1 12 V
1 12 V
-1 12 V
-1 12 V
-3 12 V
-3 12 V
-5 11 V
-5 11 V
-6 10 V
-8 10 V
-8 9 V
-9 9 V
-9 9 V
stroke
LTb
546 4872 N
546 420 L
6416 0 V
0 4452 V
-6416 0 V
Z stroke
1.000 UP
1.000 UL
LTb
stroke
grestore
end
showpage
%%Trailer
%%DocumentFonts: Helvetica
%%Pages: 1
