%!PS-Adobe-2.0 EPSF-2.0
%%Title: app0_207Bi_1_10.ps
%%Creator: gnuplot 4.2 patchlevel 0
%%CreationDate: Thu Oct  2 09:13:31 2008
%%DocumentFonts: (atend)
%%BoundingBox: 50 50 410 302
%%EndComments
%%BeginProlog
/gnudict 256 dict def
gnudict begin
%
% The following 6 true/false flags may be edited by hand if required
% The unit line width may also be changed
%
/Color true def
/Blacktext false def
/Solid true def
/Dashlength 1 def
/Landscape false def
/Level1 false def
/Rounded false def
/TransparentPatterns false def
/gnulinewidth 5.000 def
/userlinewidth gnulinewidth def
%
/vshift -70 def
/dl1 {
  10.0 Dashlength mul mul
  Rounded { currentlinewidth 0.75 mul sub dup 0 le { pop 0.01 } if } if
} def
/dl2 {
  10.0 Dashlength mul mul
  Rounded { currentlinewidth 0.75 mul add } if
} def
/hpt_ 31.5 def
/vpt_ 31.5 def
/hpt hpt_ def
/vpt vpt_ def
Level1 {} {
/SDict 10 dict def
systemdict /pdfmark known not {
  userdict /pdfmark systemdict /cleartomark get put
} if
SDict begin [
  /Title (app0_207Bi_1_10.ps)
  /Subject (gnuplot plot)
  /Creator (gnuplot 4.2 patchlevel 0)
  /Author (,,,)
%  /Producer (gnuplot)
%  /Keywords ()
  /CreationDate (Thu Oct  2 09:13:31 2008)
  /DOCINFO pdfmark
end
} ifelse
%
% Gnuplot Prolog Version 4.2 (August 2006)
%
/M {moveto} bind def
/L {lineto} bind def
/R {rmoveto} bind def
/V {rlineto} bind def
/N {newpath moveto} bind def
/Z {closepath} bind def
/C {setrgbcolor} bind def
/f {rlineto fill} bind def
/vpt2 vpt 2 mul def
/hpt2 hpt 2 mul def
/Lshow {currentpoint stroke M 0 vshift R 
	Blacktext {gsave 0 setgray show grestore} {show} ifelse} def
/Rshow {currentpoint stroke M dup stringwidth pop neg vshift R
	Blacktext {gsave 0 setgray show grestore} {show} ifelse} def
/Cshow {currentpoint stroke M dup stringwidth pop -2 div vshift R 
	Blacktext {gsave 0 setgray show grestore} {show} ifelse} def
/UP {dup vpt_ mul /vpt exch def hpt_ mul /hpt exch def
  /hpt2 hpt 2 mul def /vpt2 vpt 2 mul def} def
/DL {Color {setrgbcolor Solid {pop []} if 0 setdash}
 {pop pop pop 0 setgray Solid {pop []} if 0 setdash} ifelse} def
/BL {stroke userlinewidth 2 mul setlinewidth
	Rounded {1 setlinejoin 1 setlinecap} if} def
/AL {stroke userlinewidth 2 div setlinewidth
	Rounded {1 setlinejoin 1 setlinecap} if} def
/UL {dup gnulinewidth mul /userlinewidth exch def
	dup 1 lt {pop 1} if 10 mul /udl exch def} def
/PL {stroke userlinewidth setlinewidth
	Rounded {1 setlinejoin 1 setlinecap} if} def
% Default Line colors
/LCw {1 1 1} def
/LCb {0 0 0} def
/LCa {0 0 0} def
/LC0 {1 0 0} def
/LC1 {0 1 0} def
/LC2 {0 0 1} def
/LC3 {1 0 1} def
/LC4 {0 1 1} def
/LC5 {1 1 0} def
/LC6 {0 0 0} def
/LC7 {1 0.3 0} def
/LC8 {0.5 0.5 0.5} def
% Default Line Types
/LTw {PL [] 1 setgray} def
/LTb {BL [] LCb DL} def
/LTa {AL [1 udl mul 2 udl mul] 0 setdash LCa setrgbcolor} def
/LT0 {PL [] LC0 DL} def
/LT1 {PL [4 dl1 2 dl2] LC1 DL} def
/LT2 {PL [2 dl1 3 dl2] LC2 DL} def
/LT3 {PL [1 dl1 1.5 dl2] LC3 DL} def
/LT4 {PL [6 dl1 2 dl2 1 dl1 2 dl2] LC4 DL} def
/LT5 {PL [3 dl1 3 dl2 1 dl1 3 dl2] LC5 DL} def
/LT6 {PL [2 dl1 2 dl2 2 dl1 6 dl2] LC6 DL} def
/LT7 {PL [1 dl1 2 dl2 6 dl1 2 dl2 1 dl1 2 dl2] LC7 DL} def
/LT8 {PL [2 dl1 2 dl2 2 dl1 2 dl2 2 dl1 2 dl2 2 dl1 4 dl2] LC8 DL} def
/Pnt {stroke [] 0 setdash gsave 1 setlinecap M 0 0 V stroke grestore} def
/Dia {stroke [] 0 setdash 2 copy vpt add M
  hpt neg vpt neg V hpt vpt neg V
  hpt vpt V hpt neg vpt V closepath stroke
  Pnt} def
/Pls {stroke [] 0 setdash vpt sub M 0 vpt2 V
  currentpoint stroke M
  hpt neg vpt neg R hpt2 0 V stroke
 } def
/Box {stroke [] 0 setdash 2 copy exch hpt sub exch vpt add M
  0 vpt2 neg V hpt2 0 V 0 vpt2 V
  hpt2 neg 0 V closepath stroke
  Pnt} def
/Crs {stroke [] 0 setdash exch hpt sub exch vpt add M
  hpt2 vpt2 neg V currentpoint stroke M
  hpt2 neg 0 R hpt2 vpt2 V stroke} def
/TriU {stroke [] 0 setdash 2 copy vpt 1.12 mul add M
  hpt neg vpt -1.62 mul V
  hpt 2 mul 0 V
  hpt neg vpt 1.62 mul V closepath stroke
  Pnt} def
/Star {2 copy Pls Crs} def
/BoxF {stroke [] 0 setdash exch hpt sub exch vpt add M
  0 vpt2 neg V hpt2 0 V 0 vpt2 V
  hpt2 neg 0 V closepath fill} def
/TriUF {stroke [] 0 setdash vpt 1.12 mul add M
  hpt neg vpt -1.62 mul V
  hpt 2 mul 0 V
  hpt neg vpt 1.62 mul V closepath fill} def
/TriD {stroke [] 0 setdash 2 copy vpt 1.12 mul sub M
  hpt neg vpt 1.62 mul V
  hpt 2 mul 0 V
  hpt neg vpt -1.62 mul V closepath stroke
  Pnt} def
/TriDF {stroke [] 0 setdash vpt 1.12 mul sub M
  hpt neg vpt 1.62 mul V
  hpt 2 mul 0 V
  hpt neg vpt -1.62 mul V closepath fill} def
/DiaF {stroke [] 0 setdash vpt add M
  hpt neg vpt neg V hpt vpt neg V
  hpt vpt V hpt neg vpt V closepath fill} def
/Pent {stroke [] 0 setdash 2 copy gsave
  translate 0 hpt M 4 {72 rotate 0 hpt L} repeat
  closepath stroke grestore Pnt} def
/PentF {stroke [] 0 setdash gsave
  translate 0 hpt M 4 {72 rotate 0 hpt L} repeat
  closepath fill grestore} def
/Circle {stroke [] 0 setdash 2 copy
  hpt 0 360 arc stroke Pnt} def
/CircleF {stroke [] 0 setdash hpt 0 360 arc fill} def
/C0 {BL [] 0 setdash 2 copy moveto vpt 90 450 arc} bind def
/C1 {BL [] 0 setdash 2 copy moveto
	2 copy vpt 0 90 arc closepath fill
	vpt 0 360 arc closepath} bind def
/C2 {BL [] 0 setdash 2 copy moveto
	2 copy vpt 90 180 arc closepath fill
	vpt 0 360 arc closepath} bind def
/C3 {BL [] 0 setdash 2 copy moveto
	2 copy vpt 0 180 arc closepath fill
	vpt 0 360 arc closepath} bind def
/C4 {BL [] 0 setdash 2 copy moveto
	2 copy vpt 180 270 arc closepath fill
	vpt 0 360 arc closepath} bind def
/C5 {BL [] 0 setdash 2 copy moveto
	2 copy vpt 0 90 arc
	2 copy moveto
	2 copy vpt 180 270 arc closepath fill
	vpt 0 360 arc} bind def
/C6 {BL [] 0 setdash 2 copy moveto
	2 copy vpt 90 270 arc closepath fill
	vpt 0 360 arc closepath} bind def
/C7 {BL [] 0 setdash 2 copy moveto
	2 copy vpt 0 270 arc closepath fill
	vpt 0 360 arc closepath} bind def
/C8 {BL [] 0 setdash 2 copy moveto
	2 copy vpt 270 360 arc closepath fill
	vpt 0 360 arc closepath} bind def
/C9 {BL [] 0 setdash 2 copy moveto
	2 copy vpt 270 450 arc closepath fill
	vpt 0 360 arc closepath} bind def
/C10 {BL [] 0 setdash 2 copy 2 copy moveto vpt 270 360 arc closepath fill
	2 copy moveto
	2 copy vpt 90 180 arc closepath fill
	vpt 0 360 arc closepath} bind def
/C11 {BL [] 0 setdash 2 copy moveto
	2 copy vpt 0 180 arc closepath fill
	2 copy moveto
	2 copy vpt 270 360 arc closepath fill
	vpt 0 360 arc closepath} bind def
/C12 {BL [] 0 setdash 2 copy moveto
	2 copy vpt 180 360 arc closepath fill
	vpt 0 360 arc closepath} bind def
/C13 {BL [] 0 setdash 2 copy moveto
	2 copy vpt 0 90 arc closepath fill
	2 copy moveto
	2 copy vpt 180 360 arc closepath fill
	vpt 0 360 arc closepath} bind def
/C14 {BL [] 0 setdash 2 copy moveto
	2 copy vpt 90 360 arc closepath fill
	vpt 0 360 arc} bind def
/C15 {BL [] 0 setdash 2 copy vpt 0 360 arc closepath fill
	vpt 0 360 arc closepath} bind def
/Rec {newpath 4 2 roll moveto 1 index 0 rlineto 0 exch rlineto
	neg 0 rlineto closepath} bind def
/Square {dup Rec} bind def
/Bsquare {vpt sub exch vpt sub exch vpt2 Square} bind def
/S0 {BL [] 0 setdash 2 copy moveto 0 vpt rlineto BL Bsquare} bind def
/S1 {BL [] 0 setdash 2 copy vpt Square fill Bsquare} bind def
/S2 {BL [] 0 setdash 2 copy exch vpt sub exch vpt Square fill Bsquare} bind def
/S3 {BL [] 0 setdash 2 copy exch vpt sub exch vpt2 vpt Rec fill Bsquare} bind def
/S4 {BL [] 0 setdash 2 copy exch vpt sub exch vpt sub vpt Square fill Bsquare} bind def
/S5 {BL [] 0 setdash 2 copy 2 copy vpt Square fill
	exch vpt sub exch vpt sub vpt Square fill Bsquare} bind def
/S6 {BL [] 0 setdash 2 copy exch vpt sub exch vpt sub vpt vpt2 Rec fill Bsquare} bind def
/S7 {BL [] 0 setdash 2 copy exch vpt sub exch vpt sub vpt vpt2 Rec fill
	2 copy vpt Square fill Bsquare} bind def
/S8 {BL [] 0 setdash 2 copy vpt sub vpt Square fill Bsquare} bind def
/S9 {BL [] 0 setdash 2 copy vpt sub vpt vpt2 Rec fill Bsquare} bind def
/S10 {BL [] 0 setdash 2 copy vpt sub vpt Square fill 2 copy exch vpt sub exch vpt Square fill
	Bsquare} bind def
/S11 {BL [] 0 setdash 2 copy vpt sub vpt Square fill 2 copy exch vpt sub exch vpt2 vpt Rec fill
	Bsquare} bind def
/S12 {BL [] 0 setdash 2 copy exch vpt sub exch vpt sub vpt2 vpt Rec fill Bsquare} bind def
/S13 {BL [] 0 setdash 2 copy exch vpt sub exch vpt sub vpt2 vpt Rec fill
	2 copy vpt Square fill Bsquare} bind def
/S14 {BL [] 0 setdash 2 copy exch vpt sub exch vpt sub vpt2 vpt Rec fill
	2 copy exch vpt sub exch vpt Square fill Bsquare} bind def
/S15 {BL [] 0 setdash 2 copy Bsquare fill Bsquare} bind def
/D0 {gsave translate 45 rotate 0 0 S0 stroke grestore} bind def
/D1 {gsave translate 45 rotate 0 0 S1 stroke grestore} bind def
/D2 {gsave translate 45 rotate 0 0 S2 stroke grestore} bind def
/D3 {gsave translate 45 rotate 0 0 S3 stroke grestore} bind def
/D4 {gsave translate 45 rotate 0 0 S4 stroke grestore} bind def
/D5 {gsave translate 45 rotate 0 0 S5 stroke grestore} bind def
/D6 {gsave translate 45 rotate 0 0 S6 stroke grestore} bind def
/D7 {gsave translate 45 rotate 0 0 S7 stroke grestore} bind def
/D8 {gsave translate 45 rotate 0 0 S8 stroke grestore} bind def
/D9 {gsave translate 45 rotate 0 0 S9 stroke grestore} bind def
/D10 {gsave translate 45 rotate 0 0 S10 stroke grestore} bind def
/D11 {gsave translate 45 rotate 0 0 S11 stroke grestore} bind def
/D12 {gsave translate 45 rotate 0 0 S12 stroke grestore} bind def
/D13 {gsave translate 45 rotate 0 0 S13 stroke grestore} bind def
/D14 {gsave translate 45 rotate 0 0 S14 stroke grestore} bind def
/D15 {gsave translate 45 rotate 0 0 S15 stroke grestore} bind def
/DiaE {stroke [] 0 setdash vpt add M
  hpt neg vpt neg V hpt vpt neg V
  hpt vpt V hpt neg vpt V closepath stroke} def
/BoxE {stroke [] 0 setdash exch hpt sub exch vpt add M
  0 vpt2 neg V hpt2 0 V 0 vpt2 V
  hpt2 neg 0 V closepath stroke} def
/TriUE {stroke [] 0 setdash vpt 1.12 mul add M
  hpt neg vpt -1.62 mul V
  hpt 2 mul 0 V
  hpt neg vpt 1.62 mul V closepath stroke} def
/TriDE {stroke [] 0 setdash vpt 1.12 mul sub M
  hpt neg vpt 1.62 mul V
  hpt 2 mul 0 V
  hpt neg vpt -1.62 mul V closepath stroke} def
/PentE {stroke [] 0 setdash gsave
  translate 0 hpt M 4 {72 rotate 0 hpt L} repeat
  closepath stroke grestore} def
/CircE {stroke [] 0 setdash 
  hpt 0 360 arc stroke} def
/Opaque {gsave closepath 1 setgray fill grestore 0 setgray closepath} def
/DiaW {stroke [] 0 setdash vpt add M
  hpt neg vpt neg V hpt vpt neg V
  hpt vpt V hpt neg vpt V Opaque stroke} def
/BoxW {stroke [] 0 setdash exch hpt sub exch vpt add M
  0 vpt2 neg V hpt2 0 V 0 vpt2 V
  hpt2 neg 0 V Opaque stroke} def
/TriUW {stroke [] 0 setdash vpt 1.12 mul add M
  hpt neg vpt -1.62 mul V
  hpt 2 mul 0 V
  hpt neg vpt 1.62 mul V Opaque stroke} def
/TriDW {stroke [] 0 setdash vpt 1.12 mul sub M
  hpt neg vpt 1.62 mul V
  hpt 2 mul 0 V
  hpt neg vpt -1.62 mul V Opaque stroke} def
/PentW {stroke [] 0 setdash gsave
  translate 0 hpt M 4 {72 rotate 0 hpt L} repeat
  Opaque stroke grestore} def
/CircW {stroke [] 0 setdash 
  hpt 0 360 arc Opaque stroke} def
/BoxFill {gsave Rec 1 setgray fill grestore} def
/Density {
  /Fillden exch def
  currentrgbcolor
  /ColB exch def /ColG exch def /ColR exch def
  /ColR ColR Fillden mul Fillden sub 1 add def
  /ColG ColG Fillden mul Fillden sub 1 add def
  /ColB ColB Fillden mul Fillden sub 1 add def
  ColR ColG ColB setrgbcolor} def
/BoxColFill {gsave Rec PolyFill} def
/PolyFill {gsave Density fill grestore grestore} def
/h {rlineto rlineto rlineto gsave fill grestore} bind def
%
% PostScript Level 1 Pattern Fill routine for rectangles
% Usage: x y w h s a XX PatternFill
%	x,y = lower left corner of box to be filled
%	w,h = width and height of box
%	  a = angle in degrees between lines and x-axis
%	 XX = 0/1 for no/yes cross-hatch
%
/PatternFill {gsave /PFa [ 9 2 roll ] def
  PFa 0 get PFa 2 get 2 div add PFa 1 get PFa 3 get 2 div add translate
  PFa 2 get -2 div PFa 3 get -2 div PFa 2 get PFa 3 get Rec
  gsave 1 setgray fill grestore clip
  currentlinewidth 0.5 mul setlinewidth
  /PFs PFa 2 get dup mul PFa 3 get dup mul add sqrt def
  0 0 M PFa 5 get rotate PFs -2 div dup translate
  0 1 PFs PFa 4 get div 1 add floor cvi
	{PFa 4 get mul 0 M 0 PFs V} for
  0 PFa 6 get ne {
	0 1 PFs PFa 4 get div 1 add floor cvi
	{PFa 4 get mul 0 2 1 roll M PFs 0 V} for
 } if
  stroke grestore} def
%
/languagelevel where
 {pop languagelevel} {1} ifelse
 2 lt
	{/InterpretLevel1 true def}
	{/InterpretLevel1 Level1 def}
 ifelse
%
% PostScript level 2 pattern fill definitions
%
/Level2PatternFill {
/Tile8x8 {/PaintType 2 /PatternType 1 /TilingType 1 /BBox [0 0 8 8] /XStep 8 /YStep 8}
	bind def
/KeepColor {currentrgbcolor [/Pattern /DeviceRGB] setcolorspace} bind def
<< Tile8x8
 /PaintProc {0.5 setlinewidth pop 0 0 M 8 8 L 0 8 M 8 0 L stroke} 
>> matrix makepattern
/Pat1 exch def
<< Tile8x8
 /PaintProc {0.5 setlinewidth pop 0 0 M 8 8 L 0 8 M 8 0 L stroke
	0 4 M 4 8 L 8 4 L 4 0 L 0 4 L stroke}
>> matrix makepattern
/Pat2 exch def
<< Tile8x8
 /PaintProc {0.5 setlinewidth pop 0 0 M 0 8 L
	8 8 L 8 0 L 0 0 L fill}
>> matrix makepattern
/Pat3 exch def
<< Tile8x8
 /PaintProc {0.5 setlinewidth pop -4 8 M 8 -4 L
	0 12 M 12 0 L stroke}
>> matrix makepattern
/Pat4 exch def
<< Tile8x8
 /PaintProc {0.5 setlinewidth pop -4 0 M 8 12 L
	0 -4 M 12 8 L stroke}
>> matrix makepattern
/Pat5 exch def
<< Tile8x8
 /PaintProc {0.5 setlinewidth pop -2 8 M 4 -4 L
	0 12 M 8 -4 L 4 12 M 10 0 L stroke}
>> matrix makepattern
/Pat6 exch def
<< Tile8x8
 /PaintProc {0.5 setlinewidth pop -2 0 M 4 12 L
	0 -4 M 8 12 L 4 -4 M 10 8 L stroke}
>> matrix makepattern
/Pat7 exch def
<< Tile8x8
 /PaintProc {0.5 setlinewidth pop 8 -2 M -4 4 L
	12 0 M -4 8 L 12 4 M 0 10 L stroke}
>> matrix makepattern
/Pat8 exch def
<< Tile8x8
 /PaintProc {0.5 setlinewidth pop 0 -2 M 12 4 L
	-4 0 M 12 8 L -4 4 M 8 10 L stroke}
>> matrix makepattern
/Pat9 exch def
/Pattern1 {PatternBgnd KeepColor Pat1 setpattern} bind def
/Pattern2 {PatternBgnd KeepColor Pat2 setpattern} bind def
/Pattern3 {PatternBgnd KeepColor Pat3 setpattern} bind def
/Pattern4 {PatternBgnd KeepColor Landscape {Pat5} {Pat4} ifelse setpattern} bind def
/Pattern5 {PatternBgnd KeepColor Landscape {Pat4} {Pat5} ifelse setpattern} bind def
/Pattern6 {PatternBgnd KeepColor Landscape {Pat9} {Pat6} ifelse setpattern} bind def
/Pattern7 {PatternBgnd KeepColor Landscape {Pat8} {Pat7} ifelse setpattern} bind def
} def
%
%
%End of PostScript Level 2 code
%
/PatternBgnd {
  TransparentPatterns {} {gsave 1 setgray fill grestore} ifelse
} def
%
% Substitute for Level 2 pattern fill codes with
% grayscale if Level 2 support is not selected.
%
/Level1PatternFill {
/Pattern1 {0.250 Density} bind def
/Pattern2 {0.500 Density} bind def
/Pattern3 {0.750 Density} bind def
/Pattern4 {0.125 Density} bind def
/Pattern5 {0.375 Density} bind def
/Pattern6 {0.625 Density} bind def
/Pattern7 {0.875 Density} bind def
} def
%
% Now test for support of Level 2 code
%
Level1 {Level1PatternFill} {Level2PatternFill} ifelse
%
/Symbol-Oblique /Symbol findfont [1 0 .167 1 0 0] makefont
dup length dict begin {1 index /FID eq {pop pop} {def} ifelse} forall
currentdict end definefont pop
/MFshow {
   { dup 5 get 3 ge
     { 5 get 3 eq {gsave} {grestore} ifelse }
     {dup dup 0 get findfont exch 1 get scalefont setfont
     [ currentpoint ] exch dup 2 get 0 exch R dup 5 get 2 ne {dup dup 6
     get exch 4 get {show} {stringwidth pop 0 R} ifelse }if dup 5 get 0 eq
     {dup 3 get {2 get neg 0 exch R pop} {pop aload pop M} ifelse} {dup 5
     get 1 eq {dup 2 get exch dup 3 get exch 6 get stringwidth pop -2 div
     dup 0 R} {dup 6 get stringwidth pop -2 div 0 R 6 get
     show 2 index {aload pop M neg 3 -1 roll neg R pop pop} {pop pop pop
     pop aload pop M} ifelse }ifelse }ifelse }
     ifelse }
   forall} bind def
/MFwidth {0 exch { dup 5 get 3 ge { 5 get 3 eq { 0 } { pop } ifelse }
 {dup 3 get{dup dup 0 get findfont exch 1 get scalefont setfont
     6 get stringwidth pop add} {pop} ifelse} ifelse} forall} bind def
/MLshow { currentpoint stroke M
  0 exch R
  Blacktext {gsave 0 setgray MFshow grestore} {MFshow} ifelse } bind def
/MRshow { currentpoint stroke M
  exch dup MFwidth neg 3 -1 roll R
  Blacktext {gsave 0 setgray MFshow grestore} {MFshow} ifelse } bind def
/MCshow { currentpoint stroke M
  exch dup MFwidth -2 div 3 -1 roll R
  Blacktext {gsave 0 setgray MFshow grestore} {MFshow} ifelse } bind def
/XYsave    { [( ) 1 2 true false 3 ()] } bind def
/XYrestore { [( ) 1 2 true false 4 ()] } bind def
end
%%EndProlog
gnudict begin
gsave
50 50 translate
0.050 0.050 scale
0 setgray
newpath
(Helvetica) findfont 210 scalefont setfont
1.000 UL
LTb
945 630 M
63 0 V
5835 0 R
-63 0 V
stroke
819 630 M
[ [(Helvetica) 210.0 0.0 true true 0 ( 5)]
] -70.0 MRshow
1.000 UL
LTb
945 1150 M
63 0 V
5835 0 R
-63 0 V
stroke
819 1150 M
[ [(Helvetica) 210.0 0.0 true true 0 ( 6)]
] -70.0 MRshow
1.000 UL
LTb
945 1670 M
63 0 V
5835 0 R
-63 0 V
stroke
819 1670 M
[ [(Helvetica) 210.0 0.0 true true 0 ( 7)]
] -70.0 MRshow
1.000 UL
LTb
945 2189 M
63 0 V
5835 0 R
-63 0 V
stroke
819 2189 M
[ [(Helvetica) 210.0 0.0 true true 0 ( 8)]
] -70.0 MRshow
1.000 UL
LTb
945 2709 M
63 0 V
5835 0 R
-63 0 V
stroke
819 2709 M
[ [(Helvetica) 210.0 0.0 true true 0 ( 9)]
] -70.0 MRshow
1.000 UL
LTb
945 3229 M
63 0 V
5835 0 R
-63 0 V
stroke
819 3229 M
[ [(Helvetica) 210.0 0.0 true true 0 ( 10)]
] -70.0 MRshow
1.000 UL
LTb
945 3749 M
63 0 V
5835 0 R
-63 0 V
stroke
819 3749 M
[ [(Helvetica) 210.0 0.0 true true 0 ( 11)]
] -70.0 MRshow
1.000 UL
LTb
945 4268 M
63 0 V
5835 0 R
-63 0 V
stroke
819 4268 M
[ [(Helvetica) 210.0 0.0 true true 0 ( 12)]
] -70.0 MRshow
1.000 UL
LTb
945 4788 M
63 0 V
5835 0 R
-63 0 V
stroke
819 4788 M
[ [(Helvetica) 210.0 0.0 true true 0 ( 13)]
] -70.0 MRshow
1.000 UL
LTb
945 630 M
0 63 V
0 4095 R
0 -63 V
stroke
945 420 M
[ [(Helvetica) 210.0 0.0 true true 0 ( 6)]
] -70.0 MCshow
1.000 UL
LTb
1600 630 M
0 63 V
0 4095 R
0 -63 V
stroke
1600 420 M
[ [(Helvetica) 210.0 0.0 true true 0 ( 7)]
] -70.0 MCshow
1.000 UL
LTb
2256 630 M
0 63 V
0 4095 R
0 -63 V
stroke
2256 420 M
[ [(Helvetica) 210.0 0.0 true true 0 ( 8)]
] -70.0 MCshow
1.000 UL
LTb
2911 630 M
0 63 V
0 4095 R
0 -63 V
stroke
2911 420 M
[ [(Helvetica) 210.0 0.0 true true 0 ( 9)]
] -70.0 MCshow
1.000 UL
LTb
3566 630 M
0 63 V
0 4095 R
0 -63 V
stroke
3566 420 M
[ [(Helvetica) 210.0 0.0 true true 0 ( 10)]
] -70.0 MCshow
1.000 UL
LTb
4222 630 M
0 63 V
0 4095 R
0 -63 V
stroke
4222 420 M
[ [(Helvetica) 210.0 0.0 true true 0 ( 11)]
] -70.0 MCshow
1.000 UL
LTb
4877 630 M
0 63 V
0 4095 R
0 -63 V
stroke
4877 420 M
[ [(Helvetica) 210.0 0.0 true true 0 ( 12)]
] -70.0 MCshow
1.000 UL
LTb
5532 630 M
0 63 V
0 4095 R
0 -63 V
stroke
5532 420 M
[ [(Helvetica) 210.0 0.0 true true 0 ( 13)]
] -70.0 MCshow
1.000 UL
LTb
6188 630 M
0 63 V
0 4095 R
0 -63 V
stroke
6188 420 M
[ [(Helvetica) 210.0 0.0 true true 0 ( 14)]
] -70.0 MCshow
1.000 UL
LTb
6843 630 M
0 63 V
0 4095 R
0 -63 V
stroke
6843 420 M
[ [(Helvetica) 210.0 0.0 true true 0 ( 15)]
] -70.0 MCshow
1.000 UL
LTb
1.000 UL
LTb
945 4788 N
945 630 L
5898 0 V
0 4158 V
-5898 0 V
Z stroke
LCb setrgbcolor
210 2709 M
currentpoint gsave translate 90 rotate 0 0 moveto
[ [(Helvetica) 210.0 0.0 true true 0 (H\(MeV\))]
] -70.0 MCshow
grestore
LTb
LCb setrgbcolor
3894 105 M
[ [(Helvetica) 210.0 0.0 true true 0 (k)]
] -70.0 MCshow
LTb
1.000 UP
1.000 UL
LTb
2.000 UP
1.000 UL
LT2
/Helvetica findfont 210 scalefont setfont
4222 4359 M
-164 -91 V
3566 4138 L
2929 3749 L
-18 -11 V
2380 3229 L
2256 3025 L
1918 2709 L
1653 2189 L
-53 -260 V
1469 1670 L
131 -130 V
656 -322 V
491 -68 V
164 -29 V
66 29 V
589 180 V
656 204 V
187 136 V
468 162 V
655 357 V
656 451 V
82 69 V
458 520 V
115 520 V
-655 248 V
-656 165 V
-655 100 V
-131 6 V
-524 91 V
3566 3922 M
3283 3749 L
2911 3521 L
2606 3229 L
2282 2709 L
-26 -54 V
1915 2189 L
341 -519 V
655 -91 V
374 91 V
281 19 V
656 113 V
655 246 V
258 141 V
397 336 V
249 184 V
407 302 V
213 218 V
-213 307 V
-211 213 V
-445 201 V
-655 187 V
-655 -1 V
3566 3922 L
656 49 R
3651 3749 L
-85 -26 V
2911 3305 L
-79 -76 V
2454 2709 L
2256 2297 L
-79 -108 V
79 -120 V
655 -294 V
655 48 V
656 168 V
491 198 V
164 72 V
544 448 V
111 126 V
525 394 V
-525 502 V
-15 18 V
-640 262 V
-655 -40 V
0 -165 R
-148 -57 V
3566 3593 L
3034 3229 L
2911 3082 L
2626 2709 L
2417 2189 L
494 -283 V
655 50 V
656 224 V
23 9 V
632 275 V
297 245 V
358 407 V
150 113 V
-150 143 V
-320 377 V
-335 137 V
-655 -80 V
655 -45 R
-87 -12 V
-568 -78 V
3566 3463 L
3224 3229 L
2911 2856 L
2799 2709 L
2647 2189 L
264 -151 V
655 51 V
289 100 V
367 115 V
655 364 V
49 41 V
399 520 V
-418 520 V
-30 12 V
3566 3333 M
3414 3229 L
2964 2709 L
-53 -364 V
-34 -156 V
34 -19 V
246 19 V
409 31 V
656 205 V
489 284 V
166 378 V
103 142 V
-103 130 V
-655 192 V
3566 3333 L
656 99 R
3635 3229 L
-69 -33 V
3114 2709 L
452 -367 V
656 204 V
281 163 V
183 520 V
-464 203 V
0 -120 R
-242 -83 V
3566 3034 L
3265 2709 L
301 -245 V
656 203 V
72 42 V
119 520 V
-191 83 V
3566 2871 M
3416 2709 L
150 -122 V
398 122 V
-398 162 V
4222 4359 Star
4058 4268 Star
3566 4138 Star
2929 3749 Star
2911 3738 Star
2380 3229 Star
2256 3025 Star
1918 2709 Star
1653 2189 Star
1600 1929 Star
1469 1670 Star
1600 1540 Star
2256 1218 Star
2747 1150 Star
2911 1121 Star
2977 1150 Star
3566 1330 Star
4222 1534 Star
4409 1670 Star
4877 1832 Star
5532 2189 Star
6188 2640 Star
6270 2709 Star
6728 3229 Star
6843 3749 Star
6188 3997 Star
5532 4162 Star
4877 4262 Star
4746 4268 Star
4222 4359 Star
3566 3922 Star
3283 3749 Star
2911 3521 Star
2606 3229 Star
2282 2709 Star
2256 2655 Star
1915 2189 Star
2256 1670 Star
2911 1579 Star
3285 1670 Star
3566 1689 Star
4222 1802 Star
4877 2048 Star
5135 2189 Star
5532 2525 Star
5781 2709 Star
6188 3011 Star
6401 3229 Star
6188 3536 Star
5977 3749 Star
5532 3950 Star
4877 4137 Star
4222 4136 Star
3566 3922 Star
4222 3971 Star
3651 3749 Star
3566 3723 Star
2911 3305 Star
2832 3229 Star
2454 2709 Star
2256 2297 Star
2177 2189 Star
2256 2069 Star
2911 1775 Star
3566 1823 Star
4222 1991 Star
4713 2189 Star
4877 2261 Star
5421 2709 Star
5532 2835 Star
6057 3229 Star
5532 3731 Star
5517 3749 Star
4877 4011 Star
4222 3971 Star
4222 3806 Star
4074 3749 Star
3566 3593 Star
3034 3229 Star
2911 3082 Star
2626 2709 Star
2417 2189 Star
2911 1906 Star
3566 1956 Star
4222 2180 Star
4245 2189 Star
4877 2464 Star
5174 2709 Star
5532 3116 Star
5682 3229 Star
5532 3372 Star
5212 3749 Star
4877 3886 Star
4222 3806 Star
4877 3761 Star
4790 3749 Star
4222 3671 Star
3566 3463 Star
3224 3229 Star
2911 2856 Star
2799 2709 Star
2647 2189 Star
2911 2038 Star
3566 2089 Star
3855 2189 Star
4222 2304 Star
4877 2668 Star
4926 2709 Star
5325 3229 Star
4907 3749 Star
4877 3761 Star
3566 3333 Star
3414 3229 Star
2964 2709 Star
2911 2345 Star
2877 2189 Star
2911 2170 Star
3157 2189 Star
3566 2220 Star
4222 2425 Star
4711 2709 Star
4877 3087 Star
4980 3229 Star
4877 3359 Star
4222 3551 Star
3566 3333 Star
4222 3432 Star
3635 3229 Star
3566 3196 Star
3114 2709 Star
3566 2342 Star
4222 2546 Star
4503 2709 Star
4686 3229 Star
4222 3432 Star
4222 3312 Star
3980 3229 Star
3566 3034 Star
3265 2709 Star
3566 2464 Star
4222 2667 Star
4294 2709 Star
4413 3229 Star
4222 3312 Star
3566 2871 Star
3416 2709 Star
3566 2587 Star
3964 2709 Star
3566 2871 Star
4.000 UL
LT0
/Helvetica findfont 210 scalefont setfont
6288 4290 M
-68 59 V
-78 52 V
-87 46 V
-96 38 V
-105 32 V
-113 24 V
-120 17 V
-128 9 V
-134 2 V
-140 -6 V
-146 -13 V
-151 -20 V
-155 -28 V
-159 -35 V
-162 -42 V
-164 -49 V
-166 -55 V
-168 -62 V
-167 -68 V
-168 -74 V
-166 -80 V
-165 -85 V
-163 -90 V
-160 -95 V
-156 -99 V
2651 3565 L
2504 3459 L
2362 3350 L
2226 3238 L
2097 3124 L
1974 3009 L
1860 2892 L
1753 2775 L
-99 -118 V
-89 -117 V
-81 -117 V
-71 -115 V
-61 -114 V
-51 -112 V
-41 -109 V
-30 -107 V
-20 -102 V
-10 -99 V
2 -95 V
12 -90 V
22 -85 V
33 -80 V
43 -74 V
54 -69 V
63 -62 V
74 -55 V
82 -49 V
92 -42 V
100 -35 V
109 -28 V
117 -20 V
124 -13 V
131 -6 V
137 2 V
143 9 V
149 17 V
153 24 V
157 31 V
160 39 V
164 45 V
165 52 V
167 59 V
167 65 V
168 72 V
167 77 V
166 82 V
164 88 V
161 92 V
158 97 V
154 101 V
150 104 V
145 108 V
139 111 V
132 113 V
126 114 V
119 116 V
111 117 V
102 118 V
94 118 V
85 117 V
76 116 V
66 115 V
56 112 V
46 111 V
36 108 V
25 104 V
15 101 V
4 97 V
-6 93 V
-18 87 V
-27 83 V
-39 77 V
-48 71 V
-59 65 V
/Helvetica findfont 210 scalefont setfont
5487 3885 M
-51 43 V
-56 39 V
-63 34 V
-68 30 V
-73 26 V
-78 20 V
-82 16 V
-86 11 V
-91 6 V
-94 1 V
-97 -4 V
-99 -9 V
-102 -14 V
-104 -19 V
-105 -23 V
-107 -28 V
-107 -33 V
-107 -37 V
-107 -42 V
-106 -45 V
-105 -50 V
-104 -53 V
-101 -57 V
-100 -60 V
-96 -64 V
-94 -66 V
-89 -68 V
-86 -71 V
-82 -73 V
-78 -74 V
-72 -76 V
-67 -77 V
-62 -78 V
-56 -78 V
-50 -78 V
-44 -78 V
-38 -78 V
2348 2601 L
-25 -75 V
-18 -75 V
-11 -72 V
-5 -71 V
2 -68 V
9 -66 V
16 -63 V
22 -60 V
29 -56 V
36 -53 V
41 -49 V
48 -46 V
54 -41 V
60 -36 V
65 -33 V
71 -27 V
75 -23 V
80 -19 V
85 -13 V
88 -8 V
92 -4 V
96 2 V
98 6 V
101 12 V
103 16 V
104 21 V
106 26 V
107 30 V
107 35 V
107 40 V
107 43 V
106 48 V
104 51 V
103 56 V
100 58 V
98 62 V
95 64 V
92 68 V
88 69 V
84 72 V
79 74 V
75 75 V
70 77 V
65 77 V
59 78 V
53 78 V
47 78 V
41 78 V
35 78 V
28 76 V
21 75 V
15 73 V
8 72 V
2 70 V
-6 67 V
-12 64 V
-19 61 V
-26 59 V
-32 54 V
-39 51 V
-45 48 V
/Helvetica findfont 210 scalefont setfont
5185 3747 M
-37 29 V
-41 26 V
-46 23 V
-51 19 V
-54 15 V
-59 11 V
-62 8 V
-65 3 V
-69 0 V
-72 -5 V
-74 -8 V
-77 -12 V
-79 -16 V
-80 -19 V
-82 -23 V
-83 -27 V
-83 -30 V
-84 -34 V
-84 -37 V
-84 -39 V
-83 -43 V
-82 -45 V
-81 -48 V
-79 -51 V
-77 -52 V
-75 -54 V
-73 -57 V
-69 -57 V
-67 -59 V
-63 -60 V
-59 -60 V
-55 -62 V
-52 -61 V
-47 -61 V
-42 -62 V
-38 -60 V
-33 -61 V
-28 -59 V
-23 -58 V
-18 -56 V
-13 -55 V
-7 -53 V
2653 2346 L
3 -49 V
9 -46 V
14 -44 V
19 -40 V
24 -38 V
30 -35 V
34 -31 V
39 -28 V
44 -24 V
48 -21 V
53 -17 V
56 -13 V
60 -9 V
64 -6 V
68 -1 V
70 2 V
73 6 V
76 10 V
77 14 V
80 18 V
81 21 V
83 25 V
83 29 V
84 32 V
84 35 V
83 38 V
84 41 V
82 45 V
82 46 V
80 49 V
78 52 V
76 53 V
74 55 V
71 57 V
68 59 V
65 59 V
61 60 V
57 61 V
54 61 V
49 62 V
45 61 V
40 61 V
36 61 V
30 59 V
26 59 V
20 57 V
15 56 V
10 54 V
5 52 V
-1 50 V
-6 47 V
-11 45 V
-17 43 V
-21 39 V
-27 36 V
-32 33 V
/Helvetica findfont 210 scalefont setfont
4549 3351 M
-25 21 V
-28 19 V
-30 17 V
-32 16 V
-34 13 V
-36 11 V
-38 9 V
-39 7 V
-41 5 V
-42 2 V
-43 0 V
-43 -1 V
-45 -5 V
-45 -6 V
-45 -8 V
-46 -11 V
-46 -12 V
-45 -15 V
-45 -17 V
-45 -18 V
-43 -21 V
-43 -22 V
-42 -23 V
-41 -26 V
-39 -26 V
-37 -29 V
-36 -29 V
-34 -30 V
-32 -32 V
-30 -32 V
-27 -33 V
-25 -34 V
-23 -34 V
-20 -35 V
-18 -34 V
-14 -35 V
-12 -35 V
-10 -34 V
-6 -34 V
-3 -34 V
-1 -33 V
2 -32 V
6 -31 V
8 -31 V
11 -29 V
13 -28 V
17 -26 V
3296 2531 L
21 -23 V
25 -22 V
26 -20 V
29 -18 V
31 -16 V
33 -15 V
35 -12 V
37 -10 V
39 -8 V
40 -6 V
41 -3 V
42 -2 V
44 1 V
44 3 V
45 5 V
45 8 V
46 9 V
46 12 V
45 13 V
45 16 V
45 18 V
44 19 V
44 21 V
42 23 V
41 25 V
40 26 V
38 27 V
37 29 V
35 30 V
33 31 V
31 32 V
28 33 V
27 33 V
24 34 V
21 34 V
19 35 V
16 35 V
13 34 V
11 35 V
8 34 V
5 34 V
2 33 V
-1 33 V
-4 32 V
-7 30 V
-9 30 V
-12 29 V
-16 27 V
-17 26 V
-21 24 V
-23 22 V
/Helvetica findfont 210 scalefont setfont
3783 2869 M
-12 9 V
-13 10 V
-13 9 V
-13 8 V
-14 7 V
-15 7 V
-14 7 V
-16 5 V
-15 5 V
-15 4 V
-16 3 V
-15 3 V
-16 2 V
-16 0 V
-15 1 V
-15 -1 V
-15 -2 V
-15 -2 V
-14 -3 V
-14 -4 V
-13 -4 V
-13 -6 V
-12 -6 V
-11 -6 V
-11 -8 V
-10 -8 V
-9 -8 V
-9 -10 V
-7 -9 V
-7 -11 V
-6 -10 V
-5 -11 V
-4 -12 V
-3 -12 V
-1 -12 V
-1 -12 V
0 -12 V
1 -13 V
2 -12 V
3 -13 V
3 -13 V
5 -12 V
6 -13 V
7 -12 V
7 -12 V
9 -11 V
9 -12 V
10 -11 V
11 -10 V
12 -11 V
12 -9 V
12 -9 V
3493 2598 L
13 -8 V
15 -7 V
14 -7 V
15 -5 V
15 -6 V
16 -4 V
15 -4 V
16 -3 V
16 -2 V
15 -1 V
16 -1 V
15 1 V
15 1 V
15 2 V
14 2 V
14 4 V
14 4 V
13 5 V
12 6 V
12 6 V
11 7 V
10 8 V
10 8 V
9 9 V
8 10 V
7 9 V
6 11 V
6 11 V
4 11 V
3 12 V
3 12 V
1 12 V
1 12 V
-1 13 V
-1 12 V
-3 13 V
-3 12 V
-5 13 V
-5 12 V
-6 13 V
-7 12 V
-8 12 V
-9 11 V
-10 11 V
-10 11 V
-11 11 V
stroke
1.000 UL
LTb
945 4788 N
945 630 L
5898 0 V
0 4158 V
-5898 0 V
Z stroke
1.000 UP
1.000 UL
LTb
stroke
grestore
end
showpage
%%Trailer
%%DocumentFonts: Helvetica
