%!PS-Adobe-2.0
%%Title: app0_207Bi_10.ps
%%Creator: gnuplot 4.2 patchlevel 0
%%CreationDate: Fri Jul 25 09:17:06 2008
%%DocumentFonts: (atend)
%%BoundingBox: 50 50 554 770
%%Orientation: Landscape
%%Pages: (atend)
%%EndComments
%%BeginProlog
/gnudict 256 dict def
gnudict begin
%
% The following 6 true/false flags may be edited by hand if required
% The unit line width may also be changed
%
/Color true def
/Blacktext false def
/Solid true def
/Dashlength 1 def
/Landscape true def
/Level1 false def
/Rounded false def
/TransparentPatterns false def
/gnulinewidth 5.000 def
/userlinewidth gnulinewidth def
%
/vshift -46 def
/dl1 {
  10.0 Dashlength mul mul
  Rounded { currentlinewidth 0.75 mul sub dup 0 le { pop 0.01 } if } if
} def
/dl2 {
  10.0 Dashlength mul mul
  Rounded { currentlinewidth 0.75 mul add } if
} def
/hpt_ 31.5 def
/vpt_ 31.5 def
/hpt hpt_ def
/vpt vpt_ def
Level1 {} {
/SDict 10 dict def
systemdict /pdfmark known not {
  userdict /pdfmark systemdict /cleartomark get put
} if
SDict begin [
  /Title (app0_207Bi_10.ps)
  /Subject (gnuplot plot)
  /Creator (gnuplot 4.2 patchlevel 0)
  /Author (,,,)
%  /Producer (gnuplot)
%  /Keywords ()
  /CreationDate (Fri Jul 25 09:17:06 2008)
  /DOCINFO pdfmark
end
} ifelse
%
% Gnuplot Prolog Version 4.2 (August 2006)
%
/M {moveto} bind def
/L {lineto} bind def
/R {rmoveto} bind def
/V {rlineto} bind def
/N {newpath moveto} bind def
/Z {closepath} bind def
/C {setrgbcolor} bind def
/f {rlineto fill} bind def
/vpt2 vpt 2 mul def
/hpt2 hpt 2 mul def
/Lshow {currentpoint stroke M 0 vshift R 
	Blacktext {gsave 0 setgray show grestore} {show} ifelse} def
/Rshow {currentpoint stroke M dup stringwidth pop neg vshift R
	Blacktext {gsave 0 setgray show grestore} {show} ifelse} def
/Cshow {currentpoint stroke M dup stringwidth pop -2 div vshift R 
	Blacktext {gsave 0 setgray show grestore} {show} ifelse} def
/UP {dup vpt_ mul /vpt exch def hpt_ mul /hpt exch def
  /hpt2 hpt 2 mul def /vpt2 vpt 2 mul def} def
/DL {Color {setrgbcolor Solid {pop []} if 0 setdash}
 {pop pop pop 0 setgray Solid {pop []} if 0 setdash} ifelse} def
/BL {stroke userlinewidth 2 mul setlinewidth
	Rounded {1 setlinejoin 1 setlinecap} if} def
/AL {stroke userlinewidth 2 div setlinewidth
	Rounded {1 setlinejoin 1 setlinecap} if} def
/UL {dup gnulinewidth mul /userlinewidth exch def
	dup 1 lt {pop 1} if 10 mul /udl exch def} def
/PL {stroke userlinewidth setlinewidth
	Rounded {1 setlinejoin 1 setlinecap} if} def
% Default Line colors
/LCw {1 1 1} def
/LCb {0 0 0} def
/LCa {0 0 0} def
/LC0 {1 0 0} def
/LC1 {0 1 0} def
/LC2 {0 0 1} def
/LC3 {1 0 1} def
/LC4 {0 1 1} def
/LC5 {1 1 0} def
/LC6 {0 0 0} def
/LC7 {1 0.3 0} def
/LC8 {0.5 0.5 0.5} def
% Default Line Types
/LTw {PL [] 1 setgray} def
/LTb {BL [] LCb DL} def
/LTa {AL [1 udl mul 2 udl mul] 0 setdash LCa setrgbcolor} def
/LT0 {PL [] LC0 DL} def
/LT1 {PL [4 dl1 2 dl2] LC1 DL} def
/LT2 {PL [2 dl1 3 dl2] LC2 DL} def
/LT3 {PL [1 dl1 1.5 dl2] LC3 DL} def
/LT4 {PL [6 dl1 2 dl2 1 dl1 2 dl2] LC4 DL} def
/LT5 {PL [3 dl1 3 dl2 1 dl1 3 dl2] LC5 DL} def
/LT6 {PL [2 dl1 2 dl2 2 dl1 6 dl2] LC6 DL} def
/LT7 {PL [1 dl1 2 dl2 6 dl1 2 dl2 1 dl1 2 dl2] LC7 DL} def
/LT8 {PL [2 dl1 2 dl2 2 dl1 2 dl2 2 dl1 2 dl2 2 dl1 4 dl2] LC8 DL} def
/Pnt {stroke [] 0 setdash gsave 1 setlinecap M 0 0 V stroke grestore} def
/Dia {stroke [] 0 setdash 2 copy vpt add M
  hpt neg vpt neg V hpt vpt neg V
  hpt vpt V hpt neg vpt V closepath stroke
  Pnt} def
/Pls {stroke [] 0 setdash vpt sub M 0 vpt2 V
  currentpoint stroke M
  hpt neg vpt neg R hpt2 0 V stroke
 } def
/Box {stroke [] 0 setdash 2 copy exch hpt sub exch vpt add M
  0 vpt2 neg V hpt2 0 V 0 vpt2 V
  hpt2 neg 0 V closepath stroke
  Pnt} def
/Crs {stroke [] 0 setdash exch hpt sub exch vpt add M
  hpt2 vpt2 neg V currentpoint stroke M
  hpt2 neg 0 R hpt2 vpt2 V stroke} def
/TriU {stroke [] 0 setdash 2 copy vpt 1.12 mul add M
  hpt neg vpt -1.62 mul V
  hpt 2 mul 0 V
  hpt neg vpt 1.62 mul V closepath stroke
  Pnt} def
/Star {2 copy Pls Crs} def
/BoxF {stroke [] 0 setdash exch hpt sub exch vpt add M
  0 vpt2 neg V hpt2 0 V 0 vpt2 V
  hpt2 neg 0 V closepath fill} def
/TriUF {stroke [] 0 setdash vpt 1.12 mul add M
  hpt neg vpt -1.62 mul V
  hpt 2 mul 0 V
  hpt neg vpt 1.62 mul V closepath fill} def
/TriD {stroke [] 0 setdash 2 copy vpt 1.12 mul sub M
  hpt neg vpt 1.62 mul V
  hpt 2 mul 0 V
  hpt neg vpt -1.62 mul V closepath stroke
  Pnt} def
/TriDF {stroke [] 0 setdash vpt 1.12 mul sub M
  hpt neg vpt 1.62 mul V
  hpt 2 mul 0 V
  hpt neg vpt -1.62 mul V closepath fill} def
/DiaF {stroke [] 0 setdash vpt add M
  hpt neg vpt neg V hpt vpt neg V
  hpt vpt V hpt neg vpt V closepath fill} def
/Pent {stroke [] 0 setdash 2 copy gsave
  translate 0 hpt M 4 {72 rotate 0 hpt L} repeat
  closepath stroke grestore Pnt} def
/PentF {stroke [] 0 setdash gsave
  translate 0 hpt M 4 {72 rotate 0 hpt L} repeat
  closepath fill grestore} def
/Circle {stroke [] 0 setdash 2 copy
  hpt 0 360 arc stroke Pnt} def
/CircleF {stroke [] 0 setdash hpt 0 360 arc fill} def
/C0 {BL [] 0 setdash 2 copy moveto vpt 90 450 arc} bind def
/C1 {BL [] 0 setdash 2 copy moveto
	2 copy vpt 0 90 arc closepath fill
	vpt 0 360 arc closepath} bind def
/C2 {BL [] 0 setdash 2 copy moveto
	2 copy vpt 90 180 arc closepath fill
	vpt 0 360 arc closepath} bind def
/C3 {BL [] 0 setdash 2 copy moveto
	2 copy vpt 0 180 arc closepath fill
	vpt 0 360 arc closepath} bind def
/C4 {BL [] 0 setdash 2 copy moveto
	2 copy vpt 180 270 arc closepath fill
	vpt 0 360 arc closepath} bind def
/C5 {BL [] 0 setdash 2 copy moveto
	2 copy vpt 0 90 arc
	2 copy moveto
	2 copy vpt 180 270 arc closepath fill
	vpt 0 360 arc} bind def
/C6 {BL [] 0 setdash 2 copy moveto
	2 copy vpt 90 270 arc closepath fill
	vpt 0 360 arc closepath} bind def
/C7 {BL [] 0 setdash 2 copy moveto
	2 copy vpt 0 270 arc closepath fill
	vpt 0 360 arc closepath} bind def
/C8 {BL [] 0 setdash 2 copy moveto
	2 copy vpt 270 360 arc closepath fill
	vpt 0 360 arc closepath} bind def
/C9 {BL [] 0 setdash 2 copy moveto
	2 copy vpt 270 450 arc closepath fill
	vpt 0 360 arc closepath} bind def
/C10 {BL [] 0 setdash 2 copy 2 copy moveto vpt 270 360 arc closepath fill
	2 copy moveto
	2 copy vpt 90 180 arc closepath fill
	vpt 0 360 arc closepath} bind def
/C11 {BL [] 0 setdash 2 copy moveto
	2 copy vpt 0 180 arc closepath fill
	2 copy moveto
	2 copy vpt 270 360 arc closepath fill
	vpt 0 360 arc closepath} bind def
/C12 {BL [] 0 setdash 2 copy moveto
	2 copy vpt 180 360 arc closepath fill
	vpt 0 360 arc closepath} bind def
/C13 {BL [] 0 setdash 2 copy moveto
	2 copy vpt 0 90 arc closepath fill
	2 copy moveto
	2 copy vpt 180 360 arc closepath fill
	vpt 0 360 arc closepath} bind def
/C14 {BL [] 0 setdash 2 copy moveto
	2 copy vpt 90 360 arc closepath fill
	vpt 0 360 arc} bind def
/C15 {BL [] 0 setdash 2 copy vpt 0 360 arc closepath fill
	vpt 0 360 arc closepath} bind def
/Rec {newpath 4 2 roll moveto 1 index 0 rlineto 0 exch rlineto
	neg 0 rlineto closepath} bind def
/Square {dup Rec} bind def
/Bsquare {vpt sub exch vpt sub exch vpt2 Square} bind def
/S0 {BL [] 0 setdash 2 copy moveto 0 vpt rlineto BL Bsquare} bind def
/S1 {BL [] 0 setdash 2 copy vpt Square fill Bsquare} bind def
/S2 {BL [] 0 setdash 2 copy exch vpt sub exch vpt Square fill Bsquare} bind def
/S3 {BL [] 0 setdash 2 copy exch vpt sub exch vpt2 vpt Rec fill Bsquare} bind def
/S4 {BL [] 0 setdash 2 copy exch vpt sub exch vpt sub vpt Square fill Bsquare} bind def
/S5 {BL [] 0 setdash 2 copy 2 copy vpt Square fill
	exch vpt sub exch vpt sub vpt Square fill Bsquare} bind def
/S6 {BL [] 0 setdash 2 copy exch vpt sub exch vpt sub vpt vpt2 Rec fill Bsquare} bind def
/S7 {BL [] 0 setdash 2 copy exch vpt sub exch vpt sub vpt vpt2 Rec fill
	2 copy vpt Square fill Bsquare} bind def
/S8 {BL [] 0 setdash 2 copy vpt sub vpt Square fill Bsquare} bind def
/S9 {BL [] 0 setdash 2 copy vpt sub vpt vpt2 Rec fill Bsquare} bind def
/S10 {BL [] 0 setdash 2 copy vpt sub vpt Square fill 2 copy exch vpt sub exch vpt Square fill
	Bsquare} bind def
/S11 {BL [] 0 setdash 2 copy vpt sub vpt Square fill 2 copy exch vpt sub exch vpt2 vpt Rec fill
	Bsquare} bind def
/S12 {BL [] 0 setdash 2 copy exch vpt sub exch vpt sub vpt2 vpt Rec fill Bsquare} bind def
/S13 {BL [] 0 setdash 2 copy exch vpt sub exch vpt sub vpt2 vpt Rec fill
	2 copy vpt Square fill Bsquare} bind def
/S14 {BL [] 0 setdash 2 copy exch vpt sub exch vpt sub vpt2 vpt Rec fill
	2 copy exch vpt sub exch vpt Square fill Bsquare} bind def
/S15 {BL [] 0 setdash 2 copy Bsquare fill Bsquare} bind def
/D0 {gsave translate 45 rotate 0 0 S0 stroke grestore} bind def
/D1 {gsave translate 45 rotate 0 0 S1 stroke grestore} bind def
/D2 {gsave translate 45 rotate 0 0 S2 stroke grestore} bind def
/D3 {gsave translate 45 rotate 0 0 S3 stroke grestore} bind def
/D4 {gsave translate 45 rotate 0 0 S4 stroke grestore} bind def
/D5 {gsave translate 45 rotate 0 0 S5 stroke grestore} bind def
/D6 {gsave translate 45 rotate 0 0 S6 stroke grestore} bind def
/D7 {gsave translate 45 rotate 0 0 S7 stroke grestore} bind def
/D8 {gsave translate 45 rotate 0 0 S8 stroke grestore} bind def
/D9 {gsave translate 45 rotate 0 0 S9 stroke grestore} bind def
/D10 {gsave translate 45 rotate 0 0 S10 stroke grestore} bind def
/D11 {gsave translate 45 rotate 0 0 S11 stroke grestore} bind def
/D12 {gsave translate 45 rotate 0 0 S12 stroke grestore} bind def
/D13 {gsave translate 45 rotate 0 0 S13 stroke grestore} bind def
/D14 {gsave translate 45 rotate 0 0 S14 stroke grestore} bind def
/D15 {gsave translate 45 rotate 0 0 S15 stroke grestore} bind def
/DiaE {stroke [] 0 setdash vpt add M
  hpt neg vpt neg V hpt vpt neg V
  hpt vpt V hpt neg vpt V closepath stroke} def
/BoxE {stroke [] 0 setdash exch hpt sub exch vpt add M
  0 vpt2 neg V hpt2 0 V 0 vpt2 V
  hpt2 neg 0 V closepath stroke} def
/TriUE {stroke [] 0 setdash vpt 1.12 mul add M
  hpt neg vpt -1.62 mul V
  hpt 2 mul 0 V
  hpt neg vpt 1.62 mul V closepath stroke} def
/TriDE {stroke [] 0 setdash vpt 1.12 mul sub M
  hpt neg vpt 1.62 mul V
  hpt 2 mul 0 V
  hpt neg vpt -1.62 mul V closepath stroke} def
/PentE {stroke [] 0 setdash gsave
  translate 0 hpt M 4 {72 rotate 0 hpt L} repeat
  closepath stroke grestore} def
/CircE {stroke [] 0 setdash 
  hpt 0 360 arc stroke} def
/Opaque {gsave closepath 1 setgray fill grestore 0 setgray closepath} def
/DiaW {stroke [] 0 setdash vpt add M
  hpt neg vpt neg V hpt vpt neg V
  hpt vpt V hpt neg vpt V Opaque stroke} def
/BoxW {stroke [] 0 setdash exch hpt sub exch vpt add M
  0 vpt2 neg V hpt2 0 V 0 vpt2 V
  hpt2 neg 0 V Opaque stroke} def
/TriUW {stroke [] 0 setdash vpt 1.12 mul add M
  hpt neg vpt -1.62 mul V
  hpt 2 mul 0 V
  hpt neg vpt 1.62 mul V Opaque stroke} def
/TriDW {stroke [] 0 setdash vpt 1.12 mul sub M
  hpt neg vpt 1.62 mul V
  hpt 2 mul 0 V
  hpt neg vpt -1.62 mul V Opaque stroke} def
/PentW {stroke [] 0 setdash gsave
  translate 0 hpt M 4 {72 rotate 0 hpt L} repeat
  Opaque stroke grestore} def
/CircW {stroke [] 0 setdash 
  hpt 0 360 arc Opaque stroke} def
/BoxFill {gsave Rec 1 setgray fill grestore} def
/Density {
  /Fillden exch def
  currentrgbcolor
  /ColB exch def /ColG exch def /ColR exch def
  /ColR ColR Fillden mul Fillden sub 1 add def
  /ColG ColG Fillden mul Fillden sub 1 add def
  /ColB ColB Fillden mul Fillden sub 1 add def
  ColR ColG ColB setrgbcolor} def
/BoxColFill {gsave Rec PolyFill} def
/PolyFill {gsave Density fill grestore grestore} def
/h {rlineto rlineto rlineto gsave fill grestore} bind def
%
% PostScript Level 1 Pattern Fill routine for rectangles
% Usage: x y w h s a XX PatternFill
%	x,y = lower left corner of box to be filled
%	w,h = width and height of box
%	  a = angle in degrees between lines and x-axis
%	 XX = 0/1 for no/yes cross-hatch
%
/PatternFill {gsave /PFa [ 9 2 roll ] def
  PFa 0 get PFa 2 get 2 div add PFa 1 get PFa 3 get 2 div add translate
  PFa 2 get -2 div PFa 3 get -2 div PFa 2 get PFa 3 get Rec
  gsave 1 setgray fill grestore clip
  currentlinewidth 0.5 mul setlinewidth
  /PFs PFa 2 get dup mul PFa 3 get dup mul add sqrt def
  0 0 M PFa 5 get rotate PFs -2 div dup translate
  0 1 PFs PFa 4 get div 1 add floor cvi
	{PFa 4 get mul 0 M 0 PFs V} for
  0 PFa 6 get ne {
	0 1 PFs PFa 4 get div 1 add floor cvi
	{PFa 4 get mul 0 2 1 roll M PFs 0 V} for
 } if
  stroke grestore} def
%
/languagelevel where
 {pop languagelevel} {1} ifelse
 2 lt
	{/InterpretLevel1 true def}
	{/InterpretLevel1 Level1 def}
 ifelse
%
% PostScript level 2 pattern fill definitions
%
/Level2PatternFill {
/Tile8x8 {/PaintType 2 /PatternType 1 /TilingType 1 /BBox [0 0 8 8] /XStep 8 /YStep 8}
	bind def
/KeepColor {currentrgbcolor [/Pattern /DeviceRGB] setcolorspace} bind def
<< Tile8x8
 /PaintProc {0.5 setlinewidth pop 0 0 M 8 8 L 0 8 M 8 0 L stroke} 
>> matrix makepattern
/Pat1 exch def
<< Tile8x8
 /PaintProc {0.5 setlinewidth pop 0 0 M 8 8 L 0 8 M 8 0 L stroke
	0 4 M 4 8 L 8 4 L 4 0 L 0 4 L stroke}
>> matrix makepattern
/Pat2 exch def
<< Tile8x8
 /PaintProc {0.5 setlinewidth pop 0 0 M 0 8 L
	8 8 L 8 0 L 0 0 L fill}
>> matrix makepattern
/Pat3 exch def
<< Tile8x8
 /PaintProc {0.5 setlinewidth pop -4 8 M 8 -4 L
	0 12 M 12 0 L stroke}
>> matrix makepattern
/Pat4 exch def
<< Tile8x8
 /PaintProc {0.5 setlinewidth pop -4 0 M 8 12 L
	0 -4 M 12 8 L stroke}
>> matrix makepattern
/Pat5 exch def
<< Tile8x8
 /PaintProc {0.5 setlinewidth pop -2 8 M 4 -4 L
	0 12 M 8 -4 L 4 12 M 10 0 L stroke}
>> matrix makepattern
/Pat6 exch def
<< Tile8x8
 /PaintProc {0.5 setlinewidth pop -2 0 M 4 12 L
	0 -4 M 8 12 L 4 -4 M 10 8 L stroke}
>> matrix makepattern
/Pat7 exch def
<< Tile8x8
 /PaintProc {0.5 setlinewidth pop 8 -2 M -4 4 L
	12 0 M -4 8 L 12 4 M 0 10 L stroke}
>> matrix makepattern
/Pat8 exch def
<< Tile8x8
 /PaintProc {0.5 setlinewidth pop 0 -2 M 12 4 L
	-4 0 M 12 8 L -4 4 M 8 10 L stroke}
>> matrix makepattern
/Pat9 exch def
/Pattern1 {PatternBgnd KeepColor Pat1 setpattern} bind def
/Pattern2 {PatternBgnd KeepColor Pat2 setpattern} bind def
/Pattern3 {PatternBgnd KeepColor Pat3 setpattern} bind def
/Pattern4 {PatternBgnd KeepColor Landscape {Pat5} {Pat4} ifelse setpattern} bind def
/Pattern5 {PatternBgnd KeepColor Landscape {Pat4} {Pat5} ifelse setpattern} bind def
/Pattern6 {PatternBgnd KeepColor Landscape {Pat9} {Pat6} ifelse setpattern} bind def
/Pattern7 {PatternBgnd KeepColor Landscape {Pat8} {Pat7} ifelse setpattern} bind def
} def
%
%
%End of PostScript Level 2 code
%
/PatternBgnd {
  TransparentPatterns {} {gsave 1 setgray fill grestore} ifelse
} def
%
% Substitute for Level 2 pattern fill codes with
% grayscale if Level 2 support is not selected.
%
/Level1PatternFill {
/Pattern1 {0.250 Density} bind def
/Pattern2 {0.500 Density} bind def
/Pattern3 {0.750 Density} bind def
/Pattern4 {0.125 Density} bind def
/Pattern5 {0.375 Density} bind def
/Pattern6 {0.625 Density} bind def
/Pattern7 {0.875 Density} bind def
} def
%
% Now test for support of Level 2 code
%
Level1 {Level1PatternFill} {Level2PatternFill} ifelse
%
/Symbol-Oblique /Symbol findfont [1 0 .167 1 0 0] makefont
dup length dict begin {1 index /FID eq {pop pop} {def} ifelse} forall
currentdict end definefont pop
end
%%EndProlog
%%Page: 1 1
gnudict begin
gsave
50 50 translate
0.100 0.100 scale
90 rotate
0 -5040 translate
0 setgray
newpath
(Helvetica) findfont 140 scalefont setfont
1.000 UL
LTb
630 420 M
63 0 V
6269 0 R
-63 0 V
546 420 M
( 4) Rshow
1.000 UL
LTb
630 915 M
63 0 V
6269 0 R
-63 0 V
546 915 M
( 6) Rshow
1.000 UL
LTb
630 1409 M
63 0 V
6269 0 R
-63 0 V
-6353 0 R
( 8) Rshow
1.000 UL
LTb
630 1904 M
63 0 V
6269 0 R
-63 0 V
-6353 0 R
( 10) Rshow
1.000 UL
LTb
630 2399 M
63 0 V
6269 0 R
-63 0 V
-6353 0 R
( 12) Rshow
1.000 UL
LTb
630 2893 M
63 0 V
6269 0 R
-63 0 V
-6353 0 R
( 14) Rshow
1.000 UL
LTb
630 3388 M
63 0 V
6269 0 R
-63 0 V
-6353 0 R
( 16) Rshow
1.000 UL
LTb
630 3883 M
63 0 V
6269 0 R
-63 0 V
-6353 0 R
( 18) Rshow
1.000 UL
LTb
630 4377 M
63 0 V
6269 0 R
-63 0 V
-6353 0 R
( 20) Rshow
1.000 UL
LTb
630 4872 M
63 0 V
6269 0 R
-63 0 V
-6353 0 R
( 22) Rshow
1.000 UL
LTb
630 420 M
0 63 V
0 4389 R
0 -63 V
630 280 M
( 6) Cshow
1.000 UL
LTb
1263 420 M
0 63 V
0 4389 R
0 -63 V
0 -4529 R
( 8) Cshow
1.000 UL
LTb
1896 420 M
0 63 V
0 4389 R
0 -63 V
0 -4529 R
( 10) Cshow
1.000 UL
LTb
2530 420 M
0 63 V
0 4389 R
0 -63 V
0 -4529 R
( 12) Cshow
1.000 UL
LTb
3163 420 M
0 63 V
0 4389 R
0 -63 V
0 -4529 R
( 14) Cshow
1.000 UL
LTb
3796 420 M
0 63 V
0 4389 R
0 -63 V
0 -4529 R
( 16) Cshow
1.000 UL
LTb
4429 420 M
0 63 V
0 4389 R
0 -63 V
0 -4529 R
( 18) Cshow
1.000 UL
LTb
5062 420 M
0 63 V
0 4389 R
0 -63 V
0 -4529 R
( 20) Cshow
1.000 UL
LTb
5696 420 M
0 63 V
0 4389 R
0 -63 V
0 -4529 R
( 22) Cshow
1.000 UL
LTb
6329 420 M
0 63 V
0 4389 R
0 -63 V
0 -4529 R
( 24) Cshow
1.000 UL
LTb
6962 420 M
0 63 V
0 4389 R
0 -63 V
0 -4529 R
( 26) Cshow
1.000 UL
LTb
1.000 UL
LTb
630 4872 N
630 420 L
6332 0 V
0 4452 V
-6332 0 V
Z stroke
LCb setrgbcolor
140 2646 M
currentpoint gsave translate 90 rotate 0 0 M
(H\(MeV\)) Cshow
grestore
LTb
LCb setrgbcolor
3796 70 M
(k) Cshow
LTb
1.000 UP
1.000 UL
LTb
2.000 UP
1.000 UL
LT2
/Helvetica findfont 140 scalefont setfont
2530 1959 M
-41 -55 V
41 -36 V
68 36 V
-68 55 V
-317 464 R
-31 -24 V
-286 -85 V
1580 2175 L
-31 -24 V
1350 1904 L
-87 -95 V
947 1681 L
-31 -24 V
31 -24 V
89 -224 V
947 1186 L
-31 -24 V
31 -24 V
1233 915 L
30 -24 V
317 0 V
316 0 V
317 0 V
31 24 V
286 223 V
30 24 V
286 223 V
31 24 V
286 224 V
30 24 V
141 247 V
145 223 V
31 24 V
-31 24 V
-30 -24 V
3163 2038 L
-286 113 V
-31 24 V
-316 169 V
-286 55 V
-31 24 V
1896 2233 M
-167 -82 V
-149 -83 V
1434 1904 L
1263 1718 L
-135 -61 V
-6 -248 V
78 -247 V
63 -49 V
1580 988 L
316 -20 V
317 59 V
173 135 V
144 87 V
204 160 V
112 132 V
148 116 V
169 198 V
31 49 V
-31 24 V
-317 163 V
2664 1904 L
-134 -70 V
-80 70 V
80 108 V
236 139 V
-236 140 V
-317 20 V
-317 -78 V
317 -23 R
-298 -59 V
-19 -2 V
1580 1970 L
-59 -66 V
1284 1657 L
-21 -95 V
-51 -153 V
51 -104 V
137 -143 V
180 -89 V
316 -42 V
317 126 V
6 5 V
311 189 V
74 58 V
223 248 V
19 32 V
216 215 V
-216 117 V
2732 1904 L
2530 1798 L
-120 106 V
120 163 V
143 84 V
-143 85 V
-317 -26 V
317 -27 R
-188 -32 V
-129 -22 V
-317 -32 V
1603 1904 L
-23 -16 V
1340 1657 L
-41 -248 V
268 -247 V
13 -6 V
316 -65 V
175 71 V
142 47 V
288 200 V
29 29 V
224 219 V
92 155 V
92 92 V
-92 50 V
-48 -50 V
2530 1763 L
-159 141 V
159 216 V
53 31 V
-53 32 V
1896 2044 M
1683 1904 L
-103 -70 V
1397 1657 L
-8 -248 V
191 -173 V
264 -74 V
52 -11 V
28 11 V
289 96 V
217 151 V
100 100 V
151 148 V
-151 71 V
-198 176 V
-119 170 V
-317 -30 V
0 -54 R
-130 -86 V
1580 1777 L
1455 1657 L
26 -248 V
99 -89 V
316 -115 V
317 104 V
144 100 V
173 174 V
75 74 V
-75 36 V
-238 211 V
-79 112 V
-317 -26 V
0 -53 R
-50 -33 V
1580 1723 L
-69 -66 V
59 -248 V
10 -9 V
316 -144 V
317 102 V
73 51 V
244 245 V
2 3 V
-2 1 V
-277 246 V
-40 57 V
-317 -24 V
317 -33 R
-317 -42 V
1580 1667 L
-11 -10 V
11 -42 V
100 -206 V
216 -101 V
317 101 V
181 248 V
-181 247 V
1896 1759 M
1722 1657 L
66 -248 V
108 -50 V
159 50 V
158 186 V
45 62 V
-45 62 V
-317 40 V
2530 1959 Star
2489 1904 Star
2530 1868 Star
2598 1904 Star
2530 1959 Star
2213 2423 Star
2182 2399 Star
1896 2314 Star
1580 2175 Star
1549 2151 Star
1350 1904 Star
1263 1809 Star
947 1681 Star
916 1657 Star
947 1633 Star
1036 1409 Star
947 1186 Star
916 1162 Star
947 1138 Star
1233 915 Star
1263 891 Star
1580 891 Star
1896 891 Star
2213 891 Star
2244 915 Star
2530 1138 Star
2560 1162 Star
2846 1385 Star
2877 1409 Star
3163 1633 Star
3193 1657 Star
3334 1904 Star
3479 2127 Star
3510 2151 Star
3479 2175 Star
3449 2151 Star
3163 2038 Star
2877 2151 Star
2846 2175 Star
2530 2344 Star
2244 2399 Star
2213 2423 Star
1896 2233 Star
1729 2151 Star
1580 2068 Star
1434 1904 Star
1263 1718 Star
1128 1657 Star
1122 1409 Star
1200 1162 Star
1263 1113 Star
1580 988 Star
1896 968 Star
2213 1027 Star
2386 1162 Star
2530 1249 Star
2734 1409 Star
2846 1541 Star
2994 1657 Star
3163 1855 Star
3194 1904 Star
3163 1928 Star
2846 2091 Star
2664 1904 Star
2530 1834 Star
2450 1904 Star
2530 2012 Star
2766 2151 Star
2530 2291 Star
2213 2311 Star
1896 2233 Star
2213 2210 Star
1915 2151 Star
1896 2149 Star
1580 1970 Star
1521 1904 Star
1284 1657 Star
1263 1562 Star
1212 1409 Star
1263 1305 Star
1400 1162 Star
1580 1073 Star
1896 1031 Star
2213 1157 Star
2219 1162 Star
2530 1351 Star
2604 1409 Star
2827 1657 Star
2846 1689 Star
3062 1904 Star
2846 2021 Star
2732 1904 Star
2530 1798 Star
2410 1904 Star
2530 2067 Star
2673 2151 Star
2530 2236 Star
2213 2210 Star
2530 2183 Star
2342 2151 Star
2213 2129 Star
1896 2097 Star
1603 1904 Star
1580 1888 Star
1340 1657 Star
1299 1409 Star
1567 1162 Star
1580 1156 Star
1896 1091 Star
2071 1162 Star
2213 1209 Star
2501 1409 Star
2530 1438 Star
2754 1657 Star
2846 1812 Star
2938 1904 Star
2846 1954 Star
2798 1904 Star
2530 1763 Star
2371 1904 Star
2530 2120 Star
2583 2151 Star
2530 2183 Star
1896 2044 Star
1683 1904 Star
1580 1834 Star
1397 1657 Star
1389 1409 Star
1580 1236 Star
1844 1162 Star
1896 1151 Star
1924 1162 Star
2213 1258 Star
2430 1409 Star
2530 1509 Star
2681 1657 Star
2530 1728 Star
2332 1904 Star
2213 2074 Star
1896 2044 Star
1896 1990 Star
1766 1904 Star
1580 1777 Star
1455 1657 Star
1481 1409 Star
1580 1320 Star
1896 1205 Star
2213 1309 Star
2357 1409 Star
2530 1583 Star
2605 1657 Star
2530 1693 Star
2292 1904 Star
2213 2016 Star
1896 1990 Star
1896 1937 Star
1846 1904 Star
1580 1723 Star
1511 1657 Star
1570 1409 Star
1580 1400 Star
1896 1256 Star
2213 1358 Star
2286 1409 Star
2530 1654 Star
2532 1657 Star
2530 1658 Star
2253 1904 Star
2213 1961 Star
1896 1937 Star
2213 1904 Star
1896 1862 Star
1580 1667 Star
1569 1657 Star
1580 1615 Star
1680 1409 Star
1896 1308 Star
2213 1409 Star
2394 1657 Star
2213 1904 Star
1896 1759 Star
1722 1657 Star
1788 1409 Star
1896 1359 Star
2055 1409 Star
2213 1595 Star
2258 1657 Star
2213 1719 Star
1896 1759 Star
1.000 UL
LT0
/Helvetica findfont 140 scalefont setfont
6207 4413 M
-44 36 V
-49 32 V
-54 29 V
-59 25 V
-63 20 V
-69 16 V
-72 12 V
-77 8 V
-80 3 V
-83 -1 V
-86 -5 V
-89 -10 V
-91 -14 V
-94 -18 V
-94 -22 V
-96 -27 V
-96 -30 V
-97 -34 V
-97 -38 V
-96 -42 V
-96 -45 V
-94 -48 V
-93 -51 V
-91 -54 V
-88 -57 V
-86 -59 V
-83 -61 V
-80 -63 V
-75 -64 V
-72 -66 V
-68 -67 V
-63 -68 V
-58 -69 V
-54 -68 V
-48 -69 V
-42 -69 V
-37 -67 V
-31 -68 V
-26 -66 V
-19 -64 V
-13 -63 V
-8 -61 V
-1 -59 V
5 -57 V
12 -54 V
17 -51 V
23 -49 V
29 -45 V
35 -41 V
41 -39 V
46 -34 V
52 -31 V
56 -26 V
62 -23 V
66 -18 V
70 -14 V
75 -10 V
78 -6 V
82 -1 V
85 3 V
87 8 V
90 12 V
93 16 V
93 20 V
96 25 V
96 28 V
96 32 V
97 37 V
97 39 V
96 44 V
95 46 V
94 50 V
91 53 V
90 55 V
87 58 V
85 60 V
81 62 V
78 63 V
74 66 V
69 66 V
66 68 V
61 68 V
55 69 V
51 68 V
45 69 V
40 68 V
34 68 V
29 66 V
22 66 V
16 63 V
11 63 V
4 60 V
-2 58 V
-8 55 V
-15 53 V
-20 49 V
-26 47 V
-32 44 V
-38 40 V
/Helvetica findfont 140 scalefont setfont
-107 -1 R
-41 33 V
-45 31 V
-50 27 V
-54 24 V
5852 4547 L
-61 16 V
-65 13 V
-69 9 V
-71 5 V
-74 1 V
-77 -2 V
-78 -7 V
-80 -10 V
-82 -14 V
-82 -18 V
-84 -22 V
-84 -25 V
-84 -28 V
-84 -32 V
-83 -35 V
-82 -38 V
-81 -41 V
-79 -44 V
-78 -47 V
-75 -48 V
-73 -51 V
-70 -53 V
-67 -55 V
-63 -57 V
-60 -57 V
-56 -59 V
-52 -60 V
-48 -60 V
-43 -61 V
-39 -60 V
-34 -61 V
-28 -60 V
-24 -60 V
-19 -59 V
-13 -58 V
-8 -56 V
-3 -55 V
3 -54 V
8 -51 V
13 -49 V
18 -47 V
24 -44 V
28 -41 V
34 -39 V
38 -35 V
44 -33 V
47 -29 V
52 -25 V
56 -22 V
60 -18 V
63 -15 V
67 -11 V
70 -7 V
73 -3 V
75 1 V
77 5 V
80 8 V
80 12 V
83 16 V
83 20 V
84 23 V
84 27 V
83 30 V
84 34 V
83 36 V
81 40 V
81 42 V
78 46 V
76 47 V
75 50 V
71 52 V
68 54 V
66 56 V
61 57 V
58 58 V
55 59 V
49 60 V
46 61 V
41 60 V
36 61 V
31 61 V
27 60 V
21 59 V
16 59 V
10 57 V
6 56 V
0 54 V
-5 52 V
-11 50 V
-16 48 V
-21 46 V
-26 42 V
-31 40 V
-36 38 V
/Helvetica findfont 140 scalefont setfont
-44 -110 R
-38 32 V
-41 29 V
-46 25 V
-49 23 V
-53 19 V
-57 16 V
-59 13 V
-62 10 V
-65 5 V
5518 4477 L
-69 -1 V
-71 -5 V
-73 -8 V
-74 -11 V
-75 -15 V
-76 -19 V
-75 -21 V
-76 -25 V
-76 -27 V
-75 -31 V
-74 -34 V
-73 -36 V
-72 -38 V
-70 -42 V
-67 -43 V
-66 -45 V
-62 -48 V
-60 -49 V
-57 -50 V
-54 -52 V
-50 -53 V
-46 -53 V
-43 -55 V
-38 -55 V
-34 -55 V
-30 -55 V
-25 -54 V
-21 -55 V
-16 -53 V
-11 -53 V
-7 -51 V
-1 -51 V
3 -48 V
8 -48 V
13 -45 V
17 -43 V
22 -41 V
27 -38 V
31 -36 V
36 -33 V
39 -30 V
44 -28 V
48 -24 V
51 -21 V
54 -18 V
58 -14 V
61 -11 V
64 -8 V
66 -4 V
68 0 V
71 2 V
72 7 V
73 10 V
75 13 V
75 16 V
76 20 V
76 23 V
75 26 V
76 30 V
75 32 V
73 35 V
72 37 V
71 40 V
69 42 V
67 45 V
64 46 V
61 48 V
59 50 V
55 51 V
52 52 V
48 54 V
44 54 V
41 54 V
36 55 V
32 55 V
27 55 V
23 55 V
19 54 V
13 53 V
9 52 V
4 51 V
0 50 V
-6 47 V
-10 47 V
-16 44 V
-19 42 V
-25 39 V
-29 38 V
-33 34 V
/Helvetica findfont 140 scalefont setfont
5667 4110 M
-34 28 V
-36 26 V
-40 24 V
-43 21 V
-45 19 V
-48 16 V
-50 13 V
-52 10 V
-54 8 V
-56 5 V
-57 2 V
-58 -1 V
-59 -4 V
-60 -7 V
4914 4261 L
-61 -12 V
-60 -15 V
-61 -18 V
-60 -20 V
-59 -23 V
-59 -25 V
-57 -28 V
-56 -30 V
-54 -32 V
-52 -33 V
-50 -36 V
-48 -37 V
-46 -39 V
-42 -41 V
-40 -41 V
-37 -43 V
-34 -43 V
-31 -44 V
-27 -45 V
-23 -45 V
-20 -45 V
-17 -45 V
-12 -45 V
-9 -45 V
-5 -44 V
-1 -43 V
3 -42 V
6 -42 V
11 -40 V
14 -38 V
18 -37 V
22 -36 V
25 -33 V
28 -32 V
32 -29 V
36 -28 V
38 -24 V
41 -23 V
44 -20 V
46 -17 V
49 -15 V
51 -11 V
53 -9 V
55 -7 V
57 -3 V
57 0 V
59 2 V
60 5 V
60 8 V
61 11 V
61 14 V
61 16 V
60 19 V
60 21 V
59 25 V
57 26 V
57 29 V
55 30 V
53 33 V
51 35 V
49 37 V
47 38 V
44 39 V
41 41 V
39 42 V
35 43 V
32 44 V
29 44 V
26 45 V
21 45 V
19 46 V
14 45 V
11 44 V
7 45 V
3 43 V
-1 43 V
-5 42 V
-8 41 V
-13 39 V
-16 38 V
-20 36 V
-23 35 V
-27 32 V
-30 31 V
/Helvetica findfont 140 scalefont setfont
5563 3976 M
-28 24 V
-30 22 V
-34 20 V
-35 17 V
-38 16 V
-40 13 V
-42 11 V
-44 9 V
-46 7 V
-47 4 V
-48 1 V
-49 -1 V
-50 -3 V
-51 -5 V
-51 -8 V
-51 -11 V
-52 -12 V
-51 -15 V
-51 -17 V
4675 4028 L
-50 -21 V
-48 -23 V
-48 -25 V
-46 -27 V
-44 -28 V
-43 -31 V
-41 -31 V
-39 -33 V
-36 -34 V
-35 -35 V
-31 -35 V
-29 -37 V
-27 -37 V
-23 -38 V
-21 -38 V
-17 -38 V
-15 -38 V
-11 -37 V
-8 -38 V
-4 -37 V
-2 -37 V
2 -35 V
5 -35 V
8 -34 V
12 -32 V
14 -31 V
18 -30 V
21 -28 V
24 -27 V
26 -25 V
30 -23 V
32 -20 V
34 -19 V
37 -17 V
39 -15 V
41 -12 V
43 -10 V
44 -7 V
47 -5 V
47 -3 V
49 -1 V
50 2 V
50 5 V
51 7 V
51 9 V
52 11 V
51 14 V
51 16 V
51 18 V
50 20 V
49 23 V
48 24 V
47 26 V
45 27 V
44 30 V
42 31 V
39 32 V
38 33 V
36 34 V
33 36 V
30 36 V
28 37 V
25 37 V
22 38 V
19 38 V
15 38 V
13 38 V
10 38 V
6 37 V
3 37 V
0 36 V
-3 35 V
-7 34 V
-10 34 V
-13 31 V
-16 31 V
-19 29 V
-23 27 V
-25 26 V
/Helvetica findfont 140 scalefont setfont
-166 -96 R
-24 19 V
-25 19 V
-28 17 V
-29 15 V
-31 14 V
-32 11 V
-34 10 V
-35 9 V
-36 6 V
-37 4 V
-39 3 V
-39 1 V
-39 -2 V
-40 -3 V
-40 -5 V
-40 -7 V
-40 -9 V
-40 -10 V
-39 -13 V
-39 -14 V
-38 -16 V
-37 -17 V
-36 -19 V
-35 -20 V
4511 3851 L
-32 -23 V
-31 -24 V
-29 -26 V
-27 -26 V
-25 -27 V
-23 -28 V
-22 -29 V
-18 -29 V
-17 -29 V
-14 -30 V
-12 -31 V
-9 -30 V
-7 -30 V
-4 -30 V
-2 -29 V
1 -30 V
3 -28 V
6 -29 V
8 -27 V
11 -26 V
13 -26 V
16 -24 V
18 -23 V
20 -22 V
22 -21 V
25 -19 V
26 -18 V
28 -16 V
30 -14 V
32 -13 V
33 -11 V
35 -9 V
35 -7 V
37 -6 V
38 -3 V
39 -2 V
39 1 V
39 2 V
40 4 V
40 6 V
41 8 V
39 10 V
40 11 V
39 13 V
39 15 V
37 17 V
37 18 V
36 20 V
34 21 V
33 22 V
31 24 V
30 25 V
28 25 V
26 27 V
25 28 V
22 28 V
20 29 V
17 29 V
16 30 V
13 30 V
10 30 V
8 30 V
6 31 V
3 29 V
1 30 V
-2 29 V
-5 28 V
-7 28 V
-10 27 V
-12 26 V
-14 25 V
-17 24 V
-19 22 V
-21 22 V
/Helvetica findfont 140 scalefont setfont
-4 43 R
-21 17 V
-23 16 V
-24 14 V
-26 13 V
-28 11 V
-29 9 V
-31 8 V
-32 6 V
-33 5 V
-35 2 V
-35 1 V
-36 -1 V
-36 -3 V
-37 -4 V
-37 -6 V
-38 -8 V
-37 -10 V
-37 -11 V
-38 -13 V
-36 -14 V
-36 -16 V
-35 -17 V
-35 -19 V
-33 -20 V
-32 -21 V
-31 -22 V
-30 -23 V
-28 -24 V
-26 -25 V
4433 3742 L
-23 -26 V
-21 -27 V
-18 -28 V
-17 -27 V
-15 -28 V
-12 -28 V
-10 -28 V
-8 -27 V
-6 -28 V
-3 -27 V
-1 -26 V
2 -26 V
4 -26 V
6 -24 V
9 -24 V
11 -23 V
13 -21 V
16 -21 V
17 -19 V
20 -18 V
21 -16 V
24 -15 V
25 -14 V
27 -11 V
29 -11 V
30 -8 V
31 -7 V
33 -6 V
34 -3 V
34 -2 V
36 0 V
36 2 V
37 4 V
37 5 V
37 7 V
38 9 V
37 10 V
37 12 V
37 14 V
36 15 V
36 17 V
35 18 V
34 19 V
33 20 V
31 22 V
30 23 V
29 23 V
27 25 V
26 25 V
24 26 V
22 27 V
19 27 V
18 27 V
16 28 V
14 28 V
11 28 V
9 28 V
6 27 V
5 27 V
2 27 V
-1 27 V
-3 25 V
-5 25 V
-7 24 V
-10 23 V
-12 23 V
-14 21 V
-17 19 V
-18 19 V
/Helvetica findfont 140 scalefont setfont
5137 3751 M
-15 12 V
-17 12 V
-18 11 V
-19 9 V
-21 9 V
-21 7 V
-23 6 V
-23 5 V
-24 3 V
-25 2 V
-26 1 V
-26 0 V
-26 -2 V
-27 -3 V
-27 -4 V
-27 -5 V
-27 -7 V
-27 -8 V
-27 -9 V
-26 -10 V
-26 -11 V
-25 -12 V
-25 -14 V
-24 -14 V
-23 -15 V
-22 -16 V
-21 -16 V
-20 -18 V
-18 -18 V
-18 -18 V
-16 -19 V
-15 -20 V
-13 -20 V
-12 -20 V
4377 3529 L
-8 -20 V
-7 -20 V
-5 -20 V
-4 -20 V
-1 -20 V
-1 -19 V
2 -19 V
3 -19 V
5 -18 V
7 -17 V
9 -17 V
10 -16 V
11 -15 V
13 -14 V
15 -13 V
16 -13 V
17 -11 V
19 -10 V
20 -9 V
21 -8 V
22 -6 V
22 -6 V
24 -4 V
25 -3 V
25 -1 V
26 0 V
26 1 V
27 2 V
27 3 V
27 5 V
27 6 V
27 7 V
27 9 V
26 9 V
26 11 V
26 12 V
25 13 V
24 13 V
23 15 V
23 16 V
22 16 V
20 17 V
19 18 V
18 18 V
17 19 V
16 19 V
14 20 V
12 19 V
11 20 V
9 21 V
8 20 V
6 20 V
4 20 V
3 20 V
1 20 V
-1 19 V
-2 19 V
-5 18 V
-5 18 V
-8 17 V
-9 16 V
-11 15 V
-12 15 V
-14 14 V
/Helvetica findfont 140 scalefont setfont
9 2 R
-10 8 V
-11 7 V
-12 7 V
-13 5 V
-15 5 V
-15 3 V
-16 3 V
-17 1 V
-18 1 V
-18 0 V
-19 -1 V
-20 -2 V
-20 -4 V
-20 -4 V
-21 -5 V
-21 -6 V
-21 -6 V
-21 -8 V
-21 -9 V
-21 -9 V
-21 -10 V
-21 -11 V
-20 -11 V
-19 -12 V
-19 -13 V
-19 -13 V
-18 -13 V
-17 -14 V
-16 -15 V
-15 -15 V
-15 -14 V
-13 -16 V
-12 -15 V
-11 -15 V
-10 -15 V
-9 -16 V
-8 -15 V
-6 -15 V
-5 -14 V
4518 3462 L
-2 -14 V
-1 -13 V
0 -13 V
2 -13 V
3 -12 V
4 -11 V
5 -11 V
7 -10 V
8 -10 V
10 -8 V
10 -8 V
12 -6 V
13 -6 V
13 -5 V
15 -4 V
16 -4 V
17 -2 V
17 -1 V
18 0 V
19 1 V
19 1 V
20 3 V
20 4 V
21 4 V
21 6 V
21 6 V
21 7 V
21 8 V
21 9 V
21 10 V
20 10 V
21 11 V
20 12 V
19 12 V
19 13 V
18 14 V
17 13 V
17 15 V
16 14 V
15 15 V
13 15 V
13 15 V
12 15 V
11 16 V
9 15 V
8 15 V
7 15 V
6 15 V
4 15 V
3 14 V
2 14 V
0 13 V
-1 13 V
-2 12 V
-3 12 V
-5 11 V
-7 10 V
-7 10 V
-9 9 V
stroke
LTb
630 4872 N
630 420 L
6332 0 V
0 4452 V
-6332 0 V
Z stroke
1.000 UP
1.000 UL
LTb
stroke
grestore
end
showpage
%%Trailer
%%DocumentFonts: Helvetica
%%Pages: 1
