%!PS-Adobe-2.0
%%Title: app0_207Bi_50.ps
%%Creator: gnuplot 4.2 patchlevel 0
%%CreationDate: Fri Aug  1 07:07:44 2008
%%DocumentFonts: (atend)
%%BoundingBox: 50 50 554 770
%%Orientation: Landscape
%%Pages: (atend)
%%EndComments
%%BeginProlog
/gnudict 256 dict def
gnudict begin
%
% The following 6 true/false flags may be edited by hand if required
% The unit line width may also be changed
%
/Color true def
/Blacktext false def
/Solid true def
/Dashlength 1 def
/Landscape true def
/Level1 false def
/Rounded false def
/TransparentPatterns false def
/gnulinewidth 5.000 def
/userlinewidth gnulinewidth def
%
/vshift -46 def
/dl1 {
  10.0 Dashlength mul mul
  Rounded { currentlinewidth 0.75 mul sub dup 0 le { pop 0.01 } if } if
} def
/dl2 {
  10.0 Dashlength mul mul
  Rounded { currentlinewidth 0.75 mul add } if
} def
/hpt_ 31.5 def
/vpt_ 31.5 def
/hpt hpt_ def
/vpt vpt_ def
Level1 {} {
/SDict 10 dict def
systemdict /pdfmark known not {
  userdict /pdfmark systemdict /cleartomark get put
} if
SDict begin [
  /Title (app0_207Bi_50.ps)
  /Subject (gnuplot plot)
  /Creator (gnuplot 4.2 patchlevel 0)
  /Author (,,,)
%  /Producer (gnuplot)
%  /Keywords ()
  /CreationDate (Fri Aug  1 07:07:44 2008)
  /DOCINFO pdfmark
end
} ifelse
%
% Gnuplot Prolog Version 4.2 (August 2006)
%
/M {moveto} bind def
/L {lineto} bind def
/R {rmoveto} bind def
/V {rlineto} bind def
/N {newpath moveto} bind def
/Z {closepath} bind def
/C {setrgbcolor} bind def
/f {rlineto fill} bind def
/vpt2 vpt 2 mul def
/hpt2 hpt 2 mul def
/Lshow {currentpoint stroke M 0 vshift R 
	Blacktext {gsave 0 setgray show grestore} {show} ifelse} def
/Rshow {currentpoint stroke M dup stringwidth pop neg vshift R
	Blacktext {gsave 0 setgray show grestore} {show} ifelse} def
/Cshow {currentpoint stroke M dup stringwidth pop -2 div vshift R 
	Blacktext {gsave 0 setgray show grestore} {show} ifelse} def
/UP {dup vpt_ mul /vpt exch def hpt_ mul /hpt exch def
  /hpt2 hpt 2 mul def /vpt2 vpt 2 mul def} def
/DL {Color {setrgbcolor Solid {pop []} if 0 setdash}
 {pop pop pop 0 setgray Solid {pop []} if 0 setdash} ifelse} def
/BL {stroke userlinewidth 2 mul setlinewidth
	Rounded {1 setlinejoin 1 setlinecap} if} def
/AL {stroke userlinewidth 2 div setlinewidth
	Rounded {1 setlinejoin 1 setlinecap} if} def
/UL {dup gnulinewidth mul /userlinewidth exch def
	dup 1 lt {pop 1} if 10 mul /udl exch def} def
/PL {stroke userlinewidth setlinewidth
	Rounded {1 setlinejoin 1 setlinecap} if} def
% Default Line colors
/LCw {1 1 1} def
/LCb {0 0 0} def
/LCa {0 0 0} def
/LC0 {1 0 0} def
/LC1 {0 1 0} def
/LC2 {0 0 1} def
/LC3 {1 0 1} def
/LC4 {0 1 1} def
/LC5 {1 1 0} def
/LC6 {0 0 0} def
/LC7 {1 0.3 0} def
/LC8 {0.5 0.5 0.5} def
% Default Line Types
/LTw {PL [] 1 setgray} def
/LTb {BL [] LCb DL} def
/LTa {AL [1 udl mul 2 udl mul] 0 setdash LCa setrgbcolor} def
/LT0 {PL [] LC0 DL} def
/LT1 {PL [4 dl1 2 dl2] LC1 DL} def
/LT2 {PL [2 dl1 3 dl2] LC2 DL} def
/LT3 {PL [1 dl1 1.5 dl2] LC3 DL} def
/LT4 {PL [6 dl1 2 dl2 1 dl1 2 dl2] LC4 DL} def
/LT5 {PL [3 dl1 3 dl2 1 dl1 3 dl2] LC5 DL} def
/LT6 {PL [2 dl1 2 dl2 2 dl1 6 dl2] LC6 DL} def
/LT7 {PL [1 dl1 2 dl2 6 dl1 2 dl2 1 dl1 2 dl2] LC7 DL} def
/LT8 {PL [2 dl1 2 dl2 2 dl1 2 dl2 2 dl1 2 dl2 2 dl1 4 dl2] LC8 DL} def
/Pnt {stroke [] 0 setdash gsave 1 setlinecap M 0 0 V stroke grestore} def
/Dia {stroke [] 0 setdash 2 copy vpt add M
  hpt neg vpt neg V hpt vpt neg V
  hpt vpt V hpt neg vpt V closepath stroke
  Pnt} def
/Pls {stroke [] 0 setdash vpt sub M 0 vpt2 V
  currentpoint stroke M
  hpt neg vpt neg R hpt2 0 V stroke
 } def
/Box {stroke [] 0 setdash 2 copy exch hpt sub exch vpt add M
  0 vpt2 neg V hpt2 0 V 0 vpt2 V
  hpt2 neg 0 V closepath stroke
  Pnt} def
/Crs {stroke [] 0 setdash exch hpt sub exch vpt add M
  hpt2 vpt2 neg V currentpoint stroke M
  hpt2 neg 0 R hpt2 vpt2 V stroke} def
/TriU {stroke [] 0 setdash 2 copy vpt 1.12 mul add M
  hpt neg vpt -1.62 mul V
  hpt 2 mul 0 V
  hpt neg vpt 1.62 mul V closepath stroke
  Pnt} def
/Star {2 copy Pls Crs} def
/BoxF {stroke [] 0 setdash exch hpt sub exch vpt add M
  0 vpt2 neg V hpt2 0 V 0 vpt2 V
  hpt2 neg 0 V closepath fill} def
/TriUF {stroke [] 0 setdash vpt 1.12 mul add M
  hpt neg vpt -1.62 mul V
  hpt 2 mul 0 V
  hpt neg vpt 1.62 mul V closepath fill} def
/TriD {stroke [] 0 setdash 2 copy vpt 1.12 mul sub M
  hpt neg vpt 1.62 mul V
  hpt 2 mul 0 V
  hpt neg vpt -1.62 mul V closepath stroke
  Pnt} def
/TriDF {stroke [] 0 setdash vpt 1.12 mul sub M
  hpt neg vpt 1.62 mul V
  hpt 2 mul 0 V
  hpt neg vpt -1.62 mul V closepath fill} def
/DiaF {stroke [] 0 setdash vpt add M
  hpt neg vpt neg V hpt vpt neg V
  hpt vpt V hpt neg vpt V closepath fill} def
/Pent {stroke [] 0 setdash 2 copy gsave
  translate 0 hpt M 4 {72 rotate 0 hpt L} repeat
  closepath stroke grestore Pnt} def
/PentF {stroke [] 0 setdash gsave
  translate 0 hpt M 4 {72 rotate 0 hpt L} repeat
  closepath fill grestore} def
/Circle {stroke [] 0 setdash 2 copy
  hpt 0 360 arc stroke Pnt} def
/CircleF {stroke [] 0 setdash hpt 0 360 arc fill} def
/C0 {BL [] 0 setdash 2 copy moveto vpt 90 450 arc} bind def
/C1 {BL [] 0 setdash 2 copy moveto
	2 copy vpt 0 90 arc closepath fill
	vpt 0 360 arc closepath} bind def
/C2 {BL [] 0 setdash 2 copy moveto
	2 copy vpt 90 180 arc closepath fill
	vpt 0 360 arc closepath} bind def
/C3 {BL [] 0 setdash 2 copy moveto
	2 copy vpt 0 180 arc closepath fill
	vpt 0 360 arc closepath} bind def
/C4 {BL [] 0 setdash 2 copy moveto
	2 copy vpt 180 270 arc closepath fill
	vpt 0 360 arc closepath} bind def
/C5 {BL [] 0 setdash 2 copy moveto
	2 copy vpt 0 90 arc
	2 copy moveto
	2 copy vpt 180 270 arc closepath fill
	vpt 0 360 arc} bind def
/C6 {BL [] 0 setdash 2 copy moveto
	2 copy vpt 90 270 arc closepath fill
	vpt 0 360 arc closepath} bind def
/C7 {BL [] 0 setdash 2 copy moveto
	2 copy vpt 0 270 arc closepath fill
	vpt 0 360 arc closepath} bind def
/C8 {BL [] 0 setdash 2 copy moveto
	2 copy vpt 270 360 arc closepath fill
	vpt 0 360 arc closepath} bind def
/C9 {BL [] 0 setdash 2 copy moveto
	2 copy vpt 270 450 arc closepath fill
	vpt 0 360 arc closepath} bind def
/C10 {BL [] 0 setdash 2 copy 2 copy moveto vpt 270 360 arc closepath fill
	2 copy moveto
	2 copy vpt 90 180 arc closepath fill
	vpt 0 360 arc closepath} bind def
/C11 {BL [] 0 setdash 2 copy moveto
	2 copy vpt 0 180 arc closepath fill
	2 copy moveto
	2 copy vpt 270 360 arc closepath fill
	vpt 0 360 arc closepath} bind def
/C12 {BL [] 0 setdash 2 copy moveto
	2 copy vpt 180 360 arc closepath fill
	vpt 0 360 arc closepath} bind def
/C13 {BL [] 0 setdash 2 copy moveto
	2 copy vpt 0 90 arc closepath fill
	2 copy moveto
	2 copy vpt 180 360 arc closepath fill
	vpt 0 360 arc closepath} bind def
/C14 {BL [] 0 setdash 2 copy moveto
	2 copy vpt 90 360 arc closepath fill
	vpt 0 360 arc} bind def
/C15 {BL [] 0 setdash 2 copy vpt 0 360 arc closepath fill
	vpt 0 360 arc closepath} bind def
/Rec {newpath 4 2 roll moveto 1 index 0 rlineto 0 exch rlineto
	neg 0 rlineto closepath} bind def
/Square {dup Rec} bind def
/Bsquare {vpt sub exch vpt sub exch vpt2 Square} bind def
/S0 {BL [] 0 setdash 2 copy moveto 0 vpt rlineto BL Bsquare} bind def
/S1 {BL [] 0 setdash 2 copy vpt Square fill Bsquare} bind def
/S2 {BL [] 0 setdash 2 copy exch vpt sub exch vpt Square fill Bsquare} bind def
/S3 {BL [] 0 setdash 2 copy exch vpt sub exch vpt2 vpt Rec fill Bsquare} bind def
/S4 {BL [] 0 setdash 2 copy exch vpt sub exch vpt sub vpt Square fill Bsquare} bind def
/S5 {BL [] 0 setdash 2 copy 2 copy vpt Square fill
	exch vpt sub exch vpt sub vpt Square fill Bsquare} bind def
/S6 {BL [] 0 setdash 2 copy exch vpt sub exch vpt sub vpt vpt2 Rec fill Bsquare} bind def
/S7 {BL [] 0 setdash 2 copy exch vpt sub exch vpt sub vpt vpt2 Rec fill
	2 copy vpt Square fill Bsquare} bind def
/S8 {BL [] 0 setdash 2 copy vpt sub vpt Square fill Bsquare} bind def
/S9 {BL [] 0 setdash 2 copy vpt sub vpt vpt2 Rec fill Bsquare} bind def
/S10 {BL [] 0 setdash 2 copy vpt sub vpt Square fill 2 copy exch vpt sub exch vpt Square fill
	Bsquare} bind def
/S11 {BL [] 0 setdash 2 copy vpt sub vpt Square fill 2 copy exch vpt sub exch vpt2 vpt Rec fill
	Bsquare} bind def
/S12 {BL [] 0 setdash 2 copy exch vpt sub exch vpt sub vpt2 vpt Rec fill Bsquare} bind def
/S13 {BL [] 0 setdash 2 copy exch vpt sub exch vpt sub vpt2 vpt Rec fill
	2 copy vpt Square fill Bsquare} bind def
/S14 {BL [] 0 setdash 2 copy exch vpt sub exch vpt sub vpt2 vpt Rec fill
	2 copy exch vpt sub exch vpt Square fill Bsquare} bind def
/S15 {BL [] 0 setdash 2 copy Bsquare fill Bsquare} bind def
/D0 {gsave translate 45 rotate 0 0 S0 stroke grestore} bind def
/D1 {gsave translate 45 rotate 0 0 S1 stroke grestore} bind def
/D2 {gsave translate 45 rotate 0 0 S2 stroke grestore} bind def
/D3 {gsave translate 45 rotate 0 0 S3 stroke grestore} bind def
/D4 {gsave translate 45 rotate 0 0 S4 stroke grestore} bind def
/D5 {gsave translate 45 rotate 0 0 S5 stroke grestore} bind def
/D6 {gsave translate 45 rotate 0 0 S6 stroke grestore} bind def
/D7 {gsave translate 45 rotate 0 0 S7 stroke grestore} bind def
/D8 {gsave translate 45 rotate 0 0 S8 stroke grestore} bind def
/D9 {gsave translate 45 rotate 0 0 S9 stroke grestore} bind def
/D10 {gsave translate 45 rotate 0 0 S10 stroke grestore} bind def
/D11 {gsave translate 45 rotate 0 0 S11 stroke grestore} bind def
/D12 {gsave translate 45 rotate 0 0 S12 stroke grestore} bind def
/D13 {gsave translate 45 rotate 0 0 S13 stroke grestore} bind def
/D14 {gsave translate 45 rotate 0 0 S14 stroke grestore} bind def
/D15 {gsave translate 45 rotate 0 0 S15 stroke grestore} bind def
/DiaE {stroke [] 0 setdash vpt add M
  hpt neg vpt neg V hpt vpt neg V
  hpt vpt V hpt neg vpt V closepath stroke} def
/BoxE {stroke [] 0 setdash exch hpt sub exch vpt add M
  0 vpt2 neg V hpt2 0 V 0 vpt2 V
  hpt2 neg 0 V closepath stroke} def
/TriUE {stroke [] 0 setdash vpt 1.12 mul add M
  hpt neg vpt -1.62 mul V
  hpt 2 mul 0 V
  hpt neg vpt 1.62 mul V closepath stroke} def
/TriDE {stroke [] 0 setdash vpt 1.12 mul sub M
  hpt neg vpt 1.62 mul V
  hpt 2 mul 0 V
  hpt neg vpt -1.62 mul V closepath stroke} def
/PentE {stroke [] 0 setdash gsave
  translate 0 hpt M 4 {72 rotate 0 hpt L} repeat
  closepath stroke grestore} def
/CircE {stroke [] 0 setdash 
  hpt 0 360 arc stroke} def
/Opaque {gsave closepath 1 setgray fill grestore 0 setgray closepath} def
/DiaW {stroke [] 0 setdash vpt add M
  hpt neg vpt neg V hpt vpt neg V
  hpt vpt V hpt neg vpt V Opaque stroke} def
/BoxW {stroke [] 0 setdash exch hpt sub exch vpt add M
  0 vpt2 neg V hpt2 0 V 0 vpt2 V
  hpt2 neg 0 V Opaque stroke} def
/TriUW {stroke [] 0 setdash vpt 1.12 mul add M
  hpt neg vpt -1.62 mul V
  hpt 2 mul 0 V
  hpt neg vpt 1.62 mul V Opaque stroke} def
/TriDW {stroke [] 0 setdash vpt 1.12 mul sub M
  hpt neg vpt 1.62 mul V
  hpt 2 mul 0 V
  hpt neg vpt -1.62 mul V Opaque stroke} def
/PentW {stroke [] 0 setdash gsave
  translate 0 hpt M 4 {72 rotate 0 hpt L} repeat
  Opaque stroke grestore} def
/CircW {stroke [] 0 setdash 
  hpt 0 360 arc Opaque stroke} def
/BoxFill {gsave Rec 1 setgray fill grestore} def
/Density {
  /Fillden exch def
  currentrgbcolor
  /ColB exch def /ColG exch def /ColR exch def
  /ColR ColR Fillden mul Fillden sub 1 add def
  /ColG ColG Fillden mul Fillden sub 1 add def
  /ColB ColB Fillden mul Fillden sub 1 add def
  ColR ColG ColB setrgbcolor} def
/BoxColFill {gsave Rec PolyFill} def
/PolyFill {gsave Density fill grestore grestore} def
/h {rlineto rlineto rlineto gsave fill grestore} bind def
%
% PostScript Level 1 Pattern Fill routine for rectangles
% Usage: x y w h s a XX PatternFill
%	x,y = lower left corner of box to be filled
%	w,h = width and height of box
%	  a = angle in degrees between lines and x-axis
%	 XX = 0/1 for no/yes cross-hatch
%
/PatternFill {gsave /PFa [ 9 2 roll ] def
  PFa 0 get PFa 2 get 2 div add PFa 1 get PFa 3 get 2 div add translate
  PFa 2 get -2 div PFa 3 get -2 div PFa 2 get PFa 3 get Rec
  gsave 1 setgray fill grestore clip
  currentlinewidth 0.5 mul setlinewidth
  /PFs PFa 2 get dup mul PFa 3 get dup mul add sqrt def
  0 0 M PFa 5 get rotate PFs -2 div dup translate
  0 1 PFs PFa 4 get div 1 add floor cvi
	{PFa 4 get mul 0 M 0 PFs V} for
  0 PFa 6 get ne {
	0 1 PFs PFa 4 get div 1 add floor cvi
	{PFa 4 get mul 0 2 1 roll M PFs 0 V} for
 } if
  stroke grestore} def
%
/languagelevel where
 {pop languagelevel} {1} ifelse
 2 lt
	{/InterpretLevel1 true def}
	{/InterpretLevel1 Level1 def}
 ifelse
%
% PostScript level 2 pattern fill definitions
%
/Level2PatternFill {
/Tile8x8 {/PaintType 2 /PatternType 1 /TilingType 1 /BBox [0 0 8 8] /XStep 8 /YStep 8}
	bind def
/KeepColor {currentrgbcolor [/Pattern /DeviceRGB] setcolorspace} bind def
<< Tile8x8
 /PaintProc {0.5 setlinewidth pop 0 0 M 8 8 L 0 8 M 8 0 L stroke} 
>> matrix makepattern
/Pat1 exch def
<< Tile8x8
 /PaintProc {0.5 setlinewidth pop 0 0 M 8 8 L 0 8 M 8 0 L stroke
	0 4 M 4 8 L 8 4 L 4 0 L 0 4 L stroke}
>> matrix makepattern
/Pat2 exch def
<< Tile8x8
 /PaintProc {0.5 setlinewidth pop 0 0 M 0 8 L
	8 8 L 8 0 L 0 0 L fill}
>> matrix makepattern
/Pat3 exch def
<< Tile8x8
 /PaintProc {0.5 setlinewidth pop -4 8 M 8 -4 L
	0 12 M 12 0 L stroke}
>> matrix makepattern
/Pat4 exch def
<< Tile8x8
 /PaintProc {0.5 setlinewidth pop -4 0 M 8 12 L
	0 -4 M 12 8 L stroke}
>> matrix makepattern
/Pat5 exch def
<< Tile8x8
 /PaintProc {0.5 setlinewidth pop -2 8 M 4 -4 L
	0 12 M 8 -4 L 4 12 M 10 0 L stroke}
>> matrix makepattern
/Pat6 exch def
<< Tile8x8
 /PaintProc {0.5 setlinewidth pop -2 0 M 4 12 L
	0 -4 M 8 12 L 4 -4 M 10 8 L stroke}
>> matrix makepattern
/Pat7 exch def
<< Tile8x8
 /PaintProc {0.5 setlinewidth pop 8 -2 M -4 4 L
	12 0 M -4 8 L 12 4 M 0 10 L stroke}
>> matrix makepattern
/Pat8 exch def
<< Tile8x8
 /PaintProc {0.5 setlinewidth pop 0 -2 M 12 4 L
	-4 0 M 12 8 L -4 4 M 8 10 L stroke}
>> matrix makepattern
/Pat9 exch def
/Pattern1 {PatternBgnd KeepColor Pat1 setpattern} bind def
/Pattern2 {PatternBgnd KeepColor Pat2 setpattern} bind def
/Pattern3 {PatternBgnd KeepColor Pat3 setpattern} bind def
/Pattern4 {PatternBgnd KeepColor Landscape {Pat5} {Pat4} ifelse setpattern} bind def
/Pattern5 {PatternBgnd KeepColor Landscape {Pat4} {Pat5} ifelse setpattern} bind def
/Pattern6 {PatternBgnd KeepColor Landscape {Pat9} {Pat6} ifelse setpattern} bind def
/Pattern7 {PatternBgnd KeepColor Landscape {Pat8} {Pat7} ifelse setpattern} bind def
} def
%
%
%End of PostScript Level 2 code
%
/PatternBgnd {
  TransparentPatterns {} {gsave 1 setgray fill grestore} ifelse
} def
%
% Substitute for Level 2 pattern fill codes with
% grayscale if Level 2 support is not selected.
%
/Level1PatternFill {
/Pattern1 {0.250 Density} bind def
/Pattern2 {0.500 Density} bind def
/Pattern3 {0.750 Density} bind def
/Pattern4 {0.125 Density} bind def
/Pattern5 {0.375 Density} bind def
/Pattern6 {0.625 Density} bind def
/Pattern7 {0.875 Density} bind def
} def
%
% Now test for support of Level 2 code
%
Level1 {Level1PatternFill} {Level2PatternFill} ifelse
%
/Symbol-Oblique /Symbol findfont [1 0 .167 1 0 0] makefont
dup length dict begin {1 index /FID eq {pop pop} {def} ifelse} forall
currentdict end definefont pop
end
%%EndProlog
%%Page: 1 1
gnudict begin
gsave
50 50 translate
0.100 0.100 scale
90 rotate
0 -5040 translate
0 setgray
newpath
(Helvetica) findfont 140 scalefont setfont
1.000 UL
LTb
630 420 M
63 0 V
6269 0 R
-63 0 V
546 420 M
( 0) Rshow
1.000 UL
LTb
630 865 M
63 0 V
6269 0 R
-63 0 V
546 865 M
( 5) Rshow
1.000 UL
LTb
630 1310 M
63 0 V
6269 0 R
-63 0 V
-6353 0 R
( 10) Rshow
1.000 UL
LTb
630 1756 M
63 0 V
6269 0 R
-63 0 V
-6353 0 R
( 15) Rshow
1.000 UL
LTb
630 2201 M
63 0 V
6269 0 R
-63 0 V
-6353 0 R
( 20) Rshow
1.000 UL
LTb
630 2646 M
63 0 V
6269 0 R
-63 0 V
-6353 0 R
( 25) Rshow
1.000 UL
LTb
630 3091 M
63 0 V
6269 0 R
-63 0 V
-6353 0 R
( 30) Rshow
1.000 UL
LTb
630 3536 M
63 0 V
6269 0 R
-63 0 V
-6353 0 R
( 35) Rshow
1.000 UL
LTb
630 3982 M
63 0 V
6269 0 R
-63 0 V
-6353 0 R
( 40) Rshow
1.000 UL
LTb
630 4427 M
63 0 V
6269 0 R
-63 0 V
-6353 0 R
( 45) Rshow
1.000 UL
LTb
630 4872 M
63 0 V
6269 0 R
-63 0 V
-6353 0 R
( 50) Rshow
1.000 UL
LTb
630 420 M
0 63 V
0 4389 R
0 -63 V
630 280 M
( 0) Cshow
1.000 UL
LTb
1263 420 M
0 63 V
0 4389 R
0 -63 V
0 -4529 R
( 5) Cshow
1.000 UL
LTb
1896 420 M
0 63 V
0 4389 R
0 -63 V
0 -4529 R
( 10) Cshow
1.000 UL
LTb
2530 420 M
0 63 V
0 4389 R
0 -63 V
0 -4529 R
( 15) Cshow
1.000 UL
LTb
3163 420 M
0 63 V
0 4389 R
0 -63 V
0 -4529 R
( 20) Cshow
1.000 UL
LTb
3796 420 M
0 63 V
0 4389 R
0 -63 V
0 -4529 R
( 25) Cshow
1.000 UL
LTb
4429 420 M
0 63 V
0 4389 R
0 -63 V
0 -4529 R
( 30) Cshow
1.000 UL
LTb
5062 420 M
0 63 V
0 4389 R
0 -63 V
0 -4529 R
( 35) Cshow
1.000 UL
LTb
5696 420 M
0 63 V
0 4389 R
0 -63 V
0 -4529 R
( 40) Cshow
1.000 UL
LTb
6329 420 M
0 63 V
0 4389 R
0 -63 V
0 -4529 R
( 45) Cshow
1.000 UL
LTb
6962 420 M
0 63 V
0 4389 R
0 -63 V
0 -4529 R
( 50) Cshow
1.000 UL
LTb
1.000 UL
LTb
630 4872 N
630 420 L
6332 0 V
0 4452 V
-6332 0 V
Z stroke
LCb setrgbcolor
140 2646 M
currentpoint gsave translate 90 rotate 0 0 M
(H\(MeV\)) Cshow
grestore
LTb
LCb setrgbcolor
3796 70 M
(k) Cshow
LTb
1.000 UP
1.000 UL
LTb
2.000 UP
1.000 UL
LT2
/Helvetica findfont 140 scalefont setfont
5569 3816 M
-25 -12 V
25 -18 V
23 18 V
-23 12 V
760 229 R
-91 -63 V
91 -64 V
126 19 V
64 45 V
-64 44 V
-126 19 V
253 233 R
-42 -29 V
-85 -30 V
-84 -59 V
84 -60 V
85 60 V
42 59 V
42 30 V
-42 29 V
-886 6 R
-51 -35 V
51 -16 V
23 16 V
-23 35 V
-507 -6 R
-42 -29 V
0 -89 V
42 -30 V
42 30 V
0 89 V
-42 29 V
253 89 R
-42 -29 V
42 -30 V
43 30 V
-43 29 V
887 89 R
-42 -29 V
-85 -30 V
-84 -59 V
84 -60 V
85 60 V
42 59 V
42 30 V
-42 29 V
-633 0 R
-43 -29 V
-33 -89 V
-51 -36 V
-76 -53 V
-51 -36 V
-76 -53 V
-50 -23 V
-95 -66 V
-32 -30 V
-127 -30 V
-42 -29 V
42 -30 V
127 -30 V
32 -29 V
-32 -36 V
-127 -24 V
-42 -29 V
42 -30 V
127 -24 V
76 54 V
51 22 V
25 -22 V
-25 -30 V
-85 -60 V
-42 -59 V
-42 -30 V
42 -29 V
42 29 V
85 30 V
63 -30 V
63 -44 V
64 44 V
63 18 V
36 -18 V
27 -89 V
64 -44 V
63 44 V
63 45 V
64 44 V
63 26 V
127 19 V
63 44 V
63 30 V
85 60 V
-85 59 V
-84 -59 V
-42 -45 V
-127 19 V
-21 26 V
21 14 V
105 75 V
0 89 V
22 17 V
101 72 V
-101 71 V
-102 -71 V
-25 -15 V
5931 4071 L
18 17 V
101 72 V
-101 71 V
-101 -71 V
-26 -13 V
-23 13 V
23 16 V
104 73 V
23 25 V
90 64 V
-27 89 V
-63 44 V
-63 -44 V
-64 -20 V
-84 20 V
-42 29 V
5569 3829 M
-51 -25 V
51 -36 V
46 36 V
-46 25 V
760 191 R
-54 -38 V
54 -39 V
126 39 V
-126 38 V
126 169 R
-42 -29 V
42 -30 V
43 30 V
-43 29 V
-759 131 R
-102 -71 V
102 -33 V
46 33 V
-46 71 V
506 47 R
-42 -29 V
42 -30 V
42 30 V
-42 29 V
-253 60 R
-127 -40 V
-126 -5 V
-26 -44 V
-101 -71 V
-25 -18 V
-102 -72 V
-25 -17 V
-101 -45 V
-64 -44 V
-63 -60 V
-84 -29 V
84 -30 V
63 -59 V
-63 -72 V
-63 -17 V
63 -18 V
25 18 V
102 44 V
50 -44 V
-50 -60 V
-43 -30 V
43 -29 V
126 -60 V
127 36 V
72 -36 V
55 -89 V
126 89 V
127 51 V
127 38 V
126 60 V
42 30 V
-42 29 V
-42 -29 V
-84 -90 V
-127 39 V
-42 51 V
42 29 V
84 60 V
0 89 V
43 35 V
76 54 V
-76 53 V
-76 -53 V
-51 -30 V
-36 30 V
36 35 V
76 54 V
-76 53 V
-76 -53 V
-51 -26 V
-46 26 V
46 32 V
81 57 V
46 51 V
54 38 V
-54 89 V
253 -623 R
-633 38 R
-76 -38 V
76 -54 V
69 54 V
-69 38 V
760 152 R
6311 3982 L
18 -13 V
42 13 V
-42 12 V
126 166 R
-253 178 R
-380 29 R
-95 -29 V
38 -89 V
-69 -49 V
-127 19 V
-84 -59 V
-43 -18 V
-126 -49 V
-32 -22 V
-95 -89 V
95 -89 V
32 -23 V
76 -66 V
-76 -90 V
126 -29 V
127 -6 V
109 -54 V
18 -29 V
42 29 V
84 60 V
127 17 V
42 12 V
-42 13 V
-63 77 V
63 44 V
63 45 V
0 89 V
64 53 V
50 36 V
-50 35 V
-51 -35 V
-76 -45 V
-54 45 V
54 53 V
51 36 V
-51 35 V
-51 -35 V
-76 -38 V
-69 38 V
69 48 V
58 41 V
69 76 V
18 13 V
-18 29 V
-127 0 V
0 -19 R
-31 -10 V
-3 -89 V
-92 -65 V
-127 -24 V
-127 -54 V
-126 -35 V
-43 -89 V
43 -89 V
101 -89 V
25 -60 V
26 60 V
101 50 V
92 -50 V
-92 -72 V
-84 -18 V
84 -17 V
127 -42 V
84 59 V
42 18 V
42 72 V
85 59 V
42 30 V
0 89 V
85 71 V
25 18 V
-25 17 V
-26 -17 V
-101 -60 V
-72 60 V
72 71 V
25 18 V
-25 17 V
-25 -17 V
-102 -51 V
-92 51 V
92 64 V
35 25 V
29 89 V
-64 10 V
0 -55 R
-11 -44 V
-115 -81 V
-43 -8 V
-84 -60 V
-127 -29 V
-63 -89 V
21 -89 V
42 -89 V
127 63 V
115 -63 V
-115 -90 V
127 0 V
126 54 V
5843 3804 L
106 74 V
21 15 V
0 89 V
106 89 V
-127 -75 V
-91 75 V
91 89 V
-127 -64 V
-115 64 V
115 81 V
12 8 V
-12 44 V
5696 4137 M
-95 -66 V
-32 -15 V
-106 -74 V
22 -89 V
84 -13 V
127 -62 V
126 -14 V
127 89 V
0 89 V
-109 89 V
-18 12 V
-126 54 V
0 -44 R
-32 -22 V
-95 -45 V
-63 -44 V
63 -89 V
127 -45 V
126 45 V
0 89 V
0 89 V
-126 22 V
-127 -97 R
-21 -14 V
21 -30 V
84 -59 V
43 -15 V
42 15 V
42 89 V
-84 71 V
-127 -57 V
127 21 R
-85 -35 V
85 -60 V
42 60 V
-42 35 V
5569 3816 Star
5544 3804 Star
5569 3786 Star
5592 3804 Star
5569 3816 Star
6329 4045 Star
6238 3982 Star
6329 3918 Star
6455 3937 Star
6519 3982 Star
6455 4026 Star
6329 4045 Star
6582 4278 Star
6540 4249 Star
6455 4219 Star
6371 4160 Star
6455 4100 Star
6540 4160 Star
6582 4219 Star
6624 4249 Star
6582 4278 Star
5696 4284 Star
5645 4249 Star
5696 4233 Star
5719 4249 Star
5696 4284 Star
5189 4278 Star
5147 4249 Star
5147 4160 Star
5189 4130 Star
5231 4160 Star
5231 4249 Star
5189 4278 Star
5442 4367 Star
5400 4338 Star
5442 4308 Star
5485 4338 Star
5442 4367 Star
6329 4456 Star
6287 4427 Star
6202 4397 Star
6118 4338 Star
6202 4278 Star
6287 4338 Star
6329 4397 Star
6371 4427 Star
6329 4456 Star
5696 4456 Star
5653 4427 Star
5620 4338 Star
5569 4302 Star
5493 4249 Star
5442 4213 Star
5366 4160 Star
5316 4137 Star
5221 4071 Star
5189 4041 Star
5062 4011 Star
5020 3982 Star
5062 3952 Star
5189 3922 Star
5221 3893 Star
5189 3857 Star
5062 3833 Star
5020 3804 Star
5062 3774 Star
5189 3750 Star
5265 3804 Star
5316 3826 Star
5341 3804 Star
5316 3774 Star
5231 3714 Star
5189 3655 Star
5147 3625 Star
5189 3596 Star
5231 3625 Star
5316 3655 Star
5379 3625 Star
5442 3581 Star
5506 3625 Star
5569 3643 Star
5605 3625 Star
5632 3536 Star
5696 3492 Star
5759 3536 Star
5822 3581 Star
5886 3625 Star
5949 3651 Star
6076 3670 Star
6139 3714 Star
6202 3744 Star
6287 3804 Star
6202 3863 Star
6118 3804 Star
6076 3759 Star
5949 3778 Star
5928 3804 Star
5949 3818 Star
6054 3893 Star
6054 3982 Star
6076 3999 Star
6177 4071 Star
6076 4142 Star
5974 4071 Star
5949 4056 Star
5931 4071 Star
5949 4088 Star
6050 4160 Star
5949 4231 Star
5848 4160 Star
5822 4147 Star
5799 4160 Star
5822 4176 Star
5926 4249 Star
5949 4274 Star
6039 4338 Star
6012 4427 Star
5949 4471 Star
5886 4427 Star
5822 4407 Star
5738 4427 Star
5696 4456 Star
5569 3829 Star
5518 3804 Star
5569 3768 Star
5615 3804 Star
5569 3829 Star
6329 4020 Star
6275 3982 Star
6329 3943 Star
6455 3982 Star
6329 4020 Star
6455 4189 Star
6413 4160 Star
6455 4130 Star
6498 4160 Star
6455 4189 Star
5696 4320 Star
5594 4249 Star
5696 4216 Star
5742 4249 Star
5696 4320 Star
6202 4367 Star
6160 4338 Star
6202 4308 Star
6244 4338 Star
6202 4367 Star
5949 4427 Star
5822 4387 Star
5696 4382 Star
5670 4338 Star
5569 4267 Star
5544 4249 Star
5442 4177 Star
5417 4160 Star
5316 4115 Star
5252 4071 Star
5189 4011 Star
5105 3982 Star
5189 3952 Star
5252 3893 Star
5189 3821 Star
5126 3804 Star
5189 3786 Star
5214 3804 Star
5316 3848 Star
5366 3804 Star
5316 3744 Star
5273 3714 Star
5316 3685 Star
5442 3625 Star
5569 3661 Star
5641 3625 Star
5696 3536 Star
5822 3625 Star
5949 3676 Star
6076 3714 Star
6202 3774 Star
6244 3804 Star
6202 3833 Star
6160 3804 Star
6076 3714 Star
5949 3753 Star
5907 3804 Star
5949 3833 Star
6033 3893 Star
6033 3982 Star
6076 4017 Star
6152 4071 Star
6076 4124 Star
6000 4071 Star
5949 4041 Star
5913 4071 Star
5949 4106 Star
6025 4160 Star
5949 4213 Star
5873 4160 Star
5822 4134 Star
5776 4160 Star
5822 4192 Star
5903 4249 Star
5949 4300 Star
6003 4338 Star
5949 4427 Star
6202 3804 Star
5569 3842 Star
5493 3804 Star
5569 3750 Star
5638 3804 Star
5569 3842 Star
6329 3994 Star
6311 3982 Star
6329 3969 Star
6371 3982 Star
6329 3994 Star
6455 4160 Star
6202 4338 Star
5822 4367 Star
5727 4338 Star
5765 4249 Star
5696 4200 Star
5569 4219 Star
5485 4160 Star
5442 4142 Star
5316 4093 Star
5284 4071 Star
5189 3982 Star
5284 3893 Star
5316 3870 Star
5392 3804 Star
5316 3714 Star
5442 3685 Star
5569 3679 Star
5678 3625 Star
5696 3596 Star
5738 3625 Star
5822 3685 Star
5949 3702 Star
5991 3714 Star
5949 3727 Star
5886 3804 Star
5949 3848 Star
6012 3893 Star
6012 3982 Star
6076 4035 Star
6126 4071 Star
6076 4106 Star
6025 4071 Star
5949 4026 Star
5895 4071 Star
5949 4124 Star
6000 4160 Star
5949 4195 Star
5898 4160 Star
5822 4122 Star
5753 4160 Star
5822 4208 Star
5880 4249 Star
5949 4325 Star
5967 4338 Star
5949 4367 Star
5822 4367 Star
5822 4348 Star
5791 4338 Star
5788 4249 Star
5696 4184 Star
5569 4160 Star
5442 4106 Star
5316 4071 Star
5273 3982 Star
5316 3893 Star
5417 3804 Star
5442 3744 Star
5468 3804 Star
5569 3854 Star
5661 3804 Star
5569 3732 Star
5485 3714 Star
5569 3697 Star
5696 3655 Star
5780 3714 Star
5822 3732 Star
5864 3804 Star
5949 3863 Star
5991 3893 Star
5991 3982 Star
6076 4053 Star
6101 4071 Star
6076 4088 Star
6050 4071 Star
5949 4011 Star
5877 4071 Star
5949 4142 Star
5974 4160 Star
5949 4177 Star
5924 4160 Star
5822 4109 Star
5730 4160 Star
5822 4224 Star
5857 4249 Star
5886 4338 Star
5822 4348 Star
5822 4293 Star
5811 4249 Star
5696 4168 Star
5653 4160 Star
5569 4100 Star
5442 4071 Star
5379 3982 Star
5400 3893 Star
5442 3804 Star
5569 3867 Star
5684 3804 Star
5569 3714 Star
5696 3714 Star
5822 3768 Star
5843 3804 Star
5949 3878 Star
5970 3893 Star
5970 3982 Star
6076 4071 Star
5949 3996 Star
5858 4071 Star
5949 4160 Star
5822 4096 Star
5707 4160 Star
5822 4241 Star
5834 4249 Star
5822 4293 Star
5696 4137 Star
5601 4071 Star
5569 4056 Star
5463 3982 Star
5485 3893 Star
5569 3880 Star
5696 3818 Star
5822 3804 Star
5949 3893 Star
5949 3982 Star
5840 4071 Star
5822 4083 Star
5696 4137 Star
5696 4093 Star
5664 4071 Star
5569 4026 Star
5506 3982 Star
5569 3893 Star
5696 3848 Star
5822 3893 Star
5822 3982 Star
5822 4071 Star
5696 4093 Star
5569 3996 Star
5548 3982 Star
5569 3952 Star
5653 3893 Star
5696 3878 Star
5738 3893 Star
5780 3982 Star
5696 4053 Star
5569 3996 Star
5696 4017 Star
5611 3982 Star
5696 3922 Star
5738 3982 Star
5696 4017 Star
3.000 UL
LT0
/Helvetica findfont 140 scalefont setfont
1732 1159 M
-12 9 V
-13 7 V
-15 7 V
-16 6 V
-17 4 V
-19 4 V
-20 2 V
-21 2 V
-21 0 V
-23 0 V
-23 -2 V
-24 -3 V
-25 -4 V
-25 -5 V
-26 -6 V
-25 -7 V
-26 -8 V
-27 -9 V
-26 -9 V
-26 -11 V
-25 -12 V
-26 -12 V
-24 -13 V
-25 -13 V
-24 -15 V
-23 -14 V
-22 -16 V
-21 -16 V
-20 -16 V
-19 -16 V
-18 -17 V
-17 -17 V
-16 -17 V
-14 -17 V
996 908 L
984 891 L
-9 -16 V
-8 -17 V
-7 -16 V
-5 -16 V
-3 -15 V
-2 -15 V
0 -15 V
2 -13 V
3 -14 V
5 -12 V
7 -12 V
8 -10 V
10 -10 V
11 -9 V
13 -9 V
14 -7 V
15 -6 V
17 -5 V
18 -4 V
19 -3 V
20 -2 V
22 -1 V
22 0 V
23 1 V
23 3 V
25 3 V
25 4 V
25 6 V
26 6 V
26 8 V
26 8 V
26 10 V
26 10 V
26 11 V
25 12 V
25 12 V
25 14 V
24 14 V
23 14 V
23 15 V
22 16 V
20 16 V
20 16 V
19 17 V
17 16 V
16 17 V
15 17 V
13 17 V
12 17 V
11 17 V
9 17 V
7 16 V
6 16 V
4 16 V
2 15 V
1 15 V
-1 14 V
-2 13 V
-4 13 V
-6 12 V
-7 11 V
-9 11 V
-11 9 V
/Helvetica findfont 140 scalefont setfont
-53 -19 R
-10 7 V
-12 7 V
-13 6 V
-14 5 V
-15 4 V
-16 4 V
-17 2 V
-17 2 V
-19 0 V
-18 0 V
-20 -1 V
-20 -2 V
-20 -3 V
-20 -4 V
-21 -4 V
-21 -6 V
-21 -6 V
-21 -7 V
-21 -8 V
-21 -8 V
-20 -10 V
-20 -10 V
-20 -10 V
-19 -11 V
-18 -12 V
-18 -12 V
-17 -13 V
-16 -13 V
-16 -13 V
-14 -13 V
-14 -14 V
-12 -14 V
-12 -14 V
-10 -14 V
-9 -15 V
-8 -14 V
-6 -14 V
-5 -14 V
-4 -13 V
-3 -13 V
1060 859 L
0 -13 V
1 -12 V
3 -12 V
4 -11 V
5 -11 V
6 -9 V
8 -10 V
9 -8 V
11 -8 V
11 -7 V
12 -7 V
14 -5 V
14 -5 V
16 -4 V
16 -3 V
17 -2 V
18 -1 V
18 0 V
20 1 V
19 1 V
20 3 V
21 3 V
20 4 V
21 5 V
21 6 V
21 7 V
21 7 V
21 8 V
20 9 V
21 10 V
19 10 V
20 11 V
19 11 V
18 12 V
17 13 V
17 12 V
16 14 V
15 13 V
14 14 V
13 14 V
12 14 V
10 14 V
10 14 V
8 14 V
8 14 V
6 14 V
4 14 V
3 13 V
2 13 V
1 13 V
-1 13 V
-2 11 V
-3 12 V
-5 11 V
-5 10 V
-8 10 V
-8 9 V
-10 8 V
/Helvetica findfont 140 scalefont setfont
-21 12 R
-9 6 V
-10 5 V
-11 5 V
-12 3 V
-13 3 V
-14 2 V
-14 2 V
-15 0 V
-16 0 V
-16 -1 V
-17 -2 V
-17 -2 V
-18 -4 V
-18 -4 V
-18 -5 V
-18 -6 V
-19 -6 V
-18 -7 V
-18 -8 V
-18 -8 V
-18 -9 V
-18 -9 V
-17 -10 V
-17 -11 V
-17 -11 V
-16 -11 V
-15 -11 V
-14 -12 V
-14 -12 V
-13 -13 V
-12 -12 V
-12 -13 V
-10 -12 V
-9 -13 V
-9 -13 V
-7 -12 V
-6 -12 V
-5 -13 V
-4 -11 V
-3 -12 V
-1 -11 V
-1 -11 V
1 -10 V
2 -10 V
3 -10 V
1121 833 L
5 -9 V
7 -7 V
7 -7 V
9 -7 V
9 -5 V
11 -5 V
11 -4 V
13 -3 V
13 -3 V
14 -2 V
15 -1 V
15 0 V
16 1 V
17 1 V
17 2 V
17 3 V
18 4 V
18 5 V
18 5 V
18 6 V
19 7 V
18 7 V
18 8 V
19 9 V
17 9 V
18 10 V
17 10 V
17 10 V
16 12 V
15 11 V
15 12 V
15 12 V
13 12 V
13 12 V
11 13 V
11 13 V
10 12 V
9 13 V
8 12 V
6 13 V
6 12 V
4 12 V
4 12 V
2 11 V
1 11 V
0 11 V
-2 10 V
-2 9 V
-4 10 V
-4 8 V
-6 8 V
-7 7 V
-8 7 V
/Helvetica findfont 140 scalefont setfont
12 8 R
-8 5 V
-10 4 V
-10 4 V
-10 4 V
-12 2 V
-13 2 V
-13 1 V
-14 0 V
-14 -1 V
-15 -1 V
-15 -2 V
-16 -3 V
-17 -3 V
-16 -4 V
-17 -5 V
-17 -6 V
-17 -6 V
-17 -6 V
-17 -8 V
-17 -8 V
-16 -8 V
-17 -9 V
-16 -10 V
-16 -10 V
-15 -10 V
-15 -10 V
-14 -11 V
-13 -12 V
-13 -11 V
-12 -11 V
-12 -12 V
-10 -12 V
-10 -12 V
-9 -11 V
-8 -12 V
-7 -12 V
-6 -11 V
-4 -11 V
-4 -11 V
-3 -11 V
-2 -10 V
0 -10 V
0 -10 V
2 -9 V
2 -8 V
4 -8 V
5 -8 V
6 -7 V
6 -6 V
8 -5 V
1205 826 L
9 -5 V
11 -3 V
11 -3 V
12 -2 V
13 -1 V
14 -1 V
14 0 V
14 1 V
16 2 V
15 2 V
16 3 V
17 4 V
16 4 V
17 5 V
17 6 V
17 7 V
17 7 V
17 8 V
17 8 V
17 9 V
16 9 V
16 9 V
15 10 V
15 11 V
15 11 V
14 11 V
13 11 V
12 12 V
12 11 V
11 12 V
10 12 V
10 11 V
8 12 V
7 12 V
7 11 V
5 12 V
4 11 V
4 10 V
2 11 V
1 10 V
0 10 V
-1 9 V
-2 9 V
-3 8 V
-4 8 V
-6 7 V
-6 7 V
-7 6 V
/Helvetica findfont 140 scalefont setfont
-73 -32 R
-7 4 V
-8 4 V
-8 3 V
-9 2 V
-10 2 V
-10 1 V
-11 1 V
-11 0 V
-12 -1 V
-13 -1 V
-12 -2 V
-13 -2 V
-14 -3 V
-13 -4 V
-14 -4 V
-14 -5 V
-13 -5 V
-14 -6 V
-14 -7 V
-14 -6 V
-13 -8 V
-14 -7 V
-13 -8 V
-12 -9 V
-13 -8 V
-12 -9 V
-11 -10 V
-11 -9 V
-10 -10 V
-10 -9 V
-9 -10 V
-8 -10 V
-8 -10 V
-7 -9 V
-6 -10 V
-6 -10 V
-4 -9 V
-4 -10 V
-3 -9 V
-2 -9 V
-1 -8 V
0 -8 V
1 -8 V
1 -8 V
2 -7 V
4 -6 V
4 -6 V
5 -6 V
5 -5 V
7 -4 V
7 -4 V
8 -4 V
9 -2 V
9 -3 V
10 -1 V
1269 835 L
11 0 V
12 0 V
12 1 V
12 2 V
13 2 V
13 3 V
14 3 V
13 4 V
14 4 V
14 5 V
14 6 V
14 6 V
13 7 V
14 7 V
13 7 V
14 8 V
12 8 V
13 9 V
12 9 V
12 9 V
11 9 V
11 9 V
10 10 V
9 10 V
9 10 V
8 9 V
7 10 V
7 10 V
5 10 V
5 9 V
5 10 V
3 9 V
2 9 V
2 9 V
1 8 V
-1 8 V
-1 8 V
-2 7 V
-2 7 V
-4 6 V
-5 6 V
-5 5 V
-6 5 V
/Helvetica findfont 140 scalefont setfont
-53 -47 R
-6 4 V
-7 4 V
-8 3 V
-8 2 V
-9 2 V
-9 2 V
-10 1 V
-10 0 V
-10 0 V
-11 -1 V
-11 -1 V
-12 -2 V
-11 -2 V
-12 -3 V
-12 -3 V
-12 -4 V
-12 -4 V
-12 -5 V
-12 -5 V
-12 -6 V
-12 -6 V
-11 -6 V
-11 -7 V
-11 -7 V
-11 -7 V
-10 -8 V
-9 -8 V
-10 -8 V
-8 -8 V
-8 -8 V
-8 -9 V
-7 -8 V
-6 -9 V
-6 -8 V
-5 -8 V
-4 -9 V
-4 -8 V
-2 -8 V
-3 -8 V
-1 -8 V
0 -8 V
0 -7 V
1 -7 V
2 -7 V
2 -6 V
3 -6 V
4 -5 V
5 -5 V
5 -5 V
6 -4 V
7 -4 V
8 -3 V
7 -3 V
9 -2 V
9 -2 V
9 -1 V
10 -1 V
11 0 V
10 1 V
11 0 V
1322 834 L
11 2 V
12 3 V
12 3 V
12 3 V
12 4 V
12 5 V
12 5 V
12 5 V
12 6 V
11 6 V
12 7 V
11 7 V
10 7 V
11 7 V
9 8 V
10 8 V
9 8 V
8 8 V
8 8 V
7 9 V
7 8 V
6 9 V
5 8 V
5 9 V
4 8 V
3 8 V
2 8 V
2 8 V
1 8 V
0 7 V
-1 7 V
-1 7 V
-2 7 V
-3 6 V
-4 6 V
-4 5 V
-5 5 V
-6 4 V
/Helvetica findfont 140 scalefont setfont
-14 -2 R
-6 4 V
-5 3 V
-6 2 V
-6 3 V
-7 2 V
-7 2 V
-7 1 V
-7 1 V
-8 1 V
-8 0 V
-8 0 V
-7 0 V
-8 -1 V
-8 -1 V
-9 -2 V
-7 -2 V
-8 -2 V
-8 -2 V
-8 -3 V
-7 -3 V
-8 -3 V
-7 -4 V
-7 -4 V
-6 -4 V
-7 -5 V
-6 -4 V
-5 -5 V
-5 -5 V
-5 -5 V
-5 -6 V
-4 -5 V
-3 -6 V
-3 -5 V
-3 -6 V
-2 -6 V
-2 -5 V
-1 -6 V
0 -5 V
0 -6 V
0 -5 V
1 -6 V
1 -5 V
2 -5 V
3 -5 V
2 -5 V
4 -4 V
4 -4 V
4 -4 V
5 -4 V
5 -4 V
5 -3 V
6 -3 V
6 -2 V
7 -3 V
6 -1 V
7 -2 V
8 -1 V
7 -1 V
8 -1 V
7 0 V
8 0 V
8 1 V
8 1 V
8 1 V
8 2 V
1452 926 L
8 2 V
8 3 V
7 3 V
8 3 V
7 4 V
7 3 V
7 4 V
6 5 V
6 4 V
6 5 V
6 5 V
5 5 V
4 5 V
5 6 V
3 5 V
4 6 V
2 5 V
3 6 V
2 6 V
1 5 V
1 6 V
0 6 V
0 5 V
-1 5 V
-1 6 V
-1 5 V
-3 5 V
-2 5 V
-3 4 V
-4 5 V
-4 4 V
-4 4 V
-5 3 V
/Helvetica findfont 140 scalefont setfont
-51 -19 R
-4 3 V
-4 2 V
-4 1 V
-5 2 V
-5 1 V
-5 1 V
-6 1 V
-5 1 V
-6 0 V
-6 0 V
-6 -1 V
-6 0 V
-6 -1 V
-6 -1 V
-6 -2 V
-7 -1 V
-6 -2 V
-6 -3 V
-6 -2 V
-6 -3 V
-5 -3 V
-6 -3 V
-5 -3 V
-6 -4 V
-5 -3 V
-4 -4 V
-5 -4 V
-4 -4 V
-4 -4 V
-4 -5 V
-3 -4 V
-3 -4 V
-2 -5 V
-3 -4 V
-1 -5 V
-2 -4 V
-1 -4 V
-1 -5 V
0 -4 V
0 -4 V
1 -4 V
0 -4 V
2 -4 V
1 -4 V
2 -3 V
3 -3 V
2 -4 V
3 -2 V
4 -3 V
4 -3 V
4 -2 V
4 -2 V
5 -1 V
4 -2 V
6 -1 V
5 -1 V
5 -1 V
6 0 V
6 0 V
6 0 V
6 1 V
6 0 V
6 1 V
6 2 V
6 1 V
6 2 V
7 2 V
6 3 V
6 2 V
5 3 V
1443 952 L
6 3 V
5 4 V
5 3 V
5 4 V
4 4 V
5 4 V
4 4 V
4 4 V
3 4 V
3 5 V
3 4 V
2 5 V
2 4 V
2 5 V
1 4 V
1 4 V
1 5 V
0 4 V
0 4 V
-1 4 V
-1 4 V
-2 4 V
-1 3 V
-3 4 V
-2 3 V
-3 3 V
-3 3 V
-4 2 V
/Helvetica findfont 140 scalefont setfont
-44 9 R
-2 2 V
-2 1 V
-2 0 V
-3 1 V
-2 1 V
-3 0 V
-3 1 V
-3 0 V
-3 0 V
-3 0 V
-3 0 V
-3 -1 V
-3 0 V
-3 -1 V
-3 -1 V
-4 -1 V
-3 -1 V
-3 -1 V
-3 -1 V
-3 -2 V
-3 -2 V
-2 -1 V
-3 -2 V
-3 -2 V
-2 -2 V
-2 -2 V
-3 -2 V
-2 -2 V
-2 -2 V
-1 -2 V
-2 -3 V
-1 -2 V
-2 -2 V
-1 -3 V
0 -2 V
-1 -2 V
0 -2 V
-1 -3 V
0 -2 V
0 -2 V
1 -2 V
0 -2 V
1 -2 V
1 -2 V
1 -2 V
1 -1 V
2 -2 V
2 -1 V
1 -2 V
2 -1 V
3 -1 V
2 -1 V
2 -1 V
3 -1 V
2 0 V
3 -1 V
3 0 V
3 0 V
3 0 V
3 0 V
3 1 V
3 0 V
3 1 V
4 0 V
3 1 V
3 1 V
3 1 V
3 2 V
3 1 V
3 2 V
3 1 V
2 2 V
3 2 V
3 2 V
2 2 V
1432 1023 L
2 2 V
2 2 V
2 2 V
2 2 V
1 3 V
2 2 V
1 2 V
1 3 V
0 2 V
1 2 V
0 3 V
0 2 V
0 2 V
0 2 V
0 2 V
-1 2 V
-1 2 V
-1 2 V
-1 2 V
-1 1 V
-2 2 V
-2 1 V
-2 1 V
stroke
1.000 UL
LTb
630 4872 N
630 420 L
6332 0 V
0 4452 V
-6332 0 V
Z stroke
1.000 UP
1.000 UL
LTb
stroke
grestore
end
showpage
%%Trailer
%%DocumentFonts: Helvetica
%%Pages: 1
