%!PS-Adobe-2.0
%%Title: App0_60Co_1_5.ps
%%Creator: gnuplot 4.2 patchlevel 0
%%CreationDate: Fri Jul 25 04:12:06 2008
%%DocumentFonts: (atend)
%%BoundingBox: 50 50 554 770
%%Orientation: Landscape
%%Pages: (atend)
%%EndComments
%%BeginProlog
/gnudict 256 dict def
gnudict begin
%
% The following 6 true/false flags may be edited by hand if required
% The unit line width may also be changed
%
/Color true def
/Blacktext false def
/Solid true def
/Dashlength 1 def
/Landscape true def
/Level1 false def
/Rounded false def
/TransparentPatterns false def
/gnulinewidth 5.000 def
/userlinewidth gnulinewidth def
%
/vshift -46 def
/dl1 {
  10.0 Dashlength mul mul
  Rounded { currentlinewidth 0.75 mul sub dup 0 le { pop 0.01 } if } if
} def
/dl2 {
  10.0 Dashlength mul mul
  Rounded { currentlinewidth 0.75 mul add } if
} def
/hpt_ 31.5 def
/vpt_ 31.5 def
/hpt hpt_ def
/vpt vpt_ def
Level1 {} {
/SDict 10 dict def
systemdict /pdfmark known not {
  userdict /pdfmark systemdict /cleartomark get put
} if
SDict begin [
  /Title (App0_60Co_1_5.ps)
  /Subject (gnuplot plot)
  /Creator (gnuplot 4.2 patchlevel 0)
  /Author (,,,)
%  /Producer (gnuplot)
%  /Keywords ()
  /CreationDate (Fri Jul 25 04:12:06 2008)
  /DOCINFO pdfmark
end
} ifelse
%
% Gnuplot Prolog Version 4.2 (August 2006)
%
/M {moveto} bind def
/L {lineto} bind def
/R {rmoveto} bind def
/V {rlineto} bind def
/N {newpath moveto} bind def
/Z {closepath} bind def
/C {setrgbcolor} bind def
/f {rlineto fill} bind def
/vpt2 vpt 2 mul def
/hpt2 hpt 2 mul def
/Lshow {currentpoint stroke M 0 vshift R 
	Blacktext {gsave 0 setgray show grestore} {show} ifelse} def
/Rshow {currentpoint stroke M dup stringwidth pop neg vshift R
	Blacktext {gsave 0 setgray show grestore} {show} ifelse} def
/Cshow {currentpoint stroke M dup stringwidth pop -2 div vshift R 
	Blacktext {gsave 0 setgray show grestore} {show} ifelse} def
/UP {dup vpt_ mul /vpt exch def hpt_ mul /hpt exch def
  /hpt2 hpt 2 mul def /vpt2 vpt 2 mul def} def
/DL {Color {setrgbcolor Solid {pop []} if 0 setdash}
 {pop pop pop 0 setgray Solid {pop []} if 0 setdash} ifelse} def
/BL {stroke userlinewidth 2 mul setlinewidth
	Rounded {1 setlinejoin 1 setlinecap} if} def
/AL {stroke userlinewidth 2 div setlinewidth
	Rounded {1 setlinejoin 1 setlinecap} if} def
/UL {dup gnulinewidth mul /userlinewidth exch def
	dup 1 lt {pop 1} if 10 mul /udl exch def} def
/PL {stroke userlinewidth setlinewidth
	Rounded {1 setlinejoin 1 setlinecap} if} def
% Default Line colors
/LCw {1 1 1} def
/LCb {0 0 0} def
/LCa {0 0 0} def
/LC0 {1 0 0} def
/LC1 {0 1 0} def
/LC2 {0 0 1} def
/LC3 {1 0 1} def
/LC4 {0 1 1} def
/LC5 {1 1 0} def
/LC6 {0 0 0} def
/LC7 {1 0.3 0} def
/LC8 {0.5 0.5 0.5} def
% Default Line Types
/LTw {PL [] 1 setgray} def
/LTb {BL [] LCb DL} def
/LTa {AL [1 udl mul 2 udl mul] 0 setdash LCa setrgbcolor} def
/LT0 {PL [] LC0 DL} def
/LT1 {PL [4 dl1 2 dl2] LC1 DL} def
/LT2 {PL [2 dl1 3 dl2] LC2 DL} def
/LT3 {PL [1 dl1 1.5 dl2] LC3 DL} def
/LT4 {PL [6 dl1 2 dl2 1 dl1 2 dl2] LC4 DL} def
/LT5 {PL [3 dl1 3 dl2 1 dl1 3 dl2] LC5 DL} def
/LT6 {PL [2 dl1 2 dl2 2 dl1 6 dl2] LC6 DL} def
/LT7 {PL [1 dl1 2 dl2 6 dl1 2 dl2 1 dl1 2 dl2] LC7 DL} def
/LT8 {PL [2 dl1 2 dl2 2 dl1 2 dl2 2 dl1 2 dl2 2 dl1 4 dl2] LC8 DL} def
/Pnt {stroke [] 0 setdash gsave 1 setlinecap M 0 0 V stroke grestore} def
/Dia {stroke [] 0 setdash 2 copy vpt add M
  hpt neg vpt neg V hpt vpt neg V
  hpt vpt V hpt neg vpt V closepath stroke
  Pnt} def
/Pls {stroke [] 0 setdash vpt sub M 0 vpt2 V
  currentpoint stroke M
  hpt neg vpt neg R hpt2 0 V stroke
 } def
/Box {stroke [] 0 setdash 2 copy exch hpt sub exch vpt add M
  0 vpt2 neg V hpt2 0 V 0 vpt2 V
  hpt2 neg 0 V closepath stroke
  Pnt} def
/Crs {stroke [] 0 setdash exch hpt sub exch vpt add M
  hpt2 vpt2 neg V currentpoint stroke M
  hpt2 neg 0 R hpt2 vpt2 V stroke} def
/TriU {stroke [] 0 setdash 2 copy vpt 1.12 mul add M
  hpt neg vpt -1.62 mul V
  hpt 2 mul 0 V
  hpt neg vpt 1.62 mul V closepath stroke
  Pnt} def
/Star {2 copy Pls Crs} def
/BoxF {stroke [] 0 setdash exch hpt sub exch vpt add M
  0 vpt2 neg V hpt2 0 V 0 vpt2 V
  hpt2 neg 0 V closepath fill} def
/TriUF {stroke [] 0 setdash vpt 1.12 mul add M
  hpt neg vpt -1.62 mul V
  hpt 2 mul 0 V
  hpt neg vpt 1.62 mul V closepath fill} def
/TriD {stroke [] 0 setdash 2 copy vpt 1.12 mul sub M
  hpt neg vpt 1.62 mul V
  hpt 2 mul 0 V
  hpt neg vpt -1.62 mul V closepath stroke
  Pnt} def
/TriDF {stroke [] 0 setdash vpt 1.12 mul sub M
  hpt neg vpt 1.62 mul V
  hpt 2 mul 0 V
  hpt neg vpt -1.62 mul V closepath fill} def
/DiaF {stroke [] 0 setdash vpt add M
  hpt neg vpt neg V hpt vpt neg V
  hpt vpt V hpt neg vpt V closepath fill} def
/Pent {stroke [] 0 setdash 2 copy gsave
  translate 0 hpt M 4 {72 rotate 0 hpt L} repeat
  closepath stroke grestore Pnt} def
/PentF {stroke [] 0 setdash gsave
  translate 0 hpt M 4 {72 rotate 0 hpt L} repeat
  closepath fill grestore} def
/Circle {stroke [] 0 setdash 2 copy
  hpt 0 360 arc stroke Pnt} def
/CircleF {stroke [] 0 setdash hpt 0 360 arc fill} def
/C0 {BL [] 0 setdash 2 copy moveto vpt 90 450 arc} bind def
/C1 {BL [] 0 setdash 2 copy moveto
	2 copy vpt 0 90 arc closepath fill
	vpt 0 360 arc closepath} bind def
/C2 {BL [] 0 setdash 2 copy moveto
	2 copy vpt 90 180 arc closepath fill
	vpt 0 360 arc closepath} bind def
/C3 {BL [] 0 setdash 2 copy moveto
	2 copy vpt 0 180 arc closepath fill
	vpt 0 360 arc closepath} bind def
/C4 {BL [] 0 setdash 2 copy moveto
	2 copy vpt 180 270 arc closepath fill
	vpt 0 360 arc closepath} bind def
/C5 {BL [] 0 setdash 2 copy moveto
	2 copy vpt 0 90 arc
	2 copy moveto
	2 copy vpt 180 270 arc closepath fill
	vpt 0 360 arc} bind def
/C6 {BL [] 0 setdash 2 copy moveto
	2 copy vpt 90 270 arc closepath fill
	vpt 0 360 arc closepath} bind def
/C7 {BL [] 0 setdash 2 copy moveto
	2 copy vpt 0 270 arc closepath fill
	vpt 0 360 arc closepath} bind def
/C8 {BL [] 0 setdash 2 copy moveto
	2 copy vpt 270 360 arc closepath fill
	vpt 0 360 arc closepath} bind def
/C9 {BL [] 0 setdash 2 copy moveto
	2 copy vpt 270 450 arc closepath fill
	vpt 0 360 arc closepath} bind def
/C10 {BL [] 0 setdash 2 copy 2 copy moveto vpt 270 360 arc closepath fill
	2 copy moveto
	2 copy vpt 90 180 arc closepath fill
	vpt 0 360 arc closepath} bind def
/C11 {BL [] 0 setdash 2 copy moveto
	2 copy vpt 0 180 arc closepath fill
	2 copy moveto
	2 copy vpt 270 360 arc closepath fill
	vpt 0 360 arc closepath} bind def
/C12 {BL [] 0 setdash 2 copy moveto
	2 copy vpt 180 360 arc closepath fill
	vpt 0 360 arc closepath} bind def
/C13 {BL [] 0 setdash 2 copy moveto
	2 copy vpt 0 90 arc closepath fill
	2 copy moveto
	2 copy vpt 180 360 arc closepath fill
	vpt 0 360 arc closepath} bind def
/C14 {BL [] 0 setdash 2 copy moveto
	2 copy vpt 90 360 arc closepath fill
	vpt 0 360 arc} bind def
/C15 {BL [] 0 setdash 2 copy vpt 0 360 arc closepath fill
	vpt 0 360 arc closepath} bind def
/Rec {newpath 4 2 roll moveto 1 index 0 rlineto 0 exch rlineto
	neg 0 rlineto closepath} bind def
/Square {dup Rec} bind def
/Bsquare {vpt sub exch vpt sub exch vpt2 Square} bind def
/S0 {BL [] 0 setdash 2 copy moveto 0 vpt rlineto BL Bsquare} bind def
/S1 {BL [] 0 setdash 2 copy vpt Square fill Bsquare} bind def
/S2 {BL [] 0 setdash 2 copy exch vpt sub exch vpt Square fill Bsquare} bind def
/S3 {BL [] 0 setdash 2 copy exch vpt sub exch vpt2 vpt Rec fill Bsquare} bind def
/S4 {BL [] 0 setdash 2 copy exch vpt sub exch vpt sub vpt Square fill Bsquare} bind def
/S5 {BL [] 0 setdash 2 copy 2 copy vpt Square fill
	exch vpt sub exch vpt sub vpt Square fill Bsquare} bind def
/S6 {BL [] 0 setdash 2 copy exch vpt sub exch vpt sub vpt vpt2 Rec fill Bsquare} bind def
/S7 {BL [] 0 setdash 2 copy exch vpt sub exch vpt sub vpt vpt2 Rec fill
	2 copy vpt Square fill Bsquare} bind def
/S8 {BL [] 0 setdash 2 copy vpt sub vpt Square fill Bsquare} bind def
/S9 {BL [] 0 setdash 2 copy vpt sub vpt vpt2 Rec fill Bsquare} bind def
/S10 {BL [] 0 setdash 2 copy vpt sub vpt Square fill 2 copy exch vpt sub exch vpt Square fill
	Bsquare} bind def
/S11 {BL [] 0 setdash 2 copy vpt sub vpt Square fill 2 copy exch vpt sub exch vpt2 vpt Rec fill
	Bsquare} bind def
/S12 {BL [] 0 setdash 2 copy exch vpt sub exch vpt sub vpt2 vpt Rec fill Bsquare} bind def
/S13 {BL [] 0 setdash 2 copy exch vpt sub exch vpt sub vpt2 vpt Rec fill
	2 copy vpt Square fill Bsquare} bind def
/S14 {BL [] 0 setdash 2 copy exch vpt sub exch vpt sub vpt2 vpt Rec fill
	2 copy exch vpt sub exch vpt Square fill Bsquare} bind def
/S15 {BL [] 0 setdash 2 copy Bsquare fill Bsquare} bind def
/D0 {gsave translate 45 rotate 0 0 S0 stroke grestore} bind def
/D1 {gsave translate 45 rotate 0 0 S1 stroke grestore} bind def
/D2 {gsave translate 45 rotate 0 0 S2 stroke grestore} bind def
/D3 {gsave translate 45 rotate 0 0 S3 stroke grestore} bind def
/D4 {gsave translate 45 rotate 0 0 S4 stroke grestore} bind def
/D5 {gsave translate 45 rotate 0 0 S5 stroke grestore} bind def
/D6 {gsave translate 45 rotate 0 0 S6 stroke grestore} bind def
/D7 {gsave translate 45 rotate 0 0 S7 stroke grestore} bind def
/D8 {gsave translate 45 rotate 0 0 S8 stroke grestore} bind def
/D9 {gsave translate 45 rotate 0 0 S9 stroke grestore} bind def
/D10 {gsave translate 45 rotate 0 0 S10 stroke grestore} bind def
/D11 {gsave translate 45 rotate 0 0 S11 stroke grestore} bind def
/D12 {gsave translate 45 rotate 0 0 S12 stroke grestore} bind def
/D13 {gsave translate 45 rotate 0 0 S13 stroke grestore} bind def
/D14 {gsave translate 45 rotate 0 0 S14 stroke grestore} bind def
/D15 {gsave translate 45 rotate 0 0 S15 stroke grestore} bind def
/DiaE {stroke [] 0 setdash vpt add M
  hpt neg vpt neg V hpt vpt neg V
  hpt vpt V hpt neg vpt V closepath stroke} def
/BoxE {stroke [] 0 setdash exch hpt sub exch vpt add M
  0 vpt2 neg V hpt2 0 V 0 vpt2 V
  hpt2 neg 0 V closepath stroke} def
/TriUE {stroke [] 0 setdash vpt 1.12 mul add M
  hpt neg vpt -1.62 mul V
  hpt 2 mul 0 V
  hpt neg vpt 1.62 mul V closepath stroke} def
/TriDE {stroke [] 0 setdash vpt 1.12 mul sub M
  hpt neg vpt 1.62 mul V
  hpt 2 mul 0 V
  hpt neg vpt -1.62 mul V closepath stroke} def
/PentE {stroke [] 0 setdash gsave
  translate 0 hpt M 4 {72 rotate 0 hpt L} repeat
  closepath stroke grestore} def
/CircE {stroke [] 0 setdash 
  hpt 0 360 arc stroke} def
/Opaque {gsave closepath 1 setgray fill grestore 0 setgray closepath} def
/DiaW {stroke [] 0 setdash vpt add M
  hpt neg vpt neg V hpt vpt neg V
  hpt vpt V hpt neg vpt V Opaque stroke} def
/BoxW {stroke [] 0 setdash exch hpt sub exch vpt add M
  0 vpt2 neg V hpt2 0 V 0 vpt2 V
  hpt2 neg 0 V Opaque stroke} def
/TriUW {stroke [] 0 setdash vpt 1.12 mul add M
  hpt neg vpt -1.62 mul V
  hpt 2 mul 0 V
  hpt neg vpt 1.62 mul V Opaque stroke} def
/TriDW {stroke [] 0 setdash vpt 1.12 mul sub M
  hpt neg vpt 1.62 mul V
  hpt 2 mul 0 V
  hpt neg vpt -1.62 mul V Opaque stroke} def
/PentW {stroke [] 0 setdash gsave
  translate 0 hpt M 4 {72 rotate 0 hpt L} repeat
  Opaque stroke grestore} def
/CircW {stroke [] 0 setdash 
  hpt 0 360 arc Opaque stroke} def
/BoxFill {gsave Rec 1 setgray fill grestore} def
/Density {
  /Fillden exch def
  currentrgbcolor
  /ColB exch def /ColG exch def /ColR exch def
  /ColR ColR Fillden mul Fillden sub 1 add def
  /ColG ColG Fillden mul Fillden sub 1 add def
  /ColB ColB Fillden mul Fillden sub 1 add def
  ColR ColG ColB setrgbcolor} def
/BoxColFill {gsave Rec PolyFill} def
/PolyFill {gsave Density fill grestore grestore} def
/h {rlineto rlineto rlineto gsave fill grestore} bind def
%
% PostScript Level 1 Pattern Fill routine for rectangles
% Usage: x y w h s a XX PatternFill
%	x,y = lower left corner of box to be filled
%	w,h = width and height of box
%	  a = angle in degrees between lines and x-axis
%	 XX = 0/1 for no/yes cross-hatch
%
/PatternFill {gsave /PFa [ 9 2 roll ] def
  PFa 0 get PFa 2 get 2 div add PFa 1 get PFa 3 get 2 div add translate
  PFa 2 get -2 div PFa 3 get -2 div PFa 2 get PFa 3 get Rec
  gsave 1 setgray fill grestore clip
  currentlinewidth 0.5 mul setlinewidth
  /PFs PFa 2 get dup mul PFa 3 get dup mul add sqrt def
  0 0 M PFa 5 get rotate PFs -2 div dup translate
  0 1 PFs PFa 4 get div 1 add floor cvi
	{PFa 4 get mul 0 M 0 PFs V} for
  0 PFa 6 get ne {
	0 1 PFs PFa 4 get div 1 add floor cvi
	{PFa 4 get mul 0 2 1 roll M PFs 0 V} for
 } if
  stroke grestore} def
%
/languagelevel where
 {pop languagelevel} {1} ifelse
 2 lt
	{/InterpretLevel1 true def}
	{/InterpretLevel1 Level1 def}
 ifelse
%
% PostScript level 2 pattern fill definitions
%
/Level2PatternFill {
/Tile8x8 {/PaintType 2 /PatternType 1 /TilingType 1 /BBox [0 0 8 8] /XStep 8 /YStep 8}
	bind def
/KeepColor {currentrgbcolor [/Pattern /DeviceRGB] setcolorspace} bind def
<< Tile8x8
 /PaintProc {0.5 setlinewidth pop 0 0 M 8 8 L 0 8 M 8 0 L stroke} 
>> matrix makepattern
/Pat1 exch def
<< Tile8x8
 /PaintProc {0.5 setlinewidth pop 0 0 M 8 8 L 0 8 M 8 0 L stroke
	0 4 M 4 8 L 8 4 L 4 0 L 0 4 L stroke}
>> matrix makepattern
/Pat2 exch def
<< Tile8x8
 /PaintProc {0.5 setlinewidth pop 0 0 M 0 8 L
	8 8 L 8 0 L 0 0 L fill}
>> matrix makepattern
/Pat3 exch def
<< Tile8x8
 /PaintProc {0.5 setlinewidth pop -4 8 M 8 -4 L
	0 12 M 12 0 L stroke}
>> matrix makepattern
/Pat4 exch def
<< Tile8x8
 /PaintProc {0.5 setlinewidth pop -4 0 M 8 12 L
	0 -4 M 12 8 L stroke}
>> matrix makepattern
/Pat5 exch def
<< Tile8x8
 /PaintProc {0.5 setlinewidth pop -2 8 M 4 -4 L
	0 12 M 8 -4 L 4 12 M 10 0 L stroke}
>> matrix makepattern
/Pat6 exch def
<< Tile8x8
 /PaintProc {0.5 setlinewidth pop -2 0 M 4 12 L
	0 -4 M 8 12 L 4 -4 M 10 8 L stroke}
>> matrix makepattern
/Pat7 exch def
<< Tile8x8
 /PaintProc {0.5 setlinewidth pop 8 -2 M -4 4 L
	12 0 M -4 8 L 12 4 M 0 10 L stroke}
>> matrix makepattern
/Pat8 exch def
<< Tile8x8
 /PaintProc {0.5 setlinewidth pop 0 -2 M 12 4 L
	-4 0 M 12 8 L -4 4 M 8 10 L stroke}
>> matrix makepattern
/Pat9 exch def
/Pattern1 {PatternBgnd KeepColor Pat1 setpattern} bind def
/Pattern2 {PatternBgnd KeepColor Pat2 setpattern} bind def
/Pattern3 {PatternBgnd KeepColor Pat3 setpattern} bind def
/Pattern4 {PatternBgnd KeepColor Landscape {Pat5} {Pat4} ifelse setpattern} bind def
/Pattern5 {PatternBgnd KeepColor Landscape {Pat4} {Pat5} ifelse setpattern} bind def
/Pattern6 {PatternBgnd KeepColor Landscape {Pat9} {Pat6} ifelse setpattern} bind def
/Pattern7 {PatternBgnd KeepColor Landscape {Pat8} {Pat7} ifelse setpattern} bind def
} def
%
%
%End of PostScript Level 2 code
%
/PatternBgnd {
  TransparentPatterns {} {gsave 1 setgray fill grestore} ifelse
} def
%
% Substitute for Level 2 pattern fill codes with
% grayscale if Level 2 support is not selected.
%
/Level1PatternFill {
/Pattern1 {0.250 Density} bind def
/Pattern2 {0.500 Density} bind def
/Pattern3 {0.750 Density} bind def
/Pattern4 {0.125 Density} bind def
/Pattern5 {0.375 Density} bind def
/Pattern6 {0.625 Density} bind def
/Pattern7 {0.875 Density} bind def
} def
%
% Now test for support of Level 2 code
%
Level1 {Level1PatternFill} {Level2PatternFill} ifelse
%
/Symbol-Oblique /Symbol findfont [1 0 .167 1 0 0] makefont
dup length dict begin {1 index /FID eq {pop pop} {def} ifelse} forall
currentdict end definefont pop
end
%%EndProlog
%%Page: 1 1
gnudict begin
gsave
50 50 translate
0.100 0.100 scale
90 rotate
0 -5040 translate
0 setgray
newpath
(Helvetica) findfont 140 scalefont setfont
1.000 UL
LTb
546 420 M
63 0 V
6353 0 R
-63 0 V
462 420 M
( 2) Rshow
1.000 UL
LTb
546 1056 M
63 0 V
6353 0 R
-63 0 V
-6437 0 R
( 3) Rshow
1.000 UL
LTb
546 1692 M
63 0 V
6353 0 R
-63 0 V
-6437 0 R
( 4) Rshow
1.000 UL
LTb
546 2328 M
63 0 V
6353 0 R
-63 0 V
-6437 0 R
( 5) Rshow
1.000 UL
LTb
546 2964 M
63 0 V
6353 0 R
-63 0 V
-6437 0 R
( 6) Rshow
1.000 UL
LTb
546 3600 M
63 0 V
6353 0 R
-63 0 V
-6437 0 R
( 7) Rshow
1.000 UL
LTb
546 4236 M
63 0 V
6353 0 R
-63 0 V
-6437 0 R
( 8) Rshow
1.000 UL
LTb
546 4872 M
63 0 V
6353 0 R
-63 0 V
-6437 0 R
( 9) Rshow
1.000 UL
LTb
546 420 M
0 63 V
0 4389 R
0 -63 V
546 280 M
( 2) Cshow
1.000 UL
LTb
1348 420 M
0 63 V
0 4389 R
0 -63 V
0 -4529 R
( 3) Cshow
1.000 UL
LTb
2150 420 M
0 63 V
0 4389 R
0 -63 V
0 -4529 R
( 4) Cshow
1.000 UL
LTb
2952 420 M
0 63 V
0 4389 R
0 -63 V
0 -4529 R
( 5) Cshow
1.000 UL
LTb
3754 420 M
0 63 V
0 4389 R
0 -63 V
0 -4529 R
( 6) Cshow
1.000 UL
LTb
4556 420 M
0 63 V
0 4389 R
0 -63 V
0 -4529 R
( 7) Cshow
1.000 UL
LTb
5358 420 M
0 63 V
0 4389 R
0 -63 V
0 -4529 R
( 8) Cshow
1.000 UL
LTb
6160 420 M
0 63 V
0 4389 R
0 -63 V
0 -4529 R
( 9) Cshow
1.000 UL
LTb
6962 420 M
0 63 V
0 4389 R
0 -63 V
0 -4529 R
( 10) Cshow
1.000 UL
LTb
1.000 UL
LTb
546 4872 N
546 420 L
6416 0 V
0 4452 V
-6416 0 V
Z stroke
LCb setrgbcolor
140 2646 M
currentpoint gsave translate 90 rotate 0 0 M
(H \(MeV\)) Cshow
grestore
LTb
LCb setrgbcolor
3754 70 M
(k) Cshow
LTb
1.000 UP
1.000 UL
LTb
2.000 UP
1.000 UL
LT2
/Helvetica findfont 140 scalefont setfont
3754 4725 M
3065 4236 L
-113 -92 V
2301 3600 L
-97 -636 V
-54 -77 V
1536 2328 L
1348 1733 L
-43 -41 V
43 -98 V
802 -538 V
802 58 V
802 212 V
610 366 V
192 97 V
790 539 V
12 11 V
630 625 V
124 636 V
20 636 V
-774 396 V
-802 113 V
-802 -20 V
0 -148 R
3273 4236 L
2952 3974 L
2505 3600 L
2351 2964 L
2150 2681 L
1762 2328 L
105 -636 V
283 -216 V
802 -25 V
802 212 V
48 29 V
754 378 V
377 258 V
425 409 V
229 227 V
283 636 V
-222 636 V
-290 148 V
-802 234 V
-802 -41 V
0 -147 R
3481 4236 L
2952 3804 L
2708 3600 L
2497 2964 L
2150 2475 L
1988 2328 L
162 -379 V
802 -210 V
802 124 V
775 465 V
27 18 V
700 618 V
102 177 V
270 459 V
-270 468 V
-134 168 V
-668 254 V
-802 -60 V
0 -143 R
-71 -51 V
2952 3639 L
-46 -39 V
2639 2964 L
2222 2328 L
730 -429 V
802 146 V
472 283 V
330 222 V
469 414 V
333 577 V
35 59 V
-35 60 V
-458 576 V
-344 131 V
-802 -80 V
802 -47 R
-33 -4 V
-769 -75 V
3060 3600 L
2952 3344 L
2785 2964 L
2503 2328 L
449 -264 V
802 168 V
160 96 V
642 432 V
231 204 V
382 636 V
-603 636 V
-10 4 V
3754 4048 M
3201 3600 L
2952 3011 L
-21 -47 V
2784 2328 L
168 -99 V
443 99 V
359 108 V
792 528 V
10 10 V
392 626 V
-392 411 V
-802 37 V
0 -111 R
3337 3600 L
-87 -636 V
504 -312 V
468 312 V
334 353 V
177 283 V
-177 186 V
-802 151 V
0 -113 R
3477 3600 L
133 -636 V
144 -89 V
134 89 V
594 636 V
-728 224 V
0 -114 R
3618 3600 L
136 -393 V
359 393 V
-359 110 V
3754 4725 Star
3065 4236 Star
2952 4144 Star
2301 3600 Star
2204 2964 Star
2150 2887 Star
1536 2328 Star
1348 1733 Star
1305 1692 Star
1348 1594 Star
2150 1056 Star
2952 1114 Star
3754 1326 Star
4364 1692 Star
4556 1789 Star
5346 2328 Star
5358 2339 Star
5988 2964 Star
6112 3600 Star
6132 4236 Star
5358 4632 Star
4556 4745 Star
3754 4725 Star
3754 4577 Star
3273 4236 Star
2952 3974 Star
2505 3600 Star
2351 2964 Star
2150 2681 Star
1762 2328 Star
1867 1692 Star
2150 1476 Star
2952 1451 Star
3754 1663 Star
3802 1692 Star
4556 2070 Star
4933 2328 Star
5358 2737 Star
5587 2964 Star
5870 3600 Star
5648 4236 Star
5358 4384 Star
4556 4618 Star
3754 4577 Star
3754 4430 Star
3481 4236 Star
2952 3804 Star
2708 3600 Star
2497 2964 Star
2150 2475 Star
1988 2328 Star
2150 1949 Star
2952 1739 Star
3754 1863 Star
4529 2328 Star
4556 2346 Star
5256 2964 Star
5358 3141 Star
5628 3600 Star
5358 4068 Star
5224 4236 Star
4556 4490 Star
3754 4430 Star
3754 4287 Star
3683 4236 Star
2952 3639 Star
2906 3600 Star
2639 2964 Star
2222 2328 Star
2952 1899 Star
3754 2045 Star
4226 2328 Star
4556 2550 Star
5025 2964 Star
5358 3541 Star
5393 3600 Star
5358 3660 Star
4900 4236 Star
4556 4367 Star
3754 4287 Star
4556 4240 Star
4523 4236 Star
3754 4161 Star
3060 3600 Star
2952 3344 Star
2785 2964 Star
2503 2328 Star
2952 2064 Star
3754 2232 Star
3914 2328 Star
4556 2760 Star
4787 2964 Star
5169 3600 Star
4566 4236 Star
4556 4240 Star
3754 4048 Star
3201 3600 Star
2952 3011 Star
2931 2964 Star
2784 2328 Star
2952 2229 Star
3395 2328 Star
3754 2436 Star
4546 2964 Star
4556 2974 Star
4948 3600 Star
4556 4011 Star
3754 4048 Star
3754 3937 Star
3337 3600 Star
3250 2964 Star
3754 2652 Star
4222 2964 Star
4556 3317 Star
4733 3600 Star
4556 3786 Star
3754 3937 Star
3754 3824 Star
3477 3600 Star
3610 2964 Star
3754 2875 Star
3888 2964 Star
4482 3600 Star
3754 3824 Star
3754 3710 Star
3618 3600 Star
3754 3207 Star
4113 3600 Star
3754 3710 Star
1.000 UL
LT0
/Helvetica findfont 140 scalefont setfont
5922 4427 M
-75 62 V
-85 54 V
-94 48 V
-102 41 V
-110 33 V
-118 26 V
-125 18 V
-132 10 V
-137 3 V
-143 -5 V
-148 -13 V
-153 -20 V
-156 -28 V
-159 -36 V
-162 -42 V
-163 -50 V
-165 -57 V
-165 -63 V
-165 -70 V
-164 -76 V
-163 -82 V
-161 -88 V
-157 -92 V
-155 -98 V
2415 3800 L
2269 3695 L
2129 3585 L
1995 3473 L
1866 3357 L
1745 3240 L
1631 3121 L
1525 3000 L
-98 -121 V
-89 -122 V
-80 -121 V
-71 -121 V
-62 -120 V
-51 -117 V
-42 -116 V
-31 -113 V
980 1939 L
970 1832 L
0 -103 V
11 -98 V
21 -94 V
31 -88 V
42 -83 V
51 -78 V
62 -71 V
71 -65 V
80 -58 V
89 -51 V
98 -44 V
107 -37 V
114 -29 V
121 -22 V
128 -15 V
135 -6 V
140 1 V
146 9 V
150 16 V
155 25 V
158 31 V
160 39 V
163 46 V
164 54 V
165 60 V
165 67 V
165 73 V
163 79 V
162 84 V
159 90 V
156 96 V
153 99 V
148 104 V
143 108 V
137 111 V
132 114 V
124 116 V
118 119 V
110 120 V
102 121 V
94 121 V
85 122 V
75 121 V
67 120 V
56 119 V
46 117 V
37 114 V
26 112 V
15 108 V
6 105 V
-6 101 V
-15 96 V
-27 91 V
-36 86 V
-47 80 V
-56 74 V
-67 68 V
/Helvetica findfont 140 scalefont setfont
5587 4289 M
-68 54 V
-76 48 V
-82 42 V
-88 36 V
-95 30 V
-101 24 V
-106 18 V
-110 11 V
-115 5 V
-120 -1 V
-122 -8 V
-126 -14 V
-128 -21 V
-130 -27 V
-132 -33 V
-132 -39 V
-133 -44 V
-133 -51 V
-132 -56 V
-131 -61 V
-129 -66 V
-127 -71 V
-124 -75 V
-121 -79 V
-117 -84 V
-113 -86 V
-108 -90 V
-103 -93 V
-98 -95 V
-92 -97 V
-85 -98 V
-79 -100 V
-72 -101 V
-64 -101 V
-58 -101 V
-49 -101 V
-41 -100 V
-34 -98 V
-25 -97 V
-17 -95 V
-8 -93 V
0 -90 V
9 -87 V
16 -83 V
26 -80 V
33 -75 V
1789 1794 L
49 -66 V
57 -61 V
65 -56 V
72 -51 V
79 -45 V
85 -39 V
92 -34 V
98 -27 V
103 -21 V
108 -14 V
113 -8 V
117 -2 V
121 5 V
124 11 V
127 17 V
130 24 V
130 30 V
133 36 V
132 41 V
133 48 V
133 53 V
131 59 V
130 63 V
129 69 V
125 73 V
123 77 V
119 82 V
115 85 V
111 88 V
105 91 V
101 94 V
94 96 V
89 98 V
82 99 V
76 101 V
68 101 V
61 101 V
53 101 V
45 100 V
38 99 V
29 98 V
21 96 V
13 94 V
4 92 V
-5 88 V
-12 85 V
-21 82 V
-30 77 V
-37 74 V
-46 69 V
-53 63 V
-61 59 V
/Helvetica findfont 140 scalefont setfont
-136 87 R
-58 42 V
-63 38 V
-70 32 V
-76 26 V
-81 21 V
-86 16 V
-91 9 V
-95 4 V
-100 -1 V
-103 -8 V
-106 -13 V
-109 -19 V
-112 -24 V
-113 -30 V
-115 -35 V
-116 -40 V
-117 -46 V
-116 -50 V
-116 -55 V
-115 -59 V
-114 -64 V
-112 -67 V
-110 -71 V
-107 -75 V
-104 -77 V
-101 -80 V
-96 -83 V
-92 -85 V
-88 -87 V
-82 -88 V
-77 -89 V
-72 -90 V
-65 -90 V
-59 -90 V
-53 -90 V
-46 -89 V
-39 -88 V
-32 -87 V
-24 -84 V
-18 -83 V
-10 -80 V
-3 -77 V
5 -74 V
12 -71 V
19 -67 V
26 -63 V
34 -59 V
41 -55 V
47 -49 V
54 -45 V
61 -40 V
2355 1812 L
72 -29 V
79 -24 V
83 -18 V
89 -13 V
93 -6 V
98 -2 V
101 5 V
105 10 V
108 16 V
110 22 V
113 27 V
114 32 V
115 38 V
116 43 V
117 48 V
116 52 V
116 57 V
115 62 V
113 65 V
111 70 V
108 73 V
106 76 V
102 79 V
99 81 V
94 84 V
90 86 V
85 87 V
80 89 V
74 90 V
68 90 V
62 90 V
56 90 V
50 89 V
42 89 V
36 87 V
28 86 V
21 84 V
14 81 V
7 79 V
-1 75 V
-9 73 V
-15 69 V
-23 65 V
-30 61 V
-37 57 V
-44 52 V
-51 47 V
/Helvetica findfont 140 scalefont setfont
76 55 R
-52 37 V
-58 33 V
-63 28 V
-69 23 V
-74 17 V
-79 13 V
-84 7 V
-87 1 V
-92 -3 V
-95 -9 V
-97 -14 V
-101 -20 V
-103 -25 V
-104 -29 V
-107 -35 V
-107 -39 V
-107 -44 V
-108 -49 V
-108 -52 V
-106 -57 V
-106 -61 V
-104 -64 V
-102 -68 V
-100 -70 V
-96 -73 V
-94 -76 V
-90 -78 V
-86 -80 V
-82 -81 V
-77 -83 V
-72 -83 V
-67 -84 V
-61 -84 V
-56 -84 V
-50 -84 V
-43 -82 V
-38 -82 V
-30 -80 V
-24 -78 V
-18 -76 V
-10 -74 V
-4 -71 V
3 -67 V
10 -65 V
16 -61 V
24 -58 V
30 -53 V
36 -49 V
43 -45 V
49 -40 V
55 -35 V
61 -30 V
66 -26 V
72 -20 V
76 -15 V
82 -9 V
3024 1940 L
90 1 V
93 6 V
96 12 V
99 17 V
102 22 V
104 27 V
105 32 V
107 37 V
108 42 V
107 46 V
108 51 V
107 55 V
106 59 V
105 62 V
103 66 V
101 69 V
98 72 V
96 74 V
91 77 V
88 79 V
84 81 V
80 82 V
74 83 V
70 83 V
64 84 V
59 85 V
53 83 V
46 83 V
41 82 V
34 81 V
27 79 V
21 78 V
14 75 V
7 72 V
1 69 V
-7 67 V
-13 63 V
-20 59 V
-27 55 V
-33 51 V
-40 47 V
-46 43 V
/Helvetica findfont 140 scalefont setfont
5065 4204 M
-44 30 V
-48 26 V
-53 22 V
-58 17 V
-61 14 V
-65 9 V
-69 4 V
-72 0 V
-76 -5 V
-77 -9 V
-81 -13 V
-82 -18 V
-84 -22 V
-86 -26 V
-87 -30 V
-87 -34 V
-88 -39 V
-87 -41 V
-88 -46 V
-86 -48 V
-86 -52 V
-84 -54 V
-83 -58 V
-80 -60 V
-78 -62 V
-76 -64 V
-72 -65 V
-69 -67 V
-65 -69 V
-62 -69 V
-58 -70 V
-53 -70 V
-49 -70 V
-44 -71 V
-39 -69 V
-34 -69 V
-29 -68 V
-23 -66 V
-18 -65 V
-13 -63 V
-7 -61 V
-2 -58 V
4 -56 V
10 -53 V
15 -50 V
21 -47 V
25 -44 V
32 -39 V
36 -36 V
41 -33 V
46 -28 V
51 -24 V
55 -20 V
60 -15 V
63 -11 V
67 -7 V
71 -2 V
74 3 V
76 6 V
79 11 V
82 16 V
3453 2166 L
85 24 V
86 28 V
87 33 V
88 36 V
87 40 V
88 43 V
87 47 V
86 50 V
85 53 V
84 56 V
81 59 V
80 61 V
76 63 V
74 65 V
71 66 V
67 68 V
64 69 V
60 70 V
55 70 V
51 70 V
46 70 V
42 70 V
37 69 V
31 69 V
26 67 V
21 65 V
15 64 V
10 62 V
5 60 V
-2 57 V
-6 55 V
-13 51 V
-18 49 V
-23 45 V
-28 42 V
-34 38 V
-39 34 V
/Helvetica findfont 140 scalefont setfont
4733 3872 M
-41 28 V
-44 25 V
-49 22 V
-52 18 V
-55 14 V
-58 10 V
-62 7 V
-64 2 V
-67 -1 V
-69 -5 V
-71 -9 V
-72 -13 V
-74 -16 V
-75 -20 V
-76 -24 V
-76 -27 V
-76 -31 V
-76 -34 V
-76 -37 V
-75 -39 V
-74 -43 V
-72 -46 V
-71 -48 V
-68 -50 V
-67 -52 V
-64 -54 V
-61 -56 V
-58 -57 V
-55 -58 V
-52 -60 V
-48 -60 V
-44 -60 V
-40 -61 V
-35 -61 V
-32 -60 V
-27 -60 V
-22 -59 V
-18 -58 V
-13 -57 V
-8 -56 V
-3 -54 V
1 -52 V
6 -50 V
11 -47 V
16 -45 V
21 -43 V
25 -39 V
30 -37 V
34 -33 V
38 -30 V
43 -27 V
46 -23 V
50 -20 V
54 -16 V
57 -12 V
60 -9 V
63 -4 V
66 -1 V
67 3 V
70 7 V
72 11 V
73 15 V
75 18 V
75 22 V
76 25 V
76 29 V
3774 2246 L
76 36 V
76 38 V
74 42 V
73 44 V
72 47 V
69 49 V
68 51 V
65 53 V
63 55 V
60 56 V
56 58 V
54 59 V
49 60 V
46 60 V
42 61 V
38 60 V
34 61 V
29 60 V
25 60 V
20 59 V
15 57 V
11 56 V
5 55 V
1 53 V
-3 51 V
-9 49 V
-14 46 V
-18 44 V
-23 41 V
-27 38 V
-32 35 V
-36 32 V
/Helvetica findfont 140 scalefont setfont
-93 -15 R
-33 24 V
-36 22 V
-38 19 V
-40 17 V
-42 15 V
-44 12 V
-45 10 V
-46 8 V
-48 5 V
-49 2 V
-50 0 V
-50 -3 V
-50 -6 V
-51 -8 V
-51 -10 V
-50 -13 V
-51 -15 V
-49 -18 V
-49 -20 V
-47 -22 V
-47 -24 V
-45 -26 V
-44 -29 V
-41 -30 V
-40 -31 V
-38 -33 V
-35 -35 V
-34 -36 V
-30 -37 V
-28 -38 V
-25 -38 V
-23 -40 V
-19 -40 V
-17 -40 V
-13 -41 V
-10 -40 V
-8 -41 V
-3 -40 V
-1 -39 V
2 -39 V
6 -38 V
9 -38 V
12 -36 V
16 -35 V
18 -33 V
21 -32 V
24 -31 V
27 -29 V
30 -26 V
32 -25 V
34 -23 V
37 -21 V
39 -18 V
41 -16 V
43 -13 V
45 -12 V
45 -8 V
48 -6 V
48 -4 V
49 -1 V
50 2 V
50 4 V
51 6 V
51 10 V
51 11 V
50 14 V
50 17 V
49 19 V
48 21 V
47 23 V
46 25 V
4433 2893 L
43 30 V
41 30 V
39 33 V
36 34 V
35 35 V
32 36 V
29 38 V
27 38 V
23 39 V
21 40 V
18 40 V
15 41 V
12 40 V
9 41 V
5 40 V
3 40 V
-1 39 V
-4 39 V
-8 37 V
-10 37 V
-14 36 V
-17 34 V
-20 33 V
-22 31 V
-26 30 V
-28 27 V
-31 26 V
/Helvetica findfont 140 scalefont setfont
4320 3721 M
-25 16 V
-26 15 V
-28 14 V
-30 11 V
-32 9 V
-33 8 V
-34 5 V
-35 4 V
-37 1 V
-37 0 V
-38 -3 V
-38 -4 V
-39 -7 V
-39 -8 V
-39 -11 V
-39 -12 V
-39 -14 V
-39 -16 V
-38 -17 V
-37 -20 V
-36 -20 V
-36 -23 V
-34 -23 V
-33 -25 V
-31 -26 V
-31 -27 V
-28 -29 V
-27 -29 V
-24 -30 V
-23 -30 V
-21 -31 V
-19 -31 V
-16 -32 V
-14 -32 V
-12 -31 V
-9 -32 V
-7 -31 V
-5 -31 V
-2 -31 V
1 -29 V
3 -29 V
5 -29 V
8 -27 V
11 -26 V
12 -25 V
15 -24 V
18 -22 V
19 -21 V
22 -19 V
23 -17 V
26 -16 V
27 -14 V
29 -13 V
31 -10 V
32 -8 V
34 -7 V
35 -4 V
35 -3 V
37 0 V
38 1 V
38 4 V
38 5 V
39 8 V
40 9 V
39 11 V
39 14 V
38 15 V
39 16 V
37 19 V
37 20 V
36 21 V
35 23 V
34 24 V
32 26 V
31 27 V
29 27 V
4280 3104 L
25 30 V
24 30 V
22 30 V
20 32 V
17 31 V
15 32 V
13 31 V
11 32 V
8 31 V
6 32 V
3 30 V
1 30 V
-2 30 V
-4 29 V
-7 27 V
-9 27 V
-12 26 V
-13 24 V
-17 23 V
-18 21 V
-21 20 V
-22 19 V
/Helvetica findfont 140 scalefont setfont
-278 65 R
-13 9 V
-14 7 V
-15 6 V
-16 6 V
-16 4 V
-18 4 V
-17 2 V
-19 1 V
-18 1 V
-19 -1 V
-20 -2 V
-20 -3 V
-19 -3 V
-20 -5 V
-20 -6 V
-20 -7 V
-20 -8 V
-19 -8 V
-19 -10 V
-19 -10 V
-18 -12 V
-18 -11 V
-17 -13 V
-17 -13 V
-15 -14 V
-15 -15 V
-14 -15 V
-13 -15 V
-12 -16 V
-11 -16 V
-10 -16 V
-9 -16 V
-7 -17 V
-7 -16 V
-5 -17 V
-4 -16 V
-3 -16 V
-1 -16 V
-1 -16 V
1 -15 V
3 -15 V
3 -15 V
5 -14 V
6 -13 V
7 -13 V
8 -12 V
10 -11 V
10 -10 V
12 -10 V
13 -9 V
13 -7 V
15 -7 V
15 -6 V
16 -5 V
17 -4 V
17 -3 V
18 -2 V
19 -1 V
19 0 V
19 2 V
20 2 V
20 3 V
19 5 V
20 5 V
20 6 V
20 8 V
20 8 V
19 9 V
19 10 V
18 11 V
18 11 V
18 13 V
16 13 V
16 13 V
16 14 V
14 15 V
14 15 V
12 16 V
12 16 V
10 16 V
9 16 V
4089 3548 L
7 17 V
6 16 V
4 17 V
4 16 V
2 16 V
1 16 V
-1 16 V
-1 15 V
-3 15 V
-4 14 V
-6 13 V
-6 13 V
-8 13 V
-9 11 V
-10 11 V
-11 10 V
-12 9 V
stroke
LTb
546 4872 N
546 420 L
6416 0 V
0 4452 V
-6416 0 V
Z stroke
1.000 UP
1.000 UL
LTb
stroke
grestore
end
showpage
